%!PS-Adobe-3.0 EPSF-3.0
%%Creator: MATLAB, The MathWorks, Inc. Version 8.0.0.783 (R2012b). Operating System: Darwin 10.8.0 Darwin Kernel Version 10.8.0: Tue Jun  7 16:33:36 PDT 2011; root:xnu-1504.15.3~1/RELEASE_I386 i386.
%%Title: ./c_vs_rate.eps
%%CreationDate: 10/30/2013  13:51:36
%%DocumentNeededFonts: Helvetica
%%DocumentProcessColors: Cyan Magenta Yellow Black
%%LanguageLevel: 2
%%Pages: 1
%%BoundingBox:    31     4   465   364
%%EndComments

%%BeginProlog
% MathWorks dictionary
/MathWorks 160 dict begin
% definition operators
/bdef {bind def} bind def
/ldef {load def} bind def
/xdef {exch def} bdef
/xstore {exch store} bdef
% operator abbreviations
/c  /clip ldef
/cc /concat ldef
/cp /closepath ldef
/gr /grestore ldef
/gs /gsave ldef
/mt /moveto ldef
/np /newpath ldef
/cm /currentmatrix ldef
/sm /setmatrix ldef
/rm /rmoveto ldef
/rl /rlineto ldef
/s {show newpath} bdef
/sc {setcmykcolor} bdef
/sr /setrgbcolor ldef
/sg /setgray ldef
/w /setlinewidth ldef
/j /setlinejoin ldef
/cap /setlinecap ldef
/rc {rectclip} bdef
/rf {rectfill} bdef
% page state control
/pgsv () def
/bpage {/pgsv save def} bdef
/epage {pgsv restore} bdef
/bplot /gsave ldef
/eplot {stroke grestore} bdef
% orientation switch
/portraitMode 0 def /landscapeMode 1 def /rotateMode 2 def
% coordinate system mappings
/dpi2point 0 def
% font control
/FontSize 0 def
/FMS {/FontSize xstore findfont [FontSize 0 0 FontSize neg 0 0]
  makefont setfont} bdef
/reencode {exch dup where {pop load} {pop StandardEncoding} ifelse
  exch dup 3 1 roll findfont dup length dict begin
  { 1 index /FID ne {def}{pop pop} ifelse } forall
  /Encoding exch def currentdict end definefont pop} bdef
/isroman {findfont /CharStrings get /Agrave known} bdef
/FMSR {3 1 roll 1 index dup isroman {reencode} {pop pop} ifelse
  exch FMS} bdef
/csm {1 dpi2point div -1 dpi2point div scale neg translate
 dup landscapeMode eq {pop -90 rotate}
  {rotateMode eq {90 rotate} if} ifelse} bdef
% line types: solid, dotted, dashed, dotdash
/SO { [] 0 setdash } bdef
/DO { [.5 dpi2point mul 4 dpi2point mul] 0 setdash } bdef
/DA { [6 dpi2point mul] 0 setdash } bdef
/DD { [.5 dpi2point mul 4 dpi2point mul 6 dpi2point mul 4
  dpi2point mul] 0 setdash } bdef
% macros for lines and objects
/L {lineto stroke} bdef
/MP {3 1 roll moveto 1 sub {rlineto} repeat} bdef
/AP {{rlineto} repeat} bdef
/PDlw -1 def
/W {/PDlw currentlinewidth def setlinewidth} def
/PP {closepath eofill} bdef
/DP {closepath stroke} bdef
/MR {4 -2 roll moveto dup  0 exch rlineto exch 0 rlineto
  neg 0 exch rlineto closepath} bdef
/FR {MR stroke} bdef
/PR {MR fill} bdef
/L1i {{currentfile picstr readhexstring pop} image} bdef
/tMatrix matrix def
/MakeOval {newpath tMatrix currentmatrix pop translate scale
0 0 1 0 360 arc tMatrix setmatrix} bdef
/FO {MakeOval stroke} bdef
/PO {MakeOval fill} bdef
/PD {currentlinewidth 2 div 0 360 arc fill
   PDlw -1 eq not {PDlw w /PDlw -1 def} if} def
/FA {newpath tMatrix currentmatrix pop translate scale
  0 0 1 5 -2 roll arc tMatrix setmatrix stroke} bdef
/PA {newpath tMatrix currentmatrix pop	translate 0 0 moveto scale
  0 0 1 5 -2 roll arc closepath tMatrix setmatrix fill} bdef
/FAn {newpath tMatrix currentmatrix pop translate scale
  0 0 1 5 -2 roll arcn tMatrix setmatrix stroke} bdef
/PAn {newpath tMatrix currentmatrix pop translate 0 0 moveto scale
  0 0 1 5 -2 roll arcn closepath tMatrix setmatrix fill} bdef
/vradius 0 def /hradius 0 def /lry 0 def
/lrx 0 def /uly 0 def /ulx 0 def /rad 0 def
/MRR {/vradius xdef /hradius xdef /lry xdef /lrx xdef /uly xdef
  /ulx xdef newpath tMatrix currentmatrix pop ulx hradius add uly
  vradius add translate hradius vradius scale 0 0 1 180 270 arc 
  tMatrix setmatrix lrx hradius sub uly vradius add translate
  hradius vradius scale 0 0 1 270 360 arc tMatrix setmatrix
  lrx hradius sub lry vradius sub translate hradius vradius scale
  0 0 1 0 90 arc tMatrix setmatrix ulx hradius add lry vradius sub
  translate hradius vradius scale 0 0 1 90 180 arc tMatrix setmatrix
  closepath} bdef
/FRR {MRR stroke } bdef
/PRR {MRR fill } bdef
/MlrRR {/lry xdef /lrx xdef /uly xdef /ulx xdef /rad lry uly sub 2 div def
  newpath tMatrix currentmatrix pop ulx rad add uly rad add translate
  rad rad scale 0 0 1 90 270 arc tMatrix setmatrix lrx rad sub lry rad
  sub translate rad rad scale 0 0 1 270 90 arc tMatrix setmatrix
  closepath} bdef
/FlrRR {MlrRR stroke } bdef
/PlrRR {MlrRR fill } bdef
/MtbRR {/lry xdef /lrx xdef /uly xdef /ulx xdef /rad lrx ulx sub 2 div def
  newpath tMatrix currentmatrix pop ulx rad add uly rad add translate
  rad rad scale 0 0 1 180 360 arc tMatrix setmatrix lrx rad sub lry rad
  sub translate rad rad scale 0 0 1 0 180 arc tMatrix setmatrix
  closepath} bdef
/FtbRR {MtbRR stroke } bdef
/PtbRR {MtbRR fill } bdef
/stri 6 array def /dtri 6 array def
/smat 6 array def /dmat 6 array def
/tmat1 6 array def /tmat2 6 array def /dif 3 array def
/asub {/ind2 exch def /ind1 exch def dup dup
  ind1 get exch ind2 get sub exch } bdef
/tri_to_matrix {
  2 0 asub 3 1 asub 4 0 asub 5 1 asub
  dup 0 get exch 1 get 7 -1 roll astore } bdef
/compute_transform {
  dmat dtri tri_to_matrix tmat1 invertmatrix 
  smat stri tri_to_matrix tmat2 concatmatrix } bdef
/ds {stri astore pop} bdef
/dt {dtri astore pop} bdef
/db {2 copy /cols xdef /rows xdef mul dup 3 mul string
  currentfile 
  3 index 0 eq {/ASCIIHexDecode filter}
  {/ASCII85Decode filter 3 index 2 eq {/RunLengthDecode filter} if }
  ifelse exch readstring pop
  dup 0 3 index getinterval /rbmap xdef
  dup 2 index dup getinterval /gbmap xdef
  1 index dup 2 mul exch getinterval /bbmap xdef pop pop}bdef
/it {gs np dtri aload pop moveto lineto lineto cp c
  cols rows 8 compute_transform 
  rbmap gbmap bbmap true 3 colorimage gr}bdef
/il {newpath moveto lineto stroke}bdef
currentdict end def
%%EndProlog

%%BeginSetup
MathWorks begin

0 cap

end
%%EndSetup

%%Page: 1 1
%%BeginPageSetup
%%PageBoundingBox:    31     4   465   364
MathWorks begin
bpage
%%EndPageSetup

%%BeginObject: obj1
bplot

/dpi2point 12 def
portraitMode 0000 4320 csm

  382   -48  5209  4318 rc
92 dict begin %Colortable dictionary
/c0 { 0.000000 0.000000 0.000000 sr} bdef
/c1 { 1.000000 1.000000 1.000000 sr} bdef
/c2 { 0.900000 0.000000 0.000000 sr} bdef
/c3 { 0.000000 0.820000 0.000000 sr} bdef
/c4 { 0.000000 0.000000 0.800000 sr} bdef
/c5 { 0.910000 0.820000 0.320000 sr} bdef
/c6 { 1.000000 0.260000 0.820000 sr} bdef
/c7 { 0.000000 0.820000 0.820000 sr} bdef
c0
1 j
1 sg
   0    0 6049 4321 rf
6 w
0 2376 4234 0 0 -2376 907 3888 4 MP
PP
-4234 0 0 2376 4234 0 0 -2376 907 3888 5 MP stroke
4 w
DO
SO
6 w
0 sg
 907 3888 mt 5141 3888 L
 907 3888 mt  907 1512 L
 907 3888 mt  907 3930 L
%%IncludeResource: font Helvetica
/Helvetica /ISOLatin1Encoding 120 FMSR

 874 4075 mt 
(0) s
1291 3888 mt 1291 3930 L
1258 4075 mt 
(2) s
1676 3888 mt 1676 3930 L
1643 4075 mt 
(4) s
2061 3888 mt 2061 3930 L
2028 4075 mt 
(6) s
2446 3888 mt 2446 3930 L
2413 4075 mt 
(8) s
2831 3888 mt 2831 3930 L
2765 4075 mt 
(10) s
3216 3888 mt 3216 3930 L
3150 4075 mt 
(12) s
3601 3888 mt 3601 3930 L
3535 4075 mt 
(14) s
3986 3888 mt 3986 3930 L
3920 4075 mt 
(16) s
4371 3888 mt 4371 3930 L
4305 4075 mt 
(18) s
4756 3888 mt 4756 3930 L
4690 4075 mt 
(20) s
5141 3888 mt 5141 3930 L
5075 4075 mt 
(22) s
 907 3888 mt  864 3888 L
 764 3932 mt 
(0) s
 907 3412 mt  864 3412 L
 664 3456 mt 
(0.1) s
 907 2937 mt  864 2937 L
 664 2981 mt 
(0.2) s
 907 2462 mt  864 2462 L
 664 2506 mt 
(0.3) s
 907 1987 mt  864 1987 L
 664 2031 mt 
(0.4) s
 907 1512 mt  864 1512 L
 664 1556 mt 
(0.5) s
gs 907 1512 4235 2377 rc
gr

0.6 sg
  24   24 2951 2324 PO
  24   24 3114 2320 PO
  24   24 3062 2325 PO
  24   24 2992 2342 PO
  24   24 2625 2361 PO
  24   24 2134 2532 PO
  24   24 3143 2344 PO
  24   24 2421 2430 PO
  24   24 2357 2420 PO
  24   24 2138 2518 PO
  24   24 2279 2468 PO
  24   24 2317 2453 PO
  24   24 2618 2339 PO
  24   24 2249 2464 PO
  24   24 2805 2302 PO
  24   24 2604 2347 PO
  24   24 2251 2473 PO
  24   24 2713 2344 PO
  24   24 2884 2337 PO
  24   24 3151 2315 PO
  24   24 2196 2494 PO
  24   24 2821 2348 PO
  24   24 2509 2422 PO
  24   24 2728 2366 PO
  24   24 3099 2353 PO
  24   24 2593 2371 PO
  24   24 2184 2523 PO
  24   24 3154 2362 PO
  24   24 2109 2546 PO
  24   24 2863 2344 PO
  24   24 3860 2213 PO
  24   24 3806 2220 PO
  24   24 3811 2250 PO
  24   24 3324 2237 PO
  24   24 3517 2210 PO
  24   24 3815 2222 PO
  24   24 3455 2207 PO
  24   24 3876 2253 PO
  24   24 3690 2225 PO
  24   24 3372 2227 PO
  24   24 2939 2310 PO
  24   24 3551 2187 PO
  24   24 2698 2402 PO
  24   24 2622 2411 PO
  24   24 2574 2447 PO
  24   24 2930 2320 PO
  24   24 3827 2232 PO
  24   24 3152 2231 PO
  24   24 2914 2318 PO
  24   24 3748 2233 PO
  24   24 3042 2261 PO
  24   24 3245 2255 PO
  24   24 3560 2194 PO
  24   24 3170 2237 PO
  24   24 3860 2229 PO
  24   24 2802 2347 PO
  24   24 3060 2276 PO
  24   24 3694 2227 PO
  24   24 3499 2231 PO
  24   24 2901 2309 PO
  24   24 3869 2225 PO
  24   24 3564 2215 PO
  24   24 3220 2236 PO
  24   24 4614 2111 PO
  24   24 4546 2086 PO
  24   24 4553 2098 PO
  24   24 3941 2189 PO
  24   24 4184 2148 PO
  24   24 4558 2098 PO
  24   24 4107 2176 PO
  24   24 4635 2104 PO
  24   24 4401 2115 PO
  24   24 4002 2206 PO
  24   24 4227 2170 PO
  24   24 4573 2113 PO
  24   24 3725 2241 PO
  24   24 4475 2117 PO
  24   24 3588 2284 PO
  24   24 3842 2241 PO
  24   24 4239 2112 PO
  24   24 3748 2257 PO
  24   24 4615 2064 PO
  24   24 3610 2300 PO
  24   24 4406 2081 PO
  24   24 4161 2154 PO
  24   24 4626 2081 PO
  24   24 4243 2122 PO
  24   24 3811 2229 PO
  24   24 4488 2093 PO
  24   24 4423 2068 PO
  24   24 4429 2108 PO
  24   24 3838 2179 PO
  24   24 4073 2137 PO
  24   24 4434 2104 PO
  24   24 3998 2143 PO
  24   24 4508 2119 PO
  24   24 4283 2110 PO
  24   24 3897 2187 PO
  24   24 3371 2334 PO
  24   24 4114 2133 PO
  24   24 3361 2324 PO
  24   24 4448 2105 PO
  24   24 3629 2220 PO
  24   24 3342 2324 PO
  24   24 4353 2102 PO
  24   24 3497 2268 PO
  24   24 3742 2222 PO
  24   24 4125 2125 PO
  24   24 3652 2257 PO
  24   24 4489 2101 PO
  24   24 3518 2276 PO
  24   24 4287 2095 PO
  24   24 4051 2144 PO
  24   24 3325 2335 PO
  24   24 4500 2100 PO
  24   24 4129 2111 PO
  24   24 3713 2214 PO
  24   24 1253 2920 PO
  24   24 1349 2831 PO
  24   24 1211 2984 PO
  24   24 1265 2928 PO
  24   24 1297 2852 PO
  24   24 1401 2794 PO
  24   24 1260 2923 PO
  24   24 1363 2841 PO
  24   24 1419 2800 PO
  24   24 3792 2245 PO
  24   24 3740 2231 PO
  24   24 3745 2251 PO
  24   24 3269 2250 PO
  24   24 3458 2231 PO
  24   24 3749 2250 PO
  24   24 3397 2257 PO
  24   24 3809 2264 PO
  24   24 3627 2225 PO
  24   24 3316 2221 PO
  24   24 2892 2305 PO
  24   24 3491 2195 PO
  24   24 2657 2396 PO
  24   24 2583 2381 PO
  24   24 2493 2458 PO
  24   24 2536 2390 PO
  24   24 2884 2303 PO
  24   24 3760 2250 PO
  24   24 3100 2230 PO
  24   24 2869 2311 PO
  24   24 3684 2231 PO
  24   24 2993 2258 PO
  24   24 3191 2259 PO
  24   24 3500 2202 PO
  24   24 3119 2257 PO
  24   24 3793 2260 PO
  24   24 2759 2330 PO
  24   24 3011 2284 PO
  24   24 3630 2221 PO
  24   24 3440 2214 PO
  24   24 2855 2317 PO
  24   24 3801 2264 PO
  24   24 3503 2202 PO
  24   24 3168 2243 PO
  24   24 1535 2734 PO
  24   24 1761 2638 PO
  24   24 1961 2572 PO
  24   24 1916 2582 PO
  24   24 1764 2616 PO
  24   24 1862 2586 PO
  24   24 1888 2557 PO
  24   24 1841 2593 PO
  24   24 1843 2580 PO
  24   24 1609 2715 PO
  24   24 1804 2607 PO
  24   24 2022 2584 PO
  24   24 1555 2731 PO
  24   24 1795 2633 PO
  24   24 1634 2672 PO
  24   24 1744 2638 PO
  24   24 3634 2281 PO
  24   24 3585 2270 PO
  24   24 3589 2272 PO
  24   24 3139 2270 PO
  24   24 3318 2267 PO
  24   24 3593 2273 PO
  24   24 3261 2223 PO
  24   24 3650 2313 PO
  24   24 3478 2261 PO
  24   24 3184 2249 PO
  24   24 2784 2324 PO
  24   24 3350 2258 PO
  24   24 2561 2410 PO
  24   24 2491 2401 PO
  24   24 2406 2425 PO
  24   24 2447 2401 PO
  24   24 2776 2324 PO
  24   24 3604 2255 PO
  24   24 2373 2444 PO
  24   24 2980 2259 PO
  24   24 2761 2289 PO
  24   24 2376 2441 PO
  24   24 3532 2273 PO
  24   24 2879 2267 PO
  24   24 3067 2272 PO
  24   24 3358 2242 PO
  24   24 2315 2455 PO
  24   24 2998 2244 PO
  24   24 3635 2284 PO
  24   24 2657 2350 PO
  24   24 2896 2265 PO
  24   24 3481 2245 PO
  24   24 3301 2232 PO
  24   24 2749 2311 PO
  24   24 3643 2288 PO
  24   24 3361 2242 PO
  24   24 3044 2226 PO
  24   24 4627 2114 PO
  24   24 4559 2094 PO
  24   24 4565 2111 PO
  24   24 3951 2218 PO
  24   24 4195 2166 PO
  24   24 4571 2102 PO
  24   24 4117 2194 PO
  24   24 4647 2096 PO
  24   24 4413 2113 PO
  24   24 4013 2192 PO
  24   24 4238 2125 PO
  24   24 4585 2101 PO
  24   24 3735 2267 PO
  24   24 4486 2103 PO
  24   24 3597 2306 PO
  24   24 3852 2253 PO
  24   24 4250 2107 PO
  24   24 3758 2269 PO
  24   24 4627 2095 PO
  24   24 3619 2302 PO
  24   24 4417 2127 PO
  24   24 4172 2144 PO
  24   24 4638 2088 PO
  24   24 4254 2160 PO
  24   24 3821 2258 PO
  24   24 4348 2140 PO
  24   24 4285 2124 PO
  24   24 4291 2131 PO
  24   24 3723 2183 PO
  24   24 3949 2136 PO
  24   24 4296 2079 PO
  24   24 3877 2187 PO
  24   24 4367 2142 PO
  24   24 4151 2115 PO
  24   24 3780 2168 PO
  24   24 3275 2282 PO
  24   24 3989 2150 PO
  24   24 3265 2294 PO
  24   24 4310 2121 PO
  24   24 3523 2201 PO
  24   24 3246 2280 PO
  24   24 4218 2147 PO
  24   24 3395 2272 PO
  24   24 3632 2225 PO
  24   24 3999 2116 PO
  24   24 3544 2239 PO
  24   24 4349 2117 PO
  24   24 3416 2262 PO
  24   24 4155 2124 PO
  24   24 3928 2147 PO
  24   24 3230 2339 PO
  24   24 4359 2122 PO
  24   24 4003 2132 PO
  24   24 3603 2200 PO
  24   24 4456 2135 PO
  24   24 4051 2181 PO
  24   24 4279 2157 PO
  24   24 4630 2111 PO
  24   24 3770 2239 PO
  24   24 4531 2110 PO
  24   24 3630 2323 PO
  24   24 3888 2253 PO
  24   24 4291 2129 PO
  24   24 3793 2305 PO
  24   24 4673 2076 PO
  24   24 3653 2271 PO
  24   24 4461 2119 PO
  24   24 4212 2147 PO
  24   24 4684 2114 PO
  24   24 4295 2121 PO
  24   24 3857 2232 PO
  24   24 4392 2121 PO
  24   24 3993 2199 PO
  24   24 4218 2153 PO
  24   24 4562 2120 PO
  24   24 3717 2257 PO
  24   24 4465 2105 PO
  24   24 3580 2297 PO
  24   24 3834 2224 PO
  24   24 4229 2130 PO
  24   24 3740 2275 PO
  24   24 4605 2087 PO
  24   24 3603 2271 PO
  24   24 4396 2116 PO
  24   24 4152 2129 PO
  24   24 4615 2096 PO
  24   24 4233 2142 PO
  24   24 3803 2237 PO
  24   24 4398 2134 PO
  24   24 3999 2189 PO
  24   24 4223 2156 PO
  24   24 4569 2123 PO
  24   24 3722 2254 PO
  24   24 4471 2107 PO
  24   24 3585 2292 PO
  24   24 3839 2265 PO
  24   24 4235 2093 PO
  24   24 3745 2259 PO
  24   24 4611 2084 PO
  24   24 3607 2292 PO
  24   24 4402 2172 PO
  24   24 4158 2177 PO
  24   24 4622 2077 PO
  24   24 4239 2153 PO
  24   24 3808 2255 PO
  24   24 3812 2204 PO
  24   24 3480 2206 PO
  24   24 3028 2322 PO
  24   24 3667 2196 PO
  24   24 2776 2413 PO
  24   24 2697 2436 PO
  24   24 3019 2303 PO
  24   24 3954 2197 PO
  24   24 3250 2210 PO
  24   24 3002 2303 PO
  24   24 3873 2203 PO
  24   24 3136 2274 PO
  24   24 3347 2254 PO
  24   24 3677 2179 PO
  24   24 3269 2233 PO
  24   24 3990 2203 PO
  24   24 2885 2356 PO
  24   24 3154 2281 PO
  24   24 3816 2183 PO
  24   24 3612 2213 PO
  24   24 2988 2318 PO
  24   24 3999 2201 PO
  24   24 3680 2190 PO
  24   24 3322 2218 PO
  24   24 4045 2141 PO
  24   24 3686 2180 PO
  24   24 3198 2309 PO
  24   24 3888 2171 PO
  24   24 3188 2300 PO
  24   24 4199 2145 PO
  24   24 3438 2227 PO
  24   24 3170 2290 PO
  24   24 4110 2141 PO
  24   24 3314 2273 PO
  24   24 3543 2224 PO
  24   24 3899 2133 PO
  24   24 3458 2216 PO
  24   24 4237 2141 PO
  24   24 3043 2344 PO
  24   24 3334 2270 PO
  24   24 4049 2159 PO
  24   24 3829 2169 PO
  24   24 3155 2312 PO
  24   24 4246 2159 PO
  24   24 3902 2154 PO
  24   24 3515 2235 PO
  24   24 4403 2107 PO
  24   24 4004 2185 PO
  24   24 4229 2138 PO
  24   24 4574 2094 PO
  24   24 3727 2244 PO
  24   24 4476 2116 PO
  24   24 3589 2296 PO
  24   24 3844 2230 PO
  24   24 4240 2133 PO
  24   24 3750 2234 PO
  24   24 4617 2083 PO
  24   24 3612 2292 PO
  24   24 4407 2077 PO
  24   24 4163 2136 PO
  24   24 4628 2093 PO
  24   24 4244 2151 PO
  24   24 3813 2256 PO
  24   24 1171 2994 PO
  24   24 1218 2961 PO
  24   24 1246 2917 PO
  24   24 1214 2982 PO
  24   24 1303 2919 PO
  24   24 1576 2724 PO
  24   24 1578 2731 PO
  24   24 1305 2918 PO
  24   24 1341 2843 PO
  24   24 1456 2779 PO
  24   24 1300 2895 PO
  24   24 1414 2789 PO
  24   24 1476 2735 PO
  24   24 1562 2710 PO
  24   24 3971 2184 PO
  24   24 3620 2190 PO
  24   24 3143 2296 PO
  24   24 3818 2173 PO
  24   24 3134 2309 PO
  24   24 4121 2163 PO
  24   24 3378 2236 PO
  24   24 3117 2317 PO
  24   24 4035 2201 PO
  24   24 3257 2263 PO
  24   24 3480 2218 PO
  24   24 3828 2161 PO
  24   24 3398 2228 PO
  24   24 4158 2187 PO
  24   24 2993 2359 PO
  24   24 3277 2250 PO
  24   24 3974 2167 PO
  24   24 3760 2173 PO
  24   24 3101 2294 PO
  24   24 4167 2174 PO
  24   24 3831 2172 PO
  24   24 3453 2222 PO
  24   24 4476 2136 PO
  24   24 4069 2210 PO
  24   24 4298 2144 PO
  24   24 4651 2098 PO
  24   24 3786 2239 PO
  24   24 4551 2155 PO
  24   24 3645 2323 PO
  24   24 3905 2260 PO
  24   24 4310 2137 PO
  24   24 3809 2286 PO
  24   24 4695 2093 PO
  24   24 3668 2318 PO
  24   24 4481 2118 PO
  24   24 4231 2131 PO
  24   24 4706 2103 PO
  24   24 4314 2144 PO
  24   24 3874 2268 PO
  24   24 3339 2310 PO
  24   24 4417 2130 PO
  24   24 3605 2242 PO
  24   24 3320 2330 PO
  24   24 4323 2113 PO
  24   24 3474 2268 PO
  24   24 3717 2241 PO
  24   24 4097 2098 PO
  24   24 3628 2244 PO
  24   24 4457 2100 PO
  24   24 3495 2252 PO
  24   24 4257 2123 PO
  24   24 4023 2156 PO
  24   24 3304 2346 PO
  24   24 4468 2119 PO
  24   24 4101 2140 PO
  24   24 3688 2212 PO
  24   24 3061 2317 PO
  24   24 4016 2219 PO
  24   24 3297 2232 PO
  24   24 3044 2302 PO
  24   24 3932 2209 PO
  24   24 3180 2290 PO
  24   24 3396 2259 PO
  24   24 3732 2187 PO
  24   24 3317 2246 PO
  24   24 4052 2223 PO
  24   24 2925 2351 PO
  24   24 3200 2255 PO
  24   24 3874 2174 PO
  24   24 3667 2198 PO
  24   24 3030 2331 PO
  24   24 4061 2196 PO
  24   24 3736 2185 PO
  24   24 3370 2237 PO
  24   24 2682 2341 PO
  24   24 2300 2454 PO
  24   24 2877 2280 PO
  24   24 2669 2317 PO
  24   24 2302 2478 PO
  24   24 3401 2344 PO
  24   24 2781 2317 PO
  24   24 2959 2312 PO
  24   24 3236 2290 PO
  24   24 2245 2521 PO
  24   24 2893 2316 PO
  24   24 2570 2384 PO
  24   24 2796 2327 PO
  24   24 3352 2330 PO
  24   24 3182 2307 PO
  24   24 2657 2348 PO
  24   24 2232 2493 PO
  24   24 3239 2294 PO
  24   24 2937 2285 PO
  24   24 2175 2519 PO
  24   24 1902 2577 PO
  24   24 2165 2516 PO
  24   24 1904 2559 PO
  24   24 1654 2668 PO
  24   24 1863 2556 PO
  24   24 2095 2538 PO
  24   24 1597 2699 PO
  24   24 2157 2539 PO
  24   24 1854 2598 PO
  24   24 1681 2656 PO
  24   24 1798 2618 PO
  24   24 3218 2307 PO
  24   24 4242 2127 PO
  24   24 3471 2229 PO
  24   24 3200 2304 PO
  24   24 4152 2154 PO
  24   24 3346 2249 PO
  24   24 3577 2221 PO
  24   24 3938 2127 PO
  24   24 3492 2258 PO
  24   24 4280 2141 PO
  24   24 3071 2353 PO
  24   24 3366 2266 PO
  24   24 4090 2152 PO
  24   24 3867 2175 PO
  24   24 3184 2305 PO
  24   24 4290 2109 PO
  24   24 3941 2124 PO
  24   24 3549 2214 PO
  24   24 2472 2407 PO
  24   24 2135 2476 PO
  24   24 2643 2376 PO
  24   24 2460 2401 PO
  24   24 2137 2482 PO
  24   24 2559 2375 PO
  24   24 2715 2392 PO
  24   24 2086 2512 PO
  24   24 2658 2395 PO
  24   24 2373 2435 PO
  24   24 2572 2406 PO
  24   24 2449 2406 PO
  24   24 2075 2532 PO
  24   24 2007 2574 PO
  24   24 2696 2386 PO
  24   24 2405 2441 PO
  24   24 2083 2509 PO
  24   24 2569 2429 PO
  24   24 2394 2430 PO
  24   24 2084 2495 PO
  24   24 2488 2412 PO
  24   24 2639 2444 PO
  24   24 2036 2503 PO
  24   24 2583 2414 PO
  24   24 2310 2436 PO
  24   24 2502 2425 PO
  24   24 2384 2433 PO
  24   24 2025 2505 PO
  24   24 1822 2624 PO
  24   24 1960 2566 PO
  24   24 2620 2429 PO
  24   24 2180 2523 PO
  24   24 1905 2560 PO
  24   24 2170 2510 PO
  24   24 1907 2541 PO
  24   24 1657 2669 PO
  24   24 1866 2540 PO
  24   24 2099 2518 PO
  24   24 1599 2702 PO
  24   24 2161 2501 PO
  24   24 1857 2575 PO
  24   24 1684 2639 PO
  24   24 1801 2601 PO
  24   24 2325 2431 PO
  24   24 2020 2531 PO
  24   24 2480 2438 PO
  24   24 2314 2436 PO
  24   24 2021 2526 PO
  24   24 2404 2436 PO
  24   24 1743 2657 PO
  24   24 1975 2528 PO
  24   24 2493 2450 PO
  24   24 2235 2468 PO
  24   24 2416 2458 PO
  24   24 2304 2476 PO
  24   24 1965 2523 PO
  24   24 1773 2644 PO
  24   24 1904 2539 PO
  24   24 2364 2447 PO
  24   24 2050 2503 PO
  24   24 2523 2423 PO
  24   24 2352 2421 PO
  24   24 2052 2501 PO
  24   24 2444 2426 PO
  24   24 2590 2453 PO
  24   24 1765 2665 PO
  24   24 2004 2496 PO
  24   24 2537 2424 PO
  24   24 2271 2463 PO
  24   24 2457 2440 PO
  24   24 2342 2423 PO
  24   24 1994 2559 PO
  24   24 1796 2623 PO
  24   24 1931 2567 PO
  24   24 2573 2446 PO
  24   24 1177 2975 PO
  24   24 1352 2872 PO
  24   24 1225 2952 PO
  24   24 1317 2897 PO
  24   24 2773 2322 PO
  24   24 2950 2304 PO
  24   24 3226 2292 PO
  24   24 2239 2478 PO
  24   24 2885 2308 PO
  24   24 2563 2391 PO
  24   24 2788 2320 PO
  24   24 3342 2348 PO
  24   24 3172 2303 PO
  24   24 2649 2337 PO
  24   24 2226 2503 PO
  24   24 3229 2349 PO
  24   24 2928 2303 PO
  24   24 1392 2803 PO
  24   24 1254 2937 PO
  24   24 1355 2844 PO
  24   24 1410 2803 PO
  24   24 3600 2300 PO
  24   24 3855 2245 PO
  24   24 4253 2107 PO
  24   24 3761 2275 PO
  24   24 4631 2088 PO
  24   24 3622 2302 PO
  24   24 4421 2116 PO
  24   24 4175 2163 PO
  24   24 4642 2115 PO
  24   24 4257 2127 PO
  24   24 3824 2251 PO
  24   24 2371 2435 PO
  24   24 1724 2649 PO
  24   24 1952 2532 PO
  24   24 2206 2483 PO
  24   24 2383 2456 PO
  24   24 2274 2446 PO
  24   24 1942 2526 PO
  24   24 1754 2630 PO
  24   24 1882 2562 PO
  24   24 2977 2256 PO
  24   24 3173 2236 PO
  24   24 3480 2199 PO
  24   24 3101 2250 PO
  24   24 3770 2256 PO
  24   24 2744 2336 PO
  24   24 2994 2287 PO
  24   24 3609 2227 PO
  24   24 3420 2210 PO
  24   24 2840 2291 PO
  24   24 3779 2256 PO
  24   24 3483 2212 PO
  24   24 3150 2232 PO
  24   24 2758 2302 PO
  24   24 2934 2316 PO
  24   24 3208 2290 PO
  24   24 2229 2488 PO
  24   24 2869 2309 PO
  24   24 2550 2368 PO
  24   24 2774 2304 PO
  24   24 3323 2309 PO
  24   24 3154 2294 PO
  24   24 2635 2344 PO
  24   24 2216 2498 PO
  24   24 3211 2282 PO
  24   24 2140 2537 PO
  24   24 2913 2304 PO
  24   24 2373 2452 PO
  24   24 1726 2639 PO
  24   24 1954 2531 PO
  24   24 2208 2469 PO
  24   24 2385 2477 PO
  24   24 2276 2441 PO
  24   24 1944 2557 PO
  24   24 1755 2618 PO
  24   24 1883 2549 PO
  24   24 3527 2307 PO
  24   24 3776 2246 PO
  24   24 4164 2120 PO
  24   24 3685 2259 PO
  24   24 4532 2094 PO
  24   24 3549 2299 PO
  24   24 4327 2124 PO
  24   24 4088 2167 PO
  24   24 4542 2116 PO
  24   24 4168 2129 PO
  24   24 3746 2228 PO
  24   24 3477 2256 PO
  24   24 3297 2240 PO
  24   24 2746 2347 PO
  24   24 2299 2515 PO
  24   24 3639 2312 PO
  24   24 3357 2253 PO
  24   24 3040 2267 PO
  24   24 3721 2231 PO
  24   24 3524 2224 PO
  24   24 2920 2307 PO
  24   24 3898 2264 PO
  24   24 3590 2210 PO
  24   24 3243 2251 PO
  24   24 1474 2773 PO
  24   24 1684 2674 PO
  24   24 1543 2732 PO
  24   24 1639 2668 PO
  24   24 1312 2873 PO
  24   24 4101 2117 PO
  24   24 3877 2133 PO
  24   24 3192 2315 PO
  24   24 4302 2111 PO
  24   24 3952 2113 PO
  24   24 3558 2204 PO
  24   24 1631 2708 PO
  24   24 2219 2476 PO
  24   24 1901 2567 PO
  24   24 1720 2638 PO
  24   24 1843 2564 PO
  24   24 3631 2279 PO
  24   24 3441 2194 PO
  24   24 2856 2328 PO
  24   24 3802 2254 PO
  24   24 3504 2236 PO
  24   24 3168 2241 PO
  24   24 4462 2107 PO
  24   24 4213 2129 PO
  24   24 4685 2074 PO
  24   24 4296 2130 PO
  24   24 3858 2245 PO
  24   24 3028 2374 PO
  24   24 2539 2396 PO
  24   24 2143 2501 PO
  24   24 3081 2339 PO
  24   24 2070 2542 PO
  24   24 2800 2349 PO
  24   24 3498 2272 PO
  24   24 3317 2267 PO
  24   24 2761 2331 PO
  24   24 3662 2298 PO
  24   24 3378 2235 PO
  24   24 3058 2290 PO
  24   24 2951 2324 FO
  24   24 3114 2320 FO
  24   24 3062 2325 FO
  24   24 2992 2342 FO
  24   24 2625 2361 FO
  24   24 2134 2532 FO
  24   24 3143 2344 FO
  24   24 2421 2430 FO
  24   24 2357 2420 FO
  24   24 2138 2518 FO
  24   24 2279 2468 FO
  24   24 2317 2453 FO
  24   24 2618 2339 FO
  24   24 2249 2464 FO
  24   24 2805 2302 FO
  24   24 2604 2347 FO
  24   24 2251 2473 FO
  24   24 2713 2344 FO
  24   24 2884 2337 FO
  24   24 3151 2315 FO
  24   24 2196 2494 FO
  24   24 2821 2348 FO
  24   24 2509 2422 FO
  24   24 2728 2366 FO
  24   24 3099 2353 FO
  24   24 2593 2371 FO
  24   24 2184 2523 FO
  24   24 3154 2362 FO
  24   24 2109 2546 FO
  24   24 2863 2344 FO
  24   24 3860 2213 FO
  24   24 3806 2220 FO
  24   24 3811 2250 FO
  24   24 3324 2237 FO
  24   24 3517 2210 FO
  24   24 3815 2222 FO
  24   24 3455 2207 FO
  24   24 3876 2253 FO
  24   24 3690 2225 FO
  24   24 3372 2227 FO
  24   24 2939 2310 FO
  24   24 3551 2187 FO
  24   24 2698 2402 FO
  24   24 2622 2411 FO
  24   24 2574 2447 FO
  24   24 2930 2320 FO
  24   24 3827 2232 FO
  24   24 3152 2231 FO
  24   24 2914 2318 FO
  24   24 3748 2233 FO
  24   24 3042 2261 FO
  24   24 3245 2255 FO
  24   24 3560 2194 FO
  24   24 3170 2237 FO
  24   24 3860 2229 FO
  24   24 2802 2347 FO
  24   24 3060 2276 FO
  24   24 3694 2227 FO
  24   24 3499 2231 FO
  24   24 2901 2309 FO
  24   24 3869 2225 FO
  24   24 3564 2215 FO
  24   24 3220 2236 FO
  24   24 4614 2111 FO
  24   24 4546 2086 FO
  24   24 4553 2098 FO
  24   24 3941 2189 FO
  24   24 4184 2148 FO
  24   24 4558 2098 FO
  24   24 4107 2176 FO
  24   24 4635 2104 FO
  24   24 4401 2115 FO
  24   24 4002 2206 FO
  24   24 4227 2170 FO
  24   24 4573 2113 FO
  24   24 3725 2241 FO
  24   24 4475 2117 FO
  24   24 3588 2284 FO
  24   24 3842 2241 FO
  24   24 4239 2112 FO
  24   24 3748 2257 FO
  24   24 4615 2064 FO
  24   24 3610 2300 FO
  24   24 4406 2081 FO
  24   24 4161 2154 FO
  24   24 4626 2081 FO
  24   24 4243 2122 FO
  24   24 3811 2229 FO
  24   24 4488 2093 FO
  24   24 4423 2068 FO
  24   24 4429 2108 FO
  24   24 3838 2179 FO
  24   24 4073 2137 FO
  24   24 4434 2104 FO
  24   24 3998 2143 FO
  24   24 4508 2119 FO
  24   24 4283 2110 FO
  24   24 3897 2187 FO
  24   24 3371 2334 FO
  24   24 4114 2133 FO
  24   24 3361 2324 FO
  24   24 4448 2105 FO
  24   24 3629 2220 FO
  24   24 3342 2324 FO
  24   24 4353 2102 FO
  24   24 3497 2268 FO
  24   24 3742 2222 FO
  24   24 4125 2125 FO
  24   24 3652 2257 FO
  24   24 4489 2101 FO
  24   24 3518 2276 FO
  24   24 4287 2095 FO
  24   24 4051 2144 FO
  24   24 3325 2335 FO
  24   24 4500 2100 FO
  24   24 4129 2111 FO
  24   24 3713 2214 FO
  24   24 1253 2920 FO
  24   24 1349 2831 FO
  24   24 1211 2984 FO
  24   24 1265 2928 FO
  24   24 1297 2852 FO
  24   24 1401 2794 FO
  24   24 1260 2923 FO
  24   24 1363 2841 FO
  24   24 1419 2800 FO
  24   24 3792 2245 FO
  24   24 3740 2231 FO
  24   24 3745 2251 FO
  24   24 3269 2250 FO
  24   24 3458 2231 FO
  24   24 3749 2250 FO
  24   24 3397 2257 FO
  24   24 3809 2264 FO
  24   24 3627 2225 FO
  24   24 3316 2221 FO
  24   24 2892 2305 FO
  24   24 3491 2195 FO
  24   24 2657 2396 FO
  24   24 2583 2381 FO
  24   24 2493 2458 FO
  24   24 2536 2390 FO
  24   24 2884 2303 FO
  24   24 3760 2250 FO
  24   24 3100 2230 FO
  24   24 2869 2311 FO
  24   24 3684 2231 FO
  24   24 2993 2258 FO
  24   24 3191 2259 FO
  24   24 3500 2202 FO
  24   24 3119 2257 FO
  24   24 3793 2260 FO
  24   24 2759 2330 FO
  24   24 3011 2284 FO
  24   24 3630 2221 FO
  24   24 3440 2214 FO
  24   24 2855 2317 FO
  24   24 3801 2264 FO
  24   24 3503 2202 FO
  24   24 3168 2243 FO
  24   24 1535 2734 FO
  24   24 1761 2638 FO
  24   24 1961 2572 FO
  24   24 1916 2582 FO
  24   24 1764 2616 FO
  24   24 1862 2586 FO
  24   24 1888 2557 FO
  24   24 1841 2593 FO
  24   24 1843 2580 FO
  24   24 1609 2715 FO
  24   24 1804 2607 FO
  24   24 2022 2584 FO
  24   24 1555 2731 FO
  24   24 1795 2633 FO
  24   24 1634 2672 FO
  24   24 1744 2638 FO
  24   24 3634 2281 FO
  24   24 3585 2270 FO
  24   24 3589 2272 FO
  24   24 3139 2270 FO
  24   24 3318 2267 FO
  24   24 3593 2273 FO
  24   24 3261 2223 FO
  24   24 3650 2313 FO
  24   24 3478 2261 FO
  24   24 3184 2249 FO
  24   24 2784 2324 FO
  24   24 3350 2258 FO
  24   24 2561 2410 FO
  24   24 2491 2401 FO
  24   24 2406 2425 FO
  24   24 2447 2401 FO
  24   24 2776 2324 FO
  24   24 3604 2255 FO
  24   24 2373 2444 FO
  24   24 2980 2259 FO
  24   24 2761 2289 FO
  24   24 2376 2441 FO
  24   24 3532 2273 FO
  24   24 2879 2267 FO
  24   24 3067 2272 FO
  24   24 3358 2242 FO
  24   24 2315 2455 FO
  24   24 2998 2244 FO
  24   24 3635 2284 FO
  24   24 2657 2350 FO
  24   24 2896 2265 FO
  24   24 3481 2245 FO
  24   24 3301 2232 FO
  24   24 2749 2311 FO
  24   24 3643 2288 FO
  24   24 3361 2242 FO
  24   24 3044 2226 FO
  24   24 4627 2114 FO
  24   24 4559 2094 FO
  24   24 4565 2111 FO
  24   24 3951 2218 FO
  24   24 4195 2166 FO
  24   24 4571 2102 FO
  24   24 4117 2194 FO
  24   24 4647 2096 FO
  24   24 4413 2113 FO
  24   24 4013 2192 FO
  24   24 4238 2125 FO
  24   24 4585 2101 FO
  24   24 3735 2267 FO
  24   24 4486 2103 FO
  24   24 3597 2306 FO
  24   24 3852 2253 FO
  24   24 4250 2107 FO
  24   24 3758 2269 FO
  24   24 4627 2095 FO
  24   24 3619 2302 FO
  24   24 4417 2127 FO
  24   24 4172 2144 FO
  24   24 4638 2088 FO
  24   24 4254 2160 FO
  24   24 3821 2258 FO
  24   24 4348 2140 FO
  24   24 4285 2124 FO
  24   24 4291 2131 FO
  24   24 3723 2183 FO
  24   24 3949 2136 FO
  24   24 4296 2079 FO
  24   24 3877 2187 FO
  24   24 4367 2142 FO
  24   24 4151 2115 FO
  24   24 3780 2168 FO
  24   24 3275 2282 FO
  24   24 3989 2150 FO
  24   24 3265 2294 FO
  24   24 4310 2121 FO
  24   24 3523 2201 FO
  24   24 3246 2280 FO
  24   24 4218 2147 FO
  24   24 3395 2272 FO
  24   24 3632 2225 FO
  24   24 3999 2116 FO
  24   24 3544 2239 FO
  24   24 4349 2117 FO
  24   24 3416 2262 FO
  24   24 4155 2124 FO
  24   24 3928 2147 FO
  24   24 3230 2339 FO
  24   24 4359 2122 FO
  24   24 4003 2132 FO
  24   24 3603 2200 FO
  24   24 4456 2135 FO
  24   24 4051 2181 FO
  24   24 4279 2157 FO
  24   24 4630 2111 FO
  24   24 3770 2239 FO
  24   24 4531 2110 FO
  24   24 3630 2323 FO
  24   24 3888 2253 FO
  24   24 4291 2129 FO
  24   24 3793 2305 FO
  24   24 4673 2076 FO
  24   24 3653 2271 FO
  24   24 4461 2119 FO
  24   24 4212 2147 FO
  24   24 4684 2114 FO
  24   24 4295 2121 FO
  24   24 3857 2232 FO
  24   24 4392 2121 FO
  24   24 3993 2199 FO
  24   24 4218 2153 FO
  24   24 4562 2120 FO
  24   24 3717 2257 FO
  24   24 4465 2105 FO
  24   24 3580 2297 FO
  24   24 3834 2224 FO
  24   24 4229 2130 FO
  24   24 3740 2275 FO
  24   24 4605 2087 FO
  24   24 3603 2271 FO
  24   24 4396 2116 FO
  24   24 4152 2129 FO
  24   24 4615 2096 FO
  24   24 4233 2142 FO
  24   24 3803 2237 FO
  24   24 4398 2134 FO
  24   24 3999 2189 FO
  24   24 4223 2156 FO
  24   24 4569 2123 FO
  24   24 3722 2254 FO
  24   24 4471 2107 FO
  24   24 3585 2292 FO
  24   24 3839 2265 FO
  24   24 4235 2093 FO
  24   24 3745 2259 FO
  24   24 4611 2084 FO
  24   24 3607 2292 FO
  24   24 4402 2172 FO
  24   24 4158 2177 FO
  24   24 4622 2077 FO
  24   24 4239 2153 FO
  24   24 3808 2255 FO
  24   24 3812 2204 FO
  24   24 3480 2206 FO
  24   24 3028 2322 FO
  24   24 3667 2196 FO
  24   24 2776 2413 FO
  24   24 2697 2436 FO
  24   24 3019 2303 FO
  24   24 3954 2197 FO
  24   24 3250 2210 FO
  24   24 3002 2303 FO
  24   24 3873 2203 FO
  24   24 3136 2274 FO
  24   24 3347 2254 FO
  24   24 3677 2179 FO
  24   24 3269 2233 FO
  24   24 3990 2203 FO
  24   24 2885 2356 FO
  24   24 3154 2281 FO
  24   24 3816 2183 FO
  24   24 3612 2213 FO
  24   24 2988 2318 FO
  24   24 3999 2201 FO
  24   24 3680 2190 FO
  24   24 3322 2218 FO
  24   24 4045 2141 FO
  24   24 3686 2180 FO
  24   24 3198 2309 FO
  24   24 3888 2171 FO
  24   24 3188 2300 FO
  24   24 4199 2145 FO
  24   24 3438 2227 FO
  24   24 3170 2290 FO
  24   24 4110 2141 FO
  24   24 3314 2273 FO
  24   24 3543 2224 FO
  24   24 3899 2133 FO
  24   24 3458 2216 FO
  24   24 4237 2141 FO
  24   24 3043 2344 FO
  24   24 3334 2270 FO
  24   24 4049 2159 FO
  24   24 3829 2169 FO
  24   24 3155 2312 FO
  24   24 4246 2159 FO
  24   24 3902 2154 FO
  24   24 3515 2235 FO
  24   24 4403 2107 FO
  24   24 4004 2185 FO
  24   24 4229 2138 FO
  24   24 4574 2094 FO
  24   24 3727 2244 FO
  24   24 4476 2116 FO
  24   24 3589 2296 FO
  24   24 3844 2230 FO
  24   24 4240 2133 FO
  24   24 3750 2234 FO
  24   24 4617 2083 FO
  24   24 3612 2292 FO
  24   24 4407 2077 FO
  24   24 4163 2136 FO
  24   24 4628 2093 FO
  24   24 4244 2151 FO
  24   24 3813 2256 FO
  24   24 1171 2994 FO
  24   24 1218 2961 FO
  24   24 1246 2917 FO
  24   24 1214 2982 FO
  24   24 1303 2919 FO
  24   24 1576 2724 FO
  24   24 1578 2731 FO
  24   24 1305 2918 FO
  24   24 1341 2843 FO
  24   24 1456 2779 FO
  24   24 1300 2895 FO
  24   24 1414 2789 FO
  24   24 1476 2735 FO
  24   24 1562 2710 FO
  24   24 3971 2184 FO
  24   24 3620 2190 FO
  24   24 3143 2296 FO
  24   24 3818 2173 FO
  24   24 3134 2309 FO
  24   24 4121 2163 FO
  24   24 3378 2236 FO
  24   24 3117 2317 FO
  24   24 4035 2201 FO
  24   24 3257 2263 FO
  24   24 3480 2218 FO
  24   24 3828 2161 FO
  24   24 3398 2228 FO
  24   24 4158 2187 FO
  24   24 2993 2359 FO
  24   24 3277 2250 FO
  24   24 3974 2167 FO
  24   24 3760 2173 FO
  24   24 3101 2294 FO
  24   24 4167 2174 FO
  24   24 3831 2172 FO
  24   24 3453 2222 FO
  24   24 4476 2136 FO
  24   24 4069 2210 FO
  24   24 4298 2144 FO
  24   24 4651 2098 FO
  24   24 3786 2239 FO
  24   24 4551 2155 FO
  24   24 3645 2323 FO
  24   24 3905 2260 FO
  24   24 4310 2137 FO
  24   24 3809 2286 FO
  24   24 4695 2093 FO
  24   24 3668 2318 FO
  24   24 4481 2118 FO
  24   24 4231 2131 FO
  24   24 4706 2103 FO
  24   24 4314 2144 FO
  24   24 3874 2268 FO
  24   24 3339 2310 FO
  24   24 4417 2130 FO
  24   24 3605 2242 FO
  24   24 3320 2330 FO
  24   24 4323 2113 FO
  24   24 3474 2268 FO
  24   24 3717 2241 FO
  24   24 4097 2098 FO
  24   24 3628 2244 FO
  24   24 4457 2100 FO
  24   24 3495 2252 FO
  24   24 4257 2123 FO
  24   24 4023 2156 FO
  24   24 3304 2346 FO
  24   24 4468 2119 FO
  24   24 4101 2140 FO
  24   24 3688 2212 FO
  24   24 3061 2317 FO
  24   24 4016 2219 FO
  24   24 3297 2232 FO
  24   24 3044 2302 FO
  24   24 3932 2209 FO
  24   24 3180 2290 FO
  24   24 3396 2259 FO
  24   24 3732 2187 FO
  24   24 3317 2246 FO
  24   24 4052 2223 FO
  24   24 2925 2351 FO
  24   24 3200 2255 FO
  24   24 3874 2174 FO
  24   24 3667 2198 FO
  24   24 3030 2331 FO
  24   24 4061 2196 FO
  24   24 3736 2185 FO
  24   24 3370 2237 FO
  24   24 2682 2341 FO
  24   24 2300 2454 FO
  24   24 2877 2280 FO
  24   24 2669 2317 FO
  24   24 2302 2478 FO
  24   24 3401 2344 FO
  24   24 2781 2317 FO
  24   24 2959 2312 FO
  24   24 3236 2290 FO
  24   24 2245 2521 FO
  24   24 2893 2316 FO
  24   24 2570 2384 FO
  24   24 2796 2327 FO
  24   24 3352 2330 FO
  24   24 3182 2307 FO
  24   24 2657 2348 FO
  24   24 2232 2493 FO
  24   24 3239 2294 FO
  24   24 2937 2285 FO
  24   24 2175 2519 FO
  24   24 1902 2577 FO
  24   24 2165 2516 FO
  24   24 1904 2559 FO
  24   24 1654 2668 FO
  24   24 1863 2556 FO
  24   24 2095 2538 FO
  24   24 1597 2699 FO
  24   24 2157 2539 FO
  24   24 1854 2598 FO
  24   24 1681 2656 FO
  24   24 1798 2618 FO
  24   24 3218 2307 FO
  24   24 4242 2127 FO
  24   24 3471 2229 FO
  24   24 3200 2304 FO
  24   24 4152 2154 FO
  24   24 3346 2249 FO
  24   24 3577 2221 FO
  24   24 3938 2127 FO
  24   24 3492 2258 FO
  24   24 4280 2141 FO
  24   24 3071 2353 FO
  24   24 3366 2266 FO
  24   24 4090 2152 FO
  24   24 3867 2175 FO
  24   24 3184 2305 FO
  24   24 4290 2109 FO
  24   24 3941 2124 FO
  24   24 3549 2214 FO
  24   24 2472 2407 FO
  24   24 2135 2476 FO
  24   24 2643 2376 FO
  24   24 2460 2401 FO
  24   24 2137 2482 FO
  24   24 2559 2375 FO
  24   24 2715 2392 FO
  24   24 2086 2512 FO
  24   24 2658 2395 FO
  24   24 2373 2435 FO
  24   24 2572 2406 FO
  24   24 2449 2406 FO
  24   24 2075 2532 FO
  24   24 2007 2574 FO
  24   24 2696 2386 FO
  24   24 2405 2441 FO
  24   24 2083 2509 FO
  24   24 2569 2429 FO
  24   24 2394 2430 FO
  24   24 2084 2495 FO
  24   24 2488 2412 FO
  24   24 2639 2444 FO
  24   24 2036 2503 FO
  24   24 2583 2414 FO
  24   24 2310 2436 FO
  24   24 2502 2425 FO
  24   24 2384 2433 FO
  24   24 2025 2505 FO
  24   24 1822 2624 FO
  24   24 1960 2566 FO
  24   24 2620 2429 FO
  24   24 2180 2523 FO
  24   24 1905 2560 FO
  24   24 2170 2510 FO
  24   24 1907 2541 FO
  24   24 1657 2669 FO
  24   24 1866 2540 FO
  24   24 2099 2518 FO
  24   24 1599 2702 FO
  24   24 2161 2501 FO
  24   24 1857 2575 FO
  24   24 1684 2639 FO
  24   24 1801 2601 FO
  24   24 2325 2431 FO
  24   24 2020 2531 FO
  24   24 2480 2438 FO
  24   24 2314 2436 FO
  24   24 2021 2526 FO
  24   24 2404 2436 FO
  24   24 1743 2657 FO
  24   24 1975 2528 FO
  24   24 2493 2450 FO
  24   24 2235 2468 FO
  24   24 2416 2458 FO
  24   24 2304 2476 FO
  24   24 1965 2523 FO
  24   24 1773 2644 FO
  24   24 1904 2539 FO
  24   24 2364 2447 FO
  24   24 2050 2503 FO
  24   24 2523 2423 FO
  24   24 2352 2421 FO
  24   24 2052 2501 FO
  24   24 2444 2426 FO
  24   24 2590 2453 FO
  24   24 1765 2665 FO
  24   24 2004 2496 FO
  24   24 2537 2424 FO
  24   24 2271 2463 FO
  24   24 2457 2440 FO
  24   24 2342 2423 FO
  24   24 1994 2559 FO
  24   24 1796 2623 FO
  24   24 1931 2567 FO
  24   24 2573 2446 FO
  24   24 1177 2975 FO
  24   24 1352 2872 FO
  24   24 1225 2952 FO
  24   24 1317 2897 FO
  24   24 2773 2322 FO
  24   24 2950 2304 FO
  24   24 3226 2292 FO
  24   24 2239 2478 FO
  24   24 2885 2308 FO
  24   24 2563 2391 FO
  24   24 2788 2320 FO
  24   24 3342 2348 FO
  24   24 3172 2303 FO
  24   24 2649 2337 FO
  24   24 2226 2503 FO
  24   24 3229 2349 FO
  24   24 2928 2303 FO
  24   24 1392 2803 FO
  24   24 1254 2937 FO
  24   24 1355 2844 FO
  24   24 1410 2803 FO
  24   24 3600 2300 FO
  24   24 3855 2245 FO
  24   24 4253 2107 FO
  24   24 3761 2275 FO
  24   24 4631 2088 FO
  24   24 3622 2302 FO
  24   24 4421 2116 FO
  24   24 4175 2163 FO
  24   24 4642 2115 FO
  24   24 4257 2127 FO
  24   24 3824 2251 FO
  24   24 2371 2435 FO
  24   24 1724 2649 FO
  24   24 1952 2532 FO
  24   24 2206 2483 FO
  24   24 2383 2456 FO
  24   24 2274 2446 FO
  24   24 1942 2526 FO
  24   24 1754 2630 FO
  24   24 1882 2562 FO
  24   24 2977 2256 FO
  24   24 3173 2236 FO
  24   24 3480 2199 FO
  24   24 3101 2250 FO
  24   24 3770 2256 FO
  24   24 2744 2336 FO
  24   24 2994 2287 FO
  24   24 3609 2227 FO
  24   24 3420 2210 FO
  24   24 2840 2291 FO
  24   24 3779 2256 FO
  24   24 3483 2212 FO
  24   24 3150 2232 FO
  24   24 2758 2302 FO
  24   24 2934 2316 FO
  24   24 3208 2290 FO
  24   24 2229 2488 FO
  24   24 2869 2309 FO
  24   24 2550 2368 FO
  24   24 2774 2304 FO
  24   24 3323 2309 FO
  24   24 3154 2294 FO
  24   24 2635 2344 FO
  24   24 2216 2498 FO
  24   24 3211 2282 FO
  24   24 2140 2537 FO
  24   24 2913 2304 FO
  24   24 2373 2452 FO
  24   24 1726 2639 FO
  24   24 1954 2531 FO
  24   24 2208 2469 FO
  24   24 2385 2477 FO
  24   24 2276 2441 FO
  24   24 1944 2557 FO
  24   24 1755 2618 FO
  24   24 1883 2549 FO
  24   24 3527 2307 FO
  24   24 3776 2246 FO
  24   24 4164 2120 FO
  24   24 3685 2259 FO
  24   24 4532 2094 FO
  24   24 3549 2299 FO
  24   24 4327 2124 FO
  24   24 4088 2167 FO
  24   24 4542 2116 FO
  24   24 4168 2129 FO
  24   24 3746 2228 FO
  24   24 3477 2256 FO
  24   24 3297 2240 FO
  24   24 2746 2347 FO
  24   24 2299 2515 FO
  24   24 3639 2312 FO
  24   24 3357 2253 FO
  24   24 3040 2267 FO
  24   24 3721 2231 FO
  24   24 3524 2224 FO
  24   24 2920 2307 FO
  24   24 3898 2264 FO
  24   24 3590 2210 FO
  24   24 3243 2251 FO
  24   24 1474 2773 FO
  24   24 1684 2674 FO
  24   24 1543 2732 FO
  24   24 1639 2668 FO
  24   24 1312 2873 FO
  24   24 4101 2117 FO
  24   24 3877 2133 FO
  24   24 3192 2315 FO
  24   24 4302 2111 FO
  24   24 3952 2113 FO
  24   24 3558 2204 FO
  24   24 1631 2708 FO
  24   24 2219 2476 FO
  24   24 1901 2567 FO
  24   24 1720 2638 FO
  24   24 1843 2564 FO
  24   24 3631 2279 FO
  24   24 3441 2194 FO
  24   24 2856 2328 FO
  24   24 3802 2254 FO
  24   24 3504 2236 FO
  24   24 3168 2241 FO
  24   24 4462 2107 FO
  24   24 4213 2129 FO
  24   24 4685 2074 FO
  24   24 4296 2130 FO
  24   24 3858 2245 FO
  24   24 3028 2374 FO
  24   24 2539 2396 FO
  24   24 2143 2501 FO
  24   24 3081 2339 FO
  24   24 2070 2542 FO
  24   24 2800 2349 FO
  24   24 3498 2272 FO
  24   24 3317 2267 FO
  24   24 2761 2331 FO
  24   24 3662 2298 FO
  24   24 3378 2235 FO
  24   24 3058 2290 FO
gs 907 1512 4235 2377 rc
24 w
0 sg
0 58 1195 2923 2 MP stroke
92 0 1149 2923 2 MP stroke
92 0 1149 2981 2 MP stroke
0 104 1388 2783 2 MP stroke
93 0 1341 2783 2 MP stroke
93 0 1341 2887 2 MP stroke
0 51 1580 2679 2 MP stroke
92 0 1534 2679 2 MP stroke
92 0 1534 2730 2 MP stroke
0 68 1773 2584 2 MP stroke
93 0 1726 2584 2 MP stroke
93 0 1726 2652 2 MP stroke
0 52 1965 2518 2 MP stroke
92 0 1919 2518 2 MP stroke
92 0 1919 2570 2 MP stroke
0 48 2157 2481 2 MP stroke
93 0 2111 2481 2 MP stroke
93 0 2111 2529 2 MP stroke
0 41 2350 2426 2 MP stroke
92 0 2304 2426 2 MP stroke
92 0 2304 2467 2 MP stroke
0 63 2542 2375 2 MP stroke
93 0 2496 2375 2 MP stroke
93 0 2496 2438 2 MP stroke
0 71 2735 2311 2 MP stroke
92 0 2689 2311 2 MP stroke
92 0 2689 2382 2 MP stroke
0 55 2927 2278 2 MP stroke
92 0 2881 2278 2 MP stroke
92 0 2881 2333 2 MP stroke
0 75 3120 2254 2 MP stroke
92 0 3074 2254 2 MP stroke
92 0 3074 2329 2 MP stroke
0 80 3312 2232 2 MP stroke
92 0 3266 2232 2 MP stroke
92 0 3266 2312 2 MP stroke
0 70 3505 2205 2 MP stroke
93 0 3458 2205 2 MP stroke
93 0 3458 2275 2 MP stroke
0 78 3697 2207 2 MP stroke
92 0 3651 2207 2 MP stroke
92 0 3651 2285 2 MP stroke
0 89 3890 2165 2 MP stroke
93 0 3843 2165 2 MP stroke
93 0 3843 2254 2 MP stroke
0 65 4082 2127 2 MP stroke
92 0 4036 2127 2 MP stroke
92 0 4036 2192 2 MP stroke
0 40 4274 2111 2 MP stroke
93 0 4228 2111 2 MP stroke
93 0 4228 2151 2 MP stroke
0 39 4467 2092 2 MP stroke
92 0 4421 2092 2 MP stroke
92 0 4421 2131 2 MP stroke
0 30 4659 2081 2 MP stroke
93 0 4613 2081 2 MP stroke
93 0 4613 2111 2 MP stroke
192 -15 193 -20 192 -29 192 -50 193 -36 192 6 193 -32 192 -20 
193 -14 192 -40 193 -61 192 -39 193 -59 192 -39 192 -74 193 -87 
192 -130 193 -117 1195 2952 19 MP stroke
gr

24 w
0 sg
0 j
0 -58 -58 0 0 58 58 0 1166 2923 5 MP
DP
0 -58 -58 0 0 58 58 0 1359 2806 5 MP
DP
0 -58 -58 0 0 58 58 0 1551 2676 5 MP
DP
0 -58 -58 0 0 58 58 0 1744 2589 5 MP
DP
0 -58 -58 0 0 58 58 0 1936 2515 5 MP
DP
0 -58 -58 0 0 58 58 0 2128 2476 5 MP
DP
0 -58 -58 0 0 58 58 0 2321 2417 5 MP
DP
0 -58 -58 0 0 58 58 0 2513 2378 5 MP
DP
0 -58 -58 0 0 58 58 0 2706 2317 5 MP
DP
0 -58 -58 0 0 58 58 0 2898 2277 5 MP
DP
0 -58 -58 0 0 58 58 0 3091 2263 5 MP
DP
0 -58 -58 0 0 58 58 0 3283 2243 5 MP
DP
0 -58 -58 0 0 58 58 0 3476 2211 5 MP
DP
0 -58 -58 0 0 58 58 0 3668 2217 5 MP
DP
0 -58 -58 0 0 58 58 0 3861 2181 5 MP
DP
0 -58 -58 0 0 58 58 0 4053 2131 5 MP
DP
0 -58 -58 0 0 58 58 0 4245 2102 5 MP
DP
0 -58 -58 0 0 58 58 0 4438 2082 5 MP
DP
0 -58 -58 0 0 58 58 0 4630 2067 5 MP
DP
gs 907 1512 4235 2377 rc
gr

1291 1742 mt 
(N) s
%%IncludeResource: font Helvetica
/Helvetica /ISOLatin1Encoding 96 FMSR

1377 1802 mt 
(cells) s
%%IncludeResource: font Helvetica
/Helvetica /ISOLatin1Encoding 120 FMSR

1569 1742 mt 
(=6) s
1291 1980 mt 
(N) s
%%IncludeResource: font Helvetica
/Helvetica /ISOLatin1Encoding 96 FMSR

1377 2040 mt 
(pairs) s
%%IncludeResource: font Helvetica
/Helvetica /ISOLatin1Encoding 120 FMSR

1585 1980 mt 
(=733) s
2092 4218 mt 
(Geometric mean output rate \(AP/s\)) s
 528 3251 mt  -90 rotate
(Output correlation ) s
90 rotate
%%IncludeResource: font Symbol
/Symbol /ISOLatin1Encoding 120 FMSR

 528 2264 mt  -90 rotate
(r) s
90 rotate
%%IncludeResource: font Helvetica
/Helvetica /ISOLatin1Encoding 96 FMSR

 588 2199 mt  -90 rotate
(T) s
90 rotate
6 w
1 sg
0 432 4234 0 0 -432 907 3888 4 MP
PP
-4234 0 0 432 4234 0 0 -432 907 3888 5 MP stroke
4 w
DO
SO
6 w
0 sg
 907 3888 mt 5141 3888 L
5141 3888 mt 5141 3456 L
 907 3888 mt  907 3930 L
%%IncludeResource: font Helvetica
/Helvetica /ISOLatin1Encoding 120 FMSR

 874 4075 mt 
(0) s
1291 3888 mt 1291 3930 L
1258 4075 mt 
(2) s
1676 3888 mt 1676 3930 L
1643 4075 mt 
(4) s
2061 3888 mt 2061 3930 L
2028 4075 mt 
(6) s
2446 3888 mt 2446 3930 L
2413 4075 mt 
(8) s
2831 3888 mt 2831 3930 L
2765 4075 mt 
(10) s
3216 3888 mt 3216 3930 L
3150 4075 mt 
(12) s
3601 3888 mt 3601 3930 L
3535 4075 mt 
(14) s
3986 3888 mt 3986 3930 L
3920 4075 mt 
(16) s
4371 3888 mt 4371 3930 L
4305 4075 mt 
(18) s
4756 3888 mt 4756 3930 L
4690 4075 mt 
(20) s
5141 3888 mt 5141 3930 L
5075 4075 mt 
(22) s
5141 3888 mt 5183 3888 L
5217 3932 mt 
(0) s
5141 3672 mt 5183 3672 L
5217 3716 mt 
(40) s
5141 3456 mt 5183 3456 L
5217 3500 mt 
(80) s
gs 907 3456 4235 433 rc
/c8 { 0.600000 0.600000 1.000000 sr} bdef
c8
0 0 154 0 0 0 926 3888 4 MP
PP
0 60 154 0 0 -60 1118 3888 4 MP
PP
0 103 154 0 0 -103 1311 3888 4 MP
PP
0 76 154 0 0 -76 1503 3888 4 MP
PP
0 152 154 0 0 -152 1696 3888 4 MP
PP
0 157 154 0 0 -157 1888 3888 4 MP
PP
0 184 154 0 0 -184 2080 3888 4 MP
PP
0 173 154 0 0 -173 2273 3888 4 MP
PP
0 195 154 0 0 -195 2465 3888 4 MP
PP
0 179 154 0 0 -179 2658 3888 4 MP
PP
0 211 154 0 0 -211 2850 3888 4 MP
PP
0 281 154 0 0 -281 3043 3888 4 MP
PP
0 297 154 0 0 -297 3235 3888 4 MP
PP
0 287 154 0 0 -287 3428 3888 4 MP
PP
0 395 154 0 0 -395 3620 3888 4 MP
PP
0 308 154 0 0 -308 3813 3888 4 MP
PP
0 254 154 0 0 -254 4005 3888 4 MP
PP
0 276 154 0 0 -276 4197 3888 4 MP
PP
0 222 154 0 0 -222 4390 3888 4 MP
PP
0 157 154 0 0 -157 4582 3888 4 MP
PP
0 0 154 0 0 0 4775 3888 4 MP
PP
0 0 154 0 0 0 4967 3888 4 MP
PP
0 0 154 0 0 0 5160 3888 4 MP
PP
0 0 154 0 0 0 5352 3888 4 MP
PP
0 0 154 0 0 0 5545 3888 4 MP
PP
0 sg
4234 0 907 3888 2 MP stroke
gr

5491 4100 mt  -90 rotate
(Number of pairs) s
90 rotate
1 sg
0 864 1815 0 0 -864 907 1080 4 MP
PP
-1815 0 0 864 1815 0 0 -864 907 1080 5 MP stroke
4 w
DO
SO
6 w
0 sg
 907 1080 mt 2722 1080 L
 907 1080 mt  907  216 L
 907 1080 mt  907 1098 L
 874 1243 mt 
(0) s
1732 1080 mt 1732 1098 L
1666 1243 mt 
(10) s
2557 1080 mt 2557 1098 L
2491 1243 mt 
(20) s
 907  864 mt  888  864 L
 688  908 mt 
(0.5) s
 907  324 mt  888  324 L
 788  368 mt 
(1) s
gs 907 216 1816 865 rc
DA
24 w
0.6 sg
1815 0 907 324 2 MP stroke
SO
6 w
gr

0.6 sg
/c9 { 0.000000 0.000000 1.000000 sr} bdef
c9
  36   36 1616  717 PO
  36   36 1899  746 PO
  36   36 2471  827 PO
  36   36 2367  809 PO
  36   36 1077  615 PO
  36   36 1854  741 PO
  36   36 1250  677 PO
  36   36 1754  731 PO
  36   36 2482  830 PO
  36   36 2255  793 PO
  36   36 1616  717 FO
  36   36 1899  746 FO
  36   36 2471  827 FO
  36   36 2367  809 FO
  36   36 1077  615 FO
  36   36 1854  741 FO
  36   36 1250  677 FO
  36   36 1754  731 FO
  36   36 2482  830 FO
  36   36 2255  793 FO
gs 907 216 1816 865 rc
gr

/c10 { 0.000000 0.500000 1.000000 sr} bdef
c10
  36   36 2521  836 PO
  36   36 2462  827 PO
  36   36 2468  826 PO
  36   36 1988  756 PO
  36   36 2168  780 PO
  36   36 2473  827 PO
  36   36 1035  580 PO
  36   36 1118  639 PO
  36   36 2109  772 PO
  36   36 2539  839 PO
  36   36 2521  836 FO
  36   36 2462  827 FO
  36   36 2468  826 FO
  36   36 1988  756 FO
  36   36 2168  780 FO
  36   36 2473  827 FO
  36   36 1035  580 FO
  36   36 1118  639 FO
  36   36 2109  772 FO
  36   36 2539  839 FO
gs 907 216 1816 865 rc
gr

/c11 { 0.000000 1.000000 1.000000 sr} bdef
c11
  36   36 2341  807 PO
  36   36 2032  760 PO
  36   36 1671  718 PO
  36   36 1297  684 PO
  36   36 2201  785 PO
  36   36 1501  707 PO
  36   36 1451  701 PO
  36   36 1299  687 PO
  36   36 1394  694 PO
  36   36 1421  698 PO
  36   36 2341  807 FO
  36   36 2032  760 FO
  36   36 1671  718 FO
  36   36 1297  684 FO
  36   36 2201  785 FO
  36   36 1501  707 FO
  36   36 1451  701 FO
  36   36 1299  687 FO
  36   36 1394  694 FO
  36   36 1421  698 FO
gs 907 216 1816 865 rc
gr

/c12 { 0.500000 1.000000 0.500000 sr} bdef
c12
  36   36 1006  548 PO
  36   36 1045  595 PO
  36   36 1665  723 PO
  36   36 1071  604 PO
  36   36 2485  830 PO
  36   36 1373  696 PO
  36   36 1840  738 PO
  36   36 1653  722 PO
  36   36 1375  694 PO
  36   36 2402  817 PO
  36   36 1006  548 FO
  36   36 1045  595 FO
  36   36 1665  723 FO
  36   36 1071  604 FO
  36   36 2485  830 FO
  36   36 1373  696 FO
  36   36 1840  738 FO
  36   36 1653  722 FO
  36   36 1375  694 FO
  36   36 2402  817 FO
gs 907 216 1816 865 rc
gr

/c13 { 1.000000 1.000000 0.000000 sr} bdef
c13
  36   36 1751  731 PO
  36   36 1919  749 PO
  36   36 1170  661 PO
  36   36 1041  585 PO
  36   36 2210  786 PO
  36   36 1337  691 PO
  36   36 1855  739 PO
  36   36 2522  835 PO
  36   36 1571  714 PO
  36   36 1765  729 PO
  36   36 1751  731 FO
  36   36 1919  749 FO
  36   36 1170  661 FO
  36   36 1041  585 FO
  36   36 2210  786 FO
  36   36 1337  691 FO
  36   36 1855  739 FO
  36   36 2522  835 FO
  36   36 1571  714 FO
  36   36 1765  729 FO
gs 907 216 1816 865 rc
gr

/c14 { 1.000000 0.500000 0.000000 sr} bdef
c14
  36   36 2344  806 PO
  36   36 1131  645 PO
  36   36 2150  778 PO
  36   36 1643  716 PO
  36   36 1329  689 PO
  36   36 1189  667 PO
  36   36 2531  837 PO
  36   36 2214  786 PO
  36   36 1281  684 PO
  36   36 1898  744 PO
  36   36 2344  806 FO
  36   36 1131  645 FO
  36   36 2150  778 FO
  36   36 1643  716 FO
  36   36 1329  689 FO
  36   36 1189  667 FO
  36   36 2531  837 FO
  36   36 2214  786 FO
  36   36 1281  684 FO
  36   36 1898  744 FO
gs 907 216 1816 865 rc
gr

0 sg
%%IncludeResource: font Symbol
/Symbol /ISOLatin1Encoding 120 FMSR

1589 1354 mt 
(n) s
%%IncludeResource: font Helvetica
/Helvetica /ISOLatin1Encoding 96 FMSR

1651 1414 mt 
(i) s
%%IncludeResource: font Helvetica
/Helvetica /ISOLatin1Encoding 120 FMSR

1672 1354 mt 
( \(AP/s\)) s
 552  743 mt  -90 rotate
(CV) s
90 rotate
%%IncludeResource: font Helvetica
/Helvetica /ISOLatin1Encoding 96 FMSR

 612  577 mt  -90 rotate
(i) s
90 rotate
1 sg
0 864 1815 0 0 -864 3326 1080 4 MP
PP
-1815 0 0 864 1815 0 0 -864 3326 1080 5 MP stroke
4 w
DO
SO
6 w
0 sg
3326 1080 mt 5141 1080 L
3326 1080 mt 3326  216 L
3585 1080 mt 3585 1098 L
%%IncludeResource: font Helvetica
/Helvetica /ISOLatin1Encoding 120 FMSR

3502 1243 mt 
(0.4) s
4103 1080 mt 4103 1098 L
4020 1243 mt 
(0.6) s
4622 1080 mt 4622 1098 L
4539 1243 mt 
(0.8) s
5141 1080 mt 5141 1098 L
5108 1243 mt 
(1) s
3326 1080 mt 3307 1080 L
3207 1124 mt 
(0) s
3326  734 mt 3307  734 L
3107  778 mt 
(0.2) s
3326  388 mt 3307  388 L
3107  432 mt 
(0.4) s
gs 3326 216 1816 865 rc
gr

0.6 sg
  24   24 4148  511 PO
  24   24 4119  510 PO
  24   24 4128  511 PO
  24   24 4144  517 PO
  24   24 4194  524 PO
  24   24 4235  587 PO
  24   24 4112  518 PO
  24   24 4207  549 PO
  24   24 4214  546 PO
  24   24 4232  581 PO
  24   24 4223  563 PO
  24   24 4219  558 PO
  24   24 4189  517 PO
  24   24 4221  562 PO
  24   24 4170  503 PO
  24   24 4190  519 PO
  24   24 4223  565 PO
  24   24 4179  518 PO
  24   24 4157  516 PO
  24   24 4111  508 PO
  24   24 4227  573 PO
  24   24 4169  520 PO
  24   24 4199  546 PO
  24   24 4181  526 PO
  24   24 4121  521 PO
  24   24 4196  528 PO
  24   24 4229  583 PO
  24   24 4110  525 PO
  24   24 4235  592 PO
  24   24 4163  518 PO
  24   24 4014  471 PO
  24   24 4026  473 PO
  24   24 4027  484 PO
  24   24 4114  479 PO
  24   24 4085  470 PO
  24   24 4026  474 PO
  24   24 4095  468 PO
  24   24 4010  485 PO
  24   24 4051  475 PO
  24   24 4110  476 PO
  24   24 4159  506 PO
  24   24 4079  461 PO
  24   24 4172  539 PO
  24   24 4179  543 PO
  24   24 4184  556 PO
  24   24 4154  510 PO
  24   24 4022  477 PO
  24   24 4136  477 PO
  24   24 4155  509 PO
  24   24 4039  478 PO
  24   24 4144  488 PO
  24   24 4123  486 PO
  24   24 4078  464 PO
  24   24 4134  479 PO
  24   24 4016  477 PO
  24   24 4164  519 PO
  24   24 4147  493 PO
  24   24 4052  476 PO
  24   24 4088  477 PO
  24   24 4162  505 PO
  24   24 4014  475 PO
  24   24 4077  471 PO
  24   24 4129  479 PO
  24   24 3920  434 PO
  24   24 3931  424 PO
  24   24 3932  429 PO
  24   24 4014  462 PO
  24   24 3987  447 PO
  24   24 3932  429 PO
  24   24 3996  457 PO
  24   24 3917  431 PO
  24   24 3955  435 PO
  24   24 4010  468 PO
  24   24 3981  455 PO
  24   24 3928  434 PO
  24   24 4034  481 PO
  24   24 3943  436 PO
  24   24 4042  497 PO
  24   24 4023  481 PO
  24   24 3980  434 PO
  24   24 4033  487 PO
  24   24 3922  416 PO
  24   24 4045  502 PO
  24   24 3956  422 PO
  24   24 3989  449 PO
  24   24 3920  422 PO
  24   24 3979  437 PO
  24   24 4028  476 PO
  24   24 3942  427 PO
  24   24 3953  418 PO
  24   24 3954  432 PO
  24   24 4037  458 PO
  24   24 4009  443 PO
  24   24 3953  431 PO
  24   24 4018  445 PO
  24   24 3938  436 PO
  24   24 3977  433 PO
  24   24 4033  461 PO
  24   24 4080  515 PO
  24   24 4003  442 PO
  24   24 4075  511 PO
  24   24 3949  431 PO
  24   24 4057  473 PO
  24   24 4076  511 PO
  24   24 3965  430 PO
  24   24 4065  491 PO
  24   24 4045  474 PO
  24   24 4002  438 PO
  24   24 4056  487 PO
  24   24 3944  430 PO
  24   24 4068  493 PO
  24   24 3978  428 PO
  24   24 4012  446 PO
  24   24 4082  515 PO
  24   24 3941  429 PO
  24   24 4002  433 PO
  24   24 4051  471 PO
  24   24 4482  728 PO
  24   24 4412  695 PO
  24   24 4520  751 PO
  24   24 4466  731 PO
  24   24 4454  703 PO
  24   24 4385  682 PO
  24   24 4476  729 PO
  24   24 4405  699 PO
  24   24 4378  684 PO
  24   24 4020  482 PO
  24   24 4031  477 PO
  24   24 4032  484 PO
  24   24 4120  484 PO
  24   24 4091  477 PO
  24   24 4032  484 PO
  24   24 4100  487 PO
  24   24 4016  489 PO
  24   24 4057  475 PO
  24   24 4116  474 PO
  24   24 4165  504 PO
  24   24 4085  464 PO
  24   24 4178  537 PO
  24   24 4185  532 PO
  24   24 4194  560 PO
  24   24 4190  535 PO
  24   24 4160  503 PO
  24   24 4027  484 PO
  24   24 4142  477 PO
  24   24 4161  506 PO
  24   24 4044  477 PO
  24   24 4150  487 PO
  24   24 4129  487 PO
  24   24 4084  467 PO
  24   24 4140  487 PO
  24   24 4022  488 PO
  24   24 4170  513 PO
  24   24 4153  496 PO
  24   24 4058  474 PO
  24   24 4094  471 PO
  24   24 4168  508 PO
  24   24 4019  489 PO
  24   24 4083  466 PO
  24   24 4135  481 PO
  24   24 4338  660 PO
  24   24 4284  625 PO
  24   24 4256  601 PO
  24   24 4263  605 PO
  24   24 4281  617 PO
  24   24 4272  606 PO
  24   24 4267  596 PO
  24   24 4269  609 PO
  24   24 4271  604 PO
  24   24 4311  653 PO
  24   24 4276  614 PO
  24   24 4247  605 PO
  24   24 4331  659 PO
  24   24 4278  623 PO
  24   24 4304  638 PO
  24   24 4284  625 PO
  24   24 4031  495 PO
  24   24 4043  491 PO
  24   24 4044  492 PO
  24   24 4132  491 PO
  24   24 4103  490 PO
  24   24 4043  492 PO
  24   24 4112  474 PO
  24   24 4027  507 PO
  24   24 4068  488 PO
  24   24 4128  484 PO
  24   24 4178  511 PO
  24   24 4097  487 PO
  24   24 4191  542 PO
  24   24 4198  539 PO
  24   24 4207  548 PO
  24   24 4202  539 PO
  24   24 4172  511 PO
  24   24 4039  486 PO
  24   24 4204  555 PO
  24   24 4154  487 PO
  24   24 4174  498 PO
  24   24 4206  554 PO
  24   24 4056  492 PO
  24   24 4163  490 PO
  24   24 4142  492 PO
  24   24 4096  481 PO
  24   24 4210  558 PO
  24   24 4153  482 PO
  24   24 4033  496 PO
  24   24 4183  520 PO
  24   24 4165  489 PO
  24   24 4070  482 PO
  24   24 4106  477 PO
  24   24 4180  506 PO
  24   24 4031  498 PO
  24   24 4095  481 PO
  24   24 4147  475 PO
  24   24 3917  435 PO
  24   24 3928  427 PO
  24   24 3929  434 PO
  24   24 4011  472 PO
  24   24 3984  453 PO
  24   24 3929  430 PO
  24   24 3992  464 PO
  24   24 3914  428 PO
  24   24 3952  434 PO
  24   24 4007  463 PO
  24   24 3978  439 PO
  24   24 3924  430 PO
  24   24 4031  490 PO
  24   24 3940  430 PO
  24   24 4039  505 PO
  24   24 4019  485 PO
  24   24 3977  432 PO
  24   24 4030  491 PO
  24   24 3919  428 PO
  24   24 4041  503 PO
  24   24 3953  439 PO
  24   24 3986  446 PO
  24   24 3917  425 PO
  24   24 3976  451 PO
  24   24 4024  487 PO
  24   24 3960  444 PO
  24   24 3972  438 PO
  24   24 3973  441 PO
  24   24 4057  460 PO
  24   24 4029  443 PO
  24   24 3972  422 PO
  24   24 4038  461 PO
  24   24 3957  445 PO
  24   24 3996  435 PO
  24   24 4053  454 PO
  24   24 4100  496 PO
  24   24 4023  448 PO
  24   24 4095  500 PO
  24   24 3968  437 PO
  24   24 4078  466 PO
  24   24 4096  495 PO
  24   24 3984  447 PO
  24   24 4086  492 PO
  24   24 4066  475 PO
  24   24 4022  435 PO
  24   24 4076  480 PO
  24   24 3963  436 PO
  24   24 4088  489 PO
  24   24 3997  438 PO
  24   24 4032  446 PO
  24   24 4103  516 PO
  24   24 3960  437 PO
  24   24 4021  441 PO
  24   24 4071  466 PO
  24   24 3944  442 PO
  24   24 3999  459 PO
  24   24 3970  450 PO
  24   24 3917  433 PO
  24   24 4023  480 PO
  24   24 3932  433 PO
  24   24 4030  510 PO
  24   24 4011  485 PO
  24   24 3969  440 PO
  24   24 4021  504 PO
  24   24 3912  421 PO
  24   24 4033  492 PO
  24   24 3945  437 PO
  24   24 3978  447 PO
  24   24 3909  435 PO
  24   24 3968  437 PO
  24   24 4016  477 PO
  24   24 3955  437 PO
  24   24 4010  466 PO
  24   24 3981  449 PO
  24   24 3928  437 PO
  24   24 4034  486 PO
  24   24 3943  431 PO
  24   24 4042  501 PO
  24   24 4023  475 PO
  24   24 3980  440 PO
  24   24 4033  493 PO
  24   24 3923  425 PO
  24   24 4045  492 PO
  24   24 3956  435 PO
  24   24 3990  440 PO
  24   24 3920  428 PO
  24   24 3980  445 PO
  24   24 4028  479 PO
  24   24 3956  442 PO
  24   24 4011  462 PO
  24   24 3982  450 PO
  24   24 3929  438 PO
  24   24 4035  486 PO
  24   24 3944  432 PO
  24   24 4044  499 PO
  24   24 4024  489 PO
  24   24 3981  427 PO
  24   24 4034  487 PO
  24   24 3924  424 PO
  24   24 4046  499 PO
  24   24 3957  456 PO
  24   24 3991  458 PO
  24   24 3921  421 PO
  24   24 3981  449 PO
  24   24 4029  486 PO
  24   24 4039  467 PO
  24   24 4098  468 PO
  24   24 4147  510 PO
  24   24 4067  464 PO
  24   24 4159  543 PO
  24   24 4166  552 PO
  24   24 4141  503 PO
  24   24 4010  465 PO
  24   24 4123  469 PO
  24   24 4142  503 PO
  24   24 4027  467 PO
  24   24 4132  493 PO
  24   24 4111  486 PO
  24   24 4066  458 PO
  24   24 4122  478 PO
  24   24 4005  467 PO
  24   24 4151  523 PO
  24   24 4134  495 PO
  24   24 4040  460 PO
  24   24 4076  470 PO
  24   24 4149  509 PO
  24   24 4002  466 PO
  24   24 4065  462 PO
  24   24 4116  472 PO
  24   24 4012  445 PO
  24   24 4069  459 PO
  24   24 4117  506 PO
  24   24 4039  455 PO
  24   24 4112  502 PO
  24   24 3983  446 PO
  24   24 4094  476 PO
  24   24 4113  499 PO
  24   24 4000  444 PO
  24   24 4102  492 PO
  24   24 4082  474 PO
  24   24 4038  441 PO
  24   24 4093  472 PO
  24   24 3978  444 PO
  24   24 4122  518 PO
  24   24 4105  491 PO
  24   24 4013  451 PO
  24   24 4048  454 PO
  24   24 4119  507 PO
  24   24 3975  451 PO
  24   24 4037  449 PO
  24   24 4087  479 PO
  24   24 3956  432 PO
  24   24 4011  460 PO
  24   24 3982  443 PO
  24   24 3928  427 PO
  24   24 4035  482 PO
  24   24 3944  435 PO
  24   24 4043  501 PO
  24   24 4023  477 PO
  24   24 3981  442 PO
  24   24 4033  478 PO
  24   24 3923  423 PO
  24   24 4045  499 PO
  24   24 3957  421 PO
  24   24 3990  443 PO
  24   24 3921  427 PO
  24   24 3980  448 PO
  24   24 4028  486 PO
  24   24 4563  754 PO
  24   24 4507  743 PO
  24   24 4495  727 PO
  24   24 4518  750 PO
  24   24 4445  727 PO
  24   24 4329  656 PO
  24   24 4325  659 PO
  24   24 4436  727 PO
  24   24 4425  700 PO
  24   24 4357  677 PO
  24   24 4447  719 PO
  24   24 4377  680 PO
  24   24 4349  660 PO
  24   24 4329  651 PO
  24   24 4020  460 PO
  24   24 4078  462 PO
  24   24 4126  501 PO
  24   24 4048  456 PO
  24   24 4121  506 PO
  24   24 3992  452 PO
  24   24 4103  479 PO
  24   24 4122  508 PO
  24   24 4008  466 PO
  24   24 4112  489 PO
  24   24 4091  472 PO
  24   24 4047  452 PO
  24   24 4102  476 PO
  24   24 3986  461 PO
  24   24 4131  524 PO
  24   24 4114  484 PO
  24   24 4022  454 PO
  24   24 4056  456 PO
  24   24 4129  500 PO
  24   24 3984  457 PO
  24   24 4046  456 PO
  24   24 4096  474 PO
  24   24 3940  442 PO
  24   24 3995  469 PO
  24   24 3966  445 PO
  24   24 3913  429 PO
  24   24 4019  480 PO
  24   24 3929  450 PO
  24   24 4027  511 PO
  24   24 4007  488 PO
  24   24 3965  443 PO
  24   24 4017  497 PO
  24   24 3908  427 PO
  24   24 4029  509 PO
  24   24 3941  436 PO
  24   24 3974  441 PO
  24   24 3906  431 PO
  24   24 3964  446 PO
  24   24 4012  491 PO
  24   24 4077  506 PO
  24   24 3951  440 PO
  24   24 4060  481 PO
  24   24 4078  513 PO
  24   24 3967  434 PO
  24   24 4068  490 PO
  24   24 4048  481 PO
  24   24 4005  429 PO
  24   24 4058  482 PO
  24   24 3946  430 PO
  24   24 4070  485 PO
  24   24 3980  438 PO
  24   24 4014  450 PO
  24   24 4084  519 PO
  24   24 3944  437 PO
  24   24 4004  444 PO
  24   24 4053  470 PO
  24   24 4137  508 PO
  24   24 4006  473 PO
  24   24 4119  477 PO
  24   24 4138  503 PO
  24   24 4023  469 PO
  24   24 4127  499 PO
  24   24 4107  487 PO
  24   24 4062  461 PO
  24   24 4117  483 PO
  24   24 4001  474 PO
  24   24 4147  521 PO
  24   24 4130  486 PO
  24   24 4036  456 PO
  24   24 4072  465 PO
  24   24 4145  514 PO
  24   24 3998  464 PO
  24   24 4061  460 PO
  24   24 4112  479 PO
  24   24 4187  517 PO
  24   24 4219  558 PO
  24   24 4169  495 PO
  24   24 4188  508 PO
  24   24 4221  567 PO
  24   24 4069  518 PO
  24   24 4177  508 PO
  24   24 4156  507 PO
  24   24 4110  499 PO
  24   24 4225  583 PO
  24   24 4167  508 PO
  24   24 4197  533 PO
  24   24 4180  512 PO
  24   24 4083  513 PO
  24   24 4120  505 PO
  24   24 4195  520 PO
  24   24 4228  572 PO
  24   24 4109  500 PO
  24   24 4161  497 PO
  24   24 4228  582 PO
  24   24 4261  603 PO
  24   24 4229  581 PO
  24   24 4263  596 PO
  24   24 4303  636 PO
  24   24 4267  595 PO
  24   24 4239  589 PO
  24   24 4322  647 PO
  24   24 4236  589 PO
  24   24 4270  611 PO
  24   24 4296  632 PO
  24   24 4276  618 PO
  24   24 4105  505 PO
  24   24 3977  439 PO
  24   24 4088  476 PO
  24   24 4106  504 PO
  24   24 3994  449 PO
  24   24 4096  484 PO
  24   24 4076  473 PO
  24   24 4032  439 PO
  24   24 4086  487 PO
  24   24 3972  445 PO
  24   24 4115  521 PO
  24   24 4098  490 PO
  24   24 4007  448 PO
  24   24 4041  457 PO
  24   24 4113  504 PO
  24   24 3969  433 PO
  24   24 4031  438 PO
  24   24 4081  471 PO
  24   24 4200  541 PO
  24   24 4233  566 PO
  24   24 4182  530 PO
  24   24 4202  539 PO
  24   24 4235  568 PO
  24   24 4190  530 PO
  24   24 4169  536 PO
  24   24 4239  579 PO
  24   24 4180  537 PO
  24   24 4211  551 PO
  24   24 4193  541 PO
  24   24 4208  541 PO
  24   24 4241  587 PO
  24   24 4247  602 PO
  24   24 4174  533 PO
  24   24 4207  554 PO
  24   24 4240  578 PO
  24   24 4188  549 PO
  24   24 4208  550 PO
  24   24 4242  573 PO
  24   24 4197  543 PO
  24   24 4176  554 PO
  24   24 4246  576 PO
  24   24 4187  544 PO
  24   24 4218  552 PO
  24   24 4200  548 PO
  24   24 4215  551 PO
  24   24 4248  577 PO
  24   24 4274  620 PO
  24   24 4254  599 PO
  24   24 4181  549 PO
  24   24 4224  583 PO
  24   24 4257  597 PO
  24   24 4226  578 PO
  24   24 4259  590 PO
  24   24 4299  636 PO
  24   24 4263  590 PO
  24   24 4235  582 PO
  24   24 4318  648 PO
  24   24 4232  575 PO
  24   24 4266  602 PO
  24   24 4292  625 PO
  24   24 4272  612 PO
  24   24 4216  550 PO
  24   24 4249  586 PO
  24   24 4197  552 PO
  24   24 4217  552 PO
  24   24 4251  584 PO
  24   24 4206  552 PO
  24   24 4290  632 PO
  24   24 4255  585 PO
  24   24 4196  557 PO
  24   24 4227  563 PO
  24   24 4209  560 PO
  24   24 4224  566 PO
  24   24 4257  583 PO
  24   24 4283  627 PO
  24   24 4264  589 PO
  24   24 4212  556 PO
  24   24 4244  576 PO
  24   24 4193  547 PO
  24   24 4213  546 PO
  24   24 4246  575 PO
  24   24 4202  548 PO
  24   24 4180  558 PO
  24   24 4286  635 PO
  24   24 4250  574 PO
  24   24 4191  547 PO
  24   24 4222  561 PO
  24   24 4204  553 PO
  24   24 4220  547 PO
  24   24 4253  597 PO
  24   24 4279  620 PO
  24   24 4259  599 PO
  24   24 4185  555 PO
  24   24 4556  748 PO
  24   24 4408  710 PO
  24   24 4501  739 PO
  24   24 4429  719 PO
  24   24 4172  510 PO
  24   24 4150  504 PO
  24   24 4104  499 PO
  24   24 4220  567 PO
  24   24 4162  505 PO
  24   24 4192  535 PO
  24   24 4174  510 PO
  24   24 4078  520 PO
  24   24 4114  503 PO
  24   24 4189  516 PO
  24   24 4222  576 PO
  24   24 4104  520 PO
  24   24 4156  503 PO
  24   24 4398  685 PO
  24   24 4489  734 PO
  24   24 4418  700 PO
  24   24 4390  685 PO
  24   24 4038  502 PO
  24   24 4019  482 PO
  24   24 3976  432 PO
  24   24 4029  493 PO
  24   24 3919  425 PO
  24   24 4040  503 PO
  24   24 3952  435 PO
  24   24 3985  452 PO
  24   24 3916  435 PO
  24   24 3975  439 PO
  24   24 4024  484 PO
  24   24 4204  551 PO
  24   24 4288  629 PO
  24   24 4252  587 PO
  24   24 4224  569 PO
  24   24 4206  559 PO
  24   24 4222  555 PO
  24   24 4255  584 PO
  24   24 4281  622 PO
  24   24 4261  597 PO
  24   24 4154  486 PO
  24   24 4132  479 PO
  24   24 4087  465 PO
  24   24 4143  484 PO
  24   24 4025  486 PO
  24   24 4173  515 PO
  24   24 4156  498 PO
  24   24 4061  476 PO
  24   24 4097  469 PO
  24   24 4171  499 PO
  24   24 4022  486 PO
  24   24 4086  470 PO
  24   24 4138  478 PO
  24   24 4173  503 PO
  24   24 4152  508 PO
  24   24 4105  499 PO
  24   24 4221  571 PO
  24   24 4163  505 PO
  24   24 4193  527 PO
  24   24 4176  504 PO
  24   24 4079  506 PO
  24   24 4116  500 PO
  24   24 4191  518 PO
  24   24 4223  574 PO
  24   24 4105  496 PO
  24   24 4229  588 PO
  24   24 4157  504 PO
  24   24 4206  558 PO
  24   24 4290  626 PO
  24   24 4255  586 PO
  24   24 4226  564 PO
  24   24 4208  567 PO
  24   24 4224  554 PO
  24   24 4257  596 PO
  24   24 4283  618 PO
  24   24 4263  593 PO
  24   24 4055  505 PO
  24   24 4035  482 PO
  24   24 3993  437 PO
  24   24 4046  487 PO
  24   24 3934  427 PO
  24   24 4058  502 PO
  24   24 3968  438 PO
  24   24 4002  454 PO
  24   24 3932  435 PO
  24   24 3992  440 PO
  24   24 4040  476 PO
  24   24 4069  486 PO
  24   24 4105  481 PO
  24   24 4180  519 PO
  24   24 4212  581 PO
  24   24 4030  507 PO
  24   24 4094  485 PO
  24   24 4146  490 PO
  24   24 4049  477 PO
  24   24 4085  475 PO
  24   24 4158  505 PO
  24   24 4011  489 PO
  24   24 4074  469 PO
  24   24 4125  484 PO
  24   24 4350  674 PO
  24   24 4297  638 PO
  24   24 4323  659 PO
  24   24 4303  636 PO
  24   24 4439  710 PO
  24   24 4006  436 PO
  24   24 4040  442 PO
  24   24 4112  508 PO
  24   24 3968  433 PO
  24   24 4030  434 PO
  24   24 4080  467 PO
  24   24 4313  651 PO
  24   24 4228  566 PO
  24   24 4261  599 PO
  24   24 4287  625 PO
  24   24 4267  598 PO
  24   24 4060  494 PO
  24   24 4095  464 PO
  24   24 4169  512 PO
  24   24 4021  486 PO
  24   24 4085  479 PO
  24   24 4136  481 PO
  24   24 3947  432 PO
  24   24 3980  440 PO
  24   24 3911  420 PO
  24   24 3970  440 PO
  24   24 4018  482 PO
  24   24 4124  529 PO
  24   24 4200  537 PO
  24   24 4233  575 PO
  24   24 4113  516 PO
  24   24 4239  590 PO
  24   24 4166  520 PO
  24   24 4072  492 PO
  24   24 4108  490 PO
  24   24 4182  514 PO
  24   24 4032  502 PO
  24   24 4097  479 PO
  24   24 4149  498 PO
  24   24 4148  511 FO
  24   24 4119  510 FO
  24   24 4128  511 FO
  24   24 4144  517 FO
  24   24 4194  524 FO
  24   24 4235  587 FO
  24   24 4112  518 FO
  24   24 4207  549 FO
  24   24 4214  546 FO
  24   24 4232  581 FO
  24   24 4223  563 FO
  24   24 4219  558 FO
  24   24 4189  517 FO
  24   24 4221  562 FO
  24   24 4170  503 FO
  24   24 4190  519 FO
  24   24 4223  565 FO
  24   24 4179  518 FO
  24   24 4157  516 FO
  24   24 4111  508 FO
  24   24 4227  573 FO
  24   24 4169  520 FO
  24   24 4199  546 FO
  24   24 4181  526 FO
  24   24 4121  521 FO
  24   24 4196  528 FO
  24   24 4229  583 FO
  24   24 4110  525 FO
  24   24 4235  592 FO
  24   24 4163  518 FO
  24   24 4014  471 FO
  24   24 4026  473 FO
  24   24 4027  484 FO
  24   24 4114  479 FO
  24   24 4085  470 FO
  24   24 4026  474 FO
  24   24 4095  468 FO
  24   24 4010  485 FO
  24   24 4051  475 FO
  24   24 4110  476 FO
  24   24 4159  506 FO
  24   24 4079  461 FO
  24   24 4172  539 FO
  24   24 4179  543 FO
  24   24 4184  556 FO
  24   24 4154  510 FO
  24   24 4022  477 FO
  24   24 4136  477 FO
  24   24 4155  509 FO
  24   24 4039  478 FO
  24   24 4144  488 FO
  24   24 4123  486 FO
  24   24 4078  464 FO
  24   24 4134  479 FO
  24   24 4016  477 FO
  24   24 4164  519 FO
  24   24 4147  493 FO
  24   24 4052  476 FO
  24   24 4088  477 FO
  24   24 4162  505 FO
  24   24 4014  475 FO
  24   24 4077  471 FO
  24   24 4129  479 FO
  24   24 3920  434 FO
  24   24 3931  424 FO
  24   24 3932  429 FO
  24   24 4014  462 FO
  24   24 3987  447 FO
  24   24 3932  429 FO
  24   24 3996  457 FO
  24   24 3917  431 FO
  24   24 3955  435 FO
  24   24 4010  468 FO
  24   24 3981  455 FO
  24   24 3928  434 FO
  24   24 4034  481 FO
  24   24 3943  436 FO
  24   24 4042  497 FO
  24   24 4023  481 FO
  24   24 3980  434 FO
  24   24 4033  487 FO
  24   24 3922  416 FO
  24   24 4045  502 FO
  24   24 3956  422 FO
  24   24 3989  449 FO
  24   24 3920  422 FO
  24   24 3979  437 FO
  24   24 4028  476 FO
  24   24 3942  427 FO
  24   24 3953  418 FO
  24   24 3954  432 FO
  24   24 4037  458 FO
  24   24 4009  443 FO
  24   24 3953  431 FO
  24   24 4018  445 FO
  24   24 3938  436 FO
  24   24 3977  433 FO
  24   24 4033  461 FO
  24   24 4080  515 FO
  24   24 4003  442 FO
  24   24 4075  511 FO
  24   24 3949  431 FO
  24   24 4057  473 FO
  24   24 4076  511 FO
  24   24 3965  430 FO
  24   24 4065  491 FO
  24   24 4045  474 FO
  24   24 4002  438 FO
  24   24 4056  487 FO
  24   24 3944  430 FO
  24   24 4068  493 FO
  24   24 3978  428 FO
  24   24 4012  446 FO
  24   24 4082  515 FO
  24   24 3941  429 FO
  24   24 4002  433 FO
  24   24 4051  471 FO
  24   24 4482  728 FO
  24   24 4412  695 FO
  24   24 4520  751 FO
  24   24 4466  731 FO
  24   24 4454  703 FO
  24   24 4385  682 FO
  24   24 4476  729 FO
  24   24 4405  699 FO
  24   24 4378  684 FO
  24   24 4020  482 FO
  24   24 4031  477 FO
  24   24 4032  484 FO
  24   24 4120  484 FO
  24   24 4091  477 FO
  24   24 4032  484 FO
  24   24 4100  487 FO
  24   24 4016  489 FO
  24   24 4057  475 FO
  24   24 4116  474 FO
  24   24 4165  504 FO
  24   24 4085  464 FO
  24   24 4178  537 FO
  24   24 4185  532 FO
  24   24 4194  560 FO
  24   24 4190  535 FO
  24   24 4160  503 FO
  24   24 4027  484 FO
  24   24 4142  477 FO
  24   24 4161  506 FO
  24   24 4044  477 FO
  24   24 4150  487 FO
  24   24 4129  487 FO
  24   24 4084  467 FO
  24   24 4140  487 FO
  24   24 4022  488 FO
  24   24 4170  513 FO
  24   24 4153  496 FO
  24   24 4058  474 FO
  24   24 4094  471 FO
  24   24 4168  508 FO
  24   24 4019  489 FO
  24   24 4083  466 FO
  24   24 4135  481 FO
  24   24 4338  660 FO
  24   24 4284  625 FO
  24   24 4256  601 FO
  24   24 4263  605 FO
  24   24 4281  617 FO
  24   24 4272  606 FO
  24   24 4267  596 FO
  24   24 4269  609 FO
  24   24 4271  604 FO
  24   24 4311  653 FO
  24   24 4276  614 FO
  24   24 4247  605 FO
  24   24 4331  659 FO
  24   24 4278  623 FO
  24   24 4304  638 FO
  24   24 4284  625 FO
  24   24 4031  495 FO
  24   24 4043  491 FO
  24   24 4044  492 FO
  24   24 4132  491 FO
  24   24 4103  490 FO
  24   24 4043  492 FO
  24   24 4112  474 FO
  24   24 4027  507 FO
  24   24 4068  488 FO
  24   24 4128  484 FO
  24   24 4178  511 FO
  24   24 4097  487 FO
  24   24 4191  542 FO
  24   24 4198  539 FO
  24   24 4207  548 FO
  24   24 4202  539 FO
  24   24 4172  511 FO
  24   24 4039  486 FO
  24   24 4204  555 FO
  24   24 4154  487 FO
  24   24 4174  498 FO
  24   24 4206  554 FO
  24   24 4056  492 FO
  24   24 4163  490 FO
  24   24 4142  492 FO
  24   24 4096  481 FO
  24   24 4210  558 FO
  24   24 4153  482 FO
  24   24 4033  496 FO
  24   24 4183  520 FO
  24   24 4165  489 FO
  24   24 4070  482 FO
  24   24 4106  477 FO
  24   24 4180  506 FO
  24   24 4031  498 FO
  24   24 4095  481 FO
  24   24 4147  475 FO
  24   24 3917  435 FO
  24   24 3928  427 FO
  24   24 3929  434 FO
  24   24 4011  472 FO
  24   24 3984  453 FO
  24   24 3929  430 FO
  24   24 3992  464 FO
  24   24 3914  428 FO
  24   24 3952  434 FO
  24   24 4007  463 FO
  24   24 3978  439 FO
  24   24 3924  430 FO
  24   24 4031  490 FO
  24   24 3940  430 FO
  24   24 4039  505 FO
  24   24 4019  485 FO
  24   24 3977  432 FO
  24   24 4030  491 FO
  24   24 3919  428 FO
  24   24 4041  503 FO
  24   24 3953  439 FO
  24   24 3986  446 FO
  24   24 3917  425 FO
  24   24 3976  451 FO
  24   24 4024  487 FO
  24   24 3960  444 FO
  24   24 3972  438 FO
  24   24 3973  441 FO
  24   24 4057  460 FO
  24   24 4029  443 FO
  24   24 3972  422 FO
  24   24 4038  461 FO
  24   24 3957  445 FO
  24   24 3996  435 FO
  24   24 4053  454 FO
  24   24 4100  496 FO
  24   24 4023  448 FO
  24   24 4095  500 FO
  24   24 3968  437 FO
  24   24 4078  466 FO
  24   24 4096  495 FO
  24   24 3984  447 FO
  24   24 4086  492 FO
  24   24 4066  475 FO
  24   24 4022  435 FO
  24   24 4076  480 FO
  24   24 3963  436 FO
  24   24 4088  489 FO
  24   24 3997  438 FO
  24   24 4032  446 FO
  24   24 4103  516 FO
  24   24 3960  437 FO
  24   24 4021  441 FO
  24   24 4071  466 FO
  24   24 3944  442 FO
  24   24 3999  459 FO
  24   24 3970  450 FO
  24   24 3917  433 FO
  24   24 4023  480 FO
  24   24 3932  433 FO
  24   24 4030  510 FO
  24   24 4011  485 FO
  24   24 3969  440 FO
  24   24 4021  504 FO
  24   24 3912  421 FO
  24   24 4033  492 FO
  24   24 3945  437 FO
  24   24 3978  447 FO
  24   24 3909  435 FO
  24   24 3968  437 FO
  24   24 4016  477 FO
  24   24 3955  437 FO
  24   24 4010  466 FO
  24   24 3981  449 FO
  24   24 3928  437 FO
  24   24 4034  486 FO
  24   24 3943  431 FO
  24   24 4042  501 FO
  24   24 4023  475 FO
  24   24 3980  440 FO
  24   24 4033  493 FO
  24   24 3923  425 FO
  24   24 4045  492 FO
  24   24 3956  435 FO
  24   24 3990  440 FO
  24   24 3920  428 FO
  24   24 3980  445 FO
  24   24 4028  479 FO
  24   24 3956  442 FO
  24   24 4011  462 FO
  24   24 3982  450 FO
  24   24 3929  438 FO
  24   24 4035  486 FO
  24   24 3944  432 FO
  24   24 4044  499 FO
  24   24 4024  489 FO
  24   24 3981  427 FO
  24   24 4034  487 FO
  24   24 3924  424 FO
  24   24 4046  499 FO
  24   24 3957  456 FO
  24   24 3991  458 FO
  24   24 3921  421 FO
  24   24 3981  449 FO
  24   24 4029  486 FO
  24   24 4039  467 FO
  24   24 4098  468 FO
  24   24 4147  510 FO
  24   24 4067  464 FO
  24   24 4159  543 FO
  24   24 4166  552 FO
  24   24 4141  503 FO
  24   24 4010  465 FO
  24   24 4123  469 FO
  24   24 4142  503 FO
  24   24 4027  467 FO
  24   24 4132  493 FO
  24   24 4111  486 FO
  24   24 4066  458 FO
  24   24 4122  478 FO
  24   24 4005  467 FO
  24   24 4151  523 FO
  24   24 4134  495 FO
  24   24 4040  460 FO
  24   24 4076  470 FO
  24   24 4149  509 FO
  24   24 4002  466 FO
  24   24 4065  462 FO
  24   24 4116  472 FO
  24   24 4012  445 FO
  24   24 4069  459 FO
  24   24 4117  506 FO
  24   24 4039  455 FO
  24   24 4112  502 FO
  24   24 3983  446 FO
  24   24 4094  476 FO
  24   24 4113  499 FO
  24   24 4000  444 FO
  24   24 4102  492 FO
  24   24 4082  474 FO
  24   24 4038  441 FO
  24   24 4093  472 FO
  24   24 3978  444 FO
  24   24 4122  518 FO
  24   24 4105  491 FO
  24   24 4013  451 FO
  24   24 4048  454 FO
  24   24 4119  507 FO
  24   24 3975  451 FO
  24   24 4037  449 FO
  24   24 4087  479 FO
  24   24 3956  432 FO
  24   24 4011  460 FO
  24   24 3982  443 FO
  24   24 3928  427 FO
  24   24 4035  482 FO
  24   24 3944  435 FO
  24   24 4043  501 FO
  24   24 4023  477 FO
  24   24 3981  442 FO
  24   24 4033  478 FO
  24   24 3923  423 FO
  24   24 4045  499 FO
  24   24 3957  421 FO
  24   24 3990  443 FO
  24   24 3921  427 FO
  24   24 3980  448 FO
  24   24 4028  486 FO
  24   24 4563  754 FO
  24   24 4507  743 FO
  24   24 4495  727 FO
  24   24 4518  750 FO
  24   24 4445  727 FO
  24   24 4329  656 FO
  24   24 4325  659 FO
  24   24 4436  727 FO
  24   24 4425  700 FO
  24   24 4357  677 FO
  24   24 4447  719 FO
  24   24 4377  680 FO
  24   24 4349  660 FO
  24   24 4329  651 FO
  24   24 4020  460 FO
  24   24 4078  462 FO
  24   24 4126  501 FO
  24   24 4048  456 FO
  24   24 4121  506 FO
  24   24 3992  452 FO
  24   24 4103  479 FO
  24   24 4122  508 FO
  24   24 4008  466 FO
  24   24 4112  489 FO
  24   24 4091  472 FO
  24   24 4047  452 FO
  24   24 4102  476 FO
  24   24 3986  461 FO
  24   24 4131  524 FO
  24   24 4114  484 FO
  24   24 4022  454 FO
  24   24 4056  456 FO
  24   24 4129  500 FO
  24   24 3984  457 FO
  24   24 4046  456 FO
  24   24 4096  474 FO
  24   24 3940  442 FO
  24   24 3995  469 FO
  24   24 3966  445 FO
  24   24 3913  429 FO
  24   24 4019  480 FO
  24   24 3929  450 FO
  24   24 4027  511 FO
  24   24 4007  488 FO
  24   24 3965  443 FO
  24   24 4017  497 FO
  24   24 3908  427 FO
  24   24 4029  509 FO
  24   24 3941  436 FO
  24   24 3974  441 FO
  24   24 3906  431 FO
  24   24 3964  446 FO
  24   24 4012  491 FO
  24   24 4077  506 FO
  24   24 3951  440 FO
  24   24 4060  481 FO
  24   24 4078  513 FO
  24   24 3967  434 FO
  24   24 4068  490 FO
  24   24 4048  481 FO
  24   24 4005  429 FO
  24   24 4058  482 FO
  24   24 3946  430 FO
  24   24 4070  485 FO
  24   24 3980  438 FO
  24   24 4014  450 FO
  24   24 4084  519 FO
  24   24 3944  437 FO
  24   24 4004  444 FO
  24   24 4053  470 FO
  24   24 4137  508 FO
  24   24 4006  473 FO
  24   24 4119  477 FO
  24   24 4138  503 FO
  24   24 4023  469 FO
  24   24 4127  499 FO
  24   24 4107  487 FO
  24   24 4062  461 FO
  24   24 4117  483 FO
  24   24 4001  474 FO
  24   24 4147  521 FO
  24   24 4130  486 FO
  24   24 4036  456 FO
  24   24 4072  465 FO
  24   24 4145  514 FO
  24   24 3998  464 FO
  24   24 4061  460 FO
  24   24 4112  479 FO
  24   24 4187  517 FO
  24   24 4219  558 FO
  24   24 4169  495 FO
  24   24 4188  508 FO
  24   24 4221  567 FO
  24   24 4069  518 FO
  24   24 4177  508 FO
  24   24 4156  507 FO
  24   24 4110  499 FO
  24   24 4225  583 FO
  24   24 4167  508 FO
  24   24 4197  533 FO
  24   24 4180  512 FO
  24   24 4083  513 FO
  24   24 4120  505 FO
  24   24 4195  520 FO
  24   24 4228  572 FO
  24   24 4109  500 FO
  24   24 4161  497 FO
  24   24 4228  582 FO
  24   24 4261  603 FO
  24   24 4229  581 FO
  24   24 4263  596 FO
  24   24 4303  636 FO
  24   24 4267  595 FO
  24   24 4239  589 FO
  24   24 4322  647 FO
  24   24 4236  589 FO
  24   24 4270  611 FO
  24   24 4296  632 FO
  24   24 4276  618 FO
  24   24 4105  505 FO
  24   24 3977  439 FO
  24   24 4088  476 FO
  24   24 4106  504 FO
  24   24 3994  449 FO
  24   24 4096  484 FO
  24   24 4076  473 FO
  24   24 4032  439 FO
  24   24 4086  487 FO
  24   24 3972  445 FO
  24   24 4115  521 FO
  24   24 4098  490 FO
  24   24 4007  448 FO
  24   24 4041  457 FO
  24   24 4113  504 FO
  24   24 3969  433 FO
  24   24 4031  438 FO
  24   24 4081  471 FO
  24   24 4200  541 FO
  24   24 4233  566 FO
  24   24 4182  530 FO
  24   24 4202  539 FO
  24   24 4235  568 FO
  24   24 4190  530 FO
  24   24 4169  536 FO
  24   24 4239  579 FO
  24   24 4180  537 FO
  24   24 4211  551 FO
  24   24 4193  541 FO
  24   24 4208  541 FO
  24   24 4241  587 FO
  24   24 4247  602 FO
  24   24 4174  533 FO
  24   24 4207  554 FO
  24   24 4240  578 FO
  24   24 4188  549 FO
  24   24 4208  550 FO
  24   24 4242  573 FO
  24   24 4197  543 FO
  24   24 4176  554 FO
  24   24 4246  576 FO
  24   24 4187  544 FO
  24   24 4218  552 FO
  24   24 4200  548 FO
  24   24 4215  551 FO
  24   24 4248  577 FO
  24   24 4274  620 FO
  24   24 4254  599 FO
  24   24 4181  549 FO
  24   24 4224  583 FO
  24   24 4257  597 FO
  24   24 4226  578 FO
  24   24 4259  590 FO
  24   24 4299  636 FO
  24   24 4263  590 FO
  24   24 4235  582 FO
  24   24 4318  648 FO
  24   24 4232  575 FO
  24   24 4266  602 FO
  24   24 4292  625 FO
  24   24 4272  612 FO
  24   24 4216  550 FO
  24   24 4249  586 FO
  24   24 4197  552 FO
  24   24 4217  552 FO
  24   24 4251  584 FO
  24   24 4206  552 FO
  24   24 4290  632 FO
  24   24 4255  585 FO
  24   24 4196  557 FO
  24   24 4227  563 FO
  24   24 4209  560 FO
  24   24 4224  566 FO
  24   24 4257  583 FO
  24   24 4283  627 FO
  24   24 4264  589 FO
  24   24 4212  556 FO
  24   24 4244  576 FO
  24   24 4193  547 FO
  24   24 4213  546 FO
  24   24 4246  575 FO
  24   24 4202  548 FO
  24   24 4180  558 FO
  24   24 4286  635 FO
  24   24 4250  574 FO
  24   24 4191  547 FO
  24   24 4222  561 FO
  24   24 4204  553 FO
  24   24 4220  547 FO
  24   24 4253  597 FO
  24   24 4279  620 FO
  24   24 4259  599 FO
  24   24 4185  555 FO
  24   24 4556  748 FO
  24   24 4408  710 FO
  24   24 4501  739 FO
  24   24 4429  719 FO
  24   24 4172  510 FO
  24   24 4150  504 FO
  24   24 4104  499 FO
  24   24 4220  567 FO
  24   24 4162  505 FO
  24   24 4192  535 FO
  24   24 4174  510 FO
  24   24 4078  520 FO
  24   24 4114  503 FO
  24   24 4189  516 FO
  24   24 4222  576 FO
  24   24 4104  520 FO
  24   24 4156  503 FO
  24   24 4398  685 FO
  24   24 4489  734 FO
  24   24 4418  700 FO
  24   24 4390  685 FO
  24   24 4038  502 FO
  24   24 4019  482 FO
  24   24 3976  432 FO
  24   24 4029  493 FO
  24   24 3919  425 FO
  24   24 4040  503 FO
  24   24 3952  435 FO
  24   24 3985  452 FO
  24   24 3916  435 FO
  24   24 3975  439 FO
  24   24 4024  484 FO
  24   24 4204  551 FO
  24   24 4288  629 FO
  24   24 4252  587 FO
  24   24 4224  569 FO
  24   24 4206  559 FO
  24   24 4222  555 FO
  24   24 4255  584 FO
  24   24 4281  622 FO
  24   24 4261  597 FO
  24   24 4154  486 FO
  24   24 4132  479 FO
  24   24 4087  465 FO
  24   24 4143  484 FO
  24   24 4025  486 FO
  24   24 4173  515 FO
  24   24 4156  498 FO
  24   24 4061  476 FO
  24   24 4097  469 FO
  24   24 4171  499 FO
  24   24 4022  486 FO
  24   24 4086  470 FO
  24   24 4138  478 FO
  24   24 4173  503 FO
  24   24 4152  508 FO
  24   24 4105  499 FO
  24   24 4221  571 FO
  24   24 4163  505 FO
  24   24 4193  527 FO
  24   24 4176  504 FO
  24   24 4079  506 FO
  24   24 4116  500 FO
  24   24 4191  518 FO
  24   24 4223  574 FO
  24   24 4105  496 FO
  24   24 4229  588 FO
  24   24 4157  504 FO
  24   24 4206  558 FO
  24   24 4290  626 FO
  24   24 4255  586 FO
  24   24 4226  564 FO
  24   24 4208  567 FO
  24   24 4224  554 FO
  24   24 4257  596 FO
  24   24 4283  618 FO
  24   24 4263  593 FO
  24   24 4055  505 FO
  24   24 4035  482 FO
  24   24 3993  437 FO
  24   24 4046  487 FO
  24   24 3934  427 FO
  24   24 4058  502 FO
  24   24 3968  438 FO
  24   24 4002  454 FO
  24   24 3932  435 FO
  24   24 3992  440 FO
  24   24 4040  476 FO
  24   24 4069  486 FO
  24   24 4105  481 FO
  24   24 4180  519 FO
  24   24 4212  581 FO
  24   24 4030  507 FO
  24   24 4094  485 FO
  24   24 4146  490 FO
  24   24 4049  477 FO
  24   24 4085  475 FO
  24   24 4158  505 FO
  24   24 4011  489 FO
  24   24 4074  469 FO
  24   24 4125  484 FO
  24   24 4350  674 FO
  24   24 4297  638 FO
  24   24 4323  659 FO
  24   24 4303  636 FO
  24   24 4439  710 FO
  24   24 4006  436 FO
  24   24 4040  442 FO
  24   24 4112  508 FO
  24   24 3968  433 FO
  24   24 4030  434 FO
  24   24 4080  467 FO
  24   24 4313  651 FO
  24   24 4228  566 FO
  24   24 4261  599 FO
  24   24 4287  625 FO
  24   24 4267  598 FO
  24   24 4060  494 FO
  24   24 4095  464 FO
  24   24 4169  512 FO
  24   24 4021  486 FO
  24   24 4085  479 FO
  24   24 4136  481 FO
  24   24 3947  432 FO
  24   24 3980  440 FO
  24   24 3911  420 FO
  24   24 3970  440 FO
  24   24 4018  482 FO
  24   24 4124  529 FO
  24   24 4200  537 FO
  24   24 4233  575 FO
  24   24 4113  516 FO
  24   24 4239  590 FO
  24   24 4166  520 FO
  24   24 4072  492 FO
  24   24 4108  490 FO
  24   24 4182  514 FO
  24   24 4032  502 FO
  24   24 4097  479 FO
  24   24 4149  498 FO
gs 3326 216 1816 865 rc
24 w
0 sg
1588 834 3553 216 2 MP stroke
gr

24 w
0 sg
3683  121 mt 
(R = -0.952 - p = 0.0) s
3880 1364 mt 
(Sqrt\(CV) s
%%IncludeResource: font Helvetica
/Helvetica /ISOLatin1Encoding 96 FMSR

4311 1424 mt 
(i) s
%%IncludeResource: font Helvetica
/Helvetica /ISOLatin1Encoding 120 FMSR

4332 1364 mt 
( CV) s
%%IncludeResource: font Helvetica
/Helvetica /ISOLatin1Encoding 96 FMSR

4532 1424 mt 
(j) s
%%IncludeResource: font Helvetica
/Helvetica /ISOLatin1Encoding 120 FMSR

4553 1364 mt 
(\)) s
%%IncludeResource: font Symbol
/Symbol /ISOLatin1Encoding 120 FMSR

2971  711 mt  -90 rotate
(r) s
90 rotate
%%IncludeResource: font Helvetica
/Helvetica /ISOLatin1Encoding 96 FMSR

3031  646 mt  -90 rotate
(T) s
90 rotate
6 w

end %%Color Dict

eplot
%%EndObject

epage
end

showpage

%%Trailer
%%EOF
