%!PS-Adobe-3.0 EPSF-3.0
%%Creator: MATLAB, The MathWorks, Inc. Version 8.0.0.783 (R2012b). Operating System: Darwin 10.8.0 Darwin Kernel Version 10.8.0: Tue Jun  7 16:33:36 PDT 2011; root:xnu-1504.15.3~1/RELEASE_I386 i386.
%%Title: ./current_corr.eps
%%CreationDate: 11/03/2013  17:08:34
%%DocumentNeededFonts: Helvetica
%%DocumentProcessColors: Cyan Magenta Yellow Black
%%LanguageLevel: 2
%%Pages: 1
%%BoundingBox:    26     0   466   209
%%EndComments

%%BeginProlog
% MathWorks dictionary
/MathWorks 160 dict begin
% definition operators
/bdef {bind def} bind def
/ldef {load def} bind def
/xdef {exch def} bdef
/xstore {exch store} bdef
% operator abbreviations
/c  /clip ldef
/cc /concat ldef
/cp /closepath ldef
/gr /grestore ldef
/gs /gsave ldef
/mt /moveto ldef
/np /newpath ldef
/cm /currentmatrix ldef
/sm /setmatrix ldef
/rm /rmoveto ldef
/rl /rlineto ldef
/s {show newpath} bdef
/sc {setcmykcolor} bdef
/sr /setrgbcolor ldef
/sg /setgray ldef
/w /setlinewidth ldef
/j /setlinejoin ldef
/cap /setlinecap ldef
/rc {rectclip} bdef
/rf {rectfill} bdef
% page state control
/pgsv () def
/bpage {/pgsv save def} bdef
/epage {pgsv restore} bdef
/bplot /gsave ldef
/eplot {stroke grestore} bdef
% orientation switch
/portraitMode 0 def /landscapeMode 1 def /rotateMode 2 def
% coordinate system mappings
/dpi2point 0 def
% font control
/FontSize 0 def
/FMS {/FontSize xstore findfont [FontSize 0 0 FontSize neg 0 0]
  makefont setfont} bdef
/reencode {exch dup where {pop load} {pop StandardEncoding} ifelse
  exch dup 3 1 roll findfont dup length dict begin
  { 1 index /FID ne {def}{pop pop} ifelse } forall
  /Encoding exch def currentdict end definefont pop} bdef
/isroman {findfont /CharStrings get /Agrave known} bdef
/FMSR {3 1 roll 1 index dup isroman {reencode} {pop pop} ifelse
  exch FMS} bdef
/csm {1 dpi2point div -1 dpi2point div scale neg translate
 dup landscapeMode eq {pop -90 rotate}
  {rotateMode eq {90 rotate} if} ifelse} bdef
% line types: solid, dotted, dashed, dotdash
/SO { [] 0 setdash } bdef
/DO { [.5 dpi2point mul 4 dpi2point mul] 0 setdash } bdef
/DA { [6 dpi2point mul] 0 setdash } bdef
/DD { [.5 dpi2point mul 4 dpi2point mul 6 dpi2point mul 4
  dpi2point mul] 0 setdash } bdef
% macros for lines and objects
/L {lineto stroke} bdef
/MP {3 1 roll moveto 1 sub {rlineto} repeat} bdef
/AP {{rlineto} repeat} bdef
/PDlw -1 def
/W {/PDlw currentlinewidth def setlinewidth} def
/PP {closepath eofill} bdef
/DP {closepath stroke} bdef
/MR {4 -2 roll moveto dup  0 exch rlineto exch 0 rlineto
  neg 0 exch rlineto closepath} bdef
/FR {MR stroke} bdef
/PR {MR fill} bdef
/L1i {{currentfile picstr readhexstring pop} image} bdef
/tMatrix matrix def
/MakeOval {newpath tMatrix currentmatrix pop translate scale
0 0 1 0 360 arc tMatrix setmatrix} bdef
/FO {MakeOval stroke} bdef
/PO {MakeOval fill} bdef
/PD {currentlinewidth 2 div 0 360 arc fill
   PDlw -1 eq not {PDlw w /PDlw -1 def} if} def
/FA {newpath tMatrix currentmatrix pop translate scale
  0 0 1 5 -2 roll arc tMatrix setmatrix stroke} bdef
/PA {newpath tMatrix currentmatrix pop	translate 0 0 moveto scale
  0 0 1 5 -2 roll arc closepath tMatrix setmatrix fill} bdef
/FAn {newpath tMatrix currentmatrix pop translate scale
  0 0 1 5 -2 roll arcn tMatrix setmatrix stroke} bdef
/PAn {newpath tMatrix currentmatrix pop translate 0 0 moveto scale
  0 0 1 5 -2 roll arcn closepath tMatrix setmatrix fill} bdef
/vradius 0 def /hradius 0 def /lry 0 def
/lrx 0 def /uly 0 def /ulx 0 def /rad 0 def
/MRR {/vradius xdef /hradius xdef /lry xdef /lrx xdef /uly xdef
  /ulx xdef newpath tMatrix currentmatrix pop ulx hradius add uly
  vradius add translate hradius vradius scale 0 0 1 180 270 arc 
  tMatrix setmatrix lrx hradius sub uly vradius add translate
  hradius vradius scale 0 0 1 270 360 arc tMatrix setmatrix
  lrx hradius sub lry vradius sub translate hradius vradius scale
  0 0 1 0 90 arc tMatrix setmatrix ulx hradius add lry vradius sub
  translate hradius vradius scale 0 0 1 90 180 arc tMatrix setmatrix
  closepath} bdef
/FRR {MRR stroke } bdef
/PRR {MRR fill } bdef
/MlrRR {/lry xdef /lrx xdef /uly xdef /ulx xdef /rad lry uly sub 2 div def
  newpath tMatrix currentmatrix pop ulx rad add uly rad add translate
  rad rad scale 0 0 1 90 270 arc tMatrix setmatrix lrx rad sub lry rad
  sub translate rad rad scale 0 0 1 270 90 arc tMatrix setmatrix
  closepath} bdef
/FlrRR {MlrRR stroke } bdef
/PlrRR {MlrRR fill } bdef
/MtbRR {/lry xdef /lrx xdef /uly xdef /ulx xdef /rad lrx ulx sub 2 div def
  newpath tMatrix currentmatrix pop ulx rad add uly rad add translate
  rad rad scale 0 0 1 180 360 arc tMatrix setmatrix lrx rad sub lry rad
  sub translate rad rad scale 0 0 1 0 180 arc tMatrix setmatrix
  closepath} bdef
/FtbRR {MtbRR stroke } bdef
/PtbRR {MtbRR fill } bdef
/stri 6 array def /dtri 6 array def
/smat 6 array def /dmat 6 array def
/tmat1 6 array def /tmat2 6 array def /dif 3 array def
/asub {/ind2 exch def /ind1 exch def dup dup
  ind1 get exch ind2 get sub exch } bdef
/tri_to_matrix {
  2 0 asub 3 1 asub 4 0 asub 5 1 asub
  dup 0 get exch 1 get 7 -1 roll astore } bdef
/compute_transform {
  dmat dtri tri_to_matrix tmat1 invertmatrix 
  smat stri tri_to_matrix tmat2 concatmatrix } bdef
/ds {stri astore pop} bdef
/dt {dtri astore pop} bdef
/db {2 copy /cols xdef /rows xdef mul dup 3 mul string
  currentfile 
  3 index 0 eq {/ASCIIHexDecode filter}
  {/ASCII85Decode filter 3 index 2 eq {/RunLengthDecode filter} if }
  ifelse exch readstring pop
  dup 0 3 index getinterval /rbmap xdef
  dup 2 index dup getinterval /gbmap xdef
  1 index dup 2 mul exch getinterval /bbmap xdef pop pop}bdef
/it {gs np dtri aload pop moveto lineto lineto cp c
  cols rows 8 compute_transform 
  rbmap gbmap bbmap true 3 colorimage gr}bdef
/il {newpath moveto lineto stroke}bdef
currentdict end def
%%EndProlog

%%BeginSetup
MathWorks begin

0 cap

end
%%EndSetup

%%Page: 1 1
%%BeginPageSetup
%%PageBoundingBox:    26     0   466   209
MathWorks begin
bpage
%%EndPageSetup

%%BeginObject: obj1
bplot

/dpi2point 12 def
portraitMode 0000 2592 csm

  321    80  5272  2515 rc
85 dict begin %Colortable dictionary
/c0 { 0.000000 0.000000 0.000000 sr} bdef
/c1 { 1.000000 1.000000 1.000000 sr} bdef
/c2 { 0.900000 0.000000 0.000000 sr} bdef
/c3 { 0.000000 0.820000 0.000000 sr} bdef
/c4 { 0.000000 0.000000 0.800000 sr} bdef
/c5 { 0.910000 0.820000 0.320000 sr} bdef
/c6 { 1.000000 0.260000 0.820000 sr} bdef
/c7 { 0.000000 0.820000 0.820000 sr} bdef
c0
1 j
1 sg
   0    0 6053 2596 rf
6 w
0 2036 4690 0 0 -2036 787 2231 4 MP
PP
-4690 0 0 2036 4690 0 0 -2036 787 2231 5 MP stroke
4 w
DO
SO
6 w
0 sg
 787 2231 mt 5477 2231 L
 787 2231 mt  787  195 L
 787 2231 mt  787 2277 L
%%IncludeResource: font Helvetica
/Helvetica /ISOLatin1Encoding 120 FMSR

 754 2423 mt 
(0) s
2350 2231 mt 2350 2277 L
2317 2423 mt 
(5) s
3913 2231 mt 3913 2277 L
3847 2423 mt 
(10) s
5477 2231 mt 5477 2277 L
5411 2423 mt 
(15) s
 787 2230 mt  740 2230 L
 539 2274 mt 
(0.3) s
 787 1212 mt  740 1212 L
 539 1256 mt 
(0.4) s
 787  195 mt  740  195 L
 539  239 mt 
(0.5) s
gs 787 195 4691 2037 rc
gr

  36   36 2886 1153 FO
  36   36 3914 1424 FO
  36   36 3045 1114 FO
  36   36 3434 1233 FO
  36   36 2866 1119 FO
  36   36 3898 1441 FO
  36   36 3077 1066 FO
  36   36 3432 1260 FO
  36   36 2879 1136 FO
  36   36 3890 1371 FO
  36   36 3064 1172 FO
  36   36 3433 1290 FO
  36   36 2917 1113 FO
  36   36 3898 1387 FO
  36   36 3053 1195 FO
  36   36 3416 1265 FO
  36   36  993  347 FO
  36   36  974  357 FO
  36   36  998  315 FO
  36   36  964  331 FO
  36   36  998  395 FO
  36   36  968  357 FO
  36   36  897  337 FO
  36   36  957  371 FO
  36   36 1594  666 FO
  36   36 1337  648 FO
  36   36 1593  820 FO
  36   36 1205  502 FO
  36   36 1315  507 FO
  36   36 1593  652 FO
  36   36 1205  525 FO
  36   36 1347  482 FO
  36   36 1604  666 FO
  36   36 1216  410 FO
  36   36 1323  553 FO
  36   36 5021 1508 FO
  36   36 4372 1556 FO
  36   36 5000 1527 FO
  36   36 3888 1462 FO
  36   36 4368 1471 FO
  36   36 4988 1637 FO
  36   36 3871 1392 FO
  36   36 4370 1543 FO
  36   36 5000 1563 FO
  36   36 3855 1475 FO
  36   36 4347 1430 FO
  36   36 4959 1474 FO
  36   36 3800 1425 FO
  36   36 4319 1492 FO
  36   36 4938 1564 FO
  36   36 3843 1400 FO
  36   36 4316 1455 FO
  36   36 4927 1632 FO
  36   36 3826 1409 FO
  36   36 4318 1419 FO
  36   36 4938 1556 FO
  36   36 3811 1461 FO
  36   36 4295 1520 FO
  36   36 1739  698 FO
  36   36 1436  661 FO
  36   36 1738  778 FO
  36   36 1410  574 FO
  36   36 1738  836 FO
  36   36 1448  603 FO
  36   36 1751  741 FO
  36   36 1420  693 FO
  36   36 4760 1529 FO
  36   36 3656 1385 FO
  36   36 4151 1431 FO
  36   36 4741 1519 FO
  36   36 3697 1431 FO
  36   36 4148 1453 FO
  36   36 4730 1567 FO
  36   36 3681 1459 FO
  36   36 4149 1435 FO
  36   36 3494 1453 FO
  36   36 4741 1528 FO
  36   36 3666 1490 FO
  36   36 4128 1494 FO
  36   36 1029  356 FO
  36   36 1006  342 FO
  36   36 1034  369 FO
  36   36  994  346 FO
  36   36 1034  426 FO
  36   36  999  391 FO
  36   36 1041  360 FO
  36   36  987  441 FO
  36   36 2194  821 FO
  36   36 2617 1064 FO
  36   36 2756 1097 FO
  36   36 3095 1153 FO
  36   36 2192  955 FO
  36   36 2600 1024 FO
  36   36 2784 1059 FO
  36   36 3093 1171 FO
  36   36 2192  920 FO
  36   36 2611  998 FO
  36   36 2773 1026 FO
  36   36 3094 1111 FO
  36   36 2212  875 FO
  36   36 2644  998 FO
  36   36 2763 1032 FO
  36   36 3080 1145 FO
  36   36 3040 1187 FO
  36   36 4143 1407 FO
  36   36 3211 1226 FO
  36   36 3629 1290 FO
  36   36 3019 1164 FO
  36   36 4127 1426 FO
  36   36 3246 1237 FO
  36   36 3626 1321 FO
  36   36 3032 1220 FO
  36   36 4118 1479 FO
  36   36 3232 1179 FO
  36   36 3628 1306 FO
  36   36 3074 1120 FO
  36   36 4127 1485 FO
  36   36 3220 1296 FO
  36   36 3610 1308 FO
  36   36  811  253 FO
  36   36  824  225 FO
  36   36  816  295 FO
  36   36  813  253 FO
  36   36  824  290 FO
  36   36 1889  728 FO
  36   36 2209  919 FO
  36   36 1889  707 FO
  36   36 2217  889 FO
  36   36 2344  922 FO
  36   36 1904  703 FO
  36   36 2243  901 FO
  36   36 2336  952 FO
  36   36 2220  956 FO
  36   36 2636 1021 FO
  36   36 2824 1090 FO
  36   36 3139 1189 FO
  36   36 2220  910 FO
  36   36 2647 1103 FO
  36   36 2812 1009 FO
  36   36 3140 1159 FO
  36   36 2240  937 FO
  36   36 2681 1048 FO
  36   36 2802 1159 FO
  36   36 3125 1212 FO
  36   36 1077  412 FO
  36   36 1153  424 FO
  36   36 1031  371 FO
  36   36 1077  424 FO
  36   36 1175  433 FO
  36   36 1036  387 FO
  36   36 1085  353 FO
  36   36 1159  445 FO
  36   36 1021  339 FO
  36   36 4909 1474 FO
  36   36 3821 1300 FO
  36   36 4291 1380 FO
  36   36 4898 1570 FO
  36   36 3804 1445 FO
  36   36 4293 1482 FO
  36   36 4909 1482 FO
  36   36 3789 1392 FO
  36   36 4270 1457 FO
  36   36 1177  511 FO
  36   36 1279  565 FO
  36   36 1177  478 FO
  36   36 1309  571 FO
  36   36 1187  422 FO
  36   36 1287  606 FO
  36   36 2329 1003 FO
  36   36 2776 1138 FO
  36   36 3764 1429 FO
  36   36 2978 1153 FO
  36   36 3317 1282 FO
  36   36 2329  973 FO
  36   36 2788 1061 FO
  36   36 3756 1412 FO
  36   36 2966 1092 FO
  36   36 3318 1271 FO
  36   36 2350 1029 FO
  36   36 2825 1168 FO
  36   36 3764 1462 FO
  36   36 2955 1228 FO
  36   36 3302 1259 FO
  36   36 1050  318 FO
  36   36 1008  352 FO
  36   36 1050  357 FO
  36   36 1013  385 FO
  36   36 1057  369 FO
  36   36 1000  388 FO
  36   36  838  255 FO
  36   36  827  244 FO
  36   36  852  306 FO
  36   36  838  245 FO
  36   36 3119 1184 FO
  36   36 4277 1468 FO
  36   36 3356 1283 FO
  36   36 3754 1330 FO
  36   36 3133 1218 FO
  36   36 4268 1413 FO
  36   36 3342 1223 FO
  36   36 3755 1298 FO
  36   36 3176 1217 FO
  36   36 4277 1507 FO
  36   36 3329 1267 FO
  36   36 3736 1315 FO
  36   36  813  228 FO
  36   36  810  246 FO
  36   36 1887  857 FO
  36   36 2215  906 FO
  36   36 2342  975 FO
  36   36 1903  802 FO
  36   36 2241  932 FO
  36   36 2334 1004 FO
  36   36 2207  882 FO
  36   36 2630 1108 FO
  36   36 2793 1091 FO
  36   36 3118 1244 FO
  36   36 2227  985 FO
  36   36 2664 1039 FO
  36   36 2783 1205 FO
  36   36 3103 1208 FO
  36   36 1084  417 FO
  36   36 1184  504 FO
  36   36 1041  445 FO
  36   36 1091  364 FO
  36   36 1167  470 FO
  36   36 1026  422 FO
  36   36 4878 1462 FO
  36   36 3789 1474 FO
  36   36 4275 1438 FO
  36   36 4889 1548 FO
  36   36 3774 1467 FO
  36   36 4253 1446 FO
  36   36 1161  504 FO
  36   36 1287  487 FO
  36   36 1171  382 FO
  36   36 1266  539 FO
  36   36 2817 1127 FO
  36   36 3798 1440 FO
  36   36 2997 1104 FO
  36   36 3355 1305 FO
  36   36 2373 1015 FO
  36   36 2854 1106 FO
  36   36 3806 1438 FO
  36   36 2986 1240 FO
  36   36 3339 1287 FO
  36   36 1036  427 FO
  36   36 1001  410 FO
  36   36 1042  358 FO
  36   36  988  443 FO
  36   36  826  233 FO
  36   36  850  237 FO
  36   36  822  289 FO
  36   36  837  240 FO
  36   36 3131 1128 FO
  36   36 4264 1392 FO
  36   36 3339 1232 FO
  36   36 3752 1228 FO
  36   36 3174 1234 FO
  36   36 4274 1503 FO
  36   36 3326 1288 FO
  36   36 3733 1264 FO
  36   36  814  277 FO
  36   36  826  302 FO
  36   36 1903  790 FO
  36   36 2241  897 FO
  36   36 2334  980 FO
  36   36 2235  931 FO
  36   36 2675 1076 FO
  36   36 2795 1113 FO
  36   36 3117 1200 FO
  36   36 1091  400 FO
  36   36 1167  512 FO
  36   36 1026  388 FO
  36   36 4878 1514 FO
  36   36 3766 1435 FO
  36   36 4244 1454 FO
  36   36 1194  398 FO
  36   36 1296  570 FO
  36   36 2364 1004 FO
  36   36 2842 1133 FO
  36   36 3789 1428 FO
  36   36 2974 1111 FO
  36   36 3324 1284 FO
  36   36 1048  379 FO
  36   36  992  401 FO
  36   36  850  270 FO
  36   36 3175 1145 FO
  36   36 4275 1442 FO
  36   36 3328 1309 FO
  36   36 3735 1335 FO
gs 787 195 4691 2037 rc
DA
24 w
/c8 { 1.000000 0.000000 0.000000 sr} bdef
c8
4690 0 787 195 2 MP stroke
gr

24 w
c8
DA
0 sg
2384 2566 mt 
(Geometric mean rate \(AP/s\)) s
 457 1711 mt  -90 rotate
(Current correlation) s
90 rotate
3913  595 mt 
(N) s
%%IncludeResource: font Helvetica
/Helvetica /ISOLatin1Encoding 96 FMSR

3999  655 mt 
(cells) s
%%IncludeResource: font Helvetica
/Helvetica /ISOLatin1Encoding 120 FMSR

4191  595 mt 
(=5) s
3913  798 mt 
(N) s
%%IncludeResource: font Helvetica
/Helvetica /ISOLatin1Encoding 96 FMSR

3999  858 mt 
(pairs) s
%%IncludeResource: font Helvetica
/Helvetica /ISOLatin1Encoding 120 FMSR

4207  798 mt 
(=291) s
SO
6 w

end %%Color Dict

eplot
%%EndObject

epage
end

showpage

%%Trailer
%%EOF
