%!PS-Adobe-3.0 EPSF-3.0
%%Creator: MATLAB, The MathWorks, Inc. Version 8.0.0.783 (R2012b). Operating System: Darwin 10.8.0 Darwin Kernel Version 10.8.0: Tue Jun  7 16:33:36 PDT 2011; root:xnu-1504.15.3~1/RELEASE_I386 i386.
%%Title: ./cv.eps
%%CreationDate: 11/03/2013  17:04:12
%%DocumentNeededFonts: Helvetica
%%DocumentProcessColors: Cyan Magenta Yellow Black
%%LanguageLevel: 2
%%Pages: 1
%%BoundingBox:    22     0   466   207
%%EndComments

%%BeginProlog
% MathWorks dictionary
/MathWorks 160 dict begin
% definition operators
/bdef {bind def} bind def
/ldef {load def} bind def
/xdef {exch def} bdef
/xstore {exch store} bdef
% operator abbreviations
/c  /clip ldef
/cc /concat ldef
/cp /closepath ldef
/gr /grestore ldef
/gs /gsave ldef
/mt /moveto ldef
/np /newpath ldef
/cm /currentmatrix ldef
/sm /setmatrix ldef
/rm /rmoveto ldef
/rl /rlineto ldef
/s {show newpath} bdef
/sc {setcmykcolor} bdef
/sr /setrgbcolor ldef
/sg /setgray ldef
/w /setlinewidth ldef
/j /setlinejoin ldef
/cap /setlinecap ldef
/rc {rectclip} bdef
/rf {rectfill} bdef
% page state control
/pgsv () def
/bpage {/pgsv save def} bdef
/epage {pgsv restore} bdef
/bplot /gsave ldef
/eplot {stroke grestore} bdef
% orientation switch
/portraitMode 0 def /landscapeMode 1 def /rotateMode 2 def
% coordinate system mappings
/dpi2point 0 def
% font control
/FontSize 0 def
/FMS {/FontSize xstore findfont [FontSize 0 0 FontSize neg 0 0]
  makefont setfont} bdef
/reencode {exch dup where {pop load} {pop StandardEncoding} ifelse
  exch dup 3 1 roll findfont dup length dict begin
  { 1 index /FID ne {def}{pop pop} ifelse } forall
  /Encoding exch def currentdict end definefont pop} bdef
/isroman {findfont /CharStrings get /Agrave known} bdef
/FMSR {3 1 roll 1 index dup isroman {reencode} {pop pop} ifelse
  exch FMS} bdef
/csm {1 dpi2point div -1 dpi2point div scale neg translate
 dup landscapeMode eq {pop -90 rotate}
  {rotateMode eq {90 rotate} if} ifelse} bdef
% line types: solid, dotted, dashed, dotdash
/SO { [] 0 setdash } bdef
/DO { [.5 dpi2point mul 4 dpi2point mul] 0 setdash } bdef
/DA { [6 dpi2point mul] 0 setdash } bdef
/DD { [.5 dpi2point mul 4 dpi2point mul 6 dpi2point mul 4
  dpi2point mul] 0 setdash } bdef
% macros for lines and objects
/L {lineto stroke} bdef
/MP {3 1 roll moveto 1 sub {rlineto} repeat} bdef
/AP {{rlineto} repeat} bdef
/PDlw -1 def
/W {/PDlw currentlinewidth def setlinewidth} def
/PP {closepath eofill} bdef
/DP {closepath stroke} bdef
/MR {4 -2 roll moveto dup  0 exch rlineto exch 0 rlineto
  neg 0 exch rlineto closepath} bdef
/FR {MR stroke} bdef
/PR {MR fill} bdef
/L1i {{currentfile picstr readhexstring pop} image} bdef
/tMatrix matrix def
/MakeOval {newpath tMatrix currentmatrix pop translate scale
0 0 1 0 360 arc tMatrix setmatrix} bdef
/FO {MakeOval stroke} bdef
/PO {MakeOval fill} bdef
/PD {currentlinewidth 2 div 0 360 arc fill
   PDlw -1 eq not {PDlw w /PDlw -1 def} if} def
/FA {newpath tMatrix currentmatrix pop translate scale
  0 0 1 5 -2 roll arc tMatrix setmatrix stroke} bdef
/PA {newpath tMatrix currentmatrix pop	translate 0 0 moveto scale
  0 0 1 5 -2 roll arc closepath tMatrix setmatrix fill} bdef
/FAn {newpath tMatrix currentmatrix pop translate scale
  0 0 1 5 -2 roll arcn tMatrix setmatrix stroke} bdef
/PAn {newpath tMatrix currentmatrix pop translate 0 0 moveto scale
  0 0 1 5 -2 roll arcn closepath tMatrix setmatrix fill} bdef
/vradius 0 def /hradius 0 def /lry 0 def
/lrx 0 def /uly 0 def /ulx 0 def /rad 0 def
/MRR {/vradius xdef /hradius xdef /lry xdef /lrx xdef /uly xdef
  /ulx xdef newpath tMatrix currentmatrix pop ulx hradius add uly
  vradius add translate hradius vradius scale 0 0 1 180 270 arc 
  tMatrix setmatrix lrx hradius sub uly vradius add translate
  hradius vradius scale 0 0 1 270 360 arc tMatrix setmatrix
  lrx hradius sub lry vradius sub translate hradius vradius scale
  0 0 1 0 90 arc tMatrix setmatrix ulx hradius add lry vradius sub
  translate hradius vradius scale 0 0 1 90 180 arc tMatrix setmatrix
  closepath} bdef
/FRR {MRR stroke } bdef
/PRR {MRR fill } bdef
/MlrRR {/lry xdef /lrx xdef /uly xdef /ulx xdef /rad lry uly sub 2 div def
  newpath tMatrix currentmatrix pop ulx rad add uly rad add translate
  rad rad scale 0 0 1 90 270 arc tMatrix setmatrix lrx rad sub lry rad
  sub translate rad rad scale 0 0 1 270 90 arc tMatrix setmatrix
  closepath} bdef
/FlrRR {MlrRR stroke } bdef
/PlrRR {MlrRR fill } bdef
/MtbRR {/lry xdef /lrx xdef /uly xdef /ulx xdef /rad lrx ulx sub 2 div def
  newpath tMatrix currentmatrix pop ulx rad add uly rad add translate
  rad rad scale 0 0 1 180 360 arc tMatrix setmatrix lrx rad sub lry rad
  sub translate rad rad scale 0 0 1 0 180 arc tMatrix setmatrix
  closepath} bdef
/FtbRR {MtbRR stroke } bdef
/PtbRR {MtbRR fill } bdef
/stri 6 array def /dtri 6 array def
/smat 6 array def /dmat 6 array def
/tmat1 6 array def /tmat2 6 array def /dif 3 array def
/asub {/ind2 exch def /ind1 exch def dup dup
  ind1 get exch ind2 get sub exch } bdef
/tri_to_matrix {
  2 0 asub 3 1 asub 4 0 asub 5 1 asub
  dup 0 get exch 1 get 7 -1 roll astore } bdef
/compute_transform {
  dmat dtri tri_to_matrix tmat1 invertmatrix 
  smat stri tri_to_matrix tmat2 concatmatrix } bdef
/ds {stri astore pop} bdef
/dt {dtri astore pop} bdef
/db {2 copy /cols xdef /rows xdef mul dup 3 mul string
  currentfile 
  3 index 0 eq {/ASCIIHexDecode filter}
  {/ASCII85Decode filter 3 index 2 eq {/RunLengthDecode filter} if }
  ifelse exch readstring pop
  dup 0 3 index getinterval /rbmap xdef
  dup 2 index dup getinterval /gbmap xdef
  1 index dup 2 mul exch getinterval /bbmap xdef pop pop}bdef
/it {gs np dtri aload pop moveto lineto lineto cp c
  cols rows 8 compute_transform 
  rbmap gbmap bbmap true 3 colorimage gr}bdef
/il {newpath moveto lineto stroke}bdef
currentdict end def
%%EndProlog

%%BeginSetup
MathWorks begin

0 cap

end
%%EndSetup

%%Page: 1 1
%%BeginPageSetup
%%PageBoundingBox:    22     0   466   207
MathWorks begin
bpage
%%EndPageSetup

%%BeginObject: obj1
bplot

/dpi2point 12 def
portraitMode 0000 2592 csm

  267   100  5333  2495 rc
95 dict begin %Colortable dictionary
/c0 { 0.000000 0.000000 0.000000 sr} bdef
/c1 { 1.000000 1.000000 1.000000 sr} bdef
/c2 { 0.900000 0.000000 0.000000 sr} bdef
/c3 { 0.000000 0.820000 0.000000 sr} bdef
/c4 { 0.000000 0.000000 0.800000 sr} bdef
/c5 { 0.910000 0.820000 0.320000 sr} bdef
/c6 { 1.000000 0.260000 0.820000 sr} bdef
/c7 { 0.000000 0.820000 0.820000 sr} bdef
c0
1 j
1 sg
   0    0 6053 2596 rf
6 w
0 2015 4690 0 0 -2015 787 2209 4 MP
PP
-4690 0 0 2015 4690 0 0 -2015 787 2209 5 MP stroke
4 w
DO
SO
6 w
0 sg
 787 2209 mt 5477 2209 L
 787 2209 mt  787  194 L
 787 2209 mt  787 2255 L
%%IncludeResource: font Helvetica
/Helvetica /ISOLatin1Encoding 120 FMSR

 754 2401 mt 
(0) s
2350 2209 mt 2350 2255 L
2317 2401 mt 
(5) s
3913 2209 mt 3913 2255 L
3847 2401 mt 
(10) s
5477 2209 mt 5477 2255 L
5411 2401 mt 
(15) s
 787 2209 mt  740 2209 L
 539 2253 mt 
(0.5) s
 787  530 mt  740  530 L
 639  574 mt 
(1) s
gs 787 195 4691 2015 rc
DA
24 w
0.6 sg
4690 0 787 530 2 MP stroke
SO
6 w
gr

0.6 sg
/c8 { 0.000000 0.000000 0.666667 sr} bdef
c8
  36   36 3477 1753 PO
  36   36 4549 1842 PO
  36   36 3477 1753 FO
  36   36 4549 1842 FO
gs 787 195 4691 2015 rc
gr

  36   36 1433 1435 PO
  36   36 4379 1827 PO
  36   36 2090 1628 PO
  36   36 3997 1795 PO
  36   36 1433 1435 FO
  36   36 4379 1827 FO
  36   36 2090 1628 FO
  36   36 3997 1795 FO
gs 787 195 4691 2015 rc
gr

/c9 { 0.000000 0.000000 1.000000 sr} bdef
c9
  36   36 4885 1875 PO
  36   36 4885 1875 FO
gs 787 195 4691 2015 rc
gr

  36   36 1275 1329 PO
  36   36 1586 1510 PO
  36   36 5345 1925 PO
  36   36 1275 1329 FO
  36   36 1586 1510 FO
  36   36 5345 1925 FO
gs 787 195 4691 2015 rc
gr

/c10 { 0.000000 0.333333 1.000000 sr} bdef
c10
  36   36 5052 1886 PO
  36   36 3684 1757 PO
  36   36 2266 1649 PO
  36   36 5052 1886 FO
  36   36 3684 1757 FO
  36   36 2266 1649 FO
gs 787 195 4691 2015 rc
gr

  36   36 3038 1723 PO
  36   36 2851 1705 PO
  36   36 2275 1659 PO
  36   36 2635 1681 PO
  36   36 2737 1693 PO
  36   36 3038 1723 FO
  36   36 2851 1705 FO
  36   36 2275 1659 FO
  36   36 2635 1681 FO
  36   36 2737 1693 FO
gs 787 195 4691 2015 rc
gr

/c11 { 0.000000 0.666667 1.000000 sr} bdef
c11
  36   36 1164 1227 PO
  36   36 1310 1373 PO
  36   36 3659 1772 PO
  36   36 1410 1402 PO
  36   36 1164 1227 FO
  36   36 1310 1373 FO
  36   36 3659 1772 FO
  36   36 1410 1402 FO
gs 787 195 4691 2015 rc
gr

  36   36 2555 1688 PO
  36   36 4323 1819 PO
  36   36 3615 1768 PO
  36   36 2561 1682 PO
  36   36 2555 1688 FO
  36   36 4323 1819 FO
  36   36 3615 1768 FO
  36   36 2561 1682 FO
gs 787 195 4691 2015 rc
gr

/c12 { 0.000000 1.000000 1.000000 sr} bdef
c12
  36   36 3986 1797 PO
  36   36 4622 1851 PO
  36   36 1785 1579 PO
  36   36 1298 1344 PO
  36   36 3986 1797 FO
  36   36 4622 1851 FO
  36   36 1785 1579 FO
  36   36 1298 1344 FO
gs 787 195 4691 2015 rc
gr

  36   36 2417 1672 PO
  36   36 4381 1823 PO
  36   36 2417 1672 FO
  36   36 4381 1823 FO
gs 787 195 4691 2015 rc
gr

  36   36 3307 1745 PO
  36   36 4040 1790 PO
  36   36 3307 1745 FO
  36   36 4040 1790 FO
gs 787 195 4691 2015 rc
gr

/c13 { 0.333333 1.000000 0.666667 sr} bdef
c13
  36   36 1637 1528 PO
  36   36 1637 1528 FO
gs 787 195 4691 2015 rc
gr

  36   36 3576 1751 PO
  36   36 2387 1665 PO
  36   36 1858 1598 PO
  36   36 3576 1751 FO
  36   36 2387 1665 FO
  36   36 1858 1598 FO
gs 787 195 4691 2015 rc
gr

  36   36 2205 1650 PO
  36   36 4542 1838 PO
  36   36 2205 1650 FO
  36   36 4542 1838 FO
gs 787 195 4691 2015 rc
gr

/c14 { 0.666667 1.000000 0.333333 sr} bdef
c14
  36   36 1732 1560 PO
  36   36  817  574 PO
  36   36  968  864 PO
  36   36  880  766 PO
  36   36 1392 1388 PO
  36   36  868  792 PO
  36   36 1387 1408 PO
  36   36 1633 1529 PO
  36   36  944  899 PO
  36   36  935  904 PO
  36   36 1732 1560 FO
  36   36  817  574 FO
  36   36  968  864 FO
  36   36  880  766 FO
  36   36 1392 1388 FO
  36   36  868  792 FO
  36   36 1387 1408 FO
  36   36 1633 1529 FO
  36   36  944  899 FO
  36   36  935  904 FO
gs 787 195 4691 2015 rc
gr

/c15 { 1.000000 1.000000 0.000000 sr} bdef
c15
  36   36 1594 1517 PO
  36   36 1621 1526 PO
  36   36 1903 1620 PO
  36   36 1166 1221 PO
  36   36 1011 1026 PO
  36   36 1816 1590 PO
  36   36 1803 1603 PO
  36   36  867  685 PO
  36   36  958  904 PO
  36   36  875  713 PO
  36   36 1594 1517 FO
  36   36 1621 1526 FO
  36   36 1903 1620 FO
  36   36 1166 1221 FO
  36   36 1011 1026 FO
  36   36 1816 1590 FO
  36   36 1803 1603 FO
  36   36  867  685 FO
  36   36  958  904 FO
  36   36  875  713 FO
gs 787 195 4691 2015 rc
gr

/c16 { 1.000000 0.666667 0.000000 sr} bdef
c16
  36   36  975  954 PO
  36   36 1166 1267 PO
  36   36 1021 1007 PO
  36   36  823  592 PO
  36   36 1698 1548 PO
  36   36 1271 1312 PO
  36   36 1888 1603 PO
  36   36 1378 1411 PO
  36   36  830  663 PO
  36   36 1202 1280 PO
  36   36  975  954 FO
  36   36 1166 1267 FO
  36   36 1021 1007 FO
  36   36  823  592 FO
  36   36 1698 1548 FO
  36   36 1271 1312 FO
  36   36 1888 1603 FO
  36   36 1378 1411 FO
  36   36  830  663 FO
  36   36 1202 1280 FO
gs 787 195 4691 2015 rc
gr

/c17 { 1.000000 0.333333 0.000000 sr} bdef
c17
  36   36  858  712 PO
  36   36 1260 1316 PO
  36   36  891  766 PO
  36   36 1736 1570 PO
  36   36 1399 1422 PO
  36   36 1144 1181 PO
  36   36 1199 1238 PO
  36   36  899  714 PO
  36   36 1226 1258 PO
  36   36 1006  993 PO
  36   36  858  712 FO
  36   36 1260 1316 FO
  36   36  891  766 FO
  36   36 1736 1570 FO
  36   36 1399 1422 FO
  36   36 1144 1181 FO
  36   36 1199 1238 FO
  36   36  899  714 FO
  36   36 1226 1258 FO
  36   36 1006  993 FO
gs 787 195 4691 2015 rc
gr

0 sg
%%IncludeResource: font Symbol
/Symbol /ISOLatin1Encoding 120 FMSR

2907 2512 mt 
(n) s
%%IncludeResource: font Helvetica
/Helvetica /ISOLatin1Encoding 96 FMSR

2969 2572 mt 
(i) s
%%IncludeResource: font Helvetica
/Helvetica /ISOLatin1Encoding 120 FMSR

2990 2512 mt 
( \(AP/s\)) s
 403 1297 mt  -90 rotate
(CV) s
90 rotate
%%IncludeResource: font Helvetica
/Helvetica /ISOLatin1Encoding 96 FMSR

 463 1131 mt  -90 rotate
(i) s
90 rotate

end %%Color Dict

eplot
%%EndObject

epage
end

showpage

%%Trailer
%%EOF
