%!PS-Adobe-3.0 EPSF-3.0
%%Creator: MATLAB, The MathWorks, Inc. Version 7.14.0.739 (R2012a). Operating System: Linux 2.6.33.7.2-rt30-rt #1 SMP PREEMPT RT Tue Apr 17 15:22:21 CEST 2012 x86_64.
%%Title: ./gclamp_vs_cclamp_lif_simple.eps
%%CreationDate: 05/27/2014  14:32:00
%%DocumentNeededFonts: Helvetica
%%DocumentProcessColors: Cyan Magenta Yellow Black
%%LanguageLevel: 2
%%Pages: 1
%%BoundingBox:    40    11   530   344
%%EndComments

%%BeginProlog
% MathWorks dictionary
/MathWorks 160 dict begin
% definition operators
/bdef {bind def} bind def
/ldef {load def} bind def
/xdef {exch def} bdef
/xstore {exch store} bdef
% operator abbreviations
/c  /clip ldef
/cc /concat ldef
/cp /closepath ldef
/gr /grestore ldef
/gs /gsave ldef
/mt /moveto ldef
/np /newpath ldef
/cm /currentmatrix ldef
/sm /setmatrix ldef
/rm /rmoveto ldef
/rl /rlineto ldef
/s {show newpath} bdef
/sc {setcmykcolor} bdef
/sr /setrgbcolor ldef
/sg /setgray ldef
/w /setlinewidth ldef
/j /setlinejoin ldef
/cap /setlinecap ldef
/rc {rectclip} bdef
/rf {rectfill} bdef
% page state control
/pgsv () def
/bpage {/pgsv save def} bdef
/epage {pgsv restore} bdef
/bplot /gsave ldef
/eplot {stroke grestore} bdef
% orientation switch
/portraitMode 0 def /landscapeMode 1 def /rotateMode 2 def
% coordinate system mappings
/dpi2point 0 def
% font control
/FontSize 0 def
/FMS {/FontSize xstore findfont [FontSize 0 0 FontSize neg 0 0]
  makefont setfont} bdef
/reencode {exch dup where {pop load} {pop StandardEncoding} ifelse
  exch dup 3 1 roll findfont dup length dict begin
  { 1 index /FID ne {def}{pop pop} ifelse } forall
  /Encoding exch def currentdict end definefont pop} bdef
/isroman {findfont /CharStrings get /Agrave known} bdef
/FMSR {3 1 roll 1 index dup isroman {reencode} {pop pop} ifelse
  exch FMS} bdef
/csm {1 dpi2point div -1 dpi2point div scale neg translate
 dup landscapeMode eq {pop -90 rotate}
  {rotateMode eq {90 rotate} if} ifelse} bdef
% line types: solid, dotted, dashed, dotdash
/SO { [] 0 setdash } bdef
/DO { [.5 dpi2point mul 4 dpi2point mul] 0 setdash } bdef
/DA { [6 dpi2point mul] 0 setdash } bdef
/DD { [.5 dpi2point mul 4 dpi2point mul 6 dpi2point mul 4
  dpi2point mul] 0 setdash } bdef
% macros for lines and objects
/L {lineto stroke} bdef
/MP {3 1 roll moveto 1 sub {rlineto} repeat} bdef
/AP {{rlineto} repeat} bdef
/PDlw -1 def
/W {/PDlw currentlinewidth def setlinewidth} def
/PP {closepath eofill} bdef
/DP {closepath stroke} bdef
/MR {4 -2 roll moveto dup  0 exch rlineto exch 0 rlineto
  neg 0 exch rlineto closepath} bdef
/FR {MR stroke} bdef
/PR {MR fill} bdef
/L1i {{currentfile picstr readhexstring pop} image} bdef
/tMatrix matrix def
/MakeOval {newpath tMatrix currentmatrix pop translate scale
0 0 1 0 360 arc tMatrix setmatrix} bdef
/FO {MakeOval stroke} bdef
/PO {MakeOval fill} bdef
/PD {currentlinewidth 2 div 0 360 arc fill
   PDlw -1 eq not {PDlw w /PDlw -1 def} if} def
/FA {newpath tMatrix currentmatrix pop translate scale
  0 0 1 5 -2 roll arc tMatrix setmatrix stroke} bdef
/PA {newpath tMatrix currentmatrix pop	translate 0 0 moveto scale
  0 0 1 5 -2 roll arc closepath tMatrix setmatrix fill} bdef
/FAn {newpath tMatrix currentmatrix pop translate scale
  0 0 1 5 -2 roll arcn tMatrix setmatrix stroke} bdef
/PAn {newpath tMatrix currentmatrix pop translate 0 0 moveto scale
  0 0 1 5 -2 roll arcn closepath tMatrix setmatrix fill} bdef
/vradius 0 def /hradius 0 def /lry 0 def
/lrx 0 def /uly 0 def /ulx 0 def /rad 0 def
/MRR {/vradius xdef /hradius xdef /lry xdef /lrx xdef /uly xdef
  /ulx xdef newpath tMatrix currentmatrix pop ulx hradius add uly
  vradius add translate hradius vradius scale 0 0 1 180 270 arc 
  tMatrix setmatrix lrx hradius sub uly vradius add translate
  hradius vradius scale 0 0 1 270 360 arc tMatrix setmatrix
  lrx hradius sub lry vradius sub translate hradius vradius scale
  0 0 1 0 90 arc tMatrix setmatrix ulx hradius add lry vradius sub
  translate hradius vradius scale 0 0 1 90 180 arc tMatrix setmatrix
  closepath} bdef
/FRR {MRR stroke } bdef
/PRR {MRR fill } bdef
/MlrRR {/lry xdef /lrx xdef /uly xdef /ulx xdef /rad lry uly sub 2 div def
  newpath tMatrix currentmatrix pop ulx rad add uly rad add translate
  rad rad scale 0 0 1 90 270 arc tMatrix setmatrix lrx rad sub lry rad
  sub translate rad rad scale 0 0 1 270 90 arc tMatrix setmatrix
  closepath} bdef
/FlrRR {MlrRR stroke } bdef
/PlrRR {MlrRR fill } bdef
/MtbRR {/lry xdef /lrx xdef /uly xdef /ulx xdef /rad lrx ulx sub 2 div def
  newpath tMatrix currentmatrix pop ulx rad add uly rad add translate
  rad rad scale 0 0 1 180 360 arc tMatrix setmatrix lrx rad sub lry rad
  sub translate rad rad scale 0 0 1 0 180 arc tMatrix setmatrix
  closepath} bdef
/FtbRR {MtbRR stroke } bdef
/PtbRR {MtbRR fill } bdef
/stri 6 array def /dtri 6 array def
/smat 6 array def /dmat 6 array def
/tmat1 6 array def /tmat2 6 array def /dif 3 array def
/asub {/ind2 exch def /ind1 exch def dup dup
  ind1 get exch ind2 get sub exch } bdef
/tri_to_matrix {
  2 0 asub 3 1 asub 4 0 asub 5 1 asub
  dup 0 get exch 1 get 7 -1 roll astore } bdef
/compute_transform {
  dmat dtri tri_to_matrix tmat1 invertmatrix 
  smat stri tri_to_matrix tmat2 concatmatrix } bdef
/ds {stri astore pop} bdef
/dt {dtri astore pop} bdef
/db {2 copy /cols xdef /rows xdef mul dup 3 mul string
  currentfile 
  3 index 0 eq {/ASCIIHexDecode filter}
  {/ASCII85Decode filter 3 index 2 eq {/RunLengthDecode filter} if }
  ifelse exch readstring pop
  dup 0 3 index getinterval /rbmap xdef
  dup 2 index dup getinterval /gbmap xdef
  1 index dup 2 mul exch getinterval /bbmap xdef pop pop}bdef
/it {gs np dtri aload pop moveto lineto lineto cp c
  cols rows 8 compute_transform 
  rbmap gbmap bbmap true 3 colorimage gr}bdef
/il {newpath moveto lineto stroke}bdef
currentdict end def
%%EndProlog

%%BeginSetup
MathWorks begin

0 cap

end
%%EndSetup

%%Page: 1 1
%%BeginPageSetup
%%PageBoundingBox:    40    11   530   344
MathWorks begin
bpage
%%EndPageSetup

%%BeginObject: obj1
bplot

/dpi2point 12 def
portraitMode 0000 4320 csm

  480   182  5891  4003 rc
85 dict begin %Colortable dictionary
/c0 { 0.000000 0.000000 0.000000 sr} bdef
/c1 { 1.000000 1.000000 1.000000 sr} bdef
/c2 { 0.900000 0.000000 0.000000 sr} bdef
/c3 { 0.000000 0.820000 0.000000 sr} bdef
/c4 { 0.000000 0.000000 0.800000 sr} bdef
/c5 { 0.910000 0.820000 0.320000 sr} bdef
/c6 { 1.000000 0.260000 0.820000 sr} bdef
/c7 { 0.000000 0.820000 0.820000 sr} bdef
c0
1 j
1 sg
   0    0 6913 4321 rf
6 w
0 3521 5356 0 0 -3521 899 3845 4 MP
PP
-5356 0 0 3521 5356 0 0 -3521 899 3845 5 MP stroke
4 w
DO
SO
6 w
0 sg
 899 3845 mt 6255 3845 L
 899 3845 mt  899  324 L
 899 3845 mt  899 3791 L
%%IncludeResource: font Helvetica
/Helvetica /ISOLatin1Encoding 120 FMSR

 866 3990 mt 
(0) s
2238 3845 mt 2238 3791 L
2205 3990 mt 
(5) s
3577 3845 mt 3577 3791 L
3511 3990 mt 
(10) s
4916 3845 mt 4916 3791 L
4850 3990 mt 
(15) s
6255 3845 mt 6255 3791 L
6189 3990 mt 
(20) s
 899 3845 mt  952 3845 L
 798 3889 mt 
(0) s
 899 3140 mt  952 3140 L
 698 3184 mt 
(0.1) s
 899 2436 mt  952 2436 L
 698 2480 mt 
(0.2) s
 899 1732 mt  952 1732 L
 698 1776 mt 
(0.3) s
 899 1028 mt  952 1028 L
 698 1072 mt 
(0.4) s
 899  324 mt  952  324 L
 698  368 mt 
(0.5) s
gs 899 324 5357 3522 rc
/c8 { 1.000000 0.000000 0.000000 sr} bdef
c8
0 337 1032 2768 2 MP stroke
101 0 982 2768 2 MP stroke
101 0 982 3105 2 MP stroke
0 141 1300 2417 2 MP stroke
102 0 1249 2417 2 MP stroke
102 0 1249 2558 2 MP stroke
0 134 1568 2218 2 MP stroke
102 0 1517 2218 2 MP stroke
102 0 1517 2352 2 MP stroke
0 89 1836 2059 2 MP stroke
102 0 1785 2059 2 MP stroke
102 0 1785 2148 2 MP stroke
0 92 2104 1939 2 MP stroke
101 0 2053 1939 2 MP stroke
101 0 2053 2031 2 MP stroke
0 73 2371 1813 2 MP stroke
101 0 2321 1813 2 MP stroke
101 0 2321 1886 2 MP stroke
0 65 2639 1757 2 MP stroke
102 0 2588 1757 2 MP stroke
102 0 2588 1822 2 MP stroke
0 56 2907 1669 2 MP stroke
102 0 2856 1669 2 MP stroke
102 0 2856 1725 2 MP stroke
0 86 3175 1586 2 MP stroke
102 0 3124 1586 2 MP stroke
102 0 3124 1672 2 MP stroke
0 93 3443 1493 2 MP stroke
101 0 3392 1493 2 MP stroke
101 0 3392 1586 2 MP stroke
0 69 3710 1440 2 MP stroke
101 0 3660 1440 2 MP stroke
101 0 3660 1509 2 MP stroke
0 103 3978 1396 2 MP stroke
102 0 3927 1396 2 MP stroke
102 0 3927 1499 2 MP stroke
0 124 4246 1348 2 MP stroke
102 0 4195 1348 2 MP stroke
102 0 4195 1472 2 MP stroke
0 99 4514 1315 2 MP stroke
102 0 4463 1315 2 MP stroke
102 0 4463 1414 2 MP stroke
0 109 4782 1311 2 MP stroke
101 0 4731 1311 2 MP stroke
101 0 4731 1420 2 MP stroke
0 113 5049 1245 2 MP stroke
101 0 4999 1245 2 MP stroke
101 0 4999 1358 2 MP stroke
0 91 5317 1190 2 MP stroke
102 0 5266 1190 2 MP stroke
102 0 5266 1281 2 MP stroke
0 47 5585 1167 2 MP stroke
102 0 5534 1167 2 MP stroke
102 0 5534 1214 2 MP stroke
0 48 5853 1128 2 MP stroke
102 0 5802 1128 2 MP stroke
102 0 5802 1176 2 MP stroke
0 48 6121 1097 2 MP stroke
101 0 6070 1097 2 MP stroke
101 0 6070 1145 2 MP stroke
gr

c8
  36   36 1032 2937 PO
  36   36 1300 2487 PO
  36   36 1568 2285 PO
  36   36 1836 2103 PO
  36   36 2104 1985 PO
  36   36 2371 1849 PO
  36   36 2639 1790 PO
  36   36 2907 1697 PO
  36   36 3175 1629 PO
  36   36 3443 1540 PO
  36   36 3710 1475 PO
  36   36 3978 1448 PO
  36   36 4246 1410 PO
  36   36 4514 1364 PO
  36   36 4782 1366 PO
  36   36 5049 1301 PO
  36   36 5317 1235 PO
  36   36 5585 1191 PO
  36   36 5853 1152 PO
  36   36 6121 1121 PO
  36   36 1032 2937 FO
  36   36 1300 2487 FO
  36   36 1568 2285 FO
  36   36 1836 2103 FO
  36   36 2104 1985 FO
  36   36 2371 1849 FO
  36   36 2639 1790 FO
  36   36 2907 1697 FO
  36   36 3175 1629 FO
  36   36 3443 1540 FO
  36   36 3710 1475 FO
  36   36 3978 1448 FO
  36   36 4246 1410 FO
  36   36 4514 1364 FO
  36   36 4782 1366 FO
  36   36 5049 1301 FO
  36   36 5317 1235 FO
  36   36 5585 1191 FO
  36   36 5853 1152 FO
  36   36 6121 1121 FO
gs 899 324 5357 3522 rc
0 sg
1568 2503 PD
92 0 1522 2503 2 MP stroke
92 0 1522 2503 2 MP stroke
1836 2286 PD
91 0 1790 2286 2 MP stroke
91 0 1790 2286 2 MP stroke
2104 2042 PD
91 0 2058 2042 2 MP stroke
91 0 2058 2042 2 MP stroke
2371 2026 PD
91 0 2326 2026 2 MP stroke
91 0 2326 2026 2 MP stroke
2639 1854 PD
91 0 2594 1854 2 MP stroke
91 0 2594 1854 2 MP stroke
2907 1818 PD
92 0 2861 1818 2 MP stroke
92 0 2861 1818 2 MP stroke
0 59 3175 1735 2 MP stroke
91 0 3129 1735 2 MP stroke
91 0 3129 1794 2 MP stroke
0 80 3443 1599 2 MP stroke
91 0 3397 1599 2 MP stroke
91 0 3397 1679 2 MP stroke
0 53 3710 1578 2 MP stroke
91 0 3665 1578 2 MP stroke
91 0 3665 1631 2 MP stroke
0 115 3978 1453 2 MP stroke
91 0 3933 1453 2 MP stroke
91 0 3933 1568 2 MP stroke
0 61 4246 1484 2 MP stroke
92 0 4200 1484 2 MP stroke
92 0 4200 1545 2 MP stroke
0 2 4514 1430 2 MP stroke
91 0 4468 1430 2 MP stroke
91 0 4468 1432 2 MP stroke
0 36 4782 1381 2 MP stroke
91 0 4736 1381 2 MP stroke
91 0 4736 1417 2 MP stroke
0 51 5049 1331 2 MP stroke
91 0 5004 1331 2 MP stroke
91 0 5004 1382 2 MP stroke
0 22 5317 1311 2 MP stroke
91 0 5272 1311 2 MP stroke
91 0 5272 1333 2 MP stroke
0 34 5585 1260 2 MP stroke
92 0 5539 1260 2 MP stroke
92 0 5539 1294 2 MP stroke
0 52 5853 1200 2 MP stroke
91 0 5807 1200 2 MP stroke
91 0 5807 1252 2 MP stroke
0 21 6121 1187 2 MP stroke
91 0 6075 1187 2 MP stroke
91 0 6075 1208 2 MP stroke
gr

0 sg
  36   36 1568 2503 PO
  36   36 1836 2286 PO
  36   36 2104 2042 PO
  36   36 2371 2026 PO
  36   36 2639 1854 PO
  36   36 2907 1818 PO
  36   36 3175 1764 PO
  36   36 3443 1639 PO
  36   36 3710 1605 PO
  36   36 3978 1511 PO
  36   36 4246 1515 PO
  36   36 4514 1431 PO
  36   36 4782 1399 PO
  36   36 5049 1356 PO
  36   36 5317 1322 PO
  36   36 5585 1277 PO
  36   36 5853 1226 PO
  36   36 6121 1197 PO
  36   36 1568 2503 FO
  36   36 1836 2286 FO
  36   36 2104 2042 FO
  36   36 2371 2026 FO
  36   36 2639 1854 FO
  36   36 2907 1818 FO
  36   36 3175 1764 FO
  36   36 3443 1639 FO
  36   36 3710 1605 FO
  36   36 3978 1511 FO
  36   36 4246 1515 FO
  36   36 4514 1431 FO
  36   36 4782 1399 FO
  36   36 5049 1356 FO
  36   36 5317 1322 FO
  36   36 5585 1277 FO
  36   36 5853 1226 FO
  36   36 6121 1197 FO
gs 899 324 5357 3522 rc
gr

3012 4133 mt 
(Geometric mean rate) s
 616 2378 mt  -90 rotate
(Correlation) s
90 rotate
 882 3888 mt 
( ) s
6239  366 mt 
( ) s
5088 3586 mt 
(Conductance clamp) s
gs 4629 3452 1567 335 rc
gs 4802 3470 147 147 rc
c8
  36   36 4875 3543 PO
  36   36 4875 3543 FO
gr

c8
gr

c8
0 sg
5088 3737 mt 
(Current clamp) s
gs 4629 3452 1567 335 rc
gs 4802 3621 147 147 rc
  36   36 4875 3694 PO
  36   36 4875 3694 FO
gr

gr


end %%Color Dict

eplot
%%EndObject

epage
end

showpage

%%Trailer
%%EOF
