%!PS-Adobe-3.0 EPSF-3.0
%%Creator: MATLAB, The MathWorks, Inc. Version 8.0.0.783 (R2012b). Operating System: Darwin 10.8.0 Darwin Kernel Version 10.8.0: Tue Jun  7 16:33:36 PDT 2011; root:xnu-1504.15.3~1/RELEASE_I386 i386.
%%Title: ./gclamp_vs_cclamp.eps
%%CreationDate: 11/03/2013  17:02:36
%%DocumentNeededFonts: Helvetica
%%DocumentProcessColors: Cyan Magenta Yellow Black
%%LanguageLevel: 2
%%Pages: 1
%%BoundingBox:    38    18   531   411
%%EndComments

%%BeginProlog
% MathWorks dictionary
/MathWorks 160 dict begin
% definition operators
/bdef {bind def} bind def
/ldef {load def} bind def
/xdef {exch def} bdef
/xstore {exch store} bdef
% operator abbreviations
/c  /clip ldef
/cc /concat ldef
/cp /closepath ldef
/gr /grestore ldef
/gs /gsave ldef
/mt /moveto ldef
/np /newpath ldef
/cm /currentmatrix ldef
/sm /setmatrix ldef
/rm /rmoveto ldef
/rl /rlineto ldef
/s {show newpath} bdef
/sc {setcmykcolor} bdef
/sr /setrgbcolor ldef
/sg /setgray ldef
/w /setlinewidth ldef
/j /setlinejoin ldef
/cap /setlinecap ldef
/rc {rectclip} bdef
/rf {rectfill} bdef
% page state control
/pgsv () def
/bpage {/pgsv save def} bdef
/epage {pgsv restore} bdef
/bplot /gsave ldef
/eplot {stroke grestore} bdef
% orientation switch
/portraitMode 0 def /landscapeMode 1 def /rotateMode 2 def
% coordinate system mappings
/dpi2point 0 def
% font control
/FontSize 0 def
/FMS {/FontSize xstore findfont [FontSize 0 0 FontSize neg 0 0]
  makefont setfont} bdef
/reencode {exch dup where {pop load} {pop StandardEncoding} ifelse
  exch dup 3 1 roll findfont dup length dict begin
  { 1 index /FID ne {def}{pop pop} ifelse } forall
  /Encoding exch def currentdict end definefont pop} bdef
/isroman {findfont /CharStrings get /Agrave known} bdef
/FMSR {3 1 roll 1 index dup isroman {reencode} {pop pop} ifelse
  exch FMS} bdef
/csm {1 dpi2point div -1 dpi2point div scale neg translate
 dup landscapeMode eq {pop -90 rotate}
  {rotateMode eq {90 rotate} if} ifelse} bdef
% line types: solid, dotted, dashed, dotdash
/SO { [] 0 setdash } bdef
/DO { [.5 dpi2point mul 4 dpi2point mul] 0 setdash } bdef
/DA { [6 dpi2point mul] 0 setdash } bdef
/DD { [.5 dpi2point mul 4 dpi2point mul 6 dpi2point mul 4
  dpi2point mul] 0 setdash } bdef
% macros for lines and objects
/L {lineto stroke} bdef
/MP {3 1 roll moveto 1 sub {rlineto} repeat} bdef
/AP {{rlineto} repeat} bdef
/PDlw -1 def
/W {/PDlw currentlinewidth def setlinewidth} def
/PP {closepath eofill} bdef
/DP {closepath stroke} bdef
/MR {4 -2 roll moveto dup  0 exch rlineto exch 0 rlineto
  neg 0 exch rlineto closepath} bdef
/FR {MR stroke} bdef
/PR {MR fill} bdef
/L1i {{currentfile picstr readhexstring pop} image} bdef
/tMatrix matrix def
/MakeOval {newpath tMatrix currentmatrix pop translate scale
0 0 1 0 360 arc tMatrix setmatrix} bdef
/FO {MakeOval stroke} bdef
/PO {MakeOval fill} bdef
/PD {currentlinewidth 2 div 0 360 arc fill
   PDlw -1 eq not {PDlw w /PDlw -1 def} if} def
/FA {newpath tMatrix currentmatrix pop translate scale
  0 0 1 5 -2 roll arc tMatrix setmatrix stroke} bdef
/PA {newpath tMatrix currentmatrix pop	translate 0 0 moveto scale
  0 0 1 5 -2 roll arc closepath tMatrix setmatrix fill} bdef
/FAn {newpath tMatrix currentmatrix pop translate scale
  0 0 1 5 -2 roll arcn tMatrix setmatrix stroke} bdef
/PAn {newpath tMatrix currentmatrix pop translate 0 0 moveto scale
  0 0 1 5 -2 roll arcn closepath tMatrix setmatrix fill} bdef
/vradius 0 def /hradius 0 def /lry 0 def
/lrx 0 def /uly 0 def /ulx 0 def /rad 0 def
/MRR {/vradius xdef /hradius xdef /lry xdef /lrx xdef /uly xdef
  /ulx xdef newpath tMatrix currentmatrix pop ulx hradius add uly
  vradius add translate hradius vradius scale 0 0 1 180 270 arc 
  tMatrix setmatrix lrx hradius sub uly vradius add translate
  hradius vradius scale 0 0 1 270 360 arc tMatrix setmatrix
  lrx hradius sub lry vradius sub translate hradius vradius scale
  0 0 1 0 90 arc tMatrix setmatrix ulx hradius add lry vradius sub
  translate hradius vradius scale 0 0 1 90 180 arc tMatrix setmatrix
  closepath} bdef
/FRR {MRR stroke } bdef
/PRR {MRR fill } bdef
/MlrRR {/lry xdef /lrx xdef /uly xdef /ulx xdef /rad lry uly sub 2 div def
  newpath tMatrix currentmatrix pop ulx rad add uly rad add translate
  rad rad scale 0 0 1 90 270 arc tMatrix setmatrix lrx rad sub lry rad
  sub translate rad rad scale 0 0 1 270 90 arc tMatrix setmatrix
  closepath} bdef
/FlrRR {MlrRR stroke } bdef
/PlrRR {MlrRR fill } bdef
/MtbRR {/lry xdef /lrx xdef /uly xdef /ulx xdef /rad lrx ulx sub 2 div def
  newpath tMatrix currentmatrix pop ulx rad add uly rad add translate
  rad rad scale 0 0 1 180 360 arc tMatrix setmatrix lrx rad sub lry rad
  sub translate rad rad scale 0 0 1 0 180 arc tMatrix setmatrix
  closepath} bdef
/FtbRR {MtbRR stroke } bdef
/PtbRR {MtbRR fill } bdef
/stri 6 array def /dtri 6 array def
/smat 6 array def /dmat 6 array def
/tmat1 6 array def /tmat2 6 array def /dif 3 array def
/asub {/ind2 exch def /ind1 exch def dup dup
  ind1 get exch ind2 get sub exch } bdef
/tri_to_matrix {
  2 0 asub 3 1 asub 4 0 asub 5 1 asub
  dup 0 get exch 1 get 7 -1 roll astore } bdef
/compute_transform {
  dmat dtri tri_to_matrix tmat1 invertmatrix 
  smat stri tri_to_matrix tmat2 concatmatrix } bdef
/ds {stri astore pop} bdef
/dt {dtri astore pop} bdef
/db {2 copy /cols xdef /rows xdef mul dup 3 mul string
  currentfile 
  3 index 0 eq {/ASCIIHexDecode filter}
  {/ASCII85Decode filter 3 index 2 eq {/RunLengthDecode filter} if }
  ifelse exch readstring pop
  dup 0 3 index getinterval /rbmap xdef
  dup 2 index dup getinterval /gbmap xdef
  1 index dup 2 mul exch getinterval /bbmap xdef pop pop}bdef
/it {gs np dtri aload pop moveto lineto lineto cp c
  cols rows 8 compute_transform 
  rbmap gbmap bbmap true 3 colorimage gr}bdef
/il {newpath moveto lineto stroke}bdef
currentdict end def
%%EndProlog

%%BeginSetup
MathWorks begin

0 cap

end
%%EndSetup

%%Page: 1 1
%%BeginPageSetup
%%PageBoundingBox:    38    18   531   411
MathWorks begin
bpage
%%EndPageSetup

%%BeginObject: obj1
bplot

/dpi2point 12 def
portraitMode 0000 5184 csm

  462   247  5921  4711 rc
85 dict begin %Colortable dictionary
/c0 { 0.000000 0.000000 0.000000 sr} bdef
/c1 { 1.000000 1.000000 1.000000 sr} bdef
/c2 { 0.900000 0.000000 0.000000 sr} bdef
/c3 { 0.000000 0.820000 0.000000 sr} bdef
/c4 { 0.000000 0.000000 0.800000 sr} bdef
/c5 { 0.910000 0.820000 0.320000 sr} bdef
/c6 { 1.000000 0.260000 0.820000 sr} bdef
/c7 { 0.000000 0.820000 0.820000 sr} bdef
c0
1 j
1 sg
   0    0 6918 5190 rf
6 w
0 4229 5361 0 0 -4229 899 4618 4 MP
PP
-5361 0 0 4229 5361 0 0 -4229 899 4618 5 MP stroke
4 w
DO
SO
6 w
0 sg
 899 4618 mt 6260 4618 L
 899 4618 mt  899  389 L
 899 4618 mt  899 4564 L
%%IncludeResource: font Helvetica
/Helvetica /ISOLatin1Encoding 120 FMSR

 866 4763 mt 
(0) s
2686 4618 mt 2686 4564 L
2653 4763 mt 
(5) s
4473 4618 mt 4473 4564 L
4407 4763 mt 
(10) s
6260 4618 mt 6260 4564 L
6194 4763 mt 
(15) s
 899 4618 mt  952 4618 L
 798 4662 mt 
(0) s
 899 3772 mt  952 3772 L
 698 3816 mt 
(0.1) s
 899 2926 mt  952 2926 L
 698 2970 mt 
(0.2) s
 899 2080 mt  952 2080 L
 698 2124 mt 
(0.3) s
 899 1234 mt  952 1234 L
 698 1278 mt 
(0.4) s
 899  389 mt  952  389 L
 698  433 mt 
(0.5) s
gs 899 389 5362 4230 rc
gr

  36   36 4981 1582 FO
  36   36 5774 1480 FO
  36   36 4873 1597 FO
  36   36 6079 1430 FO
  36   36 4724 1653 FO
  36   36 4722 1639 FO
  36   36 5263 1558 FO
  36   36 5021 1617 FO
gs 899 389 5362 4230 rc
gr

  36   36 5506 1475 FO
  36   36 4157 2043 FO
  36   36 5125 1545 FO
  36   36 6100 1439 FO
  36   36 5000 1592 FO
  36   36 6033 1432 FO
  36   36 4475 1703 FO
  36   36 5234 1547 FO
  36   36 4947 1580 FO
  36   36 5631 1496 FO
  36   36 5051 1601 FO
  36   36 5209 1558 FO
  36   36 4993 1577 FO
  36   36 4981 1582 FO
  36   36 5280 1553 FO
  36   36 4471 1696 FO
  36   36 5554 1509 FO
  36   36 4337 1710 FO
  36   36 4334 1720 FO
  36   36 4821 1681 FO
  36   36 4604 1652 FO
  36   36 3668 1916 FO
  36   36 5915 1519 FO
  36   36 3633 1948 FO
  36   36 5040 1610 FO
  36   36 3827 2117 FO
  36   36 4697 1625 FO
  36   36 3621 1909 FO
  36   36 5573 1525 FO
  36   36 4585 1616 FO
  36   36 5513 1549 FO
  36   36 4113 1747 FO
  36   36 4795 1624 FO
  36   36 4537 1657 FO
  36   36 5152 1540 FO
  36   36 4630 1609 FO
  36   36 4773 1626 FO
  36   36 4578 1658 FO
  36   36 3649 1895 FO
  36   36 5774 1480 FO
  36   36 5280 1553 FO
  36   36 5165 1586 FO
gs 899 389 5362 4230 rc
gr

  36   36 5004 1630 FO
  36   36 5002 1619 FO
  36   36 5583 1527 FO
  36   36 5323 1568 FO
gs 899 389 5362 4230 rc
gr

  36   36 5844 1481 FO
  36   36 5434 1518 FO
gs 899 389 5362 4230 rc
gr

  36   36 5301 1544 FO
gs 899 389 5362 4230 rc
gr

  36   36 4737 1682 FO
  36   36 5552 1504 FO
  36   36 5244 1584 FO
  36   36 5977 1444 FO
  36   36 5355 1551 FO
  36   36 5525 1527 FO
  36   36 5293 1562 FO
  36   36 2159 2441 FO
  36   36 2358 2331 FO
  36   36 2171 2462 FO
  36   36 2710 2161 FO
  36   36 2086 2488 FO
  36   36 2688 2271 FO
  36   36 2815 2572 FO
  36   36 2680 2163 FO
  36   36 3001 2094 FO
  36   36 2698 2161 FO
  36   36 2159 2441 FO
  36   36 2070 2439 FO
  36   36 1920 2623 FO
  36   36 1687 2754 FO
  36   36 1852 2589 FO
  36   36 2329 2352 FO
  36   36 1703 2739 FO
  36   36 1352 3095 FO
  36   36 1155 3266 FO
  36   36 1277 3114 FO
  36   36 1139 3355 FO
  36   36 1268 3155 FO
  36   36 1170 3273 FO
  36   36 1212 3158 FO
  36   36 1270 3071 FO
  36   36 1171 3263 FO
  36   36 1361 3045 FO
  36   36 1294 3086 FO
  36   36 1269 3113 FO
  36   36 1171 3287 FO
  36   36 1268 3120 FO
  36   36 1170 3292 FO
  36   36 2358 2331 FO
  36   36 2070 2439 FO
  36   36 2081 2489 FO
  36   36 2582 2221 FO
  36   36 2002 2497 FO
  36   36 2561 2248 FO
  36   36 2679 2652 FO
  36   36 2553 2234 FO
  36   36 2570 2161 FO
  36   36  964 3911 FO
  36   36  952 3869 FO
  36   36  960 3858 FO
  36   36  973 3815 FO
  36   36  970 3827 FO
  36   36  938 3993 FO
  36   36  948 3861 FO
  36   36  957 3792 FO
  36   36  938 3918 FO
  36   36  948 4061 FO
  36   36  945 3924 FO
  36   36  948 3905 FO
  36   36  954 4045 FO
  36   36  947 3960 FO
  36   36 4873 1597 FO
  36   36 4471 1696 FO
  36   36 5165 1586 FO
  36   36 5431 1547 FO
  36   36 4246 1759 FO
  36   36 4244 1747 FO
  36   36 4718 1678 FO
  36   36 4506 1670 FO
  36   36 3595 1959 FO
  36   36 5783 1515 FO
  36   36 3561 1938 FO
  36   36 4930 1615 FO
  36   36 3750 2101 FO
  36   36 4597 1664 FO
  36   36 3549 1938 FO
  36   36 5450 1531 FO
  36   36 4488 1649 FO
  36   36 5392 1582 FO
  36   36 4028 1804 FO
  36   36 4693 1663 FO
  36   36 4441 1701 FO
  36   36 5039 1613 FO
  36   36 4532 1669 FO
  36   36 4671 1630 FO
  36   36 4481 1733 FO
  36   36 3577 1954 FO
  36   36 6079 1430 FO
  36   36 5554 1509 FO
gs 899 389 5362 4230 rc
gr

  36   36 5431 1547 FO
  36   36 5261 1619 FO
  36   36 5258 1577 FO
  36   36 5876 1470 FO
  36   36 5600 1535 FO
gs 899 389 5362 4230 rc
gr

  36   36 6153 1367 FO
  36   36 5718 1468 FO
gs 899 389 5362 4230 rc
gr

  36   36 5576 1514 FO
gs 899 389 5362 4230 rc
gr

  36   36 5843 1450 FO
  36   36 5516 1524 FO
gs 899 389 5362 4230 rc
gr

  36   36 5633 1494 FO
  36   36 5814 1456 FO
  36   36 5567 1543 FO
  36   36  964 3911 FO
  36   36  998 3684 FO
  36   36 1008 3662 FO
  36   36  992 3740 FO
  36   36  962 3838 FO
  36   36  972 3824 FO
  36   36  988 3688 FO
  36   36  984 3809 FO
  36   36  998 3762 FO
  36   36  958 3784 FO
  36   36  998 3752 FO
  36   36  969 3785 FO
  36   36  958 3932 FO
  36   36  998 3622 FO
  36   36  957 3887 FO
  36   36  997 3712 FO
  36   36  965 3879 FO
  36   36  957 3863 FO
  36   36  998 3723 FO
  36   36 2171 2462 FO
  36   36 1920 2623 FO
  36   36 2081 2489 FO
  36   36 1694 2789 FO
  36   36 1861 2625 FO
  36   36 2348 2385 FO
  36   36 2342 2318 FO
  36   36 1711 2861 FO
  36   36  998 3684 FO
  36   36 1037 3490 FO
  36   36 1017 3539 FO
  36   36  991 3741 FO
  36   36 1011 3631 FO
  36   36 1006 3646 FO
  36   36 1055 3552 FO
  36   36 1045 3513 FO
  36   36 1024 3542 FO
  36   36 1023 3564 FO
  36   36 1064 3508 FO
  36   36  987 3713 FO
  36   36 1023 3617 FO
  36   36 1065 3480 FO
  36   36 1022 3543 FO
  36   36 1065 3499 FO
  36   36 1023 3673 FO
  36   36 1064 3543 FO
  36   36 4724 1653 FO
  36   36 4337 1710 FO
  36   36 5004 1630 FO
  36   36 4246 1759 FO
  36   36 5261 1619 FO
  36   36 4118 1761 FO
  36   36 4574 1781 FO
  36   36 4370 1684 FO
  36   36 3493 1947 FO
  36   36 3461 1893 FO
  36   36 4779 1638 FO
  36   36 3643 2198 FO
  36   36 4458 1699 FO
  36   36 3450 1941 FO
  36   36 5279 1607 FO
  36   36 4353 1672 FO
  36   36 5223 1646 FO
  36   36 3910 1776 FO
  36   36 4550 1693 FO
  36   36 4308 1722 FO
  36   36 4884 1620 FO
  36   36 4395 1691 FO
  36   36 4529 1648 FO
  36   36 4347 1676 FO
  36   36 3476 1915 FO
  36   36 4722 1639 FO
  36   36 4334 1720 FO
  36   36 5002 1619 FO
  36   36 4244 1747 FO
  36   36 5258 1577 FO
  36   36 4118 1761 FO
  36   36 4572 1714 FO
  36   36 4368 1697 FO
  36   36 3492 1966 FO
  36   36 3459 1995 FO
  36   36 4776 1641 FO
  36   36 3641 2125 FO
  36   36 4455 1659 FO
  36   36 3448 1907 FO
  36   36 5276 1586 FO
  36   36 4350 1721 FO
  36   36 5220 1596 FO
  36   36 3908 1789 FO
  36   36 4548 1692 FO
  36   36 4306 1737 FO
  36   36 4881 1615 FO
  36   36 4393 1697 FO
  36   36 4527 1673 FO
  36   36 4344 1696 FO
  36   36 3474 1957 FO
  36   36 1008 3662 FO
  36   36 1037 3490 FO
  36   36 1029 3634 FO
  36   36 1023 3584 FO
  36   36 1018 3672 FO
  36   36 1072 3443 FO
  36   36 1061 3522 FO
  36   36 1037 3579 FO
  36   36 1037 3742 FO
  36   36 1082 3483 FO
  36   36 1111 3464 FO
  36   36 1037 3586 FO
  36   36 1083 3428 FO
  36   36 1036 3552 FO
  36   36 1083 3442 FO
  36   36 1037 3590 FO
  36   36 1082 3425 FO
  36   36 5263 1558 FO
  36   36 4821 1681 FO
  36   36 5583 1527 FO
  36   36 4718 1678 FO
  36   36 5876 1470 FO
  36   36 4574 1781 FO
  36   36 4572 1714 FO
  36   36 4860 1690 FO
gs 899 389 5362 4230 rc
gr

  36   36 5326 1547 FO
  36   36 4030 1988 FO
  36   36 4959 1626 FO
  36   36 5896 1467 FO
  36   36 4839 1663 FO
  36   36 5832 1512 FO
  36   36 4335 1825 FO
  36   36 5064 1600 FO
  36   36 4789 1696 FO
  36   36 5445 1572 FO
  36   36 4888 1616 FO
  36   36 5041 1651 FO
  36   36 4832 1712 FO
  36   36 1687 2754 FO
  36   36 1352 3095 FO
  36   36 1694 2789 FO
  36   36 1641 2780 FO
  36   36 1412 2985 FO
  36   36 1399 2991 FO
  36   36 1401 2981 FO
  36   36 1525 2873 FO
  36   36 1435 2965 FO
  36   36 1400 3014 FO
  36   36 1399 2961 FO
  36   36 5021 1617 FO
  36   36 4604 1652 FO
  36   36 5323 1568 FO
  36   36 4506 1670 FO
  36   36 5600 1535 FO
  36   36 4370 1684 FO
  36   36 4368 1697 FO
  36   36 4860 1690 FO
  36   36 3695 1890 FO
  36   36 5964 1512 FO
  36   36 3660 1890 FO
  36   36 5080 1590 FO
  36   36 3856 2117 FO
  36   36 4734 1660 FO
  36   36 3648 1894 FO
  36   36 5619 1512 FO
  36   36 4621 1635 FO
  36   36 5559 1577 FO
  36   36 4144 1733 FO
  36   36 4834 1621 FO
  36   36 4573 1648 FO
  36   36 5193 1557 FO
  36   36 4667 1627 FO
  36   36 4811 1611 FO
  36   36 4614 1659 FO
  36   36 3676 1867 FO
  36   36 3668 1916 FO
  36   36 2710 2161 FO
  36   36 2582 2221 FO
  36   36 3595 1959 FO
  36   36 3493 1947 FO
  36   36 3492 1966 FO
  36   36 3695 1890 FO
  36   36 2962 2124 FO
  36   36 3109 2433 FO
  36   36 3765 1879 FO
  36   36 2953 2066 FO
  36   36 3681 1933 FO
  36   36 3324 1956 FO
  36   36 3840 1934 FO
  36   36 3645 1846 FO
  36   36 3715 1929 FO
  36   36 3823 1903 FO
  36   36 3676 1901 FO
  36   36 2975 2025 FO
  36   36 2086 2488 FO
  36   36 1852 2589 FO
  36   36 2002 2497 FO
  36   36 1861 2625 FO
  36   36 1641 2780 FO
  36   36 1656 2771 FO
  36   36 1547 2840 FO
gs 899 389 5362 4230 rc
gr

  36   36 5915 1519 FO
gs 899 389 5362 4230 rc
gr

  36   36 5783 1515 FO
gs 899 389 5362 4230 rc
gr

  36   36 5964 1512 FO
gs 899 389 5362 4230 rc
gr

  36   36 6092 1472 FO
gs 899 389 5362 4230 rc
gr

  36   36 5939 1475 FO
gs 899 389 5362 4230 rc
gr

  36   36 6226 1433 FO
  36   36 5874 1540 FO
gs 899 389 5362 4230 rc
gr

  36   36 6001 1451 FO
  36   36 6196 1453 FO
  36   36 5929 1488 FO
  36   36 3633 1948 FO
  36   36 2688 2271 FO
  36   36 2561 2248 FO
  36   36 3561 1938 FO
  36   36 2348 2385 FO
  36   36 3461 1893 FO
  36   36 3459 1995 FO
  36   36 3660 1890 FO
  36   36 2962 2124 FO
  36   36 3081 2307 FO
  36   36 3729 1879 FO
  36   36 2928 2117 FO
  36   36 3646 1896 FO
  36   36 3294 1986 FO
  36   36 3611 1907 FO
  36   36 3680 1881 FO
  36   36 3641 1914 FO
  36   36 2949 2123 FO
  36   36 5506 1475 FO
  36   36 5040 1610 FO
  36   36 5844 1481 FO
  36   36 4930 1615 FO
  36   36 6153 1367 FO
  36   36 4779 1638 FO
  36   36 4776 1641 FO
  36   36 5326 1547 FO
  36   36 5080 1590 FO
gs 899 389 5362 4230 rc
gr

  36   36 4204 2026 FO
  36   36 5185 1557 FO
  36   36 6174 1443 FO
  36   36 5059 1584 FO
  36   36 6107 1444 FO
  36   36 4526 1730 FO
  36   36 5297 1538 FO
  36   36 5006 1625 FO
  36   36 5699 1482 FO
  36   36 5110 1562 FO
  36   36 5271 1556 FO
  36   36 5052 1605 FO
  36   36 4157 2043 FO
  36   36 3827 2117 FO
  36   36 2815 2572 FO
  36   36 2679 2652 FO
  36   36 3750 2101 FO
  36   36 3643 2198 FO
  36   36 3641 2125 FO
  36   36 4030 1988 FO
  36   36 3856 2117 FO
  36   36 3109 2433 FO
  36   36 3081 2307 FO
  36   36 4204 2026 FO
  36   36 3930 2110 FO
  36   36 3072 2387 FO
  36   36 3841 2097 FO
  36   36 3464 2241 FO
  36   36 4009 2004 FO
  36   36 3803 2118 FO
  36   36 3877 2078 FO
  36   36 3991 2047 FO
  36   36 3836 2125 FO
  36   36 3094 2409 FO
  36   36  992 3740 FO
  36   36 1017 3539 FO
  36   36 1029 3634 FO
  36   36  986 3662 FO
  36   36 1005 3690 FO
  36   36 1000 3695 FO
  36   36 1047 3560 FO
  36   36 1037 3596 FO
  36   36 1017 3698 FO
  36   36 1016 3585 FO
  36   36 1055 3571 FO
  36   36  983 3614 FO
  36   36 1017 3580 FO
  36   36 1056 3523 FO
  36   36 1016 3634 FO
  36   36 1056 3491 FO
  36   36  978 3852 FO
  36   36 1017 3657 FO
  36   36 1056 3526 FO
  36   36 5125 1545 FO
  36   36 4697 1625 FO
  36   36 5434 1518 FO
  36   36 4597 1664 FO
  36   36 5718 1468 FO
  36   36 4458 1699 FO
  36   36 4455 1659 FO
  36   36 4959 1626 FO
  36   36 4734 1660 FO
  36   36 3765 1879 FO
  36   36 6092 1472 FO
  36   36 3729 1879 FO
  36   36 5185 1557 FO
  36   36 3930 2110 FO
  36   36 3717 1853 FO
  36   36 5738 1513 FO
  36   36 4715 1626 FO
  36   36 5676 1524 FO
  36   36 4226 1717 FO
  36   36 4932 1619 FO
  36   36 4666 1609 FO
  36   36 5301 1522 FO
  36   36 4761 1607 FO
  36   36 4909 1591 FO
  36   36 4708 1598 FO
  36   36 3746 1879 FO
  36   36  952 3869 FO
  36   36  962 3838 FO
  36   36  958 3960 FO
  36   36  971 3777 FO
  36   36  968 3798 FO
  36   36  937 3993 FO
  36   36  946 3857 FO
  36   36  956 3732 FO
  36   36  937 3931 FO
  36   36  946 3886 FO
  36   36  943 3972 FO
  36   36  946 3832 FO
  36   36  952 3975 FO
  36   36  946 3869 FO
  36   36 3621 1909 FO
  36   36 2680 2163 FO
  36   36 2329 2352 FO
  36   36 2553 2234 FO
  36   36 3549 1938 FO
  36   36 2342 2318 FO
  36   36 3450 1941 FO
  36   36 3448 1907 FO
  36   36 3648 1894 FO
  36   36 2953 2066 FO
  36   36 2928 2117 FO
  36   36 3072 2387 FO
  36   36 3717 1853 FO
  36   36 3634 1894 FO
  36   36 3284 1930 FO
  36   36 3599 1906 FO
  36   36 3668 1895 FO
  36   36 3629 1882 FO
  36   36 2940 2044 FO
  36   36 6100 1439 FO
  36   36 5573 1525 FO
gs 899 389 5362 4230 rc
gr

  36   36 5450 1531 FO
gs 899 389 5362 4230 rc
gr

  36   36 5279 1607 FO
  36   36 5276 1586 FO
  36   36 5896 1467 FO
  36   36 5619 1512 FO
gs 899 389 5362 4230 rc
gr

  36   36 6174 1443 FO
  36   36 5738 1513 FO
  36   36 5595 1503 FO
gs 899 389 5362 4230 rc
gr

  36   36 5863 1459 FO
  36   36 5535 1551 FO
gs 899 389 5362 4230 rc
gr

  36   36 5653 1512 FO
  36   36 5835 1488 FO
  36   36 5587 1561 FO
  36   36 5000 1592 FO
  36   36 4585 1616 FO
  36   36 5301 1544 FO
  36   36 4488 1649 FO
  36   36 5576 1514 FO
  36   36 4353 1672 FO
  36   36 4350 1721 FO
  36   36 4839 1663 FO
  36   36 4621 1635 FO
  36   36 3681 1933 FO
  36   36 5939 1475 FO
  36   36 3646 1896 FO
  36   36 5059 1584 FO
  36   36 3841 2097 FO
  36   36 4715 1626 FO
  36   36 3634 1894 FO
  36   36 5595 1503 FO
  36   36 5535 1560 FO
  36   36 4128 1746 FO
  36   36 4813 1634 FO
  36   36 4554 1671 FO
  36   36 5171 1544 FO
  36   36 4648 1603 FO
  36   36 4791 1596 FO
  36   36 4595 1622 FO
  36   36 3662 1885 FO
  36   36 6033 1432 FO
  36   36 5513 1549 FO
gs 899 389 5362 4230 rc
gr

  36   36 5392 1582 FO
gs 899 389 5362 4230 rc
gr

  36   36 5223 1646 FO
  36   36 5220 1596 FO
  36   36 5832 1512 FO
  36   36 5559 1577 FO
gs 899 389 5362 4230 rc
gr

  36   36 6107 1444 FO
  36   36 5676 1524 FO
gs 899 389 5362 4230 rc
gr

  36   36 5535 1560 FO
  36   36 5800 1525 FO
  36   36 5475 1577 FO
  36   36 6248 1450 FO
  36   36 5592 1531 FO
  36   36 5772 1551 FO
  36   36 5527 1575 FO
  36   36 4475 1703 FO
  36   36 4113 1747 FO
  36   36 4737 1682 FO
  36   36 3001 2094 FO
  36   36 4028 1804 FO
  36   36 3910 1776 FO
  36   36 3908 1789 FO
  36   36 4335 1825 FO
  36   36 4144 1733 FO
  36   36 3324 1956 FO
  36   36 3294 1986 FO
  36   36 4526 1730 FO
  36   36 3464 2241 FO
  36   36 4226 1717 FO
  36   36 3284 1930 FO
  36   36 4128 1746 FO
  36   36 4312 1778 FO
  36   36 4086 1771 FO
  36   36 4624 1655 FO
  36   36 4167 1749 FO
  36   36 4292 1726 FO
  36   36 4122 1740 FO
  36   36 3308 1924 FO
  36   36 5234 1547 FO
  36   36 4795 1624 FO
  36   36 5552 1504 FO
  36   36 4693 1663 FO
  36   36 5843 1450 FO
  36   36 4550 1693 FO
  36   36 4548 1692 FO
  36   36 5064 1600 FO
  36   36 4834 1621 FO
  36   36 3840 1934 FO
  36   36 6226 1433 FO
  36   36 5297 1538 FO
  36   36 4009 2004 FO
  36   36 4932 1619 FO
  36   36 5863 1459 FO
  36   36 4813 1634 FO
  36   36 5800 1525 FO
  36   36 4312 1778 FO
  36   36 4763 1624 FO
  36   36 5415 1515 FO
  36   36 4862 1629 FO
  36   36 5013 1553 FO
  36   36 4806 1627 FO
  36   36 4947 1580 FO
  36   36 4537 1657 FO
  36   36 5244 1584 FO
  36   36 4441 1701 FO
  36   36 5516 1524 FO
  36   36 4308 1722 FO
  36   36 4306 1737 FO
  36   36 4789 1696 FO
  36   36 4573 1648 FO
  36   36 3645 1846 FO
  36   36 5874 1540 FO
  36   36 3611 1907 FO
  36   36 5006 1625 FO
  36   36 3803 2118 FO
  36   36 4666 1609 FO
  36   36 3599 1906 FO
  36   36 5535 1551 FO
  36   36 4554 1671 FO
  36   36 5475 1577 FO
  36   36 4086 1771 FO
  36   36 4763 1624 FO
  36   36 5116 1549 FO
  36   36 4599 1653 FO
  36   36 4741 1627 FO
  36   36 4548 1664 FO
  36   36 3627 1904 FO
  36   36  960 3858 FO
  36   36  972 3824 FO
  36   36  991 3741 FO
  36   36  986 3662 FO
  36   36  958 3960 FO
  36   36  982 3758 FO
  36   36  978 3754 FO
  36   36  991 3735 FO
  36   36  954 3818 FO
  36   36  991 3784 FO
  36   36  964 3819 FO
  36   36  954 3921 FO
  36   36  991 3711 FO
  36   36  950 3988 FO
  36   36  953 3935 FO
  36   36  990 3685 FO
  36   36  960 3843 FO
  36   36  953 3759 FO
  36   36  991 3782 FO
  36   36  973 3815 FO
  36   36  988 3688 FO
  36   36 1011 3631 FO
  36   36 1023 3584 FO
  36   36 1005 3690 FO
  36   36  971 3777 FO
  36   36  982 3758 FO
  36   36  995 3686 FO
  36   36 1039 3560 FO
  36   36 1031 3707 FO
  36   36 1011 3586 FO
  36   36 1011 3575 FO
  36   36  978 3750 FO
  36   36 1011 3688 FO
  36   36 1010 3659 FO
  36   36  974 3899 FO
  36   36 1011 3711 FO
  36   36 5631 1496 FO
  36   36 5152 1540 FO
  36   36 5977 1444 FO
  36   36 5039 1613 FO
gs 899 389 5362 4230 rc
gr

  36   36 4884 1620 FO
  36   36 4881 1615 FO
  36   36 5445 1572 FO
  36   36 5193 1557 FO
gs 899 389 5362 4230 rc
gr

  36   36 5699 1482 FO
  36   36 5301 1522 FO
gs 899 389 5362 4230 rc
gr

  36   36 5171 1544 FO
  36   36 6248 1450 FO
  36   36 4624 1655 FO
  36   36 5415 1515 FO
  36   36 5116 1549 FO
  36   36 5224 1528 FO
  36   36 5389 1535 FO
  36   36 5164 1557 FO
  36   36 5051 1601 FO
  36   36 4630 1609 FO
  36   36 5355 1551 FO
  36   36 4532 1669 FO
  36   36 5633 1494 FO
  36   36 4395 1691 FO
  36   36 4393 1697 FO
  36   36 4888 1616 FO
  36   36 4667 1627 FO
  36   36 3715 1929 FO
  36   36 6001 1451 FO
  36   36 3680 1881 FO
  36   36 5110 1562 FO
  36   36 3877 2078 FO
  36   36 4761 1607 FO
  36   36 3668 1895 FO
  36   36 5653 1512 FO
  36   36 4648 1603 FO
  36   36 5592 1531 FO
  36   36 4167 1749 FO
  36   36 4862 1629 FO
  36   36 4599 1653 FO
  36   36 5224 1528 FO
  36   36 4839 1603 FO
  36   36 4641 1615 FO
  36   36 3696 1889 FO
  36   36 5209 1558 FO
  36   36 4773 1626 FO
  36   36 5525 1527 FO
  36   36 4671 1630 FO
  36   36 5814 1456 FO
  36   36 4529 1648 FO
  36   36 4527 1673 FO
  36   36 5041 1651 FO
  36   36 4811 1611 FO
  36   36 3823 1903 FO
  36   36 6196 1453 FO
  36   36 5271 1556 FO
  36   36 3991 2047 FO
  36   36 4909 1591 FO
  36   36 5835 1488 FO
  36   36 4791 1596 FO
  36   36 5772 1551 FO
  36   36 4292 1726 FO
  36   36 5013 1553 FO
  36   36 4741 1627 FO
  36   36 5389 1535 FO
  36   36 4839 1603 FO
  36   36 4784 1619 FO
  36   36 3803 1927 FO
  36   36 4993 1577 FO
  36   36 4578 1658 FO
  36   36 5293 1562 FO
  36   36 4481 1733 FO
  36   36 5567 1543 FO
  36   36 4347 1676 FO
  36   36 4344 1696 FO
  36   36 4832 1712 FO
  36   36 4614 1659 FO
  36   36 3676 1901 FO
  36   36 5929 1488 FO
  36   36 3641 1914 FO
  36   36 5052 1605 FO
  36   36 3836 2125 FO
  36   36 4708 1598 FO
  36   36 3629 1882 FO
  36   36 5587 1561 FO
  36   36 4595 1622 FO
  36   36 5527 1575 FO
  36   36 4122 1740 FO
  36   36 4806 1627 FO
  36   36 4548 1664 FO
  36   36 5164 1557 FO
  36   36 4641 1615 FO
  36   36 4784 1619 FO
  36   36 3657 1892 FO
  36   36 3649 1895 FO
  36   36 2698 2161 FO
  36   36 2570 2161 FO
  36   36 3577 1954 FO
  36   36 3476 1915 FO
  36   36 3474 1957 FO
  36   36 3676 1867 FO
  36   36 2975 2025 FO
  36   36 2949 2123 FO
  36   36 3094 2409 FO
  36   36 3746 1879 FO
  36   36 2940 2044 FO
  36   36 3662 1885 FO
  36   36 3308 1924 FO
  36   36 3627 1904 FO
  36   36 3696 1889 FO
  36   36 3803 1927 FO
  36   36 3657 1892 FO
  36   36  970 3827 FO
  36   36  984 3809 FO
  36   36 1006 3646 FO
  36   36 1018 3672 FO
  36   36 1000 3695 FO
  36   36  968 3798 FO
  36   36  978 3754 FO
  36   36  995 3686 FO
  36   36 1025 3618 FO
  36   36 1007 3705 FO
  36   36 1006 3711 FO
  36   36  975 3839 FO
  36   36 1006 3700 FO
  36   36 1006 3665 FO
  36   36  971 3778 FO
  36   36 1006 3687 FO
  36   36 1155 3266 FO
  36   36 1055 3552 FO
  36   36 1072 3443 FO
  36   36 1047 3560 FO
  36   36 1039 3560 FO
  36   36 1083 3448 FO
  36   36 1056 3492 FO
  36   36 1055 3571 FO
  36   36 1106 3405 FO
  36   36 1139 3402 FO
  36   36 1055 3512 FO
  36   36 1107 3370 FO
  36   36 1054 3462 FO
  36   36 1107 3397 FO
  36   36 1055 3514 FO
  36   36 1107 3393 FO
  36   36  938 3993 FO
  36   36  937 3993 FO
  36   36  934 4013 FO
  36   36  927 4063 FO
  36   36  934 4092 FO
  36   36  932 4082 FO
  36   36  934 4103 FO
  36   36  939 4069 FO
  36   36  934 4010 FO
  36   36 1277 3114 FO
  36   36 1412 2985 FO
  36   36 1316 3053 FO
  36   36 1206 3352 FO
  36   36 1254 3147 FO
  36   36 1319 3105 FO
  36   36 1207 3267 FO
  36   36 1422 2996 FO
  36   36 1347 3083 FO
  36   36 1318 3081 FO
  36   36 1207 3253 FO
  36   36 1317 3101 FO
  36   36 1206 3284 FO
  36   36  903 4421 FO
  36   36  902 4224 FO
  36   36 1139 3355 FO
  36   36 1045 3513 FO
  36   36 1061 3522 FO
  36   36 1037 3596 FO
  36   36 1031 3707 FO
  36   36 1025 3618 FO
  36   36 1083 3448 FO
  36   36 1046 3583 FO
  36   36 1045 3578 FO
  36   36 1093 3486 FO
  36   36 1124 3415 FO
  36   36 1045 3659 FO
  36   36 1094 3404 FO
  36   36 1044 3588 FO
  36   36 1094 3398 FO
  36   36 1045 3582 FO
  36   36 1094 3441 FO
  36   36  998 3762 FO
  36   36 1024 3542 FO
  36   36 1037 3579 FO
  36   36 1017 3698 FO
  36   36  991 3735 FO
  36   36 1011 3586 FO
  36   36 1007 3705 FO
  36   36 1056 3492 FO
  36   36 1046 3583 FO
  36   36 1024 3636 FO
  36   36 1065 3452 FO
  36   36  988 3706 FO
  36   36 1024 3669 FO
  36   36 1065 3495 FO
  36   36 1023 3526 FO
  36   36 1066 3564 FO
  36   36 1024 3646 FO
  36   36 1065 3471 FO
  36   36  948 3861 FO
  36   36  958 3784 FO
  36   36  946 3857 FO
  36   36  954 3818 FO
  36   36  934 4013 FO
  36   36  951 3760 FO
  36   36  934 3852 FO
  36   36  943 3928 FO
  36   36  940 4000 FO
  36   36  942 3927 FO
  36   36  948 3932 FO
  36   36  942 3989 FO
  36   36  998 3752 FO
  36   36 1023 3564 FO
  36   36 1037 3742 FO
  36   36 1016 3585 FO
  36   36  991 3784 FO
  36   36 1011 3575 FO
  36   36 1006 3711 FO
  36   36 1055 3571 FO
  36   36 1045 3578 FO
  36   36 1024 3636 FO
  36   36 1064 3571 FO
  36   36  987 3737 FO
  36   36 1023 3665 FO
  36   36 1064 3467 FO
  36   36 1022 3664 FO
  36   36 1065 3496 FO
  36   36 1023 3726 FO
  36   36 1064 3506 FO
  36   36 1268 3155 FO
  36   36 1399 2991 FO
  36   36 1316 3053 FO
  36   36 1198 3238 FO
  36   36 1245 3154 FO
  36   36 1308 3113 FO
  36   36 1199 3307 FO
  36   36 1409 3003 FO
  36   36 1335 3046 FO
  36   36 1307 3142 FO
  36   36 1199 3283 FO
  36   36 1306 3123 FO
  36   36 1199 3287 FO
  36   36 1170 3273 FO
  36   36 1064 3508 FO
  36   36 1082 3483 FO
  36   36 1055 3571 FO
  36   36 1106 3405 FO
  36   36 1206 3352 FO
  36   36 1093 3486 FO
  36   36 1065 3452 FO
  36   36 1064 3571 FO
  36   36 1198 3238 FO
  36   36 1153 3340 FO
  36   36 1064 3596 FO
  36   36 1200 3210 FO
  36   36 1119 3422 FO
  36   36 1063 3530 FO
  36   36 1199 3285 FO
  36   36 1120 3355 FO
  36   36 1064 3558 FO
  36   36 1198 3268 FO
  36   36 1119 3364 FO
  36   36  957 3792 FO
  36   36  969 3785 FO
  36   36  987 3713 FO
  36   36  983 3614 FO
  36   36  956 3732 FO
  36   36  964 3819 FO
  36   36  978 3750 FO
  36   36  975 3839 FO
  36   36  988 3706 FO
  36   36  951 3760 FO
  36   36  987 3737 FO
  36   36  952 3890 FO
  36   36  987 3737 FO
  36   36  948 3912 FO
  36   36  951 3882 FO
  36   36  987 3679 FO
  36   36  958 3848 FO
  36   36  951 3792 FO
  36   36  987 3725 FO
  36   36  938 3918 FO
  36   36  937 3931 FO
  36   36  927 4063 FO
  36   36  934 3852 FO
  36   36  934 4095 FO
  36   36  932 3930 FO
  36   36  934 4063 FO
  36   36  938 3988 FO
  36   36  933 3935 FO
  36   36 1212 3158 FO
  36   36 1111 3464 FO
  36   36 1139 3402 FO
  36   36 1254 3147 FO
  36   36 1124 3415 FO
  36   36 1245 3154 FO
  36   36 1153 3340 FO
  36   36 1246 3237 FO
  36   36 1154 3330 FO
  36   36 1270 3139 FO
  36   36 1246 3206 FO
  36   36 1154 3365 FO
  36   36 1245 3157 FO
  36   36 1153 3381 FO
  36   36  948 4061 FO
  36   36  958 3932 FO
  36   36  946 3886 FO
  36   36  954 3921 FO
  36   36  934 4092 FO
  36   36  943 3928 FO
  36   36  952 3890 FO
  36   36  934 4095 FO
  36   36  940 3915 FO
  36   36  943 4012 FO
  36   36  948 3953 FO
  36   36  942 3915 FO
  36   36  998 3622 FO
  36   36 1023 3617 FO
  36   36 1037 3586 FO
  36   36 1017 3580 FO
  36   36  991 3711 FO
  36   36 1011 3688 FO
  36   36 1006 3700 FO
  36   36 1055 3512 FO
  36   36 1045 3659 FO
  36   36 1024 3669 FO
  36   36 1023 3665 FO
  36   36 1064 3596 FO
  36   36  987 3737 FO
  36   36 1064 3571 FO
  36   36 1022 3657 FO
  36   36 1065 3528 FO
  36   36 1023 3742 FO
  36   36 1064 3538 FO
  36   36 1270 3071 FO
  36   36 1401 2981 FO
  36   36 1319 3105 FO
  36   36 1308 3113 FO
  36   36 1200 3210 FO
  36   36 1246 3237 FO
  36   36 1200 3257 FO
  36   36 1412 2982 FO
  36   36 1337 3017 FO
  36   36 1309 3109 FO
  36   36 1201 3224 FO
  36   36 1308 3119 FO
  36   36 1200 3256 FO
  36   36 1171 3263 FO
  36   36 1065 3480 FO
  36   36 1083 3428 FO
  36   36 1056 3523 FO
  36   36 1107 3370 FO
  36   36 1207 3267 FO
  36   36 1094 3404 FO
  36   36 1065 3495 FO
  36   36 1064 3467 FO
  36   36 1199 3307 FO
  36   36 1119 3422 FO
  36   36 1154 3330 FO
  36   36 1064 3571 FO
  36   36 1200 3257 FO
  36   36 1064 3550 FO
  36   36 1200 3265 FO
  36   36 1120 3346 FO
  36   36 1065 3526 FO
  36   36 1199 3259 FO
  36   36 1120 3405 FO
  36   36 1703 2739 FO
  36   36 1361 3045 FO
  36   36 1711 2861 FO
  36   36 1525 2873 FO
  36   36 1656 2771 FO
  36   36 1422 2996 FO
  36   36 1409 3003 FO
  36   36 1412 2982 FO
  36   36 1446 2968 FO
  36   36 1411 2970 FO
  36   36 1409 2985 FO
  36   36  903 4421 FO
  36   36  902 4311 FO
  36   36  945 3924 FO
  36   36  943 3972 FO
  36   36  950 3988 FO
  36   36  932 4082 FO
  36   36  940 4000 FO
  36   36  948 3912 FO
  36   36  932 3930 FO
  36   36  940 3915 FO
  36   36  940 3921 FO
  36   36  945 3880 FO
  36   36  939 3884 FO
  36   36 1294 3086 FO
  36   36 1435 2965 FO
  36   36 1547 2840 FO
  36   36 1347 3083 FO
  36   36 1335 3046 FO
  36   36 1270 3139 FO
  36   36 1337 3017 FO
  36   36 1446 2968 FO
  36   36 1337 3037 FO
  36   36 1335 3047 FO
  36   36  948 3905 FO
  36   36  957 3887 FO
  36   36  946 3832 FO
  36   36  953 3935 FO
  36   36  934 4103 FO
  36   36  942 3927 FO
  36   36  951 3882 FO
  36   36  934 4063 FO
  36   36  943 4012 FO
  36   36  940 3921 FO
  36   36  948 3902 FO
  36   36  942 3851 FO
  36   36  997 3712 FO
  36   36 1022 3543 FO
  36   36 1036 3552 FO
  36   36 1016 3634 FO
  36   36  990 3685 FO
  36   36 1010 3659 FO
  36   36 1006 3665 FO
  36   36 1054 3462 FO
  36   36 1044 3588 FO
  36   36 1023 3526 FO
  36   36 1022 3664 FO
  36   36 1063 3530 FO
  36   36  987 3679 FO
  36   36 1022 3657 FO
  36   36 1064 3550 FO
  36   36 1064 3516 FO
  36   36 1022 3668 FO
  36   36 1063 3489 FO
  36   36 1269 3113 FO
  36   36 1400 3014 FO
  36   36 1318 3081 FO
  36   36 1307 3142 FO
  36   36 1199 3285 FO
  36   36 1246 3206 FO
  36   36 1309 3109 FO
  36   36 1200 3265 FO
  36   36 1411 2970 FO
  36   36 1337 3037 FO
  36   36 1200 3254 FO
  36   36 1307 3072 FO
  36   36 1200 3279 FO
  36   36 1171 3287 FO
  36   36 1065 3499 FO
  36   36 1083 3442 FO
  36   36 1056 3491 FO
  36   36 1107 3397 FO
  36   36 1207 3253 FO
  36   36 1094 3398 FO
  36   36 1066 3564 FO
  36   36 1065 3496 FO
  36   36 1199 3283 FO
  36   36 1120 3355 FO
  36   36 1154 3365 FO
  36   36 1065 3528 FO
  36   36 1201 3224 FO
  36   36 1120 3346 FO
  36   36 1064 3516 FO
  36   36 1200 3254 FO
  36   36 1065 3547 FO
  36   36 1200 3231 FO
  36   36 1120 3400 FO
  36   36  899 4617 FO
  36   36  902 4224 FO
  36   36  902 4311 FO
  36   36  954 4045 FO
  36   36  965 3879 FO
  36   36  978 3852 FO
  36   36  952 3975 FO
  36   36  960 3843 FO
  36   36  974 3899 FO
  36   36  971 3778 FO
  36   36  939 4069 FO
  36   36  948 3932 FO
  36   36  958 3848 FO
  36   36  938 3988 FO
  36   36  948 3953 FO
  36   36  945 3880 FO
  36   36  948 3902 FO
  36   36  948 3875 FO
  36   36  947 3960 FO
  36   36  957 3863 FO
  36   36  946 3869 FO
  36   36  953 3759 FO
  36   36  934 4010 FO
  36   36  942 3989 FO
  36   36  951 3792 FO
  36   36  933 3935 FO
  36   36  942 3915 FO
  36   36  939 3884 FO
  36   36  942 3851 FO
  36   36  948 3875 FO
  36   36  899 4617 FO
  36   36  998 3723 FO
  36   36 1023 3673 FO
  36   36 1037 3590 FO
  36   36 1017 3657 FO
  36   36  991 3782 FO
  36   36 1011 3711 FO
  36   36 1006 3687 FO
  36   36 1055 3514 FO
  36   36 1045 3582 FO
  36   36 1024 3646 FO
  36   36 1023 3726 FO
  36   36 1064 3558 FO
  36   36  987 3725 FO
  36   36 1023 3742 FO
  36   36 1065 3526 FO
  36   36 1022 3668 FO
  36   36 1065 3547 FO
  36   36 1065 3488 FO
  36   36 1268 3120 FO
  36   36 1399 2961 FO
  36   36 1317 3101 FO
  36   36 1306 3123 FO
  36   36 1198 3268 FO
  36   36 1245 3157 FO
  36   36 1308 3119 FO
  36   36 1199 3259 FO
  36   36 1409 2985 FO
  36   36 1335 3047 FO
  36   36 1307 3072 FO
  36   36 1200 3231 FO
  36   36 1199 3295 FO
  36   36 1170 3292 FO
  36   36 1064 3543 FO
  36   36 1082 3425 FO
  36   36 1056 3526 FO
  36   36 1107 3393 FO
  36   36 1206 3284 FO
  36   36 1094 3441 FO
  36   36 1065 3471 FO
  36   36 1064 3506 FO
  36   36 1199 3287 FO
  36   36 1119 3364 FO
  36   36 1153 3381 FO
  36   36 1064 3538 FO
  36   36 1200 3256 FO
  36   36 1120 3405 FO
  36   36 1063 3489 FO
  36   36 1200 3279 FO
  36   36 1120 3400 FO
  36   36 1065 3488 FO
  36   36 1199 3295 FO
gs 899 389 5362 4230 rc
gr

24 W
/c8 { 1.000000 0.000000 0.000000 sr} bdef
c8
4694 1794 PD
24 W
4998 1805 PD
24 W
4901 1808 PD
24 W
4771 1799 PD
24 W
4090 1895 PD
24 W
3179 2185 PD
24 W
5052 1799 PD
24 W
3712 1994 PD
24 W
3592 2007 PD
24 W
3186 2169 PD
24 W
3448 2075 PD
24 W
3517 2043 PD
24 W
4076 1864 PD
24 W
3392 2084 PD
24 W
4424 1782 PD
24 W
4052 1827 PD
24 W
3396 2078 PD
24 W
4252 1833 PD
24 W
4571 1813 PD
24 W
5066 1803 PD
24 W
3293 2126 PD
24 W
4453 1833 PD
24 W
3875 1979 PD
24 W
4281 1869 PD
24 W
4970 1836 PD
24 W
4030 1902 PD
24 W
3271 2147 PD
24 W
5072 1826 PD
24 W
3132 2233 PD
24 W
4532 1853 PD
gs 899 389 5362 4230 rc
gr

24 W
5387 1596 PD
24 W
5747 1554 PD
gs 899 389 5362 4230 rc
gr

24 W
5632 1582 PD
gs 899 389 5362 4230 rc
gr

24 W
6068 1576 PD
24 W
5477 1590 PD
24 W
4673 1769 PD
24 W
5810 1566 PD
24 W
4225 1934 PD
24 W
4084 1973 PD
24 W
3995 2000 PD
24 W
4656 1770 PD
gs 899 389 5362 4230 rc
gr

24 W
5068 1622 PD
24 W
4627 1758 PD
24 W
6176 1597 PD
24 W
4864 1746 PD
24 W
5241 1657 PD
24 W
5827 1579 PD
24 W
5102 1643 PD
gs 899 389 5362 4230 rc
gr

24 W
4418 1863 PD
24 W
4898 1692 PD
24 W
6074 1607 PD
24 W
5712 1559 PD
24 W
4602 1776 PD
gs 899 389 5362 4230 rc
gr

24 W
5833 1570 PD
24 W
5195 1627 PD
gs 899 389 5362 4230 rc
gr

24 W
6133 1656 PD
gs 899 389 5362 4230 rc
gr

24 W
5878 1699 PD
gs 899 389 5362 4230 rc
gr

24 W
6176 1626 PD
gs 899 389 5362 4230 rc
gr

24 W
5919 1708 PD
gs 899 389 5362 4230 rc
gr

24 W
5476 1767 PD
gs 899 389 5362 4230 rc
gr

24 W
5456 1798 PD
gs 899 389 5362 4230 rc
gr

24 W
5955 1620 PD
24 W
5421 1765 PD
gs 899 389 5362 4230 rc
gr

24 W
5709 1681 PD
24 W
6165 1614 PD
gs 899 389 5362 4230 rc
gr

24 W
5997 1623 PD
gs 899 389 5362 4230 rc
gr

24 W
5749 1673 PD
gs 899 389 5362 4230 rc
gr

24 W
5390 1819 PD
gs 899 389 5362 4230 rc
gr

24 W
6110 1578 PD
24 W
1541 2902 PD
24 W
1721 2752 PD
24 W
1464 2986 PD
24 W
1564 2902 PD
24 W
1624 2799 PD
24 W
1817 2668 PD
24 W
1556 2921 PD
24 W
1746 2765 PD
24 W
1850 2704 PD
24 W
1792 2703 PD
24 W
1614 2827 PD
24 W
1611 2835 PD
24 W
1744 2733 PD
24 W
1724 2760 PD
24 W
1738 2781 PD
24 W
1870 2637 PD
24 W
1464 2937 PD
24 W
1831 2782 PD
24 W
1825 2674 PD
24 W
1465 3044 PD
24 W
1776 2736 PD
24 W
1538 2918 PD
24 W
1863 2709 PD
24 W
1605 2843 PD
24 W
1491 2980 PD
24 W
1531 2887 PD
24 W
1794 2684 PD
24 W
1618 2807 PD
24 W
1448 3016 PD
24 W
1489 2980 PD
24 W
1508 2921 PD
24 W
6258 1651 PD
24 W
6160 1640 PD
24 W
6169 1659 PD
24 W
5285 1643 PD
24 W
5636 1593 PD
24 W
6177 1645 PD
24 W
5524 1626 PD
gs 899 389 5362 4230 rc
gr

24 W
5950 1619 PD
24 W
5373 1623 PD
24 W
4587 1774 PD
24 W
5698 1639 PD
24 W
4149 1921 PD
24 W
4011 1987 PD
24 W
3845 2016 PD
24 W
3925 1955 PD
24 W
4571 1769 PD
24 W
6198 1645 PD
24 W
4973 1680 PD
24 W
4542 1778 PD
24 W
6056 1606 PD
24 W
4774 1733 PD
24 W
5142 1675 PD
24 W
5715 1592 PD
24 W
5006 1673 PD
24 W
6259 1702 PD
24 W
4338 1852 PD
24 W
4807 1730 PD
24 W
5956 1597 PD
24 W
5603 1642 PD
24 W
4517 1800 PD
gs 899 389 5362 4230 rc
gr

24 W
5721 1611 PD
24 W
5097 1660 PD
24 W
2066 2597 PD
24 W
2486 2387 PD
24 W
2856 2273 PD
24 W
2773 2272 PD
24 W
2491 2342 PD
24 W
2673 2301 PD
24 W
2721 2259 PD
24 W
2634 2317 PD
24 W
2637 2301 PD
24 W
2202 2513 PD
24 W
2565 2349 PD
24 W
2970 2297 PD
24 W
2102 2566 PD
24 W
2549 2374 PD
24 W
2249 2473 PD
24 W
2453 2389 PD
24 W
2167 2485 PD
24 W
2099 2591 PD
24 W
2071 2563 PD
24 W
2090 2550 PD
24 W
2277 2460 PD
24 W
2223 2486 PD
24 W
2214 2464 PD
24 W
2144 2546 PD
24 W
2268 2475 PD
24 W
2170 2500 PD
24 W
5964 1758 PD
24 W
5872 1695 PD
24 W
5881 1732 PD
24 W
5045 1681 PD
24 W
5377 1679 PD
24 W
5888 1717 PD
24 W
5271 1650 PD
24 W
5993 1742 PD
24 W
5674 1675 PD
24 W
5128 1689 PD
24 W
4385 1788 PD
24 W
5436 1674 PD
24 W
3972 1923 PD
24 W
3841 1953 PD
24 W
3683 2010 PD
24 W
3759 1952 PD
24 W
4370 1794 PD
24 W
5908 1713 PD
24 W
3622 2049 PD
24 W
4750 1716 PD
24 W
4343 1776 PD
24 W
3627 2041 PD
24 W
5774 1741 PD
24 W
4562 1723 PD
24 W
4910 1676 PD
24 W
5451 1673 PD
24 W
3514 2092 PD
24 W
4782 1672 PD
24 W
5966 1718 PD
24 W
4150 1839 PD
24 W
4593 1724 PD
24 W
5680 1680 PD
24 W
5346 1607 PD
24 W
4319 1802 PD
24 W
5981 1712 PD
24 W
5457 1633 PD
24 W
4868 1670 PD
gs 899 389 5362 4230 rc
gr

24 W
6151 1657 PD
gs 899 389 5362 4230 rc
gr

24 W
5895 1725 PD
gs 899 389 5362 4230 rc
gr

24 W
6194 1693 PD
gs 899 389 5362 4230 rc
gr

24 W
5936 1694 PD
gs 899 389 5362 4230 rc
gr

24 W
6130 1565 PD
gs 899 389 5362 4230 rc
gr

24 W
6235 1548 PD
24 W
5297 1766 PD
gs 899 389 5362 4230 rc
gr

24 W
5278 1759 PD
gs 899 389 5362 4230 rc
gr

24 W
5757 1576 PD
24 W
5244 1744 PD
gs 899 389 5362 4230 rc
gr

24 W
5520 1690 PD
24 W
5959 1578 PD
gs 899 389 5362 4230 rc
gr

24 W
5797 1601 PD
gs 899 389 5362 4230 rc
gr

24 W
5559 1676 PD
gs 899 389 5362 4230 rc
gr

24 W
5214 1797 PD
gs 899 389 5362 4230 rc
gr

24 W
5906 1575 PD
gs 899 389 5362 4230 rc
gr

24 W
6215 1629 PD
gs 899 389 5362 4230 rc
gr

24 W
5956 1752 PD
gs 899 389 5362 4230 rc
gr

24 W
6259 1678 PD
gs 899 389 5362 4230 rc
gr

24 W
5999 1684 PD
gs 899 389 5362 4230 rc
gr

24 W
6118 1650 PD
gs 899 389 5362 4230 rc
gr

24 W
5864 1744 PD
gs 899 389 5362 4230 rc
gr

24 W
6161 1642 PD
gs 899 389 5362 4230 rc
gr

24 W
5905 1680 PD
gs 899 389 5362 4230 rc
gr

24 W
6127 1675 PD
gs 899 389 5362 4230 rc
gr

24 W
5872 1728 PD
gs 899 389 5362 4230 rc
gr

24 W
6171 1653 PD
gs 899 389 5362 4230 rc
gr

24 W
5914 1732 PD
gs 899 389 5362 4230 rc
gr

24 W
5678 1589 PD
24 W
4838 1755 PD
24 W
6025 1538 PD
24 W
4371 1908 PD
24 W
4223 2008 PD
24 W
4821 1766 PD
gs 899 389 5362 4230 rc
gr

24 W
5250 1591 PD
24 W
4791 1754 PD
gs 899 389 5362 4230 rc
gr

24 W
5038 1691 PD
24 W
5431 1634 PD
24 W
6043 1531 PD
24 W
5286 1634 PD
gs 899 389 5362 4230 rc
gr

24 W
4572 1854 PD
24 W
5073 1693 PD
gs 899 389 5362 4230 rc
gr

24 W
5923 1539 PD
24 W
4764 1776 PD
gs 899 389 5362 4230 rc
gr

24 W
6049 1524 PD
24 W
5384 1595 PD
gs 899 389 5362 4230 rc
gr

24 W
6061 1557 PD
24 W
5153 1751 PD
gs 899 389 5362 4230 rc
gr

24 W
5135 1748 PD
gs 899 389 5362 4230 rc
gr

24 W
5599 1633 PD
24 W
5102 1724 PD
gs 899 389 5362 4230 rc
gr

24 W
5370 1669 PD
24 W
5794 1571 PD
gs 899 389 5362 4230 rc
gr

24 W
5638 1574 PD
gs 899 389 5362 4230 rc
gr

24 W
4866 1827 PD
24 W
5407 1635 PD
gs 899 389 5362 4230 rc
gr

24 W
5073 1778 PD
gs 899 389 5362 4230 rc
gr

24 W
5743 1584 PD
gs 899 389 5362 4230 rc
gr

24 W
6136 1661 PD
gs 899 389 5362 4230 rc
gr

24 W
5880 1754 PD
gs 899 389 5362 4230 rc
gr

24 W
6179 1635 PD
gs 899 389 5362 4230 rc
gr

24 W
5922 1733 PD
gs 899 389 5362 4230 rc
gr

24 W
1390 3003 PD
24 W
1477 2938 PD
24 W
1530 2903 PD
24 W
1470 3000 PD
24 W
1635 2892 PD
24 W
1676 2784 PD
24 W
1521 2924 PD
24 W
1518 2938 PD
24 W
1634 2818 PD
24 W
1616 2875 PD
24 W
1628 2849 PD
24 W
1391 3088 PD
24 W
1391 3052 PD
24 W
1661 2821 PD
24 W
1454 2977 PD
24 W
1513 2954 PD
24 W
1414 3040 PD
24 W
1449 3003 PD
24 W
1677 2821 PD
24 W
1524 2916 PD
24 W
1377 3005 PD
24 W
1412 2968 PD
24 W
1428 2984 PD
24 W
2142 2548 PD
24 W
2146 2529 PD
24 W
1638 2882 PD
24 W
1706 2783 PD
24 W
1920 2644 PD
24 W
1629 2848 PD
24 W
1841 2663 PD
24 W
1957 2588 PD
24 W
2116 2535 PD
24 W
1893 2647 PD
24 W
1694 2787 PD
24 W
1691 2787 PD
24 W
1839 2685 PD
24 W
1817 2643 PD
24 W
1832 2671 PD
24 W
1979 2586 PD
24 W
1936 2626 PD
24 W
1929 2616 PD
24 W
1874 2625 PD
24 W
1610 2935 PD
24 W
1972 2598 PD
24 W
1685 2782 PD
24 W
1558 2922 PD
24 W
1602 2852 PD
24 W
1894 2628 PD
24 W
1699 2765 PD
24 W
1555 2878 PD
24 W
1576 2881 PD
gs 899 389 5362 4230 rc
gr

24 W
5939 1568 PD
24 W
5053 1760 PD
gs 899 389 5362 4230 rc
gr

24 W
5035 1754 PD
gs 899 389 5362 4230 rc
gr

24 W
5488 1632 PD
24 W
5003 1765 PD
gs 899 389 5362 4230 rc
gr

24 W
5264 1666 PD
24 W
5678 1590 PD
gs 899 389 5362 4230 rc
gr

24 W
5526 1594 PD
gs 899 389 5362 4230 rc
gr

24 W
4773 1858 PD
24 W
5300 1656 PD
gs 899 389 5362 4230 rc
gr

24 W
6197 1523 PD
24 W
4975 1754 PD
gs 899 389 5362 4230 rc
gr

24 W
5628 1625 PD
gs 899 389 5362 4230 rc
gr

24 W
6245 1682 PD
gs 899 389 5362 4230 rc
gr

24 W
5985 1789 PD
gs 899 389 5362 4230 rc
gr

24 W
6027 1754 PD
gs 899 389 5362 4230 rc
gr

24 W
5416 1821 PD
gs 899 389 5362 4230 rc
gr

24 W
5910 1619 PD
24 W
5381 1794 PD
gs 899 389 5362 4230 rc
gr

24 W
5666 1707 PD
24 W
6118 1579 PD
gs 899 389 5362 4230 rc
gr

24 W
5952 1631 PD
gs 899 389 5362 4230 rc
gr

24 W
5706 1670 PD
gs 899 389 5362 4230 rc
gr

24 W
5350 1828 PD
gs 899 389 5362 4230 rc
gr

24 W
6064 1586 PD
24 W
4900 1766 PD
gs 899 389 5362 4230 rc
gr

24 W
5338 1650 PD
24 W
4869 1770 PD
gs 899 389 5362 4230 rc
gr

24 W
5121 1742 PD
24 W
5522 1629 PD
24 W
6146 1569 PD
24 W
5374 1675 PD
gs 899 389 5362 4230 rc
gr

24 W
4646 1860 PD
24 W
5157 1676 PD
gs 899 389 5362 4230 rc
gr

24 W
6024 1574 PD
24 W
4841 1807 PD
gs 899 389 5362 4230 rc
gr

24 W
6153 1549 PD
24 W
5474 1628 PD
24 W
4196 1844 PD
24 W
3486 2068 PD
24 W
4557 1740 PD
24 W
4171 1835 PD
24 W
3490 2082 PD
24 W
5530 1806 PD
24 W
4379 1814 PD
24 W
4709 1763 PD
24 W
5224 1744 PD
24 W
3383 2167 PD
24 W
4588 1781 PD
24 W
3987 1925 PD
24 W
4408 1801 PD
24 W
5441 1817 PD
24 W
5123 1751 PD
24 W
4148 1860 PD
24 W
3360 2126 PD
24 W
5229 1745 PD
24 W
4669 1751 PD
24 W
3255 2175 PD
24 W
2747 2263 PD
24 W
3236 2165 PD
24 W
2750 2240 PD
24 W
2287 2464 PD
24 W
2674 2273 PD
24 W
3105 2180 PD
24 W
2181 2510 PD
24 W
3220 2207 PD
24 W
2657 2325 PD
24 W
2337 2415 PD
24 W
2554 2355 PD
24 W
2250 2485 PD
24 W
2178 2557 PD
24 W
2147 2600 PD
24 W
2168 2541 PD
24 W
2367 2386 PD
24 W
2309 2459 PD
24 W
2300 2461 PD
24 W
2226 2507 PD
24 W
2358 2428 PD
24 W
2253 2474 PD
24 W
5190 1777 PD
gs 899 389 5362 4230 rc
gr

24 W
5660 1646 PD
24 W
5157 1765 PD
gs 899 389 5362 4230 rc
gr

24 W
5428 1681 PD
24 W
5858 1578 PD
gs 899 389 5362 4230 rc
gr

24 W
5700 1633 PD
gs 899 389 5362 4230 rc
gr

24 W
4918 1817 PD
24 W
5466 1636 PD
gs 899 389 5362 4230 rc
gr

24 W
5128 1804 PD
gs 899 389 5362 4230 rc
gr

24 W
5806 1612 PD
24 W
3805 1978 PD
24 W
3179 2102 PD
24 W
4124 1913 PD
24 W
3783 1921 PD
24 W
3183 2116 PD
24 W
3967 1931 PD
24 W
4258 1935 PD
24 W
3089 2169 PD
24 W
4150 1937 PD
24 W
3621 1994 PD
24 W
3992 1950 PD
24 W
3763 1978 PD
24 W
3068 2168 PD
24 W
2942 2236 PD
24 W
4222 1898 PD
24 W
3682 2011 PD
24 W
3082 2158 PD
24 W
3987 1975 PD
24 W
3660 1972 PD
24 W
3086 2139 PD
24 W
3836 1970 PD
24 W
4115 1978 PD
24 W
2996 2160 PD
24 W
4012 1980 PD
24 W
3506 2007 PD
24 W
3861 1979 PD
24 W
3641 2023 PD
24 W
2976 2161 PD
24 W
2598 2360 PD
24 W
2855 2267 PD
24 W
4081 2011 PD
24 W
2634 2309 PD
24 W
2622 2356 PD
24 W
3263 2192 PD
24 W
2753 2214 PD
24 W
3244 2191 PD
24 W
2756 2242 PD
24 W
2292 2444 PD
24 W
2680 2237 PD
24 W
3113 2157 PD
24 W
2185 2532 PD
24 W
3228 2168 PD
24 W
2663 2259 PD
24 W
2342 2423 PD
24 W
2560 2306 PD
24 W
2255 2440 PD
24 W
2182 2534 PD
24 W
2152 2575 PD
24 W
2172 2517 PD
24 W
2372 2372 PD
24 W
2314 2431 PD
24 W
2305 2458 PD
24 W
2230 2490 PD
24 W
2363 2422 PD
24 W
2257 2482 PD
24 W
3533 2033 PD
24 W
2966 2175 PD
24 W
3821 2028 PD
24 W
3513 2020 PD
24 W
2969 2176 PD
24 W
3679 2020 PD
24 W
2451 2432 PD
24 W
2884 2204 PD
24 W
3845 2025 PD
24 W
3366 2081 PD
24 W
3702 2015 PD
24 W
3495 2083 PD
24 W
2865 2202 PD
24 W
2507 2414 PD
24 W
2750 2242 PD
24 W
2410 2435 PD
24 W
2541 2335 PD
24 W
2476 2382 PD
24 W
2466 2378 PD
24 W
2530 2364 PD
24 W
2413 2448 PD
24 W
3605 2022 PD
24 W
3022 2138 PD
24 W
3901 1978 PD
24 W
3584 2017 PD
24 W
3025 2148 PD
24 W
3754 2008 PD
24 W
4025 2018 PD
24 W
2494 2441 PD
24 W
2937 2161 PD
24 W
3926 1991 PD
24 W
3433 2056 PD
24 W
3778 1979 PD
24 W
3565 2016 PD
24 W
2918 2222 PD
24 W
2551 2357 PD
24 W
2800 2257 PD
24 W
3993 2017 PD
24 W
2585 2314 PD
24 W
2519 2412 PD
24 W
2508 2366 PD
24 W
2574 2353 PD
24 W
1401 3027 PD
24 W
1446 2952 PD
24 W
1443 3022 PD
24 W
1331 3154 PD
24 W
1231 3184 PD
24 W
1332 3184 PD
24 W
1239 3204 PD
24 W
1387 3032 PD
24 W
1439 2998 PD
24 W
1351 3138 PD
24 W
1382 3076 PD
24 W
1448 3026 PD
24 W
1319 3114 PD
24 W
1350 3063 PD
24 W
1364 3069 PD
24 W
1228 3293 PD
24 W
1725 2797 PD
24 W
1490 2956 PD
24 W
1662 2861 PD
24 W
1703 2796 PD
24 W
1543 2915 PD
24 W
1540 2889 PD
24 W
1660 2848 PD
24 W
1642 2864 PD
24 W
1654 2831 PD
24 W
1408 3087 PD
24 W
1738 2797 PD
24 W
1733 2809 PD
24 W
1408 3073 PD
24 W
1688 2788 PD
24 W
1474 2978 PD
24 W
1535 2914 PD
24 W
1432 3056 PD
24 W
1468 2947 PD
24 W
1705 2805 PD
24 W
1546 2902 PD
24 W
1394 3061 PD
24 W
1430 2989 PD
24 W
1447 2985 PD
24 W
4364 1803 PD
24 W
4693 1780 PD
24 W
5205 1749 PD
24 W
3373 2109 PD
24 W
4572 1780 PD
24 W
3974 1918 PD
24 W
4393 1790 PD
24 W
5421 1816 PD
24 W
5105 1730 PD
24 W
4134 1837 PD
24 W
3350 2179 PD
24 W
5211 1754 PD
24 W
4653 1763 PD
24 W
1800 2714 PD
24 W
1544 2920 PD
24 W
1731 2738 PD
24 W
1833 2705 PD
24 W
1776 2760 PD
24 W
1601 2869 PD
24 W
1598 2831 PD
24 W
1729 2793 PD
24 W
1709 2804 PD
24 W
1723 2752 PD
24 W
1852 2670 PD
24 W
1454 3072 PD
24 W
1815 2727 PD
24 W
1809 2747 PD
24 W
1455 3019 PD
24 W
1760 2762 PD
24 W
1527 2959 PD
24 W
1846 2733 PD
24 W
1593 2860 PD
24 W
1480 3005 PD
24 W
1520 2941 PD
24 W
1778 2739 PD
24 W
1605 2859 PD
24 W
1439 3009 PD
24 W
1478 2966 PD
24 W
1497 2952 PD
24 W
5900 1712 PD
gs 899 389 5362 4230 rc
gr

24 W
6199 1629 PD
gs 899 389 5362 4230 rc
gr

24 W
5941 1737 PD
gs 899 389 5362 4230 rc
gr

24 W
3618 2035 PD
24 W
2417 2412 PD
24 W
2840 2195 PD
24 W
3312 2125 PD
24 W
3640 2068 PD
24 W
3437 2069 PD
24 W
2822 2218 PD
24 W
2472 2393 PD
24 W
2709 2276 PD
24 W
2377 2435 PD
24 W
2504 2352 PD
24 W
2441 2467 PD
24 W
2431 2421 PD
24 W
2350 2480 PD
24 W
2494 2392 PD
24 W
2379 2436 PD
24 W
4744 1730 PD
24 W
5108 1641 PD
24 W
5677 1598 PD
24 W
4974 1653 PD
24 W
6217 1658 PD
24 W
4311 1835 PD
24 W
4776 1693 PD
24 W
5916 1629 PD
24 W
5566 1599 PD
24 W
4489 1763 PD
24 W
6232 1670 PD
24 W
5683 1593 PD
24 W
5064 1710 PD
24 W
4337 1794 PD
24 W
4664 1766 PD
24 W
5172 1730 PD
24 W
3354 2130 PD
24 W
4543 1791 PD
24 W
3950 1869 PD
24 W
4366 1793 PD
24 W
5386 1791 PD
24 W
5073 1754 PD
24 W
4109 1839 PD
24 W
3331 2111 PD
24 W
5177 1741 PD
24 W
3188 2162 PD
24 W
4624 1769 PD
24 W
3622 2044 PD
24 W
2420 2380 PD
24 W
2843 2191 PD
24 W
3316 2081 PD
24 W
3645 2072 PD
24 W
3442 2067 PD
24 W
2825 2230 PD
24 W
2474 2352 PD
24 W
2712 2240 PD
24 W
2379 2432 PD
24 W
2507 2361 PD
24 W
2444 2431 PD
24 W
2434 2404 PD
24 W
2352 2492 PD
24 W
2497 2393 PD
24 W
2382 2432 PD
24 W
5766 1732 PD
24 W
6228 1617 PD
gs 899 389 5362 4230 rc
gr

24 W
6057 1650 PD
gs 899 389 5362 4230 rc
gr

24 W
5807 1698 PD
gs 899 389 5362 4230 rc
gr

24 W
6172 1575 PD
24 W
5672 1664 PD
24 W
5338 1671 PD
24 W
4314 1842 PD
24 W
3485 2114 PD
24 W
5972 1768 PD
24 W
5450 1695 PD
24 W
4861 1695 PD
24 W
6125 1590 PD
24 W
5760 1591 PD
24 W
4638 1785 PD
gs 899 389 5362 4230 rc
gr

24 W
5881 1573 PD
24 W
5237 1643 PD
24 W
1952 2628 PD
24 W
2343 2482 PD
24 W
2080 2563 PD
24 W
2259 2435 PD
24 W
2009 2543 PD
24 W
1787 2683 PD
24 W
1783 2763 PD
24 W
1949 2644 PD
24 W
1924 2635 PD
24 W
1942 2636 PD
24 W
2105 2507 PD
24 W
2057 2588 PD
24 W
2050 2560 PD
24 W
1989 2562 PD
24 W
2097 2505 PD
24 W
1777 2714 PD
24 W
2011 2590 PD
24 W
1792 2759 PD
24 W
1652 2827 PD
24 W
1693 2773 PD
24 W
1535 2935 PD
24 W
1532 2885 PD
24 W
1650 2885 PD
24 W
1633 2920 PD
24 W
1645 2856 PD
24 W
1402 3038 PD
24 W
1722 2821 PD
24 W
1402 3085 PD
24 W
1679 2840 PD
24 W
1467 2988 PD
24 W
1527 2922 PD
24 W
1425 3056 PD
24 W
1461 3003 PD
24 W
1695 2815 PD
24 W
1538 2988 PD
24 W
1387 3033 PD
24 W
1423 3059 PD
24 W
1440 3040 PD
gs 899 389 5362 4230 rc
gr

24 W
5143 1809 PD
gs 899 389 5362 4230 rc
gr

24 W
5823 1593 PD
24 W
2245 2527 PD
24 W
3337 2160 PD
24 W
2745 2256 PD
24 W
2409 2387 PD
24 W
2637 2267 PD
24 W
2318 2452 PD
24 W
2242 2550 PD
24 W
2232 2492 PD
24 W
2441 2368 PD
24 W
2380 2448 PD
24 W
2370 2429 PD
24 W
2292 2444 PD
24 W
2431 2437 PD
24 W
2321 2446 PD
24 W
5958 1639 PD
24 W
5604 1608 PD
24 W
4518 1801 PD
gs 899 389 5362 4230 rc
gr

24 W
5722 1616 PD
24 W
5099 1644 PD
gs 899 389 5362 4230 rc
gr

24 W
4839 1870 PD
24 W
3929 1971 PD
24 W
3194 2143 PD
24 W
4937 1861 PD
24 W
3060 2200 PD
24 W
4415 1876 PD
24 W
5712 1672 PD
24 W
5375 1658 PD
24 W
4342 1811 PD
24 W
6015 1744 PD
24 W
5488 1648 PD
24 W
4894 1698 PD
24 W
1924 2633 PD
24 W
1719 2791 PD
24 W
1715 2779 PD
24 W
1868 2678 PD
24 W
1846 2700 PD
24 W
1861 2690 PD
24 W
2012 2551 PD
24 W
1968 2625 PD
24 W
1961 2618 PD
24 W
1905 2595 PD
24 W
1632 2870 PD
24 W
2005 2633 PD
24 W
1709 2802 PD
24 W
1624 2846 PD
24 W
1926 2618 PD
24 W
1724 2774 PD
24 W
1597 2903 PD
24 W
2305 2441 PD
24 W
2229 2564 PD
24 W
2198 2559 PD
24 W
2219 2531 PD
24 W
2426 2383 PD
24 W
2366 2426 PD
24 W
2356 2449 PD
24 W
2279 2517 PD
24 W
2416 2416 PD
24 W
2307 2452 PD
24 W
2049 2550 PD
24 W
1819 2711 PD
24 W
1815 2727 PD
24 W
1987 2571 PD
24 W
1961 2644 PD
24 W
1979 2613 PD
24 W
2148 2465 PD
24 W
2099 2493 PD
24 W
2091 2582 PD
24 W
2028 2531 PD
24 W
2140 2458 PD
24 W
1808 2717 PD
24 W
2051 2533 PD
24 W
1824 2746 PD
24 W
2223 2470 PD
24 W
2151 2549 PD
24 W
2122 2593 PD
24 W
2142 2539 PD
24 W
2337 2384 PD
24 W
2280 2489 PD
24 W
2271 2422 PD
24 W
2198 2523 PD
24 W
2328 2443 PD
24 W
2225 2460 PD
24 W
1897 2599 PD
24 W
1914 2603 PD
24 W
2073 2535 PD
24 W
2027 2556 PD
24 W
2019 2551 PD
24 W
1960 2594 PD
24 W
1672 2848 PD
24 W
2065 2570 PD
24 W
1753 2733 PD
24 W
1664 2859 PD
24 W
1981 2586 PD
24 W
1769 2731 PD
24 W
937 3968 PD
24 W
940 3973 PD
24 W
1129 3374 PD
24 W
1100 3411 PD
24 W
1110 3459 PD
24 W
1134 3417 PD
24 W
1056 3612 PD
24 W
1190 3371 PD
24 W
1062 3584 PD
24 W
1127 3467 PD
24 W
997 3659 PD
24 W
1043 3592 PD
24 W
1002 3708 PD
24 W
991 3717 PD
24 W
1011 3696 PD
24 W
1015 3756 PD
24 W
1698 2827 PD
24 W
1711 2738 PD
24 W
1839 2708 PD
24 W
1446 3013 PD
24 W
1802 2739 PD
24 W
1796 2690 PD
24 W
1447 3016 PD
24 W
1748 2765 PD
24 W
1518 2927 PD
24 W
1832 2726 PD
24 W
1583 2897 PD
24 W
1472 2955 PD
24 W
1511 2920 PD
24 W
1765 2743 PD
24 W
1595 2808 PD
24 W
1431 3054 PD
24 W
1470 2972 PD
24 W
1488 2941 PD
24 W
991 3756 PD
24 W
996 3733 PD
24 W
967 3846 PD
24 W
986 3819 PD
24 W
1004 3678 PD
24 W
1008 3573 PD
24 W
1694 2777 PD
24 W
1708 2812 PD
24 W
1834 2688 PD
24 W
1444 3062 PD
24 W
1797 2806 PD
24 W
1792 2756 PD
24 W
1444 2998 PD
24 W
1744 2765 PD
24 W
1515 2951 PD
24 W
1828 2750 PD
24 W
1580 2851 PD
24 W
1469 3015 PD
24 W
1508 2944 PD
24 W
1761 2763 PD
24 W
1592 2887 PD
24 W
1428 3063 PD
24 W
1467 2954 PD
24 W
1486 2895 PD
24 W
1843 2700 PD
24 W
1859 2666 PD
24 W
2010 2604 PD
24 W
1966 2655 PD
24 W
1959 2614 PD
24 W
1903 2669 PD
24 W
1630 2877 PD
24 W
2002 2575 PD
24 W
1707 2797 PD
24 W
1622 2904 PD
24 W
1923 2637 PD
24 W
1722 2778 PD
24 W
1596 2851 PD
24 W
1113 3474 PD
24 W
1027 3671 PD
24 W
1086 3509 PD
24 W
1033 3660 PD
24 W
1095 3489 PD
24 W
1118 3442 PD
24 W
1045 3589 PD
24 W
1051 3562 PD
24 W
1111 3462 PD
24 W
1107 3448 PD
24 W
1023 3676 PD
24 W
1081 3500 PD
24 W
1030 3617 PD
24 W
1090 3496 PD
24 W
1112 3413 PD
24 W
1041 3663 PD
24 W
1046 3548 PD
24 W
1105 3447 PD
24 W
1879 2680 PD
24 W
1613 2896 PD
24 W
1976 2584 PD
24 W
1688 2759 PD
24 W
1560 2982 PD
24 W
1605 2858 PD
24 W
1899 2604 PD
24 W
1702 2817 PD
24 W
1558 2929 PD
24 W
1579 2890 PD
24 W
1895 2638 PD
24 W
1625 2904 PD
24 W
1994 2618 PD
24 W
1701 2812 PD
24 W
1617 2880 PD
24 W
1916 2597 PD
24 W
1716 2743 PD
24 W
1591 2872 PD
24 W
2051 2522 PD
24 W
2166 2512 PD
24 W
1827 2705 PD
24 W
2075 2557 PD
24 W
1844 2719 PD
24 W
1332 3146 PD
24 W
1239 3241 PD
24 W
1388 3108 PD
24 W
1440 3041 PD
24 W
1352 3103 PD
24 W
1383 3130 PD
24 W
1449 3025 PD
24 W
1320 3144 PD
24 W
1350 3083 PD
24 W
1365 3075 PD
24 W
1228 3254 PD
24 W
1133 3346 PD
24 W
1232 3171 PD
24 W
1161 3353 PD
24 W
1248 3254 PD
24 W
1222 3219 PD
24 W
1246 3239 PD
24 W
1080 3518 PD
24 W
1257 3168 PD
24 W
1152 3322 PD
24 W
2006 2649 PD
24 W
2116 2564 PD
24 W
1791 2745 PD
24 W
2029 2584 PD
24 W
1806 2741 PD
24 W
1999 2572 PD
24 W
2108 2508 PD
24 W
1785 2738 PD
24 W
2021 2570 PD
24 W
1800 2723 PD
24 W
966 3950 PD
24 W
985 3686 PD
24 W
1003 3657 PD
24 W
1007 3699 PD
24 W
1104 3465 PD
24 W
1128 3397 PD
24 W
1051 3570 PD
24 W
1057 3609 PD
24 W
1120 3416 PD
24 W
989 3805 PD
24 W
1008 3680 PD
24 W
1012 3649 PD
24 W
1059 3591 PD
24 W
1195 3331 PD
24 W
1065 3566 PD
24 W
1131 3379 PD
24 W
1383 3041 PD
24 W
1450 3034 PD
24 W
1320 3073 PD
24 W
1351 3100 PD
24 W
1366 3058 PD
24 W
1228 3259 PD
24 W
1230 3216 PD
24 W
1254 3243 PD
24 W
1266 3225 PD
24 W
1158 3378 PD
24 W
957 3822 PD
24 W
1650 2860 PD
24 W
1962 2603 PD
24 W
1753 2807 PD
24 W
1446 3079 PD
24 W
1673 2818 PD
24 W
1521 2946 PD
24 W
1374 3087 PD
24 W
1409 3082 PD
24 W
1426 3004 PD
24 W
2067 2560 PD
24 W
1838 2755 PD
24 W
1504 2926 PD
24 W
1755 2753 PD
24 W
1587 2880 PD
24 W
1425 2966 PD
24 W
1463 2934 PD
24 W
1481 2922 PD
24 W
962 3950 PD
24 W
1406 3083 PD
24 W
1475 2972 PD
24 W
1339 3151 PD
24 W
1372 3044 PD
24 W
1387 3083 PD
24 W
1244 3312 PD
gs 899 389 5362 4230 rc
gr

0 sg
2831 4906 mt 
(Geometric mean rate \(AP/s\)) s
%%IncludeResource: font Symbol
/Symbol /ISOLatin1Encoding 120 FMSR

 608 2537 mt  -90 rotate
(r) s
90 rotate
%%IncludeResource: font Helvetica
/Helvetica /ISOLatin1Encoding 120 FMSR

 882 4661 mt 
( ) s
6244  431 mt 
( ) s
1 sg
0 334 1566 0 0 -334 4635 4559 4 MP
PP
-1566 0 0 334 1566 0 0 -334 4635 4559 5 MP stroke
4 w
DO
SO
6 w
0 sg
4635 4559 mt 6201 4559 L
4635 4225 mt 6201 4225 L
4635 4559 mt 4635 4225 L
6201 4559 mt 6201 4225 L
4635 4559 mt 6201 4559 L
4635 4559 mt 4635 4225 L
4635 4559 mt 6201 4559 L
4635 4225 mt 6201 4225 L
4635 4559 mt 4635 4225 L
6201 4559 mt 6201 4225 L
5081 4360 mt 
(Current clamp) s
gs 4635 4225 1567 335 rc
gs 4802 4244 147 147 rc
  36   36 4875 4317 FO
gr

gr

5081 4509 mt 
(Conductance clamp) s
gs 4635 4225 1567 335 rc
gs 4802 4393 147 147 rc
24 W
c8
4875 4466 PD
gr

c8
gr

c8

end %%Color Dict

eplot
%%EndObject

epage
end

showpage

%%Trailer
%%EOF
