%!PS-Adobe-3.0 EPSF-3.0
%%Creator: MATLAB, The MathWorks, Inc. Version 8.0.0.783 (R2012b). Operating System: Darwin 10.8.0 Darwin Kernel Version 10.8.0: Tue Jun  7 16:33:36 PDT 2011; root:xnu-1504.15.3~1/RELEASE_I386 i386.
%%Title: ./spikes_corr.eps
%%CreationDate: 11/03/2013  17:04:11
%%DocumentNeededFonts: Helvetica
%%DocumentProcessColors: Cyan Magenta Yellow Black
%%LanguageLevel: 2
%%Pages: 1
%%BoundingBox:    25     0   468   276
%%EndComments

%%BeginProlog
% MathWorks dictionary
/MathWorks 160 dict begin
% definition operators
/bdef {bind def} bind def
/ldef {load def} bind def
/xdef {exch def} bdef
/xstore {exch store} bdef
% operator abbreviations
/c  /clip ldef
/cc /concat ldef
/cp /closepath ldef
/gr /grestore ldef
/gs /gsave ldef
/mt /moveto ldef
/np /newpath ldef
/cm /currentmatrix ldef
/sm /setmatrix ldef
/rm /rmoveto ldef
/rl /rlineto ldef
/s {show newpath} bdef
/sc {setcmykcolor} bdef
/sr /setrgbcolor ldef
/sg /setgray ldef
/w /setlinewidth ldef
/j /setlinejoin ldef
/cap /setlinecap ldef
/rc {rectclip} bdef
/rf {rectfill} bdef
% page state control
/pgsv () def
/bpage {/pgsv save def} bdef
/epage {pgsv restore} bdef
/bplot /gsave ldef
/eplot {stroke grestore} bdef
% orientation switch
/portraitMode 0 def /landscapeMode 1 def /rotateMode 2 def
% coordinate system mappings
/dpi2point 0 def
% font control
/FontSize 0 def
/FMS {/FontSize xstore findfont [FontSize 0 0 FontSize neg 0 0]
  makefont setfont} bdef
/reencode {exch dup where {pop load} {pop StandardEncoding} ifelse
  exch dup 3 1 roll findfont dup length dict begin
  { 1 index /FID ne {def}{pop pop} ifelse } forall
  /Encoding exch def currentdict end definefont pop} bdef
/isroman {findfont /CharStrings get /Agrave known} bdef
/FMSR {3 1 roll 1 index dup isroman {reencode} {pop pop} ifelse
  exch FMS} bdef
/csm {1 dpi2point div -1 dpi2point div scale neg translate
 dup landscapeMode eq {pop -90 rotate}
  {rotateMode eq {90 rotate} if} ifelse} bdef
% line types: solid, dotted, dashed, dotdash
/SO { [] 0 setdash } bdef
/DO { [.5 dpi2point mul 4 dpi2point mul] 0 setdash } bdef
/DA { [6 dpi2point mul] 0 setdash } bdef
/DD { [.5 dpi2point mul 4 dpi2point mul 6 dpi2point mul 4
  dpi2point mul] 0 setdash } bdef
% macros for lines and objects
/L {lineto stroke} bdef
/MP {3 1 roll moveto 1 sub {rlineto} repeat} bdef
/AP {{rlineto} repeat} bdef
/PDlw -1 def
/W {/PDlw currentlinewidth def setlinewidth} def
/PP {closepath eofill} bdef
/DP {closepath stroke} bdef
/MR {4 -2 roll moveto dup  0 exch rlineto exch 0 rlineto
  neg 0 exch rlineto closepath} bdef
/FR {MR stroke} bdef
/PR {MR fill} bdef
/L1i {{currentfile picstr readhexstring pop} image} bdef
/tMatrix matrix def
/MakeOval {newpath tMatrix currentmatrix pop translate scale
0 0 1 0 360 arc tMatrix setmatrix} bdef
/FO {MakeOval stroke} bdef
/PO {MakeOval fill} bdef
/PD {currentlinewidth 2 div 0 360 arc fill
   PDlw -1 eq not {PDlw w /PDlw -1 def} if} def
/FA {newpath tMatrix currentmatrix pop translate scale
  0 0 1 5 -2 roll arc tMatrix setmatrix stroke} bdef
/PA {newpath tMatrix currentmatrix pop	translate 0 0 moveto scale
  0 0 1 5 -2 roll arc closepath tMatrix setmatrix fill} bdef
/FAn {newpath tMatrix currentmatrix pop translate scale
  0 0 1 5 -2 roll arcn tMatrix setmatrix stroke} bdef
/PAn {newpath tMatrix currentmatrix pop translate 0 0 moveto scale
  0 0 1 5 -2 roll arcn closepath tMatrix setmatrix fill} bdef
/vradius 0 def /hradius 0 def /lry 0 def
/lrx 0 def /uly 0 def /ulx 0 def /rad 0 def
/MRR {/vradius xdef /hradius xdef /lry xdef /lrx xdef /uly xdef
  /ulx xdef newpath tMatrix currentmatrix pop ulx hradius add uly
  vradius add translate hradius vradius scale 0 0 1 180 270 arc 
  tMatrix setmatrix lrx hradius sub uly vradius add translate
  hradius vradius scale 0 0 1 270 360 arc tMatrix setmatrix
  lrx hradius sub lry vradius sub translate hradius vradius scale
  0 0 1 0 90 arc tMatrix setmatrix ulx hradius add lry vradius sub
  translate hradius vradius scale 0 0 1 90 180 arc tMatrix setmatrix
  closepath} bdef
/FRR {MRR stroke } bdef
/PRR {MRR fill } bdef
/MlrRR {/lry xdef /lrx xdef /uly xdef /ulx xdef /rad lry uly sub 2 div def
  newpath tMatrix currentmatrix pop ulx rad add uly rad add translate
  rad rad scale 0 0 1 90 270 arc tMatrix setmatrix lrx rad sub lry rad
  sub translate rad rad scale 0 0 1 270 90 arc tMatrix setmatrix
  closepath} bdef
/FlrRR {MlrRR stroke } bdef
/PlrRR {MlrRR fill } bdef
/MtbRR {/lry xdef /lrx xdef /uly xdef /ulx xdef /rad lrx ulx sub 2 div def
  newpath tMatrix currentmatrix pop ulx rad add uly rad add translate
  rad rad scale 0 0 1 180 360 arc tMatrix setmatrix lrx rad sub lry rad
  sub translate rad rad scale 0 0 1 0 180 arc tMatrix setmatrix
  closepath} bdef
/FtbRR {MtbRR stroke } bdef
/PtbRR {MtbRR fill } bdef
/stri 6 array def /dtri 6 array def
/smat 6 array def /dmat 6 array def
/tmat1 6 array def /tmat2 6 array def /dif 3 array def
/asub {/ind2 exch def /ind1 exch def dup dup
  ind1 get exch ind2 get sub exch } bdef
/tri_to_matrix {
  2 0 asub 3 1 asub 4 0 asub 5 1 asub
  dup 0 get exch 1 get 7 -1 roll astore } bdef
/compute_transform {
  dmat dtri tri_to_matrix tmat1 invertmatrix 
  smat stri tri_to_matrix tmat2 concatmatrix } bdef
/ds {stri astore pop} bdef
/dt {dtri astore pop} bdef
/db {2 copy /cols xdef /rows xdef mul dup 3 mul string
  currentfile 
  3 index 0 eq {/ASCIIHexDecode filter}
  {/ASCII85Decode filter 3 index 2 eq {/RunLengthDecode filter} if }
  ifelse exch readstring pop
  dup 0 3 index getinterval /rbmap xdef
  dup 2 index dup getinterval /gbmap xdef
  1 index dup 2 mul exch getinterval /bbmap xdef pop pop}bdef
/it {gs np dtri aload pop moveto lineto lineto cp c
  cols rows 8 compute_transform 
  rbmap gbmap bbmap true 3 colorimage gr}bdef
/il {newpath moveto lineto stroke}bdef
currentdict end def
%%EndProlog

%%BeginSetup
MathWorks begin

0 cap

end
%%EndSetup

%%Page: 1 1
%%BeginPageSetup
%%PageBoundingBox:    25     0   468   276
MathWorks begin
bpage
%%EndPageSetup

%%BeginObject: obj1
bplot

/dpi2point 12 def
portraitMode 0000 3456 csm

  303   144  5322  3315 rc
86 dict begin %Colortable dictionary
/c0 { 0.000000 0.000000 0.000000 sr} bdef
/c1 { 1.000000 1.000000 1.000000 sr} bdef
/c2 { 0.900000 0.000000 0.000000 sr} bdef
/c3 { 0.000000 0.820000 0.000000 sr} bdef
/c4 { 0.000000 0.000000 0.800000 sr} bdef
/c5 { 0.910000 0.820000 0.320000 sr} bdef
/c6 { 1.000000 0.260000 0.820000 sr} bdef
/c7 { 0.000000 0.820000 0.820000 sr} bdef
c0
1 j
1 sg
   0    0 6053 3460 rf
6 w
0 2820 4690 0 0 -2820 787 3079 4 MP
PP
-4690 0 0 2820 4690 0 0 -2820 787 3079 5 MP stroke
4 w
DO
SO
6 w
0 sg
 787 3079 mt 5477 3079 L
 787 3079 mt  787  259 L
 787 3079 mt  787 3125 L
%%IncludeResource: font Helvetica
/Helvetica /ISOLatin1Encoding 120 FMSR

 754 3271 mt 
(0) s
2350 3079 mt 2350 3125 L
2317 3271 mt 
(5) s
3913 3079 mt 3913 3125 L
3847 3271 mt 
(10) s
5477 3079 mt 5477 3125 L
5411 3271 mt 
(15) s
 787 3079 mt  740 3079 L
 639 3123 mt 
(0) s
 787 2515 mt  740 2515 L
 539 2559 mt 
(0.1) s
 787 1951 mt  740 1951 L
 539 1995 mt 
(0.2) s
 787 1387 mt  740 1387 L
 539 1431 mt 
(0.3) s
 787  823 mt  740  823 L
 539  867 mt 
(0.4) s
 787  259 mt  740  259 L
 539  303 mt 
(0.5) s
gs 787 259 4691 2821 rc
gr

0.6 sg
  24   24 4107 1196 PO
  24   24 4373 1203 PO
  24   24 4288 1205 PO
  24   24 4174 1199 PO
  24   24 3579 1263 PO
  24   24 2781 1456 PO
  24   24 4420 1199 PO
  24   24 3248 1329 PO
  24   24 3143 1338 PO
  24   24 2788 1446 PO
  24   24 3017 1383 PO
  24   24 3078 1362 PO
  24   24 3567 1242 PO
  24   24 2968 1389 PO
  24   24 3871 1188 PO
  24   24 3545 1218 PO
  24   24 2971 1385 PO
  24   24 3721 1222 PO
  24   24 3999 1208 PO
  24   24 4433 1202 PO
  24   24 2881 1417 PO
  24   24 3896 1222 PO
  24   24 3390 1319 PO
  24   24 3745 1246 PO
  24   24 4348 1224 PO
  24   24 3526 1268 PO
  24   24 2862 1431 PO
  24   24 4437 1217 PO
  24   24 2740 1489 PO
  24   24 3965 1235 PO
  24   24 4107 1196 FO
  24   24 4373 1203 FO
  24   24 4288 1205 FO
  24   24 4174 1199 FO
  24   24 3579 1263 FO
  24   24 2781 1456 FO
  24   24 4420 1199 FO
  24   24 3248 1329 FO
  24   24 3143 1338 FO
  24   24 2788 1446 FO
  24   24 3017 1383 FO
  24   24 3078 1362 FO
  24   24 3567 1242 FO
  24   24 2968 1389 FO
  24   24 3871 1188 FO
  24   24 3545 1218 FO
  24   24 2971 1385 FO
  24   24 3721 1222 FO
  24   24 3999 1208 FO
  24   24 4433 1202 FO
  24   24 2881 1417 FO
  24   24 3896 1222 FO
  24   24 3390 1319 FO
  24   24 3745 1246 FO
  24   24 4348 1224 FO
  24   24 3526 1268 FO
  24   24 2862 1431 FO
  24   24 4437 1217 FO
  24   24 2740 1489 FO
  24   24 3965 1235 FO
gs 787 259 4691 2821 rc
gr

  24   24 4713 1064 PO
  24   24 5028 1036 PO
  24   24 4713 1064 FO
  24   24 5028 1036 FO
gs 787 259 4691 2821 rc
gr

  24   24 4927 1054 PO
  24   24 4927 1054 FO
gs 787 259 4691 2821 rc
gr

  24   24 5309 1050 PO
  24   24 4792 1060 PO
  24   24 4088 1179 PO
  24   24 5083 1044 PO
  24   24 3697 1289 PO
  24   24 3573 1315 PO
  24   24 3496 1333 PO
  24   24 4074 1180 PO
  24   24 5309 1050 FO
  24   24 4792 1060 FO
  24   24 4088 1179 FO
  24   24 5083 1044 FO
  24   24 3697 1289 FO
  24   24 3573 1315 FO
  24   24 3496 1333 FO
  24   24 4074 1180 FO
gs 787 259 4691 2821 rc
gr

  24   24 4434 1081 PO
  24   24 4048 1172 PO
  24   24 5403 1064 PO
  24   24 4256 1164 PO
  24   24 4585 1104 PO
  24   24 5098 1053 PO
  24   24 4464 1095 PO
  24   24 4434 1081 FO
  24   24 4048 1172 FO
  24   24 5403 1064 FO
  24   24 4256 1164 FO
  24   24 4585 1104 FO
  24   24 5098 1053 FO
  24   24 4464 1095 FO
gs 787 259 4691 2821 rc
gr

  24   24 3866 1242 PO
  24   24 4285 1128 PO
  24   24 5314 1071 PO
  24   24 4998 1039 PO
  24   24 4026 1184 PO
  24   24 3866 1242 FO
  24   24 4285 1128 FO
  24   24 5314 1071 FO
  24   24 4998 1039 FO
  24   24 4026 1184 FO
gs 787 259 4691 2821 rc
gr

  24   24 5104 1046 PO
  24   24 4545 1084 PO
  24   24 5104 1046 FO
  24   24 4545 1084 FO
gs 787 259 4691 2821 rc
gr

  24   24 5366 1104 PO
  24   24 5366 1104 FO
gs 787 259 4691 2821 rc
gr

  24   24 5143 1132 PO
  24   24 5143 1132 FO
gs 787 259 4691 2821 rc
gr

  24   24 5404 1084 PO
  24   24 5404 1084 FO
gs 787 259 4691 2821 rc
gr

  24   24 5179 1138 PO
  24   24 5179 1138 FO
gs 787 259 4691 2821 rc
gr

  24   24 4791 1178 PO
  24   24 4791 1178 FO
gs 787 259 4691 2821 rc
gr

  24   24 4774 1199 PO
  24   24 4774 1199 FO
gs 787 259 4691 2821 rc
gr

  24   24 5210 1080 PO
  24   24 4743 1177 PO
  24   24 5210 1080 FO
  24   24 4743 1177 FO
gs 787 259 4691 2821 rc
gr

  24   24 4995 1120 PO
  24   24 5394 1075 PO
  24   24 4995 1120 FO
  24   24 5394 1075 FO
gs 787 259 4691 2821 rc
gr

  24   24 5247 1082 PO
  24   24 5247 1082 FO
gs 787 259 4691 2821 rc
gr

  24   24 5030 1115 PO
  24   24 5030 1115 FO
gs 787 259 4691 2821 rc
gr

  24   24 4716 1212 PO
  24   24 4716 1212 FO
gs 787 259 4691 2821 rc
gr

  24   24 5346 1052 PO
  24   24 1349 1934 PO
  24   24 1506 1834 PO
  24   24 1281 1991 PO
  24   24 1369 1935 PO
  24   24 1422 1866 PO
  24   24 1590 1779 PO
  24   24 1361 1947 PO
  24   24 1528 1843 PO
  24   24 1619 1803 PO
  24   24 1568 1802 PO
  24   24 1412 1885 PO
  24   24 1410 1890 PO
  24   24 1526 1822 PO
  24   24 1509 1840 PO
  24   24 1521 1854 PO
  24   24 1636 1758 PO
  24   24 1282 1958 PO
  24   24 1603 1855 PO
  24   24 1597 1783 PO
  24   24 1282 2029 PO
  24   24 1554 1824 PO
  24   24 1346 1945 PO
  24   24 1631 1806 PO
  24   24 1405 1896 PO
  24   24 1305 1987 PO
  24   24 1340 1925 PO
  24   24 1570 1789 PO
  24   24 1416 1871 PO
  24   24 1268 2010 PO
  24   24 1303 1987 PO
  24   24 1320 1947 PO
  24   24 5475 1100 PO
  24   24 5389 1093 PO
  24   24 5397 1106 PO
  24   24 4624 1095 PO
  24   24 4931 1062 PO
  24   24 5404 1096 PO
  24   24 4833 1083 PO
  24   24 5346 1052 FO
  24   24 1349 1934 FO
  24   24 1506 1834 FO
  24   24 1281 1991 FO
  24   24 1369 1935 FO
  24   24 1422 1866 FO
  24   24 1590 1779 FO
  24   24 1361 1947 FO
  24   24 1528 1843 FO
  24   24 1619 1803 FO
  24   24 1568 1802 FO
  24   24 1412 1885 FO
  24   24 1410 1890 FO
  24   24 1526 1822 FO
  24   24 1509 1840 FO
  24   24 1521 1854 FO
  24   24 1636 1758 FO
  24   24 1282 1958 FO
  24   24 1603 1855 FO
  24   24 1597 1783 FO
  24   24 1282 2029 FO
  24   24 1554 1824 FO
  24   24 1346 1945 FO
  24   24 1631 1806 FO
  24   24 1405 1896 FO
  24   24 1305 1987 FO
  24   24 1340 1925 FO
  24   24 1570 1789 FO
  24   24 1416 1871 FO
  24   24 1268 2010 FO
  24   24 1303 1987 FO
  24   24 1320 1947 FO
  24   24 5475 1100 FO
  24   24 5389 1093 FO
  24   24 5397 1106 FO
  24   24 4624 1095 FO
  24   24 4931 1062 FO
  24   24 5404 1096 FO
  24   24 4833 1083 FO
gs 787 259 4691 2821 rc
gr

  24   24 5206 1079 PO
  24   24 4701 1081 PO
  24   24 4013 1182 PO
  24   24 4985 1092 PO
  24   24 3630 1280 PO
  24   24 3510 1325 PO
  24   24 3364 1343 PO
  24   24 3434 1303 PO
  24   24 3999 1179 PO
  24   24 5422 1096 PO
  24   24 4351 1120 PO
  24   24 3974 1185 PO
  24   24 5298 1070 PO
  24   24 4177 1155 PO
  24   24 4499 1117 PO
  24   24 5000 1061 PO
  24   24 4380 1115 PO
  24   24 5476 1134 PO
  24   24 3795 1234 PO
  24   24 4205 1153 PO
  24   24 5211 1064 PO
  24   24 4902 1094 PO
  24   24 3952 1200 PO
  24   24 5206 1079 FO
  24   24 4701 1081 FO
  24   24 4013 1182 FO
  24   24 4985 1092 FO
  24   24 3630 1280 FO
  24   24 3510 1325 FO
  24   24 3364 1343 FO
  24   24 3434 1303 FO
  24   24 3999 1179 FO
  24   24 5422 1096 FO
  24   24 4351 1120 FO
  24   24 3974 1185 FO
  24   24 5298 1070 FO
  24   24 4177 1155 FO
  24   24 4499 1117 FO
  24   24 5000 1061 FO
  24   24 4380 1115 FO
  24   24 5476 1134 FO
  24   24 3795 1234 FO
  24   24 4205 1153 FO
  24   24 5211 1064 FO
  24   24 4902 1094 FO
  24   24 3952 1200 FO
gs 787 259 4691 2821 rc
gr

  24   24 5005 1074 PO
  24   24 4460 1106 PO
  24   24 1807 1731 PO
  24   24 2175 1591 PO
  24   24 2499 1515 PO
  24   24 2427 1515 PO
  24   24 2180 1561 PO
  24   24 2339 1534 PO
  24   24 2381 1506 PO
  24   24 2305 1544 PO
  24   24 2307 1534 PO
  24   24 1927 1675 PO
  24   24 2244 1566 PO
  24   24 2599 1531 PO
  24   24 1839 1711 PO
  24   24 2231 1582 PO
  24   24 1968 1649 PO
  24   24 2146 1592 PO
  24   24 1897 1656 PO
  24   24 1837 1727 PO
  24   24 1812 1708 PO
  24   24 1829 1700 PO
  24   24 1993 1640 PO
  24   24 1945 1657 PO
  24   24 1937 1643 PO
  24   24 1876 1697 PO
  24   24 1985 1650 PO
  24   24 1899 1667 PO
  24   24 5218 1172 PO
  24   24 5137 1129 PO
  24   24 5145 1154 PO
  24   24 4414 1121 PO
  24   24 4704 1119 PO
  24   24 5152 1144 PO
  24   24 4612 1100 PO
  24   24 5243 1161 PO
  24   24 4964 1116 PO
  24   24 4487 1126 PO
  24   24 3836 1192 PO
  24   24 4756 1116 PO
  24   24 3475 1282 PO
  24   24 3361 1302 PO
  24   24 3223 1340 PO
  24   24 3289 1301 PO
  24   24 3823 1196 PO
  24   24 5169 1142 PO
  24   24 3169 1366 PO
  24   24 4156 1144 PO
  24   24 3800 1183 PO
  24   24 3173 1361 PO
  24   24 5052 1160 PO
  24   24 3992 1149 PO
  24   24 4296 1117 PO
  24   24 4769 1115 PO
  24   24 3075 1394 PO
  24   24 4184 1114 PO
  24   24 5219 1145 PO
  24   24 3631 1225 PO
  24   24 4018 1149 PO
  24   24 4969 1120 PO
  24   24 4677 1071 PO
  24   24 3779 1201 PO
  24   24 5232 1141 PO
  24   24 4774 1088 PO
  24   24 4259 1113 PO
  24   24 5005 1074 FO
  24   24 4460 1106 FO
  24   24 1807 1731 FO
  24   24 2175 1591 FO
  24   24 2499 1515 FO
  24   24 2427 1515 FO
  24   24 2180 1561 FO
  24   24 2339 1534 FO
  24   24 2381 1506 FO
  24   24 2305 1544 FO
  24   24 2307 1534 FO
  24   24 1927 1675 FO
  24   24 2244 1566 FO
  24   24 2599 1531 FO
  24   24 1839 1711 FO
  24   24 2231 1582 FO
  24   24 1968 1649 FO
  24   24 2146 1592 FO
  24   24 1897 1656 FO
  24   24 1837 1727 FO
  24   24 1812 1708 FO
  24   24 1829 1700 FO
  24   24 1993 1640 FO
  24   24 1945 1657 FO
  24   24 1937 1643 FO
  24   24 1876 1697 FO
  24   24 1985 1650 FO
  24   24 1899 1667 FO
  24   24 5218 1172 FO
  24   24 5137 1129 FO
  24   24 5145 1154 FO
  24   24 4414 1121 FO
  24   24 4704 1119 FO
  24   24 5152 1144 FO
  24   24 4612 1100 FO
  24   24 5243 1161 FO
  24   24 4964 1116 FO
  24   24 4487 1126 FO
  24   24 3836 1192 FO
  24   24 4756 1116 FO
  24   24 3475 1282 FO
  24   24 3361 1302 FO
  24   24 3223 1340 FO
  24   24 3289 1301 FO
  24   24 3823 1196 FO
  24   24 5169 1142 FO
  24   24 3169 1366 FO
  24   24 4156 1144 FO
  24   24 3800 1183 FO
  24   24 3173 1361 FO
  24   24 5052 1160 FO
  24   24 3992 1149 FO
  24   24 4296 1117 FO
  24   24 4769 1115 FO
  24   24 3075 1394 FO
  24   24 4184 1114 FO
  24   24 5219 1145 FO
  24   24 3631 1225 FO
  24   24 4018 1149 FO
  24   24 4969 1120 FO
  24   24 4677 1071 FO
  24   24 3779 1201 FO
  24   24 5232 1141 FO
  24   24 4774 1088 FO
  24   24 4259 1113 FO
gs 787 259 4691 2821 rc
gr

  24   24 5381 1104 PO
  24   24 5381 1104 FO
gs 787 259 4691 2821 rc
gr

  24   24 5157 1150 PO
  24   24 5157 1150 FO
gs 787 259 4691 2821 rc
gr

  24   24 5419 1128 PO
  24   24 5419 1128 FO
gs 787 259 4691 2821 rc
gr

  24   24 5194 1129 PO
  24   24 5194 1129 FO
gs 787 259 4691 2821 rc
gr

  24   24 5363 1043 PO
  24   24 5363 1043 FO
gs 787 259 4691 2821 rc
gr

  24   24 5455 1032 PO
  24   24 4634 1177 PO
  24   24 5455 1032 FO
  24   24 4634 1177 FO
gs 787 259 4691 2821 rc
gr

  24   24 4618 1172 PO
  24   24 4618 1172 FO
gs 787 259 4691 2821 rc
gr

  24   24 5037 1051 PO
  24   24 4588 1163 PO
  24   24 5037 1051 FO
  24   24 4588 1163 FO
gs 787 259 4691 2821 rc
gr

  24   24 4830 1126 PO
  24   24 5214 1052 PO
  24   24 4830 1126 FO
  24   24 5214 1052 FO
gs 787 259 4691 2821 rc
gr

  24   24 5072 1067 PO
  24   24 5072 1067 FO
gs 787 259 4691 2821 rc
gr

  24   24 4864 1117 PO
  24   24 4864 1117 FO
gs 787 259 4691 2821 rc
gr

  24   24 4562 1198 PO
  24   24 4562 1198 FO
gs 787 259 4691 2821 rc
gr

  24   24 5167 1049 PO
  24   24 5167 1049 FO
gs 787 259 4691 2821 rc
gr

  24   24 5438 1086 PO
  24   24 5438 1086 FO
gs 787 259 4691 2821 rc
gr

  24   24 5211 1167 PO
  24   24 5211 1167 FO
gs 787 259 4691 2821 rc
gr

  24   24 5476 1118 PO
  24   24 5476 1118 FO
gs 787 259 4691 2821 rc
gr

  24   24 5248 1122 PO
  24   24 5248 1122 FO
gs 787 259 4691 2821 rc
gr

  24   24 5353 1100 PO
  24   24 5353 1100 FO
gs 787 259 4691 2821 rc
gr

  24   24 5130 1163 PO
  24   24 5130 1163 FO
gs 787 259 4691 2821 rc
gr

  24   24 5391 1095 PO
  24   24 5391 1095 FO
gs 787 259 4691 2821 rc
gr

  24   24 5167 1120 PO
  24   24 5167 1120 FO
gs 787 259 4691 2821 rc
gr

  24   24 5361 1116 PO
  24   24 5361 1116 FO
gs 787 259 4691 2821 rc
gr

  24   24 5138 1152 PO
  24   24 5138 1152 FO
gs 787 259 4691 2821 rc
gr

  24   24 5399 1101 PO
  24   24 5399 1101 FO
gs 787 259 4691 2821 rc
gr

  24   24 5174 1155 PO
  24   24 5174 1155 FO
gs 787 259 4691 2821 rc
gr

  24   24 4968 1059 PO
  24   24 4233 1170 PO
  24   24 5272 1025 PO
  24   24 3824 1271 PO
  24   24 3695 1338 PO
  24   24 4218 1177 PO
  24   24 4968 1059 FO
  24   24 4233 1170 FO
  24   24 5272 1025 FO
  24   24 3824 1271 FO
  24   24 3695 1338 FO
  24   24 4218 1177 FO
gs 787 259 4691 2821 rc
gr

  24   24 4594 1060 PO
  24   24 4191 1169 PO
  24   24 4594 1060 FO
  24   24 4191 1169 FO
gs 787 259 4691 2821 rc
gr

  24   24 4408 1127 PO
  24   24 4752 1089 PO
  24   24 5287 1021 PO
  24   24 4625 1089 PO
  24   24 4408 1127 FO
  24   24 4752 1089 FO
  24   24 5287 1021 FO
  24   24 4625 1089 FO
gs 787 259 4691 2821 rc
gr

  24   24 4000 1235 PO
  24   24 4438 1129 PO
  24   24 4000 1235 FO
  24   24 4438 1129 FO
gs 787 259 4691 2821 rc
gr

  24   24 5182 1026 PO
  24   24 4168 1184 PO
  24   24 5182 1026 FO
  24   24 4168 1184 FO
gs 787 259 4691 2821 rc
gr

  24   24 5293 1016 PO
  24   24 4710 1063 PO
  24   24 5293 1016 FO
  24   24 4710 1063 FO
gs 787 259 4691 2821 rc
gr

  24   24 5303 1038 PO
  24   24 4509 1167 PO
  24   24 5303 1038 FO
  24   24 4509 1167 FO
gs 787 259 4691 2821 rc
gr

  24   24 4493 1165 PO
  24   24 4493 1165 FO
gs 787 259 4691 2821 rc
gr

  24   24 4898 1089 PO
  24   24 4464 1149 PO
  24   24 4898 1089 FO
  24   24 4464 1149 FO
gs 787 259 4691 2821 rc
gr

  24   24 4698 1113 PO
  24   24 5069 1047 PO
  24   24 4698 1113 FO
  24   24 5069 1047 FO
gs 787 259 4691 2821 rc
gr

  24   24 4932 1049 PO
  24   24 4932 1049 FO
gs 787 259 4691 2821 rc
gr

  24   24 4258 1217 PO
  24   24 4731 1090 PO
  24   24 4258 1217 FO
  24   24 4731 1090 FO
gs 787 259 4691 2821 rc
gr

  24   24 4439 1185 PO
  24   24 4439 1185 FO
gs 787 259 4691 2821 rc
gr

  24   24 5024 1056 PO
  24   24 5024 1056 FO
gs 787 259 4691 2821 rc
gr

  24   24 5368 1107 PO
  24   24 5368 1107 FO
gs 787 259 4691 2821 rc
gr

  24   24 5145 1169 PO
  24   24 5145 1169 FO
gs 787 259 4691 2821 rc
gr

  24   24 5406 1090 PO
  24   24 5406 1090 FO
gs 787 259 4691 2821 rc
gr

  24   24 5181 1155 PO
  24   24 5181 1155 FO
gs 787 259 4691 2821 rc
gr

  24   24 1216 2002 PO
  24   24 1293 1959 PO
  24   24 1339 1936 PO
  24   24 1286 2000 PO
  24   24 1431 1928 PO
  24   24 1466 1856 PO
  24   24 1331 1949 PO
  24   24 1328 1959 PO
  24   24 1430 1878 PO
  24   24 1415 1917 PO
  24   24 1425 1899 PO
  24   24 1217 2058 PO
  24   24 1217 2034 PO
  24   24 1454 1881 PO
  24   24 1273 1984 PO
  24   24 1324 1969 PO
  24   24 1237 2027 PO
  24   24 1268 2002 PO
  24   24 1468 1881 PO
  24   24 1334 1944 PO
  24   24 1205 2003 PO
  24   24 1235 1978 PO
  24   24 1250 1989 PO
  24   24 1874 1699 PO
  24   24 1878 1686 PO
  24   24 1434 1921 PO
  24   24 1493 1855 PO
  24   24 1680 1762 PO
  24   24 1426 1899 PO
  24   24 1611 1775 PO
  24   24 1712 1725 PO
  24   24 1852 1690 PO
  24   24 1656 1764 PO
  24   24 1483 1858 PO
  24   24 1480 1858 PO
  24   24 1609 1790 PO
  24   24 1590 1762 PO
  24   24 1603 1781 PO
  24   24 1731 1724 PO
  24   24 1694 1751 PO
  24   24 1688 1744 PO
  24   24 1640 1750 PO
  24   24 1409 1957 PO
  24   24 1725 1732 PO
  24   24 1474 1854 PO
  24   24 1363 1948 PO
  24   24 1402 1901 PO
  24   24 1658 1752 PO
  24   24 1486 1843 PO
  24   24 1361 1919 PO
  24   24 1379 1921 PO
  24   24 1216 2002 FO
  24   24 1293 1959 FO
  24   24 1339 1936 FO
  24   24 1286 2000 FO
  24   24 1431 1928 FO
  24   24 1466 1856 FO
  24   24 1331 1949 FO
  24   24 1328 1959 FO
  24   24 1430 1878 FO
  24   24 1415 1917 FO
  24   24 1425 1899 FO
  24   24 1217 2058 FO
  24   24 1217 2034 FO
  24   24 1454 1881 FO
  24   24 1273 1984 FO
  24   24 1324 1969 FO
  24   24 1237 2027 FO
  24   24 1268 2002 FO
  24   24 1468 1881 FO
  24   24 1334 1944 FO
  24   24 1205 2003 FO
  24   24 1235 1978 FO
  24   24 1250 1989 FO
  24   24 1874 1699 FO
  24   24 1878 1686 FO
  24   24 1434 1921 FO
  24   24 1493 1855 FO
  24   24 1680 1762 FO
  24   24 1426 1899 FO
  24   24 1611 1775 FO
  24   24 1712 1725 FO
  24   24 1852 1690 FO
  24   24 1656 1764 FO
  24   24 1483 1858 FO
  24   24 1480 1858 FO
  24   24 1609 1790 FO
  24   24 1590 1762 FO
  24   24 1603 1781 FO
  24   24 1731 1724 FO
  24   24 1694 1751 FO
  24   24 1688 1744 FO
  24   24 1640 1750 FO
  24   24 1409 1957 FO
  24   24 1725 1732 FO
  24   24 1474 1854 FO
  24   24 1363 1948 FO
  24   24 1402 1901 FO
  24   24 1658 1752 FO
  24   24 1486 1843 FO
  24   24 1361 1919 FO
  24   24 1379 1921 FO
gs 787 259 4691 2821 rc
gr

  24   24 5196 1045 PO
  24   24 4421 1173 PO
  24   24 5196 1045 FO
  24   24 4421 1173 FO
gs 787 259 4691 2821 rc
gr

  24   24 4405 1169 PO
  24   24 4405 1169 FO
gs 787 259 4691 2821 rc
gr

  24   24 4801 1087 PO
  24   24 4377 1177 PO
  24   24 4801 1087 FO
  24   24 4377 1177 FO
gs 787 259 4691 2821 rc
gr

  24   24 4606 1111 PO
  24   24 4968 1060 PO
  24   24 4606 1111 FO
  24   24 4968 1060 FO
gs 787 259 4691 2821 rc
gr

  24   24 4834 1063 PO
  24   24 4834 1063 FO
gs 787 259 4691 2821 rc
gr

  24   24 4176 1238 PO
  24   24 4638 1104 PO
  24   24 4176 1238 FO
  24   24 4638 1104 FO
gs 787 259 4691 2821 rc
gr

  24   24 5422 1015 PO
  24   24 4352 1169 PO
  24   24 5422 1015 FO
  24   24 4352 1169 FO
gs 787 259 4691 2821 rc
gr

  24   24 4924 1083 PO
  24   24 4924 1083 FO
gs 787 259 4691 2821 rc
gr

  24   24 5464 1121 PO
  24   24 5464 1121 FO
gs 787 259 4691 2821 rc
gr

  24   24 5236 1193 PO
  24   24 5236 1193 FO
gs 787 259 4691 2821 rc
gr

  24   24 5273 1169 PO
  24   24 5273 1169 FO
gs 787 259 4691 2821 rc
gr

  24   24 4738 1214 PO
  24   24 4738 1214 FO
gs 787 259 4691 2821 rc
gr

  24   24 5171 1079 PO
  24   24 4708 1196 PO
  24   24 5171 1079 FO
  24   24 4708 1196 FO
gs 787 259 4691 2821 rc
gr

  24   24 4957 1138 PO
  24   24 5353 1052 PO
  24   24 4957 1138 FO
  24   24 5353 1052 FO
gs 787 259 4691 2821 rc
gr

  24   24 5207 1087 PO
  24   24 5207 1087 FO
gs 787 259 4691 2821 rc
gr

  24   24 4992 1113 PO
  24   24 4992 1113 FO
gs 787 259 4691 2821 rc
gr

  24   24 4681 1219 PO
  24   24 4681 1219 FO
gs 787 259 4691 2821 rc
gr

  24   24 5305 1057 PO
  24   24 4287 1177 PO
  24   24 5305 1057 FO
  24   24 4287 1177 FO
gs 787 259 4691 2821 rc
gr

  24   24 4670 1100 PO
  24   24 4260 1180 PO
  24   24 4670 1100 FO
  24   24 4260 1180 FO
gs 787 259 4691 2821 rc
gr

  24   24 4481 1161 PO
  24   24 4831 1085 PO
  24   24 5377 1046 PO
  24   24 4702 1116 PO
  24   24 4481 1161 FO
  24   24 4831 1085 FO
  24   24 5377 1046 FO
  24   24 4702 1116 FO
gs 787 259 4691 2821 rc
gr

  24   24 4065 1240 PO
  24   24 4512 1117 PO
  24   24 4065 1240 FO
  24   24 4512 1117 FO
gs 787 259 4691 2821 rc
gr

  24   24 5271 1049 PO
  24   24 4236 1204 PO
  24   24 5271 1049 FO
  24   24 4236 1204 FO
gs 787 259 4691 2821 rc
gr

  24   24 5383 1033 PO
  24   24 4789 1085 PO
  24   24 3672 1229 PO
  24   24 3050 1378 PO
  24   24 3988 1160 PO
  24   24 3649 1223 PO
  24   24 3054 1388 PO
  24   24 4838 1203 PO
  24   24 3831 1209 PO
  24   24 4120 1175 PO
  24   24 4570 1163 PO
  24   24 2960 1445 PO
  24   24 4014 1187 PO
  24   24 3489 1283 PO
  24   24 3857 1200 PO
  24   24 4760 1211 PO
  24   24 4483 1167 PO
  24   24 3630 1240 PO
  24   24 2940 1417 PO
  24   24 4575 1163 PO
  24   24 4085 1167 PO
  24   24 2848 1450 PO
  24   24 2404 1509 PO
  24   24 2832 1443 PO
  24   24 2406 1493 PO
  24   24 2001 1642 PO
  24   24 2340 1515 PO
  24   24 2717 1453 PO
  24   24 1908 1673 PO
  24   24 2818 1471 PO
  24   24 2325 1550 PO
  24   24 2045 1610 PO
  24   24 2235 1570 PO
  24   24 1969 1657 PO
  24   24 1905 1704 PO
  24   24 1879 1733 PO
  24   24 1897 1694 PO
  24   24 2071 1590 PO
  24   24 2021 1639 PO
  24   24 2013 1641 PO
  24   24 1948 1671 PO
  24   24 2063 1618 PO
  24   24 1971 1649 PO
  24   24 4541 1184 PO
  24   24 5383 1033 FO
  24   24 4789 1085 FO
  24   24 3672 1229 FO
  24   24 3050 1378 FO
  24   24 3988 1160 FO
  24   24 3649 1223 FO
  24   24 3054 1388 FO
  24   24 4838 1203 FO
  24   24 3831 1209 FO
  24   24 4120 1175 FO
  24   24 4570 1163 FO
  24   24 2960 1445 FO
  24   24 4014 1187 FO
  24   24 3489 1283 FO
  24   24 3857 1200 FO
  24   24 4760 1211 FO
  24   24 4483 1167 FO
  24   24 3630 1240 FO
  24   24 2940 1417 FO
  24   24 4575 1163 FO
  24   24 4085 1167 FO
  24   24 2848 1450 FO
  24   24 2404 1509 FO
  24   24 2832 1443 FO
  24   24 2406 1493 FO
  24   24 2001 1642 FO
  24   24 2340 1515 FO
  24   24 2717 1453 FO
  24   24 1908 1673 FO
  24   24 2818 1471 FO
  24   24 2325 1550 FO
  24   24 2045 1610 FO
  24   24 2235 1570 FO
  24   24 1969 1657 FO
  24   24 1905 1704 FO
  24   24 1879 1733 FO
  24   24 1897 1694 FO
  24   24 2071 1590 FO
  24   24 2021 1639 FO
  24   24 2013 1641 FO
  24   24 1948 1671 FO
  24   24 2063 1618 FO
  24   24 1971 1649 FO
  24   24 4541 1184 FO
gs 787 259 4691 2821 rc
gr

  24   24 4952 1097 PO
  24   24 4512 1176 PO
  24   24 4952 1097 FO
  24   24 4512 1176 FO
gs 787 259 4691 2821 rc
gr

  24   24 4749 1121 PO
  24   24 5125 1052 PO
  24   24 4749 1121 FO
  24   24 5125 1052 FO
gs 787 259 4691 2821 rc
gr

  24   24 4987 1089 PO
  24   24 4987 1089 FO
gs 787 259 4691 2821 rc
gr

  24   24 4303 1211 PO
  24   24 4782 1091 PO
  24   24 4303 1211 FO
  24   24 4782 1091 FO
gs 787 259 4691 2821 rc
gr

  24   24 4487 1202 PO
  24   24 4487 1202 FO
gs 787 259 4691 2821 rc
gr

  24   24 5080 1074 PO
  24   24 3330 1318 PO
  24   24 2782 1401 PO
  24   24 3608 1275 PO
  24   24 3310 1280 PO
  24   24 2785 1410 PO
  24   24 3471 1287 PO
  24   24 3725 1290 PO
  24   24 2703 1446 PO
  24   24 3631 1291 PO
  24   24 3168 1329 PO
  24   24 3493 1300 PO
  24   24 3293 1319 PO
  24   24 2685 1445 PO
  24   24 2574 1490 PO
  24   24 3694 1265 PO
  24   24 3222 1340 PO
  24   24 2697 1438 PO
  24   24 3488 1317 PO
  24   24 3203 1314 PO
  24   24 2700 1426 PO
  24   24 3357 1313 PO
  24   24 3600 1319 PO
  24   24 2621 1440 PO
  24   24 3511 1320 PO
  24   24 3067 1338 PO
  24   24 3378 1319 PO
  24   24 3186 1348 PO
  24   24 2604 1441 PO
  24   24 2274 1573 PO
  24   24 2498 1511 PO
  24   24 3571 1341 PO
  24   24 2304 1539 PO
  24   24 2295 1571 PO
  24   24 2855 1461 PO
  24   24 2409 1476 PO
  24   24 2839 1460 PO
  24   24 2412 1494 PO
  24   24 2006 1629 PO
  24   24 2345 1491 PO
  24   24 2724 1438 PO
  24   24 1912 1688 PO
  24   24 2825 1445 PO
  24   24 2330 1505 PO
  24   24 2049 1615 PO
  24   24 2240 1537 PO
  24   24 1973 1627 PO
  24   24 1909 1689 PO
  24   24 1883 1717 PO
  24   24 1901 1678 PO
  24   24 2076 1581 PO
  24   24 2025 1621 PO
  24   24 2017 1638 PO
  24   24 1951 1660 PO
  24   24 2067 1614 PO
  24   24 1975 1655 PO
  24   24 3091 1355 PO
  24   24 2595 1450 PO
  24   24 3344 1352 PO
  24   24 3073 1346 PO
  24   24 2598 1450 PO
  24   24 3219 1346 PO
  24   24 2145 1621 PO
  24   24 2523 1469 PO
  24   24 3365 1350 PO
  24   24 2945 1387 PO
  24   24 3239 1343 PO
  24   24 3058 1388 PO
  24   24 2507 1468 PO
  24   24 2194 1609 PO
  24   24 2406 1494 PO
  24   24 2109 1623 PO
  24   24 2223 1556 PO
  24   24 2166 1588 PO
  24   24 2157 1585 PO
  24   24 2214 1576 PO
  24   24 2111 1632 PO
  24   24 3154 1348 PO
  24   24 2644 1425 PO
  24   24 3413 1318 PO
  24   24 3136 1344 PO
  24   24 2647 1432 PO
  24   24 3285 1339 PO
  24   24 3522 1345 PO
  24   24 2182 1627 PO
  24   24 2570 1440 PO
  24   24 3435 1327 PO
  24   24 3004 1370 PO
  24   24 3306 1319 PO
  24   24 3119 1343 PO
  24   24 2554 1481 PO
  24   24 2232 1571 PO
  24   24 2450 1505 PO
  24   24 3493 1344 PO
  24   24 2262 1543 PO
  24   24 2204 1608 PO
  24   24 2195 1577 PO
  24   24 2253 1569 PO
  24   24 1226 2018 PO
  24   24 1265 1968 PO
  24   24 1263 2014 PO
  24   24 1165 2103 PO
  24   24 1078 2122 PO
  24   24 1165 2123 PO
  24   24 1084 2136 PO
  24   24 1214 2021 PO
  24   24 1259 1998 PO
  24   24 1183 2092 PO
  24   24 1210 2051 PO
  24   24 1268 2017 PO
  24   24 1154 2076 PO
  24   24 1181 2042 PO
  24   24 1194 2046 PO
  24   24 1074 2195 PO
  24   24 1510 1865 PO
  24   24 1304 1971 PO
  24   24 1454 1907 PO
  24   24 1490 1864 PO
  24   24 1350 1943 PO
  24   24 1347 1926 PO
  24   24 1452 1898 PO
  24   24 1437 1909 PO
  24   24 1448 1887 PO
  24   24 1232 2058 PO
  24   24 1521 1865 PO
  24   24 1516 1873 PO
  24   24 1233 2049 PO
  24   24 1478 1859 PO
  24   24 1290 1985 PO
  24   24 1343 1943 PO
  24   24 1253 2037 PO
  24   24 1285 1965 PO
  24   24 1492 1870 PO
  24   24 1353 1934 PO
  24   24 1220 2041 PO
  24   24 1251 1993 PO
  24   24 1266 1990 PO
  24   24 3818 1202 PO
  24   24 4106 1186 PO
  24   24 4554 1166 PO
  24   24 2951 1406 PO
  24   24 4000 1186 PO
  24   24 3477 1279 PO
  24   24 3844 1193 PO
  24   24 4743 1210 PO
  24   24 4467 1153 PO
  24   24 3617 1224 PO
  24   24 2931 1453 PO
  24   24 4559 1169 PO
  24   24 4071 1175 PO
  24   24 1575 1809 PO
  24   24 1351 1946 PO
  24   24 1515 1825 PO
  24   24 1604 1803 PO
  24   24 1554 1840 PO
  24   24 1401 1912 PO
  24   24 1398 1887 PO
  24   24 1513 1862 PO
  24   24 1496 1869 PO
  24   24 1508 1834 PO
  24   24 1621 1780 PO
  24   24 1273 2048 PO
  24   24 1588 1818 PO
  24   24 1583 1831 PO
  24   24 1273 2013 PO
  24   24 1540 1842 PO
  24   24 1336 1973 PO
  24   24 1615 1822 PO
  24   24 1394 1907 PO
  24   24 1296 2003 PO
  24   24 1330 1960 PO
  24   24 1556 1826 PO
  24   24 1405 1906 PO
  24   24 1259 2006 PO
  24   24 1293 1977 PO
  24   24 1310 1968 PO
  24   24 5162 1141 PO
  24   24 5080 1074 FO
  24   24 3330 1318 FO
  24   24 2782 1401 FO
  24   24 3608 1275 FO
  24   24 3310 1280 FO
  24   24 2785 1410 FO
  24   24 3471 1287 FO
  24   24 3725 1290 FO
  24   24 2703 1446 FO
  24   24 3631 1291 FO
  24   24 3168 1329 FO
  24   24 3493 1300 FO
  24   24 3293 1319 FO
  24   24 2685 1445 FO
  24   24 2574 1490 FO
  24   24 3694 1265 FO
  24   24 3222 1340 FO
  24   24 2697 1438 FO
  24   24 3488 1317 FO
  24   24 3203 1314 FO
  24   24 2700 1426 FO
  24   24 3357 1313 FO
  24   24 3600 1319 FO
  24   24 2621 1440 FO
  24   24 3511 1320 FO
  24   24 3067 1338 FO
  24   24 3378 1319 FO
  24   24 3186 1348 FO
  24   24 2604 1441 FO
  24   24 2274 1573 FO
  24   24 2498 1511 FO
  24   24 3571 1341 FO
  24   24 2304 1539 FO
  24   24 2295 1571 FO
  24   24 2855 1461 FO
  24   24 2409 1476 FO
  24   24 2839 1460 FO
  24   24 2412 1494 FO
  24   24 2006 1629 FO
  24   24 2345 1491 FO
  24   24 2724 1438 FO
  24   24 1912 1688 FO
  24   24 2825 1445 FO
  24   24 2330 1505 FO
  24   24 2049 1615 FO
  24   24 2240 1537 FO
  24   24 1973 1627 FO
  24   24 1909 1689 FO
  24   24 1883 1717 FO
  24   24 1901 1678 FO
  24   24 2076 1581 FO
  24   24 2025 1621 FO
  24   24 2017 1638 FO
  24   24 1951 1660 FO
  24   24 2067 1614 FO
  24   24 1975 1655 FO
  24   24 3091 1355 FO
  24   24 2595 1450 FO
  24   24 3344 1352 FO
  24   24 3073 1346 FO
  24   24 2598 1450 FO
  24   24 3219 1346 FO
  24   24 2145 1621 FO
  24   24 2523 1469 FO
  24   24 3365 1350 FO
  24   24 2945 1387 FO
  24   24 3239 1343 FO
  24   24 3058 1388 FO
  24   24 2507 1468 FO
  24   24 2194 1609 FO
  24   24 2406 1494 FO
  24   24 2109 1623 FO
  24   24 2223 1556 FO
  24   24 2166 1588 FO
  24   24 2157 1585 FO
  24   24 2214 1576 FO
  24   24 2111 1632 FO
  24   24 3154 1348 FO
  24   24 2644 1425 FO
  24   24 3413 1318 FO
  24   24 3136 1344 FO
  24   24 2647 1432 FO
  24   24 3285 1339 FO
  24   24 3522 1345 FO
  24   24 2182 1627 FO
  24   24 2570 1440 FO
  24   24 3435 1327 FO
  24   24 3004 1370 FO
  24   24 3306 1319 FO
  24   24 3119 1343 FO
  24   24 2554 1481 FO
  24   24 2232 1571 FO
  24   24 2450 1505 FO
  24   24 3493 1344 FO
  24   24 2262 1543 FO
  24   24 2204 1608 FO
  24   24 2195 1577 FO
  24   24 2253 1569 FO
  24   24 1226 2018 FO
  24   24 1265 1968 FO
  24   24 1263 2014 FO
  24   24 1165 2103 FO
  24   24 1078 2122 FO
  24   24 1165 2123 FO
  24   24 1084 2136 FO
  24   24 1214 2021 FO
  24   24 1259 1998 FO
  24   24 1183 2092 FO
  24   24 1210 2051 FO
  24   24 1268 2017 FO
  24   24 1154 2076 FO
  24   24 1181 2042 FO
  24   24 1194 2046 FO
  24   24 1074 2195 FO
  24   24 1510 1865 FO
  24   24 1304 1971 FO
  24   24 1454 1907 FO
  24   24 1490 1864 FO
  24   24 1350 1943 FO
  24   24 1347 1926 FO
  24   24 1452 1898 FO
  24   24 1437 1909 FO
  24   24 1448 1887 FO
  24   24 1232 2058 FO
  24   24 1521 1865 FO
  24   24 1516 1873 FO
  24   24 1233 2049 FO
  24   24 1478 1859 FO
  24   24 1290 1985 FO
  24   24 1343 1943 FO
  24   24 1253 2037 FO
  24   24 1285 1965 FO
  24   24 1492 1870 FO
  24   24 1353 1934 FO
  24   24 1220 2041 FO
  24   24 1251 1993 FO
  24   24 1266 1990 FO
  24   24 3818 1202 FO
  24   24 4106 1186 FO
  24   24 4554 1166 FO
  24   24 2951 1406 FO
  24   24 4000 1186 FO
  24   24 3477 1279 FO
  24   24 3844 1193 FO
  24   24 4743 1210 FO
  24   24 4467 1153 FO
  24   24 3617 1224 FO
  24   24 2931 1453 FO
  24   24 4559 1169 FO
  24   24 4071 1175 FO
  24   24 1575 1809 FO
  24   24 1351 1946 FO
  24   24 1515 1825 FO
  24   24 1604 1803 FO
  24   24 1554 1840 FO
  24   24 1401 1912 FO
  24   24 1398 1887 FO
  24   24 1513 1862 FO
  24   24 1496 1869 FO
  24   24 1508 1834 FO
  24   24 1621 1780 FO
  24   24 1273 2048 FO
  24   24 1588 1818 FO
  24   24 1583 1831 FO
  24   24 1273 2013 FO
  24   24 1540 1842 FO
  24   24 1336 1973 FO
  24   24 1615 1822 FO
  24   24 1394 1907 FO
  24   24 1296 2003 FO
  24   24 1330 1960 FO
  24   24 1556 1826 FO
  24   24 1405 1906 FO
  24   24 1259 2006 FO
  24   24 1293 1977 FO
  24   24 1310 1968 FO
  24   24 5162 1141 FO
gs 787 259 4691 2821 rc
gr

  24   24 5424 1086 PO
  24   24 5424 1086 FO
gs 787 259 4691 2821 rc
gr

  24   24 5198 1158 PO
  24   24 5198 1158 FO
gs 787 259 4691 2821 rc
gr

  24   24 3165 1357 PO
  24   24 2115 1608 PO
  24   24 2485 1463 PO
  24   24 2898 1416 PO
  24   24 3185 1379 PO
  24   24 3008 1379 PO
  24   24 2469 1478 PO
  24   24 2163 1595 PO
  24   24 2371 1517 PO
  24   24 2080 1623 PO
  24   24 2191 1568 PO
  24   24 2136 1644 PO
  24   24 2127 1614 PO
  24   24 2056 1653 PO
  24   24 2182 1595 PO
  24   24 2082 1624 PO
  24   24 4150 1153 PO
  24   24 4469 1094 PO
  24   24 4967 1065 PO
  24   24 4352 1101 PO
  24   24 5439 1105 PO
  24   24 3772 1223 PO
  24   24 4178 1129 PO
  24   24 5176 1085 PO
  24   24 4870 1066 PO
  24   24 3927 1175 PO
  24   24 5453 1113 PO
  24   24 4972 1061 PO
  24   24 4431 1139 PO
  24   24 3795 1196 PO
  24   24 4080 1177 PO
  24   24 4525 1153 PO
  24   24 2934 1420 PO
  24   24 3975 1194 PO
  24   24 3456 1246 PO
  24   24 3820 1195 PO
  24   24 4713 1194 PO
  24   24 4438 1169 PO
  24   24 3595 1226 PO
  24   24 2914 1407 PO
  24   24 4530 1161 PO
  24   24 2790 1441 PO
  24   24 4046 1179 PO
  24   24 3169 1363 PO
  24   24 2117 1587 PO
  24   24 2488 1461 PO
  24   24 2901 1387 PO
  24   24 3189 1381 PO
  24   24 3011 1378 PO
  24   24 2472 1486 PO
  24   24 2165 1568 PO
  24   24 2373 1493 PO
  24   24 2082 1621 PO
  24   24 2194 1574 PO
  24   24 2138 1621 PO
  24   24 2129 1603 PO
  24   24 2058 1661 PO
  24   24 2185 1595 PO
  24   24 2084 1621 PO
  24   24 5045 1154 PO
  24   24 5449 1078 PO
  24   24 3165 1357 FO
  24   24 2115 1608 FO
  24   24 2485 1463 FO
  24   24 2898 1416 FO
  24   24 3185 1379 FO
  24   24 3008 1379 FO
  24   24 2469 1478 FO
  24   24 2163 1595 FO
  24   24 2371 1517 FO
  24   24 2080 1623 FO
  24   24 2191 1568 FO
  24   24 2136 1644 FO
  24   24 2127 1614 FO
  24   24 2056 1653 FO
  24   24 2182 1595 FO
  24   24 2082 1624 FO
  24   24 4150 1153 FO
  24   24 4469 1094 FO
  24   24 4967 1065 FO
  24   24 4352 1101 FO
  24   24 5439 1105 FO
  24   24 3772 1223 FO
  24   24 4178 1129 FO
  24   24 5176 1085 FO
  24   24 4870 1066 FO
  24   24 3927 1175 FO
  24   24 5453 1113 FO
  24   24 4972 1061 FO
  24   24 4431 1139 FO
  24   24 3795 1196 FO
  24   24 4080 1177 FO
  24   24 4525 1153 FO
  24   24 2934 1420 FO
  24   24 3975 1194 FO
  24   24 3456 1246 FO
  24   24 3820 1195 FO
  24   24 4713 1194 FO
  24   24 4438 1169 FO
  24   24 3595 1226 FO
  24   24 2914 1407 FO
  24   24 4530 1161 FO
  24   24 2790 1441 FO
  24   24 4046 1179 FO
  24   24 3169 1363 FO
  24   24 2117 1587 FO
  24   24 2488 1461 FO
  24   24 2901 1387 FO
  24   24 3189 1381 FO
  24   24 3011 1378 FO
  24   24 2472 1486 FO
  24   24 2165 1568 FO
  24   24 2373 1493 FO
  24   24 2082 1621 FO
  24   24 2194 1574 FO
  24   24 2138 1621 FO
  24   24 2129 1603 FO
  24   24 2058 1661 FO
  24   24 2185 1595 FO
  24   24 2084 1621 FO
  24   24 5045 1154 FO
  24   24 5449 1078 FO
gs 787 259 4691 2821 rc
gr

  24   24 5300 1099 PO
  24   24 5300 1099 FO
gs 787 259 4691 2821 rc
gr

  24   24 5080 1131 PO
  24   24 5080 1131 FO
gs 787 259 4691 2821 rc
gr

  24   24 5400 1050 PO
  24   24 4962 1109 PO
  24   24 4671 1114 PO
  24   24 3774 1228 PO
  24   24 3050 1409 PO
  24   24 5225 1178 PO
  24   24 4768 1129 PO
  24   24 4253 1130 PO
  24   24 5359 1060 PO
  24   24 5039 1060 PO
  24   24 4058 1190 PO
  24   24 5400 1050 FO
  24   24 4962 1109 FO
  24   24 4671 1114 FO
  24   24 3774 1228 FO
  24   24 3050 1409 FO
  24   24 5225 1178 FO
  24   24 4768 1129 FO
  24   24 4253 1130 FO
  24   24 5359 1060 FO
  24   24 5039 1060 FO
  24   24 4058 1190 FO
gs 787 259 4691 2821 rc
gr

  24   24 5146 1049 PO
  24   24 4582 1095 PO
  24   24 1708 1752 PO
  24   24 2050 1654 PO
  24   24 1821 1709 PO
  24   24 1977 1623 PO
  24   24 1758 1695 PO
  24   24 1564 1789 PO
  24   24 1561 1842 PO
  24   24 1706 1762 PO
  24   24 1684 1757 PO
  24   24 1699 1757 PO
  24   24 1842 1671 PO
  24   24 1800 1725 PO
  24   24 1794 1707 PO
  24   24 1740 1708 PO
  24   24 1835 1670 PO
  24   24 1555 1810 PO
  24   24 1760 1726 PO
  24   24 1568 1839 PO
  24   24 1446 1884 PO
  24   24 1482 1849 PO
  24   24 1343 1957 PO
  24   24 1341 1923 PO
  24   24 1444 1924 PO
  24   24 1429 1947 PO
  24   24 1440 1904 PO
  24   24 1227 2025 PO
  24   24 1507 1881 PO
  24   24 1227 2057 PO
  24   24 1469 1893 PO
  24   24 1284 1992 PO
  24   24 1336 1948 PO
  24   24 1247 2037 PO
  24   24 1279 2002 PO
  24   24 1483 1877 PO
  24   24 1346 1992 PO
  24   24 1214 2022 PO
  24   24 1246 2039 PO
  24   24 1260 2027 PO
  24   24 5146 1049 FO
  24   24 4582 1095 FO
  24   24 1708 1752 FO
  24   24 2050 1654 FO
  24   24 1821 1709 FO
  24   24 1977 1623 FO
  24   24 1758 1695 FO
  24   24 1564 1789 FO
  24   24 1561 1842 FO
  24   24 1706 1762 FO
  24   24 1684 1757 FO
  24   24 1699 1757 FO
  24   24 1842 1671 FO
  24   24 1800 1725 FO
  24   24 1794 1707 FO
  24   24 1740 1708 FO
  24   24 1835 1670 FO
  24   24 1555 1810 FO
  24   24 1760 1726 FO
  24   24 1568 1839 FO
  24   24 1446 1884 FO
  24   24 1482 1849 FO
  24   24 1343 1957 FO
  24   24 1341 1923 FO
  24   24 1444 1924 FO
  24   24 1429 1947 FO
  24   24 1440 1904 FO
  24   24 1227 2025 FO
  24   24 1507 1881 FO
  24   24 1227 2057 FO
  24   24 1469 1893 FO
  24   24 1284 1992 FO
  24   24 1336 1948 FO
  24   24 1247 2037 FO
  24   24 1279 2002 FO
  24   24 1483 1877 FO
  24   24 1346 1992 FO
  24   24 1214 2022 FO
  24   24 1246 2039 FO
  24   24 1260 2027 FO
gs 787 259 4691 2821 rc
gr

  24   24 4499 1206 PO
  24   24 4499 1206 FO
gs 787 259 4691 2821 rc
gr

  24   24 5095 1062 PO
  24   24 1964 1684 PO
  24   24 2920 1439 PO
  24   24 2402 1504 PO
  24   24 2108 1591 PO
  24   24 2308 1511 PO
  24   24 2028 1635 PO
  24   24 1961 1700 PO
  24   24 1953 1661 PO
  24   24 2136 1579 PO
  24   24 2083 1632 PO
  24   24 2074 1619 PO
  24   24 2006 1629 PO
  24   24 2127 1624 PO
  24   24 2031 1630 PO
  24   24 5213 1092 PO
  24   24 4903 1072 PO
  24   24 3953 1200 PO
  24   24 5095 1062 FO
  24   24 1964 1684 FO
  24   24 2920 1439 FO
  24   24 2402 1504 FO
  24   24 2108 1591 FO
  24   24 2308 1511 FO
  24   24 2028 1635 FO
  24   24 1961 1700 FO
  24   24 1953 1661 FO
  24   24 2136 1579 FO
  24   24 2083 1632 FO
  24   24 2074 1619 FO
  24   24 2006 1629 FO
  24   24 2127 1624 FO
  24   24 2031 1630 FO
  24   24 5213 1092 FO
  24   24 4903 1072 FO
  24   24 3953 1200 FO
gs 787 259 4691 2821 rc
gr

  24   24 5006 1077 PO
  24   24 4461 1096 PO
  24   24 5006 1077 FO
  24   24 4461 1096 FO
gs 787 259 4691 2821 rc
gr

  24   24 4233 1246 PO
  24   24 3438 1314 PO
  24   24 2795 1429 PO
  24   24 4320 1240 PO
  24   24 2678 1466 PO
  24   24 3863 1250 PO
  24   24 4997 1114 PO
  24   24 4703 1105 PO
  24   24 3799 1207 PO
  24   24 5262 1162 PO
  24   24 4801 1098 PO
  24   24 4282 1132 PO
  24   24 1683 1755 PO
  24   24 1504 1861 PO
  24   24 1501 1853 PO
  24   24 1635 1785 PO
  24   24 1615 1800 PO
  24   24 1629 1793 PO
  24   24 1761 1701 PO
  24   24 1722 1750 PO
  24   24 1716 1745 PO
  24   24 1667 1730 PO
  24   24 1428 1913 PO
  24   24 1755 1755 PO
  24   24 1496 1868 PO
  24   24 1421 1897 PO
  24   24 1685 1745 PO
  24   24 1508 1849 PO
  24   24 1398 1935 PO
  24   24 2017 1627 PO
  24   24 1950 1709 PO
  24   24 1923 1706 PO
  24   24 1942 1687 PO
  24   24 2123 1589 PO
  24   24 2070 1617 PO
  24   24 2062 1633 PO
  24   24 1994 1678 PO
  24   24 2114 1611 PO
  24   24 2019 1634 PO
  24   24 1793 1700 PO
  24   24 1592 1807 PO
  24   24 1589 1818 PO
  24   24 1739 1714 PO
  24   24 1716 1762 PO
  24   24 1732 1742 PO
  24   24 1880 1643 PO
  24   24 1837 1662 PO
  24   24 1830 1721 PO
  24   24 1775 1687 PO
  24   24 1873 1639 PO
  24   24 1583 1811 PO
  24   24 1795 1688 PO
  24   24 1597 1831 PO
  24   24 1945 1646 PO
  24   24 1882 1699 PO
  24   24 1857 1729 PO
  24   24 1875 1693 PO
  24   24 2045 1589 PO
  24   24 1995 1659 PO
  24   24 1987 1614 PO
  24   24 1924 1682 PO
  24   24 2037 1628 PO
  24   24 1947 1640 PO
  24   24 1660 1733 PO
  24   24 1675 1735 PO
  24   24 1814 1690 PO
  24   24 1773 1704 PO
  24   24 1767 1701 PO
  24   24 1715 1729 PO
  24   24 1463 1898 PO
  24   24 1807 1713 PO
  24   24 1534 1822 PO
  24   24 1456 1906 PO
  24   24 1734 1724 PO
  24   24 1548 1821 PO
  24   24  820 2645 PO
  24   24  823 2649 PO
  24   24  988 2249 PO
  24   24  963 2274 PO
  24   24  971 2306 PO
  24   24  993 2278 PO
  24   24  924 2408 PO
  24   24 1041 2247 PO
  24   24  929 2389 PO
  24   24  986 2311 PO
  24   24  873 2439 PO
  24   24  913 2394 PO
  24   24  877 2472 PO
  24   24  868 2478 PO
  24   24  885 2464 PO
  24   24  889 2504 PO
  24   24 1486 1885 PO
  24   24 1497 1825 PO
  24   24 1609 1805 PO
  24   24 1266 2009 PO
  24   24 1576 1826 PO
  24   24 1571 1793 PO
  24   24 1266 2010 PO
  24   24 1530 1843 PO
  24   24 1328 1951 PO
  24   24 1604 1817 PO
  24   24 1385 1931 PO
  24   24 1288 1970 PO
  24   24 1322 1947 PO
  24   24 1545 1828 PO
  24   24 1396 1872 PO
  24   24 1252 2036 PO
  24   24 1286 1981 PO
  24   24 1303 1960 PO
  24   24  868 2504 PO
  24   24  872 2488 PO
  24   24  846 2564 PO
  24   24  863 2546 PO
  24   24  879 2452 PO
  24   24  883 2382 PO
  24   24 1483 1851 PO
  24   24 1494 1875 PO
  24   24 1605 1792 PO
  24   24 1264 2042 PO
  24   24 1573 1870 PO
  24   24 1568 1837 PO
  24   24 1264 1999 PO
  24   24 1526 1843 PO
  24   24 1326 1967 PO
  24   24 1600 1833 PO
  24   24 1382 1900 PO
  24   24 1286 2010 PO
  24   24 1320 1963 PO
  24   24 1541 1842 PO
  24   24 1393 1924 PO
  24   24 1250 2042 PO
  24   24 1284 1969 PO
  24   24 1300 1930 PO
  24   24 1613 1800 PO
  24   24 1627 1777 PO
  24   24 1759 1736 PO
  24   24 1720 1770 PO
  24   24 1714 1743 PO
  24   24 1665 1779 PO
  24   24 1427 1918 PO
  24   24 1752 1717 PO
  24   24 1494 1864 PO
  24   24 1420 1936 PO
  24   24 1683 1758 PO
  24   24 1507 1852 PO
  24   24 1396 1900 PO
  24   24  974 2316 PO
  24   24  899 2447 PO
  24   24  951 2339 PO
  24   24  904 2440 PO
  24   24  958 2326 PO
  24   24  979 2294 PO
  24   24  915 2392 PO
  24   24  920 2375 PO
  24   24  972 2308 PO
  24   24  969 2299 PO
  24   24  896 2451 PO
  24   24  946 2333 PO
  24   24  901 2412 PO
  24   24  954 2331 PO
  24   24  973 2275 PO
  24   24  911 2442 PO
  24   24  916 2365 PO
  24   24  967 2298 PO
  24   24 1644 1787 PO
  24   24 1412 1931 PO
  24   24 1729 1722 PO
  24   24 1477 1839 PO
  24   24 1366 1988 PO
  24   24 1405 1905 PO
  24   24 1662 1736 PO
  24   24 1490 1878 PO
  24   24 1363 1953 PO
  24   24 1382 1926 PO
  24   24 1658 1759 PO
  24   24 1422 1936 PO
  24   24 1745 1745 PO
  24   24 1489 1875 PO
  24   24 1415 1920 PO
  24   24 1676 1731 PO
  24   24 1501 1828 PO
  24   24 1392 1914 PO
  24   24 1795 1681 PO
  24   24 1895 1675 PO
  24   24 1599 1803 PO
  24   24 1816 1704 PO
  24   24 1613 1812 PO
  24   24 1166 2097 PO
  24   24 1085 2161 PO
  24   24 1215 2072 PO
  24   24 1260 2027 PO
  24   24 1183 2069 PO
  24   24 1210 2087 PO
  24   24 1268 2017 PO
  24   24 1155 2096 PO
  24   24 1182 2055 PO
  24   24 1195 2050 PO
  24   24 1075 2169 PO
  24   24  992 2231 PO
  24   24 1078 2114 PO
  24   24 1016 2235 PO
  24   24 1092 2169 PO
  24   24 1070 2146 PO
  24   24 1091 2159 PO
  24   24  945 2346 PO
  24   24 1101 2112 PO
  24   24 1008 2214 PO
  24   24 1755 1766 PO
  24   24 1852 1709 PO
  24   24 1567 1830 PO
  24   24 1775 1722 PO
  24   24 1581 1827 PO
  24   24 1749 1715 PO
  24   24 1845 1672 PO
  24   24 1562 1825 PO
  24   24 1769 1713 PO
  24   24 1576 1815 PO
  24   24  845 2634 PO
  24   24  862 2457 PO
  24   24  878 2438 PO
  24   24  882 2466 PO
  24   24  966 2310 PO
  24   24  987 2264 PO
  24   24  920 2380 PO
  24   24  925 2406 PO
  24   24  980 2278 PO
  24   24  866 2537 PO
  24   24  882 2453 PO
  24   24  886 2433 PO
  24   24  926 2394 PO
  24   24 1046 2220 PO
  24   24  932 2377 PO
  24   24  990 2253 PO
  24   24 1211 2027 PO
  24   24 1269 2022 PO
  24   24 1155 2049 PO
  24   24 1182 2067 PO
  24   24 1195 2039 PO
  24   24 1075 2173 PO
  24   24 1076 2144 PO
  24   24 1097 2162 PO
  24   24 1108 2150 PO
  24   24 1013 2252 PO
  24   24  837 2548 PO
  24   24 1444 1906 PO
  24   24 1717 1735 PO
  24   24 1534 1872 PO
  24   24 1265 2052 PO
  24   24 1464 1879 PO
  24   24 1331 1964 PO
  24   24 1203 2058 PO
  24   24 1233 2055 PO
  24   24 1248 2002 PO
  24   24 1809 1707 PO
  24   24 1608 1837 PO
  24   24 1316 1951 PO
  24   24 1536 1835 PO
  24   24 1388 1920 PO
  24   24 1247 1977 PO
  24   24 1280 1956 PO
  24   24 1296 1948 PO
  24   24  842 2634 PO
  24   24 1230 2055 PO
  24   24 1291 1981 PO
  24   24 1172 2101 PO
  24   24 1200 2029 PO
  24   24 1214 2055 PO
  24   24 1088 2208 PO
  24   24 4233 1246 FO
  24   24 3438 1314 FO
  24   24 2795 1429 FO
  24   24 4320 1240 FO
  24   24 2678 1466 FO
  24   24 3863 1250 FO
  24   24 4997 1114 FO
  24   24 4703 1105 FO
  24   24 3799 1207 FO
  24   24 5262 1162 FO
  24   24 4801 1098 FO
  24   24 4282 1132 FO
  24   24 1683 1755 FO
  24   24 1504 1861 FO
  24   24 1501 1853 FO
  24   24 1635 1785 FO
  24   24 1615 1800 FO
  24   24 1629 1793 FO
  24   24 1761 1701 FO
  24   24 1722 1750 FO
  24   24 1716 1745 FO
  24   24 1667 1730 FO
  24   24 1428 1913 FO
  24   24 1755 1755 FO
  24   24 1496 1868 FO
  24   24 1421 1897 FO
  24   24 1685 1745 FO
  24   24 1508 1849 FO
  24   24 1398 1935 FO
  24   24 2017 1627 FO
  24   24 1950 1709 FO
  24   24 1923 1706 FO
  24   24 1942 1687 FO
  24   24 2123 1589 FO
  24   24 2070 1617 FO
  24   24 2062 1633 FO
  24   24 1994 1678 FO
  24   24 2114 1611 FO
  24   24 2019 1634 FO
  24   24 1793 1700 FO
  24   24 1592 1807 FO
  24   24 1589 1818 FO
  24   24 1739 1714 FO
  24   24 1716 1762 FO
  24   24 1732 1742 FO
  24   24 1880 1643 FO
  24   24 1837 1662 FO
  24   24 1830 1721 FO
  24   24 1775 1687 FO
  24   24 1873 1639 FO
  24   24 1583 1811 FO
  24   24 1795 1688 FO
  24   24 1597 1831 FO
  24   24 1945 1646 FO
  24   24 1882 1699 FO
  24   24 1857 1729 FO
  24   24 1875 1693 FO
  24   24 2045 1589 FO
  24   24 1995 1659 FO
  24   24 1987 1614 FO
  24   24 1924 1682 FO
  24   24 2037 1628 FO
  24   24 1947 1640 FO
  24   24 1660 1733 FO
  24   24 1675 1735 FO
  24   24 1814 1690 FO
  24   24 1773 1704 FO
  24   24 1767 1701 FO
  24   24 1715 1729 FO
  24   24 1463 1898 FO
  24   24 1807 1713 FO
  24   24 1534 1822 FO
  24   24 1456 1906 FO
  24   24 1734 1724 FO
  24   24 1548 1821 FO
  24   24  820 2645 FO
  24   24  823 2649 FO
  24   24  988 2249 FO
  24   24  963 2274 FO
  24   24  971 2306 FO
  24   24  993 2278 FO
  24   24  924 2408 FO
  24   24 1041 2247 FO
  24   24  929 2389 FO
  24   24  986 2311 FO
  24   24  873 2439 FO
  24   24  913 2394 FO
  24   24  877 2472 FO
  24   24  868 2478 FO
  24   24  885 2464 FO
  24   24  889 2504 FO
  24   24 1486 1885 FO
  24   24 1497 1825 FO
  24   24 1609 1805 FO
  24   24 1266 2009 FO
  24   24 1576 1826 FO
  24   24 1571 1793 FO
  24   24 1266 2010 FO
  24   24 1530 1843 FO
  24   24 1328 1951 FO
  24   24 1604 1817 FO
  24   24 1385 1931 FO
  24   24 1288 1970 FO
  24   24 1322 1947 FO
  24   24 1545 1828 FO
  24   24 1396 1872 FO
  24   24 1252 2036 FO
  24   24 1286 1981 FO
  24   24 1303 1960 FO
  24   24  868 2504 FO
  24   24  872 2488 FO
  24   24  846 2564 FO
  24   24  863 2546 FO
  24   24  879 2452 FO
  24   24  883 2382 FO
  24   24 1483 1851 FO
  24   24 1494 1875 FO
  24   24 1605 1792 FO
  24   24 1264 2042 FO
  24   24 1573 1870 FO
  24   24 1568 1837 FO
  24   24 1264 1999 FO
  24   24 1526 1843 FO
  24   24 1326 1967 FO
  24   24 1600 1833 FO
  24   24 1382 1900 FO
  24   24 1286 2010 FO
  24   24 1320 1963 FO
  24   24 1541 1842 FO
  24   24 1393 1924 FO
  24   24 1250 2042 FO
  24   24 1284 1969 FO
  24   24 1300 1930 FO
  24   24 1613 1800 FO
  24   24 1627 1777 FO
  24   24 1759 1736 FO
  24   24 1720 1770 FO
  24   24 1714 1743 FO
  24   24 1665 1779 FO
  24   24 1427 1918 FO
  24   24 1752 1717 FO
  24   24 1494 1864 FO
  24   24 1420 1936 FO
  24   24 1683 1758 FO
  24   24 1507 1852 FO
  24   24 1396 1900 FO
  24   24  974 2316 FO
  24   24  899 2447 FO
  24   24  951 2339 FO
  24   24  904 2440 FO
  24   24  958 2326 FO
  24   24  979 2294 FO
  24   24  915 2392 FO
  24   24  920 2375 FO
  24   24  972 2308 FO
  24   24  969 2299 FO
  24   24  896 2451 FO
  24   24  946 2333 FO
  24   24  901 2412 FO
  24   24  954 2331 FO
  24   24  973 2275 FO
  24   24  911 2442 FO
  24   24  916 2365 FO
  24   24  967 2298 FO
  24   24 1644 1787 FO
  24   24 1412 1931 FO
  24   24 1729 1722 FO
  24   24 1477 1839 FO
  24   24 1366 1988 FO
  24   24 1405 1905 FO
  24   24 1662 1736 FO
  24   24 1490 1878 FO
  24   24 1363 1953 FO
  24   24 1382 1926 FO
  24   24 1658 1759 FO
  24   24 1422 1936 FO
  24   24 1745 1745 FO
  24   24 1489 1875 FO
  24   24 1415 1920 FO
  24   24 1676 1731 FO
  24   24 1501 1828 FO
  24   24 1392 1914 FO
  24   24 1795 1681 FO
  24   24 1895 1675 FO
  24   24 1599 1803 FO
  24   24 1816 1704 FO
  24   24 1613 1812 FO
  24   24 1166 2097 FO
  24   24 1085 2161 FO
  24   24 1215 2072 FO
  24   24 1260 2027 FO
  24   24 1183 2069 FO
  24   24 1210 2087 FO
  24   24 1268 2017 FO
  24   24 1155 2096 FO
  24   24 1182 2055 FO
  24   24 1195 2050 FO
  24   24 1075 2169 FO
  24   24  992 2231 FO
  24   24 1078 2114 FO
  24   24 1016 2235 FO
  24   24 1092 2169 FO
  24   24 1070 2146 FO
  24   24 1091 2159 FO
  24   24  945 2346 FO
  24   24 1101 2112 FO
  24   24 1008 2214 FO
  24   24 1755 1766 FO
  24   24 1852 1709 FO
  24   24 1567 1830 FO
  24   24 1775 1722 FO
  24   24 1581 1827 FO
  24   24 1749 1715 FO
  24   24 1845 1672 FO
  24   24 1562 1825 FO
  24   24 1769 1713 FO
  24   24 1576 1815 FO
  24   24  845 2634 FO
  24   24  862 2457 FO
  24   24  878 2438 FO
  24   24  882 2466 FO
  24   24  966 2310 FO
  24   24  987 2264 FO
  24   24  920 2380 FO
  24   24  925 2406 FO
  24   24  980 2278 FO
  24   24  866 2537 FO
  24   24  882 2453 FO
  24   24  886 2433 FO
  24   24  926 2394 FO
  24   24 1046 2220 FO
  24   24  932 2377 FO
  24   24  990 2253 FO
  24   24 1211 2027 FO
  24   24 1269 2022 FO
  24   24 1155 2049 FO
  24   24 1182 2067 FO
  24   24 1195 2039 FO
  24   24 1075 2173 FO
  24   24 1076 2144 FO
  24   24 1097 2162 FO
  24   24 1108 2150 FO
  24   24 1013 2252 FO
  24   24  837 2548 FO
  24   24 1444 1906 FO
  24   24 1717 1735 FO
  24   24 1534 1872 FO
  24   24 1265 2052 FO
  24   24 1464 1879 FO
  24   24 1331 1964 FO
  24   24 1203 2058 FO
  24   24 1233 2055 FO
  24   24 1248 2002 FO
  24   24 1809 1707 FO
  24   24 1608 1837 FO
  24   24 1316 1951 FO
  24   24 1536 1835 FO
  24   24 1388 1920 FO
  24   24 1247 1977 FO
  24   24 1280 1956 FO
  24   24 1296 1948 FO
  24   24  842 2634 FO
  24   24 1230 2055 FO
  24   24 1291 1981 FO
  24   24 1172 2101 FO
  24   24 1200 2029 FO
  24   24 1214 2055 FO
  24   24 1088 2208 FO
gs 787 259 4691 2821 rc
24 w
0 sg
0 270 943 2216 2 MP stroke
150 0 868 2216 2 MP stroke
150 0 868 2486 2 MP stroke
0 113 1256 1935 2 MP stroke
151 0 1180 1935 2 MP stroke
151 0 1180 2048 2 MP stroke
0 108 1568 1775 2 MP stroke
150 0 1493 1775 2 MP stroke
150 0 1493 1883 2 MP stroke
0 70 1881 1649 2 MP stroke
150 0 1806 1649 2 MP stroke
150 0 1806 1719 2 MP stroke
0 74 2194 1552 2 MP stroke
151 0 2118 1552 2 MP stroke
151 0 2118 1626 2 MP stroke
0 58 2506 1452 2 MP stroke
150 0 2431 1452 2 MP stroke
150 0 2431 1510 2 MP stroke
0 52 2819 1407 2 MP stroke
150 0 2744 1407 2 MP stroke
150 0 2744 1459 2 MP stroke
0 45 3132 1336 2 MP stroke
151 0 3056 1336 2 MP stroke
151 0 3056 1381 2 MP stroke
0 68 3444 1270 2 MP stroke
150 0 3369 1270 2 MP stroke
150 0 3369 1338 2 MP stroke
0 75 3757 1195 2 MP stroke
150 0 3682 1195 2 MP stroke
150 0 3682 1270 2 MP stroke
0 55 4070 1153 2 MP stroke
151 0 3994 1153 2 MP stroke
151 0 3994 1208 2 MP stroke
0 83 4382 1117 2 MP stroke
150 0 4307 1117 2 MP stroke
150 0 4307 1200 2 MP stroke
0 99 4695 1079 2 MP stroke
150 0 4620 1079 2 MP stroke
150 0 4620 1178 2 MP stroke
0 79 5008 1053 2 MP stroke
151 0 4932 1053 2 MP stroke
151 0 4932 1132 2 MP stroke
0 87 5320 1050 2 MP stroke
150 0 5245 1050 2 MP stroke
150 0 5245 1137 2 MP stroke
158 -26 312 1 313 -37 313 -30 312 -21 313 -52 313 -72 312 -55 
313 -74 313 -48 312 -108 313 -95 313 -145 312 -162 313 -360 943 2351 16 MP stroke
gr

24 w
0 sg
0 j
0 -58 -58 0 0 58 58 0 914 2322 5 MP
DP
0 -58 -58 0 0 58 58 0 1227 1962 5 MP
DP
0 -58 -58 0 0 58 58 0 1539 1800 5 MP
DP
0 -58 -58 0 0 58 58 0 1852 1655 5 MP
DP
0 -58 -58 0 0 58 58 0 2165 1560 5 MP
DP
0 -58 -58 0 0 58 58 0 2477 1452 5 MP
DP
0 -58 -58 0 0 58 58 0 2790 1404 5 MP
DP
0 -58 -58 0 0 58 58 0 3103 1330 5 MP
DP
0 -58 -58 0 0 58 58 0 3415 1275 5 MP
DP
0 -58 -58 0 0 58 58 0 3728 1203 5 MP
DP
0 -58 -58 0 0 58 58 0 4041 1151 5 MP
DP
0 -58 -58 0 0 58 58 0 4353 1130 5 MP
DP
0 -58 -58 0 0 58 58 0 4666 1100 5 MP
DP
0 -58 -58 0 0 58 58 0 4979 1063 5 MP
DP
0 -58 -58 0 0 58 58 0 5291 1064 5 MP
DP
gs 787 259 4691 2821 rc
DA
/c8 { 1.000000 0.000000 0.000000 sr} bdef
c8
4690 0 787 259 2 MP stroke
gr

c8
DA
0 sg
1412  534 mt 
(N) s
%%IncludeResource: font Helvetica
/Helvetica /ISOLatin1Encoding 96 FMSR

1498  594 mt 
(cells) s
%%IncludeResource: font Helvetica
/Helvetica /ISOLatin1Encoding 120 FMSR

1690  534 mt 
(=10) s
1412  816 mt 
(N) s
%%IncludeResource: font Helvetica
/Helvetica /ISOLatin1Encoding 96 FMSR

1498  876 mt 
(pairs) s
%%IncludeResource: font Helvetica
/Helvetica /ISOLatin1Encoding 120 FMSR

1706  816 mt 
(=1203) s
2200 3414 mt 
(Geometric mean output rate \(AP/s\)) s
 449 2191 mt  -90 rotate
(Output correlation ) s
90 rotate
%%IncludeResource: font Symbol
/Symbol /ISOLatin1Encoding 120 FMSR

 449 1204 mt  -90 rotate
(r) s
90 rotate
SO
6 w

end %%Color Dict

eplot
%%EndObject

epage
end

showpage

%%Trailer
%%EOF
