%!PS-Adobe-3.0 EPSF-3.0
%%Creator: MATLAB, The MathWorks, Inc. Version 8.0.0.783 (R2012b). Operating System: Darwin 10.8.0 Darwin Kernel Version 10.8.0: Tue Jun  7 16:33:36 PDT 2011; root:xnu-1504.15.3~1/RELEASE_I386 i386.
%%Title: ./c_vs_rate.eps
%%CreationDate: 11/02/2013  13:41:10
%%DocumentNeededFonts: Helvetica
%%DocumentProcessColors: Cyan Magenta Yellow Black
%%LanguageLevel: 2
%%Pages: 1
%%BoundingBox:    31     3   466   364
%%EndComments

%%BeginProlog
% MathWorks dictionary
/MathWorks 160 dict begin
% definition operators
/bdef {bind def} bind def
/ldef {load def} bind def
/xdef {exch def} bdef
/xstore {exch store} bdef
% operator abbreviations
/c  /clip ldef
/cc /concat ldef
/cp /closepath ldef
/gr /grestore ldef
/gs /gsave ldef
/mt /moveto ldef
/np /newpath ldef
/cm /currentmatrix ldef
/sm /setmatrix ldef
/rm /rmoveto ldef
/rl /rlineto ldef
/s {show newpath} bdef
/sc {setcmykcolor} bdef
/sr /setrgbcolor ldef
/sg /setgray ldef
/w /setlinewidth ldef
/j /setlinejoin ldef
/cap /setlinecap ldef
/rc {rectclip} bdef
/rf {rectfill} bdef
% page state control
/pgsv () def
/bpage {/pgsv save def} bdef
/epage {pgsv restore} bdef
/bplot /gsave ldef
/eplot {stroke grestore} bdef
% orientation switch
/portraitMode 0 def /landscapeMode 1 def /rotateMode 2 def
% coordinate system mappings
/dpi2point 0 def
% font control
/FontSize 0 def
/FMS {/FontSize xstore findfont [FontSize 0 0 FontSize neg 0 0]
  makefont setfont} bdef
/reencode {exch dup where {pop load} {pop StandardEncoding} ifelse
  exch dup 3 1 roll findfont dup length dict begin
  { 1 index /FID ne {def}{pop pop} ifelse } forall
  /Encoding exch def currentdict end definefont pop} bdef
/isroman {findfont /CharStrings get /Agrave known} bdef
/FMSR {3 1 roll 1 index dup isroman {reencode} {pop pop} ifelse
  exch FMS} bdef
/csm {1 dpi2point div -1 dpi2point div scale neg translate
 dup landscapeMode eq {pop -90 rotate}
  {rotateMode eq {90 rotate} if} ifelse} bdef
% line types: solid, dotted, dashed, dotdash
/SO { [] 0 setdash } bdef
/DO { [.5 dpi2point mul 4 dpi2point mul] 0 setdash } bdef
/DA { [6 dpi2point mul] 0 setdash } bdef
/DD { [.5 dpi2point mul 4 dpi2point mul 6 dpi2point mul 4
  dpi2point mul] 0 setdash } bdef
% macros for lines and objects
/L {lineto stroke} bdef
/MP {3 1 roll moveto 1 sub {rlineto} repeat} bdef
/AP {{rlineto} repeat} bdef
/PDlw -1 def
/W {/PDlw currentlinewidth def setlinewidth} def
/PP {closepath eofill} bdef
/DP {closepath stroke} bdef
/MR {4 -2 roll moveto dup  0 exch rlineto exch 0 rlineto
  neg 0 exch rlineto closepath} bdef
/FR {MR stroke} bdef
/PR {MR fill} bdef
/L1i {{currentfile picstr readhexstring pop} image} bdef
/tMatrix matrix def
/MakeOval {newpath tMatrix currentmatrix pop translate scale
0 0 1 0 360 arc tMatrix setmatrix} bdef
/FO {MakeOval stroke} bdef
/PO {MakeOval fill} bdef
/PD {currentlinewidth 2 div 0 360 arc fill
   PDlw -1 eq not {PDlw w /PDlw -1 def} if} def
/FA {newpath tMatrix currentmatrix pop translate scale
  0 0 1 5 -2 roll arc tMatrix setmatrix stroke} bdef
/PA {newpath tMatrix currentmatrix pop	translate 0 0 moveto scale
  0 0 1 5 -2 roll arc closepath tMatrix setmatrix fill} bdef
/FAn {newpath tMatrix currentmatrix pop translate scale
  0 0 1 5 -2 roll arcn tMatrix setmatrix stroke} bdef
/PAn {newpath tMatrix currentmatrix pop translate 0 0 moveto scale
  0 0 1 5 -2 roll arcn closepath tMatrix setmatrix fill} bdef
/vradius 0 def /hradius 0 def /lry 0 def
/lrx 0 def /uly 0 def /ulx 0 def /rad 0 def
/MRR {/vradius xdef /hradius xdef /lry xdef /lrx xdef /uly xdef
  /ulx xdef newpath tMatrix currentmatrix pop ulx hradius add uly
  vradius add translate hradius vradius scale 0 0 1 180 270 arc 
  tMatrix setmatrix lrx hradius sub uly vradius add translate
  hradius vradius scale 0 0 1 270 360 arc tMatrix setmatrix
  lrx hradius sub lry vradius sub translate hradius vradius scale
  0 0 1 0 90 arc tMatrix setmatrix ulx hradius add lry vradius sub
  translate hradius vradius scale 0 0 1 90 180 arc tMatrix setmatrix
  closepath} bdef
/FRR {MRR stroke } bdef
/PRR {MRR fill } bdef
/MlrRR {/lry xdef /lrx xdef /uly xdef /ulx xdef /rad lry uly sub 2 div def
  newpath tMatrix currentmatrix pop ulx rad add uly rad add translate
  rad rad scale 0 0 1 90 270 arc tMatrix setmatrix lrx rad sub lry rad
  sub translate rad rad scale 0 0 1 270 90 arc tMatrix setmatrix
  closepath} bdef
/FlrRR {MlrRR stroke } bdef
/PlrRR {MlrRR fill } bdef
/MtbRR {/lry xdef /lrx xdef /uly xdef /ulx xdef /rad lrx ulx sub 2 div def
  newpath tMatrix currentmatrix pop ulx rad add uly rad add translate
  rad rad scale 0 0 1 180 360 arc tMatrix setmatrix lrx rad sub lry rad
  sub translate rad rad scale 0 0 1 0 180 arc tMatrix setmatrix
  closepath} bdef
/FtbRR {MtbRR stroke } bdef
/PtbRR {MtbRR fill } bdef
/stri 6 array def /dtri 6 array def
/smat 6 array def /dmat 6 array def
/tmat1 6 array def /tmat2 6 array def /dif 3 array def
/asub {/ind2 exch def /ind1 exch def dup dup
  ind1 get exch ind2 get sub exch } bdef
/tri_to_matrix {
  2 0 asub 3 1 asub 4 0 asub 5 1 asub
  dup 0 get exch 1 get 7 -1 roll astore } bdef
/compute_transform {
  dmat dtri tri_to_matrix tmat1 invertmatrix 
  smat stri tri_to_matrix tmat2 concatmatrix } bdef
/ds {stri astore pop} bdef
/dt {dtri astore pop} bdef
/db {2 copy /cols xdef /rows xdef mul dup 3 mul string
  currentfile 
  3 index 0 eq {/ASCIIHexDecode filter}
  {/ASCII85Decode filter 3 index 2 eq {/RunLengthDecode filter} if }
  ifelse exch readstring pop
  dup 0 3 index getinterval /rbmap xdef
  dup 2 index dup getinterval /gbmap xdef
  1 index dup 2 mul exch getinterval /bbmap xdef pop pop}bdef
/it {gs np dtri aload pop moveto lineto lineto cp c
  cols rows 8 compute_transform 
  rbmap gbmap bbmap true 3 colorimage gr}bdef
/il {newpath moveto lineto stroke}bdef
currentdict end def
%%EndProlog

%%BeginSetup
MathWorks begin

0 cap

end
%%EndSetup

%%Page: 1 1
%%BeginPageSetup
%%PageBoundingBox:    31     3   466   364
MathWorks begin
bpage
%%EndPageSetup

%%BeginObject: obj1
bplot

/dpi2point 12 def
portraitMode 0000 4320 csm

  383   -48  5211  4322 rc
92 dict begin %Colortable dictionary
/c0 { 0.000000 0.000000 0.000000 sr} bdef
/c1 { 1.000000 1.000000 1.000000 sr} bdef
/c2 { 0.900000 0.000000 0.000000 sr} bdef
/c3 { 0.000000 0.820000 0.000000 sr} bdef
/c4 { 0.000000 0.000000 0.800000 sr} bdef
/c5 { 0.910000 0.820000 0.320000 sr} bdef
/c6 { 1.000000 0.260000 0.820000 sr} bdef
/c7 { 0.000000 0.820000 0.820000 sr} bdef
c0
1 j
1 sg
   0    0 6053 4325 rf
6 w
0 2379 4236 0 0 -2379 908 3892 4 MP
PP
-4236 0 0 2379 4236 0 0 -2379 908 3892 5 MP stroke
4 w
DO
SO
6 w
0 sg
 908 3892 mt 5144 3892 L
 908 3892 mt  908 1513 L
 908 3892 mt  908 3934 L
%%IncludeResource: font Helvetica
/Helvetica /ISOLatin1Encoding 120 FMSR

 875 4079 mt 
(0) s
1755 3892 mt 1755 3934 L
1722 4079 mt 
(5) s
2602 3892 mt 2602 3934 L
2536 4079 mt 
(10) s
3449 3892 mt 3449 3934 L
3383 4079 mt 
(15) s
4296 3892 mt 4296 3934 L
4230 4079 mt 
(20) s
5144 3892 mt 5144 3934 L
5078 4079 mt 
(25) s
 908 3892 mt  865 3892 L
 765 3936 mt 
(0) s
 908 3416 mt  865 3416 L
 665 3460 mt 
(0.1) s
 908 2940 mt  865 2940 L
 665 2984 mt 
(0.2) s
 908 2464 mt  865 2464 L
 665 2508 mt 
(0.3) s
 908 1988 mt  865 1988 L
 665 2032 mt 
(0.4) s
 908 1513 mt  865 1513 L
 665 1557 mt 
(0.5) s
gs 908 1513 4237 2380 rc
gr

0.6 sg
  24   24 2045 2563 PO
  24   24 2602 2515 PO
  24   24 2131 2785 PO
  24   24 2342 2409 PO
  24   24 2035 2746 PO
  24   24 2594 2507 PO
  24   24 2149 2660 PO
  24   24 2341 2806 PO
  24   24 2041 2701 PO
  24   24 2589 2650 PO
  24   24 2142 2698 PO
  24   24 2342 2755 PO
  24   24 2062 2749 PO
  24   24 2594 2655 PO
  24   24 2136 2667 PO
  24   24 2333 2807 PO
  24   24 1019 3454 PO
  24   24 1009 3504 PO
  24   24 1022 3428 PO
  24   24 1004 3552 PO
  24   24 1022 3343 PO
  24   24 1006 3455 PO
  24   24  967 3511 PO
  24   24 1000 3465 PO
  24   24 1345 2899 PO
  24   24 1206 3265 PO
  24   24 1345 3167 PO
  24   24 1135 3236 PO
  24   24 1194 3334 PO
  24   24 1345 3067 PO
  24   24 1135 3311 PO
  24   24 1211 3061 PO
  24   24 1351 2890 PO
  24   24 1140 2841 PO
  24   24 1198 2964 PO
  24   24 3202 2508 PO
  24   24 2850 2584 PO
  24   24 3191 2568 PO
  24   24 2588 2789 PO
  24   24 2848 2554 PO
  24   24 3185 2664 PO
  24   24 2579 2624 PO
  24   24 2849 2640 PO
  24   24 3191 2501 PO
  24   24 2570 2763 PO
  24   24 2837 2622 PO
  24   24 3169 2397 PO
  24   24 2540 2805 PO
  24   24 2822 2610 PO
  24   24 3157 2560 PO
  24   24 2564 2619 PO
  24   24 2820 2596 PO
  24   24 3151 2527 PO
  24   24 2554 2637 PO
  24   24 2821 2593 PO
  24   24 3157 2601 PO
  24   24 2546 2755 PO
  24   24 2809 2921 PO
  24   24 1424 2813 PO
  24   24 1259 3255 PO
  24   24 1423 2624 PO
  24   24 1245 2989 PO
  24   24 1423 3023 PO
  24   24 1266 3029 PO
  24   24 1430 2862 PO
  24   24 1251 2991 PO
  24   24 3061 2522 PO
  24   24 2463 2940 PO
  24   24 2731 2459 PO
  24   24 3050 2410 PO
  24   24 2485 2658 PO
  24   24 2729 2561 PO
  24   24 3045 2649 PO
  24   24 2476 2871 PO
  24   24 2730 2678 PO
  24   24 2375 2688 PO
  24   24 3050 2705 PO
  24   24 2468 2768 PO
  24   24 2718 2723 PO
  24   24 1039 3379 PO
  24   24 1027 3338 PO
  24   24 1042 3287 PO
  24   24 1020 3623 PO
  24   24 1042 3536 PO
  24   24 1023 3077 PO
  24   24 1045 3302 PO
  24   24 1016 3655 PO
  24   24 1670 2700 PO
  24   24 1899 2917 PO
  24   24 1975 2775 PO
  24   24 2159 2594 PO
  24   24 1669 2808 PO
  24   24 1890 2815 PO
  24   24 1990 2784 PO
  24   24 2157 2640 PO
  24   24 1669 2854 PO
  24   24 1896 2711 PO
  24   24 1984 2800 PO
  24   24 2158 2726 PO
  24   24 1680 2727 PO
  24   24 1914 2724 PO
  24   24 1978 2601 PO
  24   24 2150 2783 PO
  24   24 2129 2605 PO
  24   24 2727 2570 PO
  24   24 2221 2704 PO
  24   24 2448 2513 PO
  24   24 2117 2785 PO
  24   24 2718 2571 PO
  24   24 2240 2794 PO
  24   24 2446 2661 PO
  24   24 2125 2812 PO
  24   24 2713 2742 PO
  24   24 2233 2623 PO
  24   24 2447 2604 PO
  24   24 2147 2811 PO
  24   24 2718 2684 PO
  24   24 2226 2802 PO
  24   24 2437 2635 PO
  24   24  921 3892 PO
  24   24  928 3773 PO
  24   24  924 3892 PO
  24   24  922 3342 PO
  24   24  928 3591 PO
  24   24 1505 2885 PO
  24   24 1678 2765 PO
  24   24 1505 2873 PO
  24   24 1683 2889 PO
  24   24 1752 2786 PO
  24   24 1513 2854 PO
  24   24 1697 2924 PO
  24   24 1747 2829 PO
  24   24 1684 2675 PO
  24   24 1910 2715 PO
  24   24 2011 2695 PO
  24   24 2182 2691 PO
  24   24 1684 2691 PO
  24   24 1916 2796 PO
  24   24 2005 2507 PO
  24   24 2183 2724 PO
  24   24 1695 2646 PO
  24   24 1934 2710 PO
  24   24 2000 2720 PO
  24   24 2175 2776 PO
  24   24 1065 3591 PO
  24   24 1106 3357 PO
  24   24 1040 3265 PO
  24   24 1065 3314 PO
  24   24 1118 3019 PO
  24   24 1043 3599 PO
  24   24 1069 3101 PO
  24   24 1109 3061 PO
  24   24 1035 3328 PO
  24   24 3142 2508 PO
  24   24 2552 2694 PO
  24   24 2807 2556 PO
  24   24 3136 2621 PO
  24   24 2543 2789 PO
  24   24 2808 2724 PO
  24   24 3142 2521 PO
  24   24 2535 2649 PO
  24   24 2795 2719 PO
  24   24 1119 3255 PO
  24   24 1174 3553 PO
  24   24 1119 3385 PO
  24   24 1190 3223 PO
  24   24 1124 3096 PO
  24   24 1179 3194 PO
  24   24 1743 2756 PO
  24   24 1986 2840 PO
  24   24 2521 2639 PO
  24   24 2095 2797 PO
  24   24 2279 2683 PO
  24   24 1743 2819 PO
  24   24 1992 2669 PO
  24   24 2517 2656 PO
  24   24 2088 2755 PO
  24   24 2280 2669 PO
  24   24 1755 2725 PO
  24   24 2012 2779 PO
  24   24 2521 2701 PO
  24   24 2083 2800 PO
  24   24 2271 2813 PO
  24   24 1051 3248 PO
  24   24 1028 3442 PO
  24   24 1051 3281 PO
  24   24 1030 3241 PO
  24   24 1054 3133 PO
  24   24 1023 3681 PO
  24   24  935 3101 PO
  24   24  930 3892 PO
  24   24  943 3158 PO
  24   24  935 3339 PO
  24   24 2172 2591 PO
  24   24 2799 2682 PO
  24   24 2300 2723 PO
  24   24 2515 2652 PO
  24   24 2179 2827 PO
  24   24 2794 2518 PO
  24   24 2292 2556 PO
  24   24 2516 2701 PO
  24   24 2203 2643 PO
  24   24 2799 2604 PO
  24   24 2285 2790 PO
  24   24 2506 2661 PO
  24   24  922 3892 PO
  24   24  920 3892 PO
  24   24 1504 2720 PO
  24   24 1682 2773 PO
  24   24 1750 2760 PO
  24   24 1512 2621 PO
  24   24 1696 2926 PO
  24   24 1746 2901 PO
  24   24 1677 2688 PO
  24   24 1906 2663 PO
  24   24 1995 2856 PO
  24   24 2171 2719 PO
  24   24 1688 2731 PO
  24   24 1925 2872 PO
  24   24 1990 2761 PO
  24   24 2163 2705 PO
  24   24 1068 3275 PO
  24   24 1123 3261 PO
  24   24 1046 3317 PO
  24   24 1073 3342 PO
  24   24 1114 3162 PO
  24   24 1038 3200 PO
  24   24 3125 2490 PO
  24   24 2535 2854 PO
  24   24 2798 2611 PO
  24   24 3131 2526 PO
  24   24 2527 2941 PO
  24   24 2786 2705 PO
  24   24 1110 3245 PO
  24   24 1179 3239 PO
  24   24 1116 3051 PO
  24   24 1168 2943 PO
  24   24 2008 2967 PO
  24   24 2540 2773 PO
  24   24 2105 2554 PO
  24   24 2299 2637 PO
  24   24 1767 2717 PO
  24   24 2028 2831 PO
  24   24 2544 2774 PO
  24   24 2099 2895 PO
  24   24 2290 2782 PO
  24   24 1043 3618 PO
  24   24 1024 3360 PO
  24   24 1046 3288 PO
  24   24 1017 3568 PO
  24   24  929 3892 PO
  24   24  942 3524 PO
  24   24  927 3505 PO
  24   24  935 3892 PO
  24   24 2178 2544 PO
  24   24 2792 2546 PO
  24   24 2291 2737 PO
  24   24 2515 2483 PO
  24   24 2201 2736 PO
  24   24 2797 2604 PO
  24   24 2284 2727 PO
  24   24 2504 2672 PO
  24   24  923 3892 PO
  24   24  929 3857 PO
  24   24 1512 2786 PO
  24   24 1696 2859 PO
  24   24 1746 2849 PO
  24   24 1693 2951 PO
  24   24 1931 2799 PO
  24   24 1996 2792 PO
  24   24 2171 2811 PO
  24   24 1073 3385 PO
  24   24 1114 3451 PO
  24   24 1038 3554 PO
  24   24 3125 2598 PO
  24   24 2522 2863 PO
  24   24 2781 2615 PO
  24   24 1128 3056 PO
  24   24 1183 3028 PO
  24   24 1762 2549 PO
  24   24 2022 2664 PO
  24   24 2535 2689 PO
  24   24 2093 2630 PO
  24   24 2283 2950 PO
  24   24 1049 3418 PO
  24   24 1019 3544 PO
  24   24  942 3704 PO
  24   24 2202 2703 PO
  24   24 2798 2717 PO
  24   24 2285 2755 PO
  24   24 2505 2812 PO
  24   24 2045 2563 FO
  24   24 2602 2515 FO
  24   24 2131 2785 FO
  24   24 2342 2409 FO
  24   24 2035 2746 FO
  24   24 2594 2507 FO
  24   24 2149 2660 FO
  24   24 2341 2806 FO
  24   24 2041 2701 FO
  24   24 2589 2650 FO
  24   24 2142 2698 FO
  24   24 2342 2755 FO
  24   24 2062 2749 FO
  24   24 2594 2655 FO
  24   24 2136 2667 FO
  24   24 2333 2807 FO
  24   24 1019 3454 FO
  24   24 1009 3504 FO
  24   24 1022 3428 FO
  24   24 1004 3552 FO
  24   24 1022 3343 FO
  24   24 1006 3455 FO
  24   24  967 3511 FO
  24   24 1000 3465 FO
  24   24 1345 2899 FO
  24   24 1206 3265 FO
  24   24 1345 3167 FO
  24   24 1135 3236 FO
  24   24 1194 3334 FO
  24   24 1345 3067 FO
  24   24 1135 3311 FO
  24   24 1211 3061 FO
  24   24 1351 2890 FO
  24   24 1140 2841 FO
  24   24 1198 2964 FO
  24   24 3202 2508 FO
  24   24 2850 2584 FO
  24   24 3191 2568 FO
  24   24 2588 2789 FO
  24   24 2848 2554 FO
  24   24 3185 2664 FO
  24   24 2579 2624 FO
  24   24 2849 2640 FO
  24   24 3191 2501 FO
  24   24 2570 2763 FO
  24   24 2837 2622 FO
  24   24 3169 2397 FO
  24   24 2540 2805 FO
  24   24 2822 2610 FO
  24   24 3157 2560 FO
  24   24 2564 2619 FO
  24   24 2820 2596 FO
  24   24 3151 2527 FO
  24   24 2554 2637 FO
  24   24 2821 2593 FO
  24   24 3157 2601 FO
  24   24 2546 2755 FO
  24   24 2809 2921 FO
  24   24 1424 2813 FO
  24   24 1259 3255 FO
  24   24 1423 2624 FO
  24   24 1245 2989 FO
  24   24 1423 3023 FO
  24   24 1266 3029 FO
  24   24 1430 2862 FO
  24   24 1251 2991 FO
  24   24 3061 2522 FO
  24   24 2463 2940 FO
  24   24 2731 2459 FO
  24   24 3050 2410 FO
  24   24 2485 2658 FO
  24   24 2729 2561 FO
  24   24 3045 2649 FO
  24   24 2476 2871 FO
  24   24 2730 2678 FO
  24   24 2375 2688 FO
  24   24 3050 2705 FO
  24   24 2468 2768 FO
  24   24 2718 2723 FO
  24   24 1039 3379 FO
  24   24 1027 3338 FO
  24   24 1042 3287 FO
  24   24 1020 3623 FO
  24   24 1042 3536 FO
  24   24 1023 3077 FO
  24   24 1045 3302 FO
  24   24 1016 3655 FO
  24   24 1670 2700 FO
  24   24 1899 2917 FO
  24   24 1975 2775 FO
  24   24 2159 2594 FO
  24   24 1669 2808 FO
  24   24 1890 2815 FO
  24   24 1990 2784 FO
  24   24 2157 2640 FO
  24   24 1669 2854 FO
  24   24 1896 2711 FO
  24   24 1984 2800 FO
  24   24 2158 2726 FO
  24   24 1680 2727 FO
  24   24 1914 2724 FO
  24   24 1978 2601 FO
  24   24 2150 2783 FO
  24   24 2129 2605 FO
  24   24 2727 2570 FO
  24   24 2221 2704 FO
  24   24 2448 2513 FO
  24   24 2117 2785 FO
  24   24 2718 2571 FO
  24   24 2240 2794 FO
  24   24 2446 2661 FO
  24   24 2125 2812 FO
  24   24 2713 2742 FO
  24   24 2233 2623 FO
  24   24 2447 2604 FO
  24   24 2147 2811 FO
  24   24 2718 2684 FO
  24   24 2226 2802 FO
  24   24 2437 2635 FO
  24   24  921 3892 FO
  24   24  928 3773 FO
  24   24  924 3892 FO
  24   24  922 3342 FO
  24   24  928 3591 FO
  24   24 1505 2885 FO
  24   24 1678 2765 FO
  24   24 1505 2873 FO
  24   24 1683 2889 FO
  24   24 1752 2786 FO
  24   24 1513 2854 FO
  24   24 1697 2924 FO
  24   24 1747 2829 FO
  24   24 1684 2675 FO
  24   24 1910 2715 FO
  24   24 2011 2695 FO
  24   24 2182 2691 FO
  24   24 1684 2691 FO
  24   24 1916 2796 FO
  24   24 2005 2507 FO
  24   24 2183 2724 FO
  24   24 1695 2646 FO
  24   24 1934 2710 FO
  24   24 2000 2720 FO
  24   24 2175 2776 FO
  24   24 1065 3591 FO
  24   24 1106 3357 FO
  24   24 1040 3265 FO
  24   24 1065 3314 FO
  24   24 1118 3019 FO
  24   24 1043 3599 FO
  24   24 1069 3101 FO
  24   24 1109 3061 FO
  24   24 1035 3328 FO
  24   24 3142 2508 FO
  24   24 2552 2694 FO
  24   24 2807 2556 FO
  24   24 3136 2621 FO
  24   24 2543 2789 FO
  24   24 2808 2724 FO
  24   24 3142 2521 FO
  24   24 2535 2649 FO
  24   24 2795 2719 FO
  24   24 1119 3255 FO
  24   24 1174 3553 FO
  24   24 1119 3385 FO
  24   24 1190 3223 FO
  24   24 1124 3096 FO
  24   24 1179 3194 FO
  24   24 1743 2756 FO
  24   24 1986 2840 FO
  24   24 2521 2639 FO
  24   24 2095 2797 FO
  24   24 2279 2683 FO
  24   24 1743 2819 FO
  24   24 1992 2669 FO
  24   24 2517 2656 FO
  24   24 2088 2755 FO
  24   24 2280 2669 FO
  24   24 1755 2725 FO
  24   24 2012 2779 FO
  24   24 2521 2701 FO
  24   24 2083 2800 FO
  24   24 2271 2813 FO
  24   24 1051 3248 FO
  24   24 1028 3442 FO
  24   24 1051 3281 FO
  24   24 1030 3241 FO
  24   24 1054 3133 FO
  24   24 1023 3681 FO
  24   24  935 3101 FO
  24   24  930 3892 FO
  24   24  943 3158 FO
  24   24  935 3339 FO
  24   24 2172 2591 FO
  24   24 2799 2682 FO
  24   24 2300 2723 FO
  24   24 2515 2652 FO
  24   24 2179 2827 FO
  24   24 2794 2518 FO
  24   24 2292 2556 FO
  24   24 2516 2701 FO
  24   24 2203 2643 FO
  24   24 2799 2604 FO
  24   24 2285 2790 FO
  24   24 2506 2661 FO
  24   24  922 3892 FO
  24   24  920 3892 FO
  24   24 1504 2720 FO
  24   24 1682 2773 FO
  24   24 1750 2760 FO
  24   24 1512 2621 FO
  24   24 1696 2926 FO
  24   24 1746 2901 FO
  24   24 1677 2688 FO
  24   24 1906 2663 FO
  24   24 1995 2856 FO
  24   24 2171 2719 FO
  24   24 1688 2731 FO
  24   24 1925 2872 FO
  24   24 1990 2761 FO
  24   24 2163 2705 FO
  24   24 1068 3275 FO
  24   24 1123 3261 FO
  24   24 1046 3317 FO
  24   24 1073 3342 FO
  24   24 1114 3162 FO
  24   24 1038 3200 FO
  24   24 3125 2490 FO
  24   24 2535 2854 FO
  24   24 2798 2611 FO
  24   24 3131 2526 FO
  24   24 2527 2941 FO
  24   24 2786 2705 FO
  24   24 1110 3245 FO
  24   24 1179 3239 FO
  24   24 1116 3051 FO
  24   24 1168 2943 FO
  24   24 2008 2967 FO
  24   24 2540 2773 FO
  24   24 2105 2554 FO
  24   24 2299 2637 FO
  24   24 1767 2717 FO
  24   24 2028 2831 FO
  24   24 2544 2774 FO
  24   24 2099 2895 FO
  24   24 2290 2782 FO
  24   24 1043 3618 FO
  24   24 1024 3360 FO
  24   24 1046 3288 FO
  24   24 1017 3568 FO
  24   24  929 3892 FO
  24   24  942 3524 FO
  24   24  927 3505 FO
  24   24  935 3892 FO
  24   24 2178 2544 FO
  24   24 2792 2546 FO
  24   24 2291 2737 FO
  24   24 2515 2483 FO
  24   24 2201 2736 FO
  24   24 2797 2604 FO
  24   24 2284 2727 FO
  24   24 2504 2672 FO
  24   24  923 3892 FO
  24   24  929 3857 FO
  24   24 1512 2786 FO
  24   24 1696 2859 FO
  24   24 1746 2849 FO
  24   24 1693 2951 FO
  24   24 1931 2799 FO
  24   24 1996 2792 FO
  24   24 2171 2811 FO
  24   24 1073 3385 FO
  24   24 1114 3451 FO
  24   24 1038 3554 FO
  24   24 3125 2598 FO
  24   24 2522 2863 FO
  24   24 2781 2615 FO
  24   24 1128 3056 FO
  24   24 1183 3028 FO
  24   24 1762 2549 FO
  24   24 2022 2664 FO
  24   24 2535 2689 FO
  24   24 2093 2630 FO
  24   24 2283 2950 FO
  24   24 1049 3418 FO
  24   24 1019 3544 FO
  24   24  942 3704 FO
  24   24 2202 2703 FO
  24   24 2798 2717 FO
  24   24 2285 2755 FO
  24   24 2505 2812 FO
gs 908 1513 4237 2380 rc
24 w
0 sg
0 468 992 3249 2 MP stroke
81 0 952 3249 2 MP stroke
81 0 952 3717 2 MP stroke
0 342 1162 3005 2 MP stroke
81 0 1121 3005 2 MP stroke
81 0 1121 3347 2 MP stroke
0 267 1331 2909 2 MP stroke
82 0 1290 2909 2 MP stroke
82 0 1290 3176 2 MP stroke
0 248 1501 2682 2 MP stroke
81 0 1460 2682 2 MP stroke
81 0 1460 2930 2 MP stroke
0 176 1670 2708 2 MP stroke
82 0 1629 2708 2 MP stroke
82 0 1629 2884 2 MP stroke
0 194 1839 2636 2 MP stroke
81 0 1799 2636 2 MP stroke
81 0 1799 2830 2 MP stroke
0 201 2009 2644 2 MP stroke
82 0 1968 2644 2 MP stroke
82 0 1968 2845 2 MP stroke
0 177 2178 2628 2 MP stroke
81 0 2138 2628 2 MP stroke
81 0 2138 2805 2 MP stroke
0 236 2348 2605 2 MP stroke
81 0 2307 2605 2 MP stroke
81 0 2307 2841 2 MP stroke
0 220 2517 2597 2 MP stroke
81 0 2477 2597 2 MP stroke
81 0 2477 2817 2 MP stroke
0 197 2687 2513 2 MP stroke
81 0 2646 2513 2 MP stroke
81 0 2646 2710 2 MP stroke
0 181 2856 2546 2 MP stroke
82 0 2815 2546 2 MP stroke
82 0 2815 2727 2 MP stroke
0 265 3026 2439 2 MP stroke
81 0 2985 2439 2 MP stroke
81 0 2985 2704 2 MP stroke
0 133 3195 2476 2 MP stroke
82 0 3154 2476 2 MP stroke
82 0 3154 2609 2 MP stroke
169 -30 170 -64 169 25 170 -96 169 -16 170 7 169 -29 170 12 
169 -63 169 -10 170 -236 169 -134 170 -307 992 3483 14 MP stroke
gr

24 w
0 sg
0 j
0 -58 -58 0 0 58 58 0 963 3454 5 MP
DP
0 -58 -58 0 0 58 58 0 1133 3147 5 MP
DP
0 -58 -58 0 0 58 58 0 1302 3013 5 MP
DP
0 -58 -58 0 0 58 58 0 1472 2777 5 MP
DP
0 -58 -58 0 0 58 58 0 1641 2767 5 MP
DP
0 -58 -58 0 0 58 58 0 1810 2704 5 MP
DP
0 -58 -58 0 0 58 58 0 1980 2716 5 MP
DP
0 -58 -58 0 0 58 58 0 2149 2687 5 MP
DP
0 -58 -58 0 0 58 58 0 2319 2694 5 MP
DP
0 -58 -58 0 0 58 58 0 2488 2678 5 MP
DP
0 -58 -58 0 0 58 58 0 2658 2582 5 MP
DP
0 -58 -58 0 0 58 58 0 2827 2607 5 MP
DP
0 -58 -58 0 0 58 58 0 2997 2543 5 MP
DP
0 -58 -58 0 0 58 58 0 3166 2513 5 MP
DP
gs 908 1513 4237 2380 rc
gr

4296 1743 mt 
(N) s
%%IncludeResource: font Helvetica
/Helvetica /ISOLatin1Encoding 96 FMSR

4382 1803 mt 
(cells) s
%%IncludeResource: font Helvetica
/Helvetica /ISOLatin1Encoding 120 FMSR

4574 1743 mt 
(=5) s
4296 1981 mt 
(N) s
%%IncludeResource: font Helvetica
/Helvetica /ISOLatin1Encoding 96 FMSR

4382 2041 mt 
(pairs) s
%%IncludeResource: font Helvetica
/Helvetica /ISOLatin1Encoding 120 FMSR

4590 1981 mt 
(=291) s
2094 4222 mt 
(Geometric mean output rate \(AP/s\)) s
 529 3253 mt  -90 rotate
(Output correlation ) s
90 rotate
%%IncludeResource: font Symbol
/Symbol /ISOLatin1Encoding 120 FMSR

 529 2266 mt  -90 rotate
(r) s
90 rotate
%%IncludeResource: font Helvetica
/Helvetica /ISOLatin1Encoding 96 FMSR

 589 2201 mt  -90 rotate
(T) s
90 rotate
6 w
1 sg
0 433 4236 0 0 -433 908 3892 4 MP
PP
-4236 0 0 433 4236 0 0 -433 908 3892 5 MP stroke
4 w
DO
SO
6 w
0 sg
 908 3892 mt 5144 3892 L
5144 3892 mt 5144 3459 L
 908 3892 mt  908 3934 L
%%IncludeResource: font Helvetica
/Helvetica /ISOLatin1Encoding 120 FMSR

 875 4079 mt 
(0) s
1755 3892 mt 1755 3934 L
1722 4079 mt 
(5) s
2602 3892 mt 2602 3934 L
2536 4079 mt 
(10) s
3449 3892 mt 3449 3934 L
3383 4079 mt 
(15) s
4296 3892 mt 4296 3934 L
4230 4079 mt 
(20) s
5144 3892 mt 5144 3934 L
5078 4079 mt 
(25) s
5144 3892 mt 5186 3892 L
5220 3936 mt 
(0) s
5144 3675 mt 5186 3675 L
5220 3719 mt 
(30) s
5144 3459 mt 5186 3459 L
5220 3503 mt 
(60) s
gs 908 3459 4237 434 rc
/c8 { 0.600000 0.600000 1.000000 sr} bdef
c8
0 419 136 0 0 -419 924 3892 4 MP
PP
0 188 135 0 0 -188 1094 3892 4 MP
PP
0 51 136 0 0 -51 1263 3892 4 MP
PP
0 73 135 0 0 -73 1433 3892 4 MP
PP
0 166 136 0 0 -166 1602 3892 4 MP
PP
0 73 135 0 0 -73 1772 3892 4 MP
PP
0 188 136 0 0 -188 1941 3892 4 MP
PP
0 224 135 0 0 -224 2111 3892 4 MP
PP
0 123 136 0 0 -123 2280 3892 4 MP
PP
0 260 136 0 0 -260 2449 3892 4 MP
PP
0 65 135 0 0 -65 2619 3892 4 MP
PP
0 145 136 0 0 -145 2788 3892 4 MP
PP
0 29 135 0 0 -29 2958 3892 4 MP
PP
0 102 136 0 0 -102 3127 3892 4 MP
PP
0 0 135 0 0 0 3297 3892 4 MP
PP
0 0 136 0 0 0 3466 3892 4 MP
PP
0 0 136 0 0 0 3635 3892 4 MP
PP
0 0 135 0 0 0 3805 3892 4 MP
PP
0 0 136 0 0 0 3974 3892 4 MP
PP
0 0 135 0 0 0 4144 3892 4 MP
PP
0 0 136 0 0 0 4313 3892 4 MP
PP
0 0 135 0 0 0 4483 3892 4 MP
PP
0 0 136 0 0 0 4652 3892 4 MP
PP
0 0 135 0 0 0 4822 3892 4 MP
PP
0 0 136 0 0 0 4991 3892 4 MP
PP
0 sg
4236 0 908 3892 2 MP stroke
gr

5494 4103 mt  -90 rotate
(Number of pairs) s
90 rotate
1 sg
0 865 1815 0 0 -865 908 1081 4 MP
PP
-1815 0 0 865 1815 0 0 -865 908 1081 5 MP stroke
4 w
DO
SO
6 w
0 sg
 908 1081 mt 2723 1081 L
 908 1081 mt  908  216 L
 908 1081 mt  908 1099 L
 875 1244 mt 
(0) s
1733 1081 mt 1733 1099 L
1667 1244 mt 
(10) s
2558 1081 mt 2558 1099 L
2492 1244 mt 
(20) s
 908  864 mt  889  864 L
 689  908 mt 
(0.5) s
 908  324 mt  889  324 L
 789  368 mt 
(1) s
gs 908 216 1816 866 rc
DA
24 w
0.6 sg
1815 0 908 324 2 MP stroke
SO
6 w
gr

0.6 sg
/c9 { 0.000000 0.500000 1.000000 sr} bdef
c9
  36   36 1530  706 PO
  36   36  947  405 PO
  36   36 1063  565 PO
  36   36 2049  758 PO
  36   36 2016  749 PO
  36   36 1124  626 PO
  36   36 1913  744 PO
  36   36  962  375 PO
  36   36 1381  685 PO
  36   36 1625  683 PO
  36   36 1530  706 FO
  36   36  947  405 FO
  36   36 1063  565 FO
  36   36 2049  758 FO
  36   36 2016  749 FO
  36   36 1124  626 FO
  36   36 1913  744 FO
  36   36  962  375 FO
  36   36 1381  685 FO
  36   36 1625  683 FO
gs 908 216 1816 866 rc
gr

/c10 { 0.000000 1.000000 1.000000 sr} bdef
c10
  36   36  915  359 PO
  36   36 1199  591 PO
  36   36 1400  652 PO
  36   36  983  505 PO
  36   36 2001  742 PO
  36   36 1043  628 PO
  36   36 1478  680 PO
  36   36  969  425 PO
  36   36  922  634 PO
  36   36 1691  678 PO
  36   36  915  359 FO
  36   36 1199  591 FO
  36   36 1400  652 FO
  36   36  983  505 FO
  36   36 2001  742 FO
  36   36 1043  628 FO
  36   36 1478  680 FO
  36   36  969  425 FO
  36   36  922  634 FO
  36   36 1691  678 FO
gs 908 216 1816 866 rc
gr

/c11 { 0.500000 1.000000 0.500000 sr} bdef
c11
  36   36  913  681 PO
  36   36 1198  675 PO
  36   36 1391  678 PO
  36   36  986  367 PO
  36   36 1990  732 PO
  36   36 1032  525 PO
  36   36 1494  688 PO
  36   36  963  494 PO
  36   36  913  681 FO
  36   36 1198  675 FO
  36   36 1391  678 FO
  36   36  986  367 FO
  36   36 1990  732 FO
  36   36 1032  525 FO
  36   36 1494  688 FO
  36   36  963  494 FO
gs 908 216 1816 866 rc
gr

  36   36 1690  678 PO
  36   36 1690  678 FO
gs 908 216 1816 866 rc
gr

/c12 { 1.000000 1.000000 0.000000 sr} bdef
c12
  36   36  916  489 PO
  36   36 1198  607 PO
  36   36 1397  691 PO
  36   36  986  555 PO
  36   36 1984  737 PO
  36   36 1048  431 PO
  36   36 1487  702 PO
  36   36  965  521 PO
  36   36  929  423 PO
  36   36 1690  734 PO
  36   36  916  489 FO
  36   36 1198  607 FO
  36   36 1397  691 FO
  36   36  986  555 FO
  36   36 1984  737 FO
  36   36 1048  431 FO
  36   36 1487  702 FO
  36   36  965  521 FO
  36   36  929  423 FO
  36   36 1690  734 FO
gs 908 216 1816 866 rc
gr

/c13 { 1.000000 0.500000 0.000000 sr} bdef
c13
  36   36  914  327 PO
  36   36 1206  611 PO
  36   36 1415  663 PO
  36   36  990  648 PO
  36   36 1990  732 PO
  36   36 1036  505 PO
  36   36 1482  673 PO
  36   36  959  331 PO
  36   36  921  670 PO
  36   36 1681  712 PO
  36   36  914  327 FO
  36   36 1206  611 FO
  36   36 1415  663 FO
  36   36  990  648 FO
  36   36 1990  732 FO
  36   36 1036  505 FO
  36   36 1482  673 FO
  36   36  959  331 FO
  36   36  921  670 FO
  36   36 1681  712 FO
gs 908 216 1816 866 rc
gr

0 sg
%%IncludeResource: font Symbol
/Symbol /ISOLatin1Encoding 120 FMSR

1590 1355 mt 
(n) s
%%IncludeResource: font Helvetica
/Helvetica /ISOLatin1Encoding 96 FMSR

1652 1415 mt 
(i) s
%%IncludeResource: font Helvetica
/Helvetica /ISOLatin1Encoding 120 FMSR

1673 1355 mt 
( \(AP/s\)) s
 553  743 mt  -90 rotate
(CV) s
90 rotate
%%IncludeResource: font Helvetica
/Helvetica /ISOLatin1Encoding 96 FMSR

 613  577 mt  -90 rotate
(i) s
90 rotate
1 sg
0 865 1815 0 0 -865 3329 1081 4 MP
PP
-1815 0 0 865 1815 0 0 -865 3329 1081 5 MP stroke
4 w
DO
SO
6 w
0 sg
3329 1081 mt 5144 1081 L
3329 1081 mt 3329  216 L
3588 1081 mt 3588 1099 L
%%IncludeResource: font Helvetica
/Helvetica /ISOLatin1Encoding 120 FMSR

3505 1244 mt 
(0.4) s
4106 1081 mt 4106 1099 L
4023 1244 mt 
(0.6) s
4625 1081 mt 4625 1099 L
4542 1244 mt 
(0.8) s
5144 1081 mt 5144 1099 L
5111 1244 mt 
(1) s
3329 1081 mt 3310 1081 L
3210 1125 mt 
(0) s
3329  735 mt 3310  735 L
3110  779 mt 
(0.2) s
3329  389 mt 3310  389 L
3110  433 mt 
(0.4) s
gs 3329 216 1816 866 rc
gr

0.6 sg
  24   24 4290  598 PO
  24   24 4183  580 PO
  24   24 4257  678 PO
  24   24 4260  541 PO
  24   24 4260  664 PO
  24   24 4196  577 PO
  24   24 4248  633 PO
  24   24 4260  686 PO
  24   24 4245  647 PO
  24   24 4188  629 PO
  24   24 4232  647 PO
  24   24 4192  667 PO
  24   24 4278  665 PO
  24   24 4195  631 PO
  24   24 4266  635 PO
  24   24 4220  686 PO
  24   24 4826  922 PO
  24   24 4924  940 PO
  24   24 4994  912 PO
  24   24 4839  957 PO
  24   24 4762  881 PO
  24   24 4805  922 PO
  24   24 4927  942 PO
  24   24 5036  925 PO
  24   24 4533  720 PO
  24   24 4487  853 PO
  24   24 4428  817 PO
  24   24 4789  842 PO
  24   24 4612  878 PO
  24   24 4514  781 PO
  24   24 4577  869 PO
  24   24 4719  778 PO
  24   24 4508  716 PO
  24   24 4462  699 PO
  24   24 4635  743 PO
  24   24 4121  577 PO
  24   24 4195  605 PO
  24   24 4133  599 PO
  24   24 4183  680 PO
  24   24 4195  594 PO
  24   24 4126  634 PO
  24   24 4167  620 PO
  24   24 4130  625 PO
  24   24 4132  575 PO
  24   24 4200  670 PO
  24   24 4156  619 PO
  24   24 4133  537 PO
  24   24 4204  686 PO
  24   24 4208  615 PO
  24   24 4145  596 PO
  24   24 4196  618 PO
  24   24 4207  609 PO
  24   24 4138  584 PO
  24   24 4180  624 PO
  24   24 4142  609 PO
  24   24 4144  611 PO
  24   24 4213  667 PO
  24   24 4168  728 PO
  24   24 4460  688 PO
  24   24 4415  849 PO
  24   24 4359  620 PO
  24   24 4536  752 PO
  24   24 4441  765 PO
  24   24 4639  767 PO
  24   24 4435  706 PO
  24   24 4558  753 PO
  24   24 4138  582 PO
  24   24 4210  734 PO
  24   24 4214  560 PO
  24   24 4151  542 PO
  24   24 4201  632 PO
  24   24 4213  597 PO
  24   24 4144  629 PO
  24   24 4186  710 PO
  24   24 4147  639 PO
  24   24 4230  643 PO
  24   24 4150  649 PO
  24   24 4219  672 PO
  24   24 4174  656 PO
  24   24 4859  894 PO
  24   24 4959  879 PO
  24   24 5030  861 PO
  24   24 4873  983 PO
  24   24 4795  951 PO
  24   24 4838  784 PO
  24   24 4668  866 PO
  24   24 5073  995 PO
  24   24 4387  647 PO
  24   24 4317  726 PO
  24   24 4283  675 PO
  24   24 4286  609 PO
  24   24 4290  687 PO
  24   24 4286  689 PO
  24   24 4274  678 PO
  24   24 4286  625 PO
  24   24 4369  703 PO
  24   24 4270  651 PO
  24   24 4257  683 PO
  24   24 4217  657 PO
  24   24 4364  657 PO
  24   24 4304  656 PO
  24   24 4292  611 PO
  24   24 4245  678 PO
  24   24 4319  613 PO
  24   24 4210  600 PO
  24   24 4285  649 PO
  24   24 4289  579 PO
  24   24 4289  678 PO
  24   24 4223  601 PO
  24   24 4276  681 PO
  24   24 4288  633 PO
  24   24 4273  688 PO
  24   24 4216  663 PO
  24   24 4260  619 PO
  24   24 4220  612 PO
  24   24 4306  688 PO
  24   24 4222  642 PO
  24   24 4294  684 PO
  24   24 4247  624 PO
  24   24 4637 1081 PO
  24   24 4290  598 FO
  24   24 4183  580 FO
  24   24 4257  678 FO
  24   24 4260  541 FO
  24   24 4260  664 FO
  24   24 4196  577 FO
  24   24 4248  633 FO
  24   24 4260  686 FO
  24   24 4245  647 FO
  24   24 4188  629 FO
  24   24 4232  647 FO
  24   24 4192  667 FO
  24   24 4278  665 FO
  24   24 4195  631 FO
  24   24 4266  635 FO
  24   24 4220  686 FO
  24   24 4826  922 FO
  24   24 4924  940 FO
  24   24 4994  912 FO
  24   24 4839  957 FO
  24   24 4762  881 FO
  24   24 4805  922 FO
  24   24 4927  942 FO
  24   24 5036  925 FO
  24   24 4533  720 FO
  24   24 4487  853 FO
  24   24 4428  817 FO
  24   24 4789  842 FO
  24   24 4612  878 FO
  24   24 4514  781 FO
  24   24 4577  869 FO
  24   24 4719  778 FO
  24   24 4508  716 FO
  24   24 4462  699 FO
  24   24 4635  743 FO
  24   24 4121  577 FO
  24   24 4195  605 FO
  24   24 4133  599 FO
  24   24 4183  680 FO
  24   24 4195  594 FO
  24   24 4126  634 FO
  24   24 4167  620 FO
  24   24 4130  625 FO
  24   24 4132  575 FO
  24   24 4200  670 FO
  24   24 4156  619 FO
  24   24 4133  537 FO
  24   24 4204  686 FO
  24   24 4208  615 FO
  24   24 4145  596 FO
  24   24 4196  618 FO
  24   24 4207  609 FO
  24   24 4138  584 FO
  24   24 4180  624 FO
  24   24 4142  609 FO
  24   24 4144  611 FO
  24   24 4213  667 FO
  24   24 4168  728 FO
  24   24 4460  688 FO
  24   24 4415  849 FO
  24   24 4359  620 FO
  24   24 4536  752 FO
  24   24 4441  765 FO
  24   24 4639  767 FO
  24   24 4435  706 FO
  24   24 4558  753 FO
  24   24 4138  582 FO
  24   24 4210  734 FO
  24   24 4214  560 FO
  24   24 4151  542 FO
  24   24 4201  632 FO
  24   24 4213  597 FO
  24   24 4144  629 FO
  24   24 4186  710 FO
  24   24 4147  639 FO
  24   24 4230  643 FO
  24   24 4150  649 FO
  24   24 4219  672 FO
  24   24 4174  656 FO
  24   24 4859  894 FO
  24   24 4959  879 FO
  24   24 5030  861 FO
  24   24 4873  983 FO
  24   24 4795  951 FO
  24   24 4838  784 FO
  24   24 4668  866 FO
  24   24 5073  995 FO
  24   24 4387  647 FO
  24   24 4317  726 FO
  24   24 4283  675 FO
  24   24 4286  609 FO
  24   24 4290  687 FO
  24   24 4286  689 FO
  24   24 4274  678 FO
  24   24 4286  625 FO
  24   24 4369  703 FO
  24   24 4270  651 FO
  24   24 4257  683 FO
  24   24 4217  657 FO
  24   24 4364  657 FO
  24   24 4304  656 FO
  24   24 4292  611 FO
  24   24 4245  678 FO
  24   24 4319  613 FO
  24   24 4210  600 FO
  24   24 4285  649 FO
  24   24 4289  579 FO
  24   24 4289  678 FO
  24   24 4223  601 FO
  24   24 4276  681 FO
  24   24 4288  633 FO
  24   24 4273  688 FO
  24   24 4216  663 FO
  24   24 4260  619 FO
  24   24 4220  612 FO
  24   24 4306  688 FO
  24   24 4222  642 FO
  24   24 4294  684 FO
  24   24 4247  624 FO
  24   24 4637 1081 FO
gs 3329 216 1816 866 rc
gr

  24   24 4897 1081 PO
  24   24 5097  881 PO
  24   24 4652  971 PO
  24   24 4399  715 PO
  24   24 4396  671 PO
  24   24 4483  710 PO
  24   24 4378  716 PO
  24   24 4365  678 PO
  24   24 4478  703 PO
  24   24 4414  729 PO
  24   24 4401  694 PO
  24   24 4329  638 PO
  24   24 4325  653 PO
  24   24 4312  646 PO
  24   24 4325  644 PO
  24   24 4409  644 PO
  24   24 4309  682 PO
  24   24 4295  577 PO
  24   24 4255  656 PO
  24   24 4404  627 PO
  24   24 4343  651 PO
  24   24 4331  655 PO
  24   24 4283  675 PO
  24   24 4869  971 PO
  24   24 4685  886 PO
  24   24 4722  853 PO
  24   24 4649  871 PO
  24   24 4796  763 PO
  24   24 4689  974 PO
  24   24 4530  793 PO
  24   24 4709  778 PO
  24   24 4909  876 PO
  24   24 4153  578 PO
  24   24 4204  645 PO
  24   24 4215  595 PO
  24   24 4146  619 PO
  24   24 4188  680 PO
  24   24 4150  656 PO
  24   24 4152  582 PO
  24   24 4221  629 PO
  24   24 4176  654 PO
  24   24 4704  849 PO
  24   24 4534  958 PO
  24   24 4499  897 PO
  24   24 4636  837 PO
  24   24 4389  791 PO
  24   24 4555  827 PO
  24   24 4295  668 PO
  24   24 4291  698 PO
  24   24 4225  625 PO
  24   24 4279  682 PO
  24   24 4291  641 PO
  24   24 4374  691 PO
  24   24 4275  636 PO
  24   24 4218  631 PO
  24   24 4262  667 PO
  24   24 4222  636 PO
  24   24 4369  657 PO
  24   24 4309  676 PO
  24   24 4224  648 PO
  24   24 4297  684 PO
  24   24 4250  688 PO
  24   24 4969  847 PO
  24   24 4815  917 PO
  24   24 4739  859 PO
  24   24 4782  844 PO
  24   24 4615  805 PO
  24   24 5010 1004 PO
  24   24 4849  793 PO
  24   24 4565 1081 PO
  24   24 4637  814 PO
  24   24 4355  880 PO
  24   24 4295  607 PO
  24   24 4229  641 PO
  24   24 4282  656 PO
  24   24 4294  630 PO
  24   24 4279  694 PO
  24   24 4221  581 PO
  24   24 4265  595 PO
  24   24 4225  648 PO
  24   24 4312  627 PO
  24   24 4228  612 PO
  24   24 4300  680 PO
  24   24 4253  633 PO
  24   24 4504 1081 PO
  24   24 4670 1081 PO
  24   24 4381  654 PO
  24   24 4282  674 PO
  24   24 4269  669 PO
  24   24 4376  619 PO
  24   24 4316  729 PO
  24   24 4304  721 PO
  24   24 4377  643 PO
  24   24 4279  634 PO
  24   24 4265  704 PO
  24   24 4225  654 PO
  24   24 4372  659 PO
  24   24 4312  710 PO
  24   24 4300  670 PO
  24   24 4253  649 PO
  24   24 4803  856 PO
  24   24 4962  851 PO
  24   24 4847  872 PO
  24   24 4676  881 PO
  24   24 4868  815 PO
  24   24 5083  829 PO
  24   24 4158  571 PO
  24   24 4201  703 PO
  24   24 4162  615 PO
  24   24 4164  584 PO
  24   24 4234  735 PO
  24   24 4189  649 PO
  24   24 4625  845 PO
  24   24 4771  843 PO
  24   24 4508  775 PO
  24   24 4685  736 PO
  24   24 4266  744 PO
  24   24 4209  674 PO
  24   24 4253  594 PO
  24   24 4213  624 PO
  24   24 4359  654 PO
  24   24 4300  695 PO
  24   24 4216  674 PO
  24   24 4288  718 PO
  24   24 4241  677 PO
  24   24 4661  981 PO
  24   24 4702  887 PO
  24   24 4541  861 PO
  24   24 4923  963 PO
  24   24 5055 1081 PO
  24   24 5144  947 PO
  24   24 4897 1081 FO
  24   24 5097  881 FO
  24   24 4652  971 FO
  24   24 4399  715 FO
  24   24 4396  671 FO
  24   24 4483  710 FO
  24   24 4378  716 FO
  24   24 4365  678 FO
  24   24 4478  703 FO
  24   24 4414  729 FO
  24   24 4401  694 FO
  24   24 4329  638 FO
  24   24 4325  653 FO
  24   24 4312  646 FO
  24   24 4325  644 FO
  24   24 4409  644 FO
  24   24 4309  682 FO
  24   24 4295  577 FO
  24   24 4255  656 FO
  24   24 4404  627 FO
  24   24 4343  651 FO
  24   24 4331  655 FO
  24   24 4283  675 FO
  24   24 4869  971 FO
  24   24 4685  886 FO
  24   24 4722  853 FO
  24   24 4649  871 FO
  24   24 4796  763 FO
  24   24 4689  974 FO
  24   24 4530  793 FO
  24   24 4709  778 FO
  24   24 4909  876 FO
  24   24 4153  578 FO
  24   24 4204  645 FO
  24   24 4215  595 FO
  24   24 4146  619 FO
  24   24 4188  680 FO
  24   24 4150  656 FO
  24   24 4152  582 FO
  24   24 4221  629 FO
  24   24 4176  654 FO
  24   24 4704  849 FO
  24   24 4534  958 FO
  24   24 4499  897 FO
  24   24 4636  837 FO
  24   24 4389  791 FO
  24   24 4555  827 FO
  24   24 4295  668 FO
  24   24 4291  698 FO
  24   24 4225  625 FO
  24   24 4279  682 FO
  24   24 4291  641 FO
  24   24 4374  691 FO
  24   24 4275  636 FO
  24   24 4218  631 FO
  24   24 4262  667 FO
  24   24 4222  636 FO
  24   24 4369  657 FO
  24   24 4309  676 FO
  24   24 4224  648 FO
  24   24 4297  684 FO
  24   24 4250  688 FO
  24   24 4969  847 FO
  24   24 4815  917 FO
  24   24 4739  859 FO
  24   24 4782  844 FO
  24   24 4615  805 FO
  24   24 5010 1004 FO
  24   24 4849  793 FO
  24   24 4565 1081 FO
  24   24 4637  814 FO
  24   24 4355  880 FO
  24   24 4295  607 FO
  24   24 4229  641 FO
  24   24 4282  656 FO
  24   24 4294  630 FO
  24   24 4279  694 FO
  24   24 4221  581 FO
  24   24 4265  595 FO
  24   24 4225  648 FO
  24   24 4312  627 FO
  24   24 4228  612 FO
  24   24 4300  680 FO
  24   24 4253  633 FO
  24   24 4504 1081 FO
  24   24 4670 1081 FO
  24   24 4381  654 FO
  24   24 4282  674 FO
  24   24 4269  669 FO
  24   24 4376  619 FO
  24   24 4316  729 FO
  24   24 4304  721 FO
  24   24 4377  643 FO
  24   24 4279  634 FO
  24   24 4265  704 FO
  24   24 4225  654 FO
  24   24 4372  659 FO
  24   24 4312  710 FO
  24   24 4300  670 FO
  24   24 4253  649 FO
  24   24 4803  856 FO
  24   24 4962  851 FO
  24   24 4847  872 FO
  24   24 4676  881 FO
  24   24 4868  815 FO
  24   24 5083  829 FO
  24   24 4158  571 FO
  24   24 4201  703 FO
  24   24 4162  615 FO
  24   24 4164  584 FO
  24   24 4234  735 FO
  24   24 4189  649 FO
  24   24 4625  845 FO
  24   24 4771  843 FO
  24   24 4508  775 FO
  24   24 4685  736 FO
  24   24 4266  744 FO
  24   24 4209  674 FO
  24   24 4253  594 FO
  24   24 4213  624 FO
  24   24 4359  654 FO
  24   24 4300  695 FO
  24   24 4216  674 FO
  24   24 4288  718 FO
  24   24 4241  677 FO
  24   24 4661  981 FO
  24   24 4702  887 FO
  24   24 4541  861 FO
  24   24 4923  963 FO
  24   24 5055 1081 FO
  24   24 5144  947 FO
gs 3329 216 1816 866 rc
gr

  24   24 4794 1081 PO
  24   24 4278  590 PO
  24   24 4221  591 PO
  24   24 4265  661 PO
  24   24 4225  568 PO
  24   24 4312  661 PO
  24   24 4227  612 PO
  24   24 4300  657 PO
  24   24 4253  637 PO
  24   24 4933 1081 PO
  24   24 4517 1068 PO
  24   24 4459  679 PO
  24   24 4396  705 PO
  24   24 4383  701 PO
  24   24 4355  738 PO
  24   24 4296  683 PO
  24   24 4284  681 PO
  24   24 4237  688 PO
  24   24 4474  896 PO
  24   24 4648  920 PO
  24   24 4842  958 PO
  24   24 4157  610 PO
  24   24 4227  706 PO
  24   24 4182  616 PO
  24   24 4609  777 PO
  24   24 4795  766 PO
  24   24 4342  592 PO
  24   24 4283  634 PO
  24   24 4200  643 PO
  24   24 4271  622 PO
  24   24 4225  738 PO
  24   24 4512  908 PO
  24   24 4887  954 PO
  24   24 4587 1012 PO
  24   24 4242  648 PO
  24   24 4161  654 PO
  24   24 4231  667 PO
  24   24 4186  688 PO
  24   24 4794 1081 FO
  24   24 4278  590 FO
  24   24 4221  591 FO
  24   24 4265  661 FO
  24   24 4225  568 FO
  24   24 4312  661 FO
  24   24 4227  612 FO
  24   24 4300  657 FO
  24   24 4253  637 FO
  24   24 4933 1081 FO
  24   24 4517 1068 FO
  24   24 4459  679 FO
  24   24 4396  705 FO
  24   24 4383  701 FO
  24   24 4355  738 FO
  24   24 4296  683 FO
  24   24 4284  681 FO
  24   24 4237  688 FO
  24   24 4474  896 FO
  24   24 4648  920 FO
  24   24 4842  958 FO
  24   24 4157  610 FO
  24   24 4227  706 FO
  24   24 4182  616 FO
  24   24 4609  777 FO
  24   24 4795  766 FO
  24   24 4342  592 FO
  24   24 4283  634 FO
  24   24 4200  643 FO
  24   24 4271  622 FO
  24   24 4225  738 FO
  24   24 4512  908 FO
  24   24 4887  954 FO
  24   24 4587 1012 FO
  24   24 4242  648 FO
  24   24 4161  654 FO
  24   24 4231  667 FO
  24   24 4186  688 FO
gs 3329 216 1816 866 rc
24 w
0 sg
1815 761 3329 271 2 MP stroke
gr

24 w
0 sg
3686  121 mt 
(R = -0.838 - p = 0.0) s
3883 1365 mt 
(Sqrt\(CV) s
%%IncludeResource: font Helvetica
/Helvetica /ISOLatin1Encoding 96 FMSR

4314 1425 mt 
(i) s
%%IncludeResource: font Helvetica
/Helvetica /ISOLatin1Encoding 120 FMSR

4335 1365 mt 
( CV) s
%%IncludeResource: font Helvetica
/Helvetica /ISOLatin1Encoding 96 FMSR

4535 1425 mt 
(j) s
%%IncludeResource: font Helvetica
/Helvetica /ISOLatin1Encoding 120 FMSR

4556 1365 mt 
(\)) s
%%IncludeResource: font Symbol
/Symbol /ISOLatin1Encoding 120 FMSR

2974  711 mt  -90 rotate
(r) s
90 rotate
%%IncludeResource: font Helvetica
/Helvetica /ISOLatin1Encoding 96 FMSR

3034  646 mt  -90 rotate
(T) s
90 rotate
6 w

end %%Color Dict

eplot
%%EndObject

epage
end

showpage

%%Trailer
%%EOF
