%!PS-Adobe-3.0 EPSF-3.0
%%Creator: MATLAB, The MathWorks, Inc. Version 8.0.0.783 (R2012b). Operating System: Darwin 10.8.0 Darwin Kernel Version 10.8.0: Tue Jun  7 16:33:36 PDT 2011; root:xnu-1504.15.3~1/RELEASE_I386 i386.
%%Title: ./c_vs_rate_trimmed_current.eps
%%CreationDate: 11/02/2013  13:41:10
%%DocumentNeededFonts: Helvetica
%%DocumentProcessColors: Cyan Magenta Yellow Black
%%LanguageLevel: 2
%%Pages: 1
%%BoundingBox:    15     3   400   276
%%EndComments

%%BeginProlog
% MathWorks dictionary
/MathWorks 160 dict begin
% definition operators
/bdef {bind def} bind def
/ldef {load def} bind def
/xdef {exch def} bdef
/xstore {exch store} bdef
% operator abbreviations
/c  /clip ldef
/cc /concat ldef
/cp /closepath ldef
/gr /grestore ldef
/gs /gsave ldef
/mt /moveto ldef
/np /newpath ldef
/cm /currentmatrix ldef
/sm /setmatrix ldef
/rm /rmoveto ldef
/rl /rlineto ldef
/s {show newpath} bdef
/sc {setcmykcolor} bdef
/sr /setrgbcolor ldef
/sg /setgray ldef
/w /setlinewidth ldef
/j /setlinejoin ldef
/cap /setlinecap ldef
/rc {rectclip} bdef
/rf {rectfill} bdef
% page state control
/pgsv () def
/bpage {/pgsv save def} bdef
/epage {pgsv restore} bdef
/bplot /gsave ldef
/eplot {stroke grestore} bdef
% orientation switch
/portraitMode 0 def /landscapeMode 1 def /rotateMode 2 def
% coordinate system mappings
/dpi2point 0 def
% font control
/FontSize 0 def
/FMS {/FontSize xstore findfont [FontSize 0 0 FontSize neg 0 0]
  makefont setfont} bdef
/reencode {exch dup where {pop load} {pop StandardEncoding} ifelse
  exch dup 3 1 roll findfont dup length dict begin
  { 1 index /FID ne {def}{pop pop} ifelse } forall
  /Encoding exch def currentdict end definefont pop} bdef
/isroman {findfont /CharStrings get /Agrave known} bdef
/FMSR {3 1 roll 1 index dup isroman {reencode} {pop pop} ifelse
  exch FMS} bdef
/csm {1 dpi2point div -1 dpi2point div scale neg translate
 dup landscapeMode eq {pop -90 rotate}
  {rotateMode eq {90 rotate} if} ifelse} bdef
% line types: solid, dotted, dashed, dotdash
/SO { [] 0 setdash } bdef
/DO { [.5 dpi2point mul 4 dpi2point mul] 0 setdash } bdef
/DA { [6 dpi2point mul] 0 setdash } bdef
/DD { [.5 dpi2point mul 4 dpi2point mul 6 dpi2point mul 4
  dpi2point mul] 0 setdash } bdef
% macros for lines and objects
/L {lineto stroke} bdef
/MP {3 1 roll moveto 1 sub {rlineto} repeat} bdef
/AP {{rlineto} repeat} bdef
/PDlw -1 def
/W {/PDlw currentlinewidth def setlinewidth} def
/PP {closepath eofill} bdef
/DP {closepath stroke} bdef
/MR {4 -2 roll moveto dup  0 exch rlineto exch 0 rlineto
  neg 0 exch rlineto closepath} bdef
/FR {MR stroke} bdef
/PR {MR fill} bdef
/L1i {{currentfile picstr readhexstring pop} image} bdef
/tMatrix matrix def
/MakeOval {newpath tMatrix currentmatrix pop translate scale
0 0 1 0 360 arc tMatrix setmatrix} bdef
/FO {MakeOval stroke} bdef
/PO {MakeOval fill} bdef
/PD {currentlinewidth 2 div 0 360 arc fill
   PDlw -1 eq not {PDlw w /PDlw -1 def} if} def
/FA {newpath tMatrix currentmatrix pop translate scale
  0 0 1 5 -2 roll arc tMatrix setmatrix stroke} bdef
/PA {newpath tMatrix currentmatrix pop	translate 0 0 moveto scale
  0 0 1 5 -2 roll arc closepath tMatrix setmatrix fill} bdef
/FAn {newpath tMatrix currentmatrix pop translate scale
  0 0 1 5 -2 roll arcn tMatrix setmatrix stroke} bdef
/PAn {newpath tMatrix currentmatrix pop translate 0 0 moveto scale
  0 0 1 5 -2 roll arcn closepath tMatrix setmatrix fill} bdef
/vradius 0 def /hradius 0 def /lry 0 def
/lrx 0 def /uly 0 def /ulx 0 def /rad 0 def
/MRR {/vradius xdef /hradius xdef /lry xdef /lrx xdef /uly xdef
  /ulx xdef newpath tMatrix currentmatrix pop ulx hradius add uly
  vradius add translate hradius vradius scale 0 0 1 180 270 arc 
  tMatrix setmatrix lrx hradius sub uly vradius add translate
  hradius vradius scale 0 0 1 270 360 arc tMatrix setmatrix
  lrx hradius sub lry vradius sub translate hradius vradius scale
  0 0 1 0 90 arc tMatrix setmatrix ulx hradius add lry vradius sub
  translate hradius vradius scale 0 0 1 90 180 arc tMatrix setmatrix
  closepath} bdef
/FRR {MRR stroke } bdef
/PRR {MRR fill } bdef
/MlrRR {/lry xdef /lrx xdef /uly xdef /ulx xdef /rad lry uly sub 2 div def
  newpath tMatrix currentmatrix pop ulx rad add uly rad add translate
  rad rad scale 0 0 1 90 270 arc tMatrix setmatrix lrx rad sub lry rad
  sub translate rad rad scale 0 0 1 270 90 arc tMatrix setmatrix
  closepath} bdef
/FlrRR {MlrRR stroke } bdef
/PlrRR {MlrRR fill } bdef
/MtbRR {/lry xdef /lrx xdef /uly xdef /ulx xdef /rad lrx ulx sub 2 div def
  newpath tMatrix currentmatrix pop ulx rad add uly rad add translate
  rad rad scale 0 0 1 180 360 arc tMatrix setmatrix lrx rad sub lry rad
  sub translate rad rad scale 0 0 1 0 180 arc tMatrix setmatrix
  closepath} bdef
/FtbRR {MtbRR stroke } bdef
/PtbRR {MtbRR fill } bdef
/stri 6 array def /dtri 6 array def
/smat 6 array def /dmat 6 array def
/tmat1 6 array def /tmat2 6 array def /dif 3 array def
/asub {/ind2 exch def /ind1 exch def dup dup
  ind1 get exch ind2 get sub exch } bdef
/tri_to_matrix {
  2 0 asub 3 1 asub 4 0 asub 5 1 asub
  dup 0 get exch 1 get 7 -1 roll astore } bdef
/compute_transform {
  dmat dtri tri_to_matrix tmat1 invertmatrix 
  smat stri tri_to_matrix tmat2 concatmatrix } bdef
/ds {stri astore pop} bdef
/dt {dtri astore pop} bdef
/db {2 copy /cols xdef /rows xdef mul dup 3 mul string
  currentfile 
  3 index 0 eq {/ASCIIHexDecode filter}
  {/ASCII85Decode filter 3 index 2 eq {/RunLengthDecode filter} if }
  ifelse exch readstring pop
  dup 0 3 index getinterval /rbmap xdef
  dup 2 index dup getinterval /gbmap xdef
  1 index dup 2 mul exch getinterval /bbmap xdef pop pop}bdef
/it {gs np dtri aload pop moveto lineto lineto cp c
  cols rows 8 compute_transform 
  rbmap gbmap bbmap true 3 colorimage gr}bdef
/il {newpath moveto lineto stroke}bdef
currentdict end def
%%EndProlog

%%BeginSetup
MathWorks begin

0 cap

end
%%EndSetup

%%Page: 1 1
%%BeginPageSetup
%%PageBoundingBox:    15     3   400   276
MathWorks begin
bpage
%%EndPageSetup

%%BeginObject: obj1
bplot

/dpi2point 12 def
portraitMode 0000 3456 csm

  188   144  4623  3275 rc
85 dict begin %Colortable dictionary
/c0 { 0.000000 0.000000 0.000000 sr} bdef
/c1 { 1.000000 1.000000 1.000000 sr} bdef
/c2 { 0.900000 0.000000 0.000000 sr} bdef
/c3 { 0.000000 0.820000 0.000000 sr} bdef
/c4 { 0.000000 0.000000 0.800000 sr} bdef
/c5 { 0.910000 0.820000 0.320000 sr} bdef
/c6 { 1.000000 0.260000 0.820000 sr} bdef
/c7 { 0.000000 0.820000 0.820000 sr} bdef
c0
1 j
1 sg
   0    0 5189 3460 rf
6 w
0 2820 4021 0 0 -2820 674 3079 4 MP
PP
-4021 0 0 2820 4021 0 0 -2820 674 3079 5 MP stroke
4 w
DO
SO
6 w
0 sg
 674 3079 mt 4695 3079 L
 674 3079 mt  674  259 L
 674 3079 mt  674 3038 L
%%IncludeResource: font Helvetica
/Helvetica /ISOLatin1Encoding 120 FMSR

 641 3224 mt 
(0) s
1478 3079 mt 1478 3038 L
1445 3224 mt 
(5) s
2282 3079 mt 2282 3038 L
2216 3224 mt 
(10) s
3086 3079 mt 3086 3038 L
3020 3224 mt 
(15) s
3890 3079 mt 3890 3038 L
3824 3224 mt 
(20) s
4695 3079 mt 4695 3038 L
4629 3224 mt 
(25) s
 674 3079 mt  714 3079 L
 473 3123 mt 
(0.2) s
 674 2609 mt  714 2609 L
 406 2653 mt 
(0.25) s
 674 2138 mt  714 2138 L
 473 2182 mt 
(0.3) s
 674 1669 mt  714 1669 L
 406 1713 mt 
(0.35) s
 674 1198 mt  714 1198 L
 473 1242 mt 
(0.4) s
 674  729 mt  714  729 L
 406  773 mt 
(0.45) s
 674  259 mt  714  259 L
 473  303 mt 
(0.5) s
gs 674 259 4022 2821 rc
gr

  36   36 1753 1143 FO
  36   36 2282 1394 FO
  36   36 1835 1108 FO
  36   36 2036 1218 FO
  36   36 1743 1112 FO
  36   36 2274 1409 FO
  36   36 1852 1063 FO
  36   36 2034 1243 FO
  36   36 1750 1128 FO
  36   36 2270 1345 FO
  36   36 1845 1161 FO
  36   36 2035 1270 FO
  36   36 1769 1107 FO
  36   36 2274 1360 FO
  36   36 1839 1182 FO
  36   36 2026 1247 FO
  36   36  780  399 FO
  36   36  770  409 FO
  36   36  782  369 FO
  36   36  765  385 FO
  36   36  782  443 FO
  36   36  767  408 FO
  36   36  730  390 FO
  36   36  761  421 FO
  36   36 1089  694 FO
  36   36  957  677 FO
  36   36 1088  836 FO
  36   36  889  542 FO
  36   36  945  547 FO
  36   36 1088  681 FO
  36   36  889  563 FO
  36   36  962  524 FO
  36   36 1094  694 FO
  36   36  895  457 FO
  36   36  950  590 FO
  36   36 2852 1471 FO
  36   36 2518 1516 FO
  36   36 2841 1489 FO
  36   36 2269 1429 FO
  36   36 2516 1437 FO
  36   36 2835 1590 FO
  36   36 2260 1365 FO
  36   36 2517 1503 FO
  36   36 2841 1522 FO
  36   36 2252 1440 FO
  36   36 2505 1399 FO
  36   36 2820 1440 FO
  36   36 2224 1395 FO
  36   36 2491 1457 FO
  36   36 2809 1523 FO
  36   36 2246 1371 FO
  36   36 2489 1422 FO
  36   36 2804 1586 FO
  36   36 2237 1380 FO
  36   36 2490 1389 FO
  36   36 2809 1516 FO
  36   36 2229 1428 FO
  36   36 2478 1482 FO
  36   36 1164  723 FO
  36   36 1008  689 FO
  36   36 1163  797 FO
  36   36  994  609 FO
  36   36 1163  851 FO
  36   36 1014  635 FO
  36   36 1170  763 FO
  36   36  999  719 FO
  36   36 2718 1491 FO
  36   36 2150 1357 FO
  36   36 2404 1400 FO
  36   36 2708 1482 FO
  36   36 2171 1400 FO
  36   36 2403 1421 FO
  36   36 2702 1525 FO
  36   36 2162 1426 FO
  36   36 2403 1404 FO
  36   36 2066 1421 FO
  36   36 2708 1490 FO
  36   36 2155 1455 FO
  36   36 2392 1458 FO
  36   36  798  407 FO
  36   36  787  394 FO
  36   36  801  420 FO
  36   36  780  399 FO
  36   36  801  473 FO
  36   36  783  440 FO
  36   36  804  411 FO
  36   36  776  486 FO
  36   36 1397  837 FO
  36   36 1615 1061 FO
  36   36 1686 1092 FO
  36   36 1861 1144 FO
  36   36 1396  960 FO
  36   36 1606 1024 FO
  36   36 1701 1057 FO
  36   36 1860 1160 FO
  36   36 1396  929 FO
  36   36 1612 1000 FO
  36   36 1695 1027 FO
  36   36 1861 1105 FO
  36   36 1407  887 FO
  36   36 1629 1001 FO
  36   36 1690 1032 FO
  36   36 1853 1136 FO
  36   36 1833 1175 FO
  36   36 2400 1378 FO
  36   36 1921 1211 FO
  36   36 2136 1270 FO
  36   36 1822 1153 FO
  36   36 2392 1395 FO
  36   36 1938 1221 FO
  36   36 2134 1299 FO
  36   36 1829 1205 FO
  36   36 2387 1445 FO
  36   36 1931 1168 FO
  36   36 2135 1285 FO
  36   36 1850 1113 FO
  36   36 2392 1450 FO
  36   36 1925 1276 FO
  36   36 2126 1286 FO
  36   36  686  313 FO
  36   36  693  287 FO
  36   36  689  351 FO
  36   36  687  313 FO
  36   36  693  347 FO
  36   36 1240  751 FO
  36   36 1405  928 FO
  36   36 1240  732 FO
  36   36 1409  900 FO
  36   36 1475  931 FO
  36   36 1248  728 FO
  36   36 1423  911 FO
  36   36 1471  958 FO
  36   36 1411  962 FO
  36   36 1625 1022 FO
  36   36 1721 1085 FO
  36   36 1884 1177 FO
  36   36 1411  919 FO
  36   36 1630 1097 FO
  36   36 1715 1011 FO
  36   36 1884 1149 FO
  36   36 1421  944 FO
  36   36 1648 1046 FO
  36   36 1710 1149 FO
  36   36 1876 1198 FO
  36   36  823  459 FO
  36   36  862  470 FO
  36   36  799  421 FO
  36   36  823  470 FO
  36   36  874  479 FO
  36   36  802  436 FO
  36   36  827  405 FO
  36   36  865  490 FO
  36   36  794  392 FO
  36   36 2794 1440 FO
  36   36 2235 1279 FO
  36   36 2476 1353 FO
  36   36 2788 1529 FO
  36   36 2226 1413 FO
  36   36 2477 1448 FO
  36   36 2794 1447 FO
  36   36 2218 1365 FO
  36   36 2466 1424 FO
  36   36  874  550 FO
  36   36  927  600 FO
  36   36  874  520 FO
  36   36  942  606 FO
  36   36  879  469 FO
  36   36  931  638 FO
  36   36 1467 1005 FO
  36   36 1697 1130 FO
  36   36 2205 1399 FO
  36   36 1801 1144 FO
  36   36 1975 1263 FO
  36   36 1467  978 FO
  36   36 1703 1059 FO
  36   36 2201 1383 FO
  36   36 1795 1087 FO
  36   36 1976 1253 FO
  36   36 1478 1029 FO
  36   36 1722 1157 FO
  36   36 2205 1429 FO
  36   36 1789 1213 FO
  36   36 1968 1241 FO
  36   36  809  372 FO
  36   36  788  404 FO
  36   36  809  408 FO
  36   36  790  435 FO
  36   36  813  419 FO
  36   36  783  437 FO
  36   36  700  315 FO
  36   36  694  304 FO
  36   36  707  361 FO
  36   36  700  305 FO
  36   36 1874 1172 FO
  36   36 2469 1435 FO
  36   36 1995 1264 FO
  36   36 2200 1307 FO
  36   36 1881 1204 FO
  36   36 2464 1384 FO
  36   36 1988 1208 FO
  36   36 2201 1277 FO
  36   36 1903 1202 FO
  36   36 2469 1470 FO
  36   36 1981 1248 FO
  36   36 2191 1293 FO
  36   36  687  290 FO
  36   36  686  306 FO
  36   36 1240  871 FO
  36   36 1408  916 FO
  36   36 1474  979 FO
  36   36 1248  819 FO
  36   36 1422  939 FO
  36   36 1470 1006 FO
  36   36 1404  893 FO
  36   36 1622 1102 FO
  36   36 1706 1086 FO
  36   36 1873 1227 FO
  36   36 1414  989 FO
  36   36 1639 1039 FO
  36   36 1701 1191 FO
  36   36 1865 1194 FO
  36   36  826  464 FO
  36   36  878  544 FO
  36   36  805  489 FO
  36   36  830  415 FO
  36   36  869  513 FO
  36   36  797  468 FO
  36   36 2778 1429 FO
  36   36 2218 1440 FO
  36   36 2468 1407 FO
  36   36 2784 1508 FO
  36   36 2210 1433 FO
  36   36 2457 1414 FO
  36   36  866  544 FO
  36   36  931  528 FO
  36   36  871  432 FO
  36   36  920  576 FO
  36   36 1718 1120 FO
  36   36 2223 1409 FO
  36   36 1811 1099 FO
  36   36 1995 1284 FO
  36   36 1489 1016 FO
  36   36 1737 1101 FO
  36   36 2227 1407 FO
  36   36 1805 1224 FO
  36   36 1986 1267 FO
  36   36  802  473 FO
  36   36  784  457 FO
  36   36  805  409 FO
  36   36  777  488 FO
  36   36  694  294 FO
  36   36  706  298 FO
  36   36  692  346 FO
  36   36  699  301 FO
  36   36 1879 1120 FO
  36   36 2462 1364 FO
  36   36 1987 1216 FO
  36   36 2199 1213 FO
  36   36 1902 1218 FO
  36   36 2467 1467 FO
  36   36 1980 1269 FO
  36   36 2189 1246 FO
  36   36  688  335 FO
  36   36  694  358 FO
  36   36 1248  809 FO
  36   36 1422  908 FO
  36   36 1470  983 FO
  36   36 1419  938 FO
  36   36 1645 1072 FO
  36   36 1707 1106 FO
  36   36 1872 1187 FO
  36   36  830  448 FO
  36   36  869  552 FO
  36   36  797  437 FO
  36   36 2778 1477 FO
  36   36 2206 1404 FO
  36   36 2452 1422 FO
  36   36  883  447 FO
  36   36  935  605 FO
  36   36 1485 1006 FO
  36   36 1731 1126 FO
  36   36 2218 1397 FO
  36   36 1799 1104 FO
  36   36 1979 1264 FO
  36   36  808  429 FO
  36   36  779  449 FO
  36   36  706  328 FO
  36   36 1902 1136 FO
  36   36 2468 1410 FO
  36   36 1981 1288 FO
  36   36 2190 1311 FO
gs 674 259 4022 2821 rc
gr

1936 3367 mt 
(Geometric mean rate \(AP/s\)) s
 324 2401 mt  -90 rotate
(Trimmed current correlation) s
90 rotate
3890  628 mt 
(N) s
%%IncludeResource: font Helvetica
/Helvetica /ISOLatin1Encoding 96 FMSR

3976  688 mt 
(cells) s
%%IncludeResource: font Helvetica
/Helvetica /ISOLatin1Encoding 120 FMSR

4168  628 mt 
(=5) s
3890  816 mt 
(N) s
%%IncludeResource: font Helvetica
/Helvetica /ISOLatin1Encoding 96 FMSR

3976  876 mt 
(pairs) s
%%IncludeResource: font Helvetica
/Helvetica /ISOLatin1Encoding 120 FMSR

4184  816 mt 
(=291) s

end %%Color Dict

eplot
%%EndObject

epage
end

showpage

%%Trailer
%%EOF
