%!PS-Adobe-3.0 EPSF-3.0
%%Creator: MATLAB, The MathWorks, Inc. Version 7.14.0.739 (R2012a). Operating System: Linux 2.6.33.7.2-rt30-rt #1 SMP PREEMPT RT Tue Apr 17 15:22:21 CEST 2012 x86_64.
%%Title: ./c_vs_rhoT.eps
%%CreationDate: 05/10/2013  20:50:21
%%DocumentNeededFonts: Helvetica
%%DocumentProcessColors: Cyan Magenta Yellow Black
%%LanguageLevel: 2
%%Pages: 1
%%BoundingBox:     6    18   335   335
%%EndComments

%%BeginProlog
% MathWorks dictionary
/MathWorks 160 dict begin
% definition operators
/bdef {bind def} bind def
/ldef {load def} bind def
/xdef {exch def} bdef
/xstore {exch store} bdef
% operator abbreviations
/c  /clip ldef
/cc /concat ldef
/cp /closepath ldef
/gr /grestore ldef
/gs /gsave ldef
/mt /moveto ldef
/np /newpath ldef
/cm /currentmatrix ldef
/sm /setmatrix ldef
/rm /rmoveto ldef
/rl /rlineto ldef
/s {show newpath} bdef
/sc {setcmykcolor} bdef
/sr /setrgbcolor ldef
/sg /setgray ldef
/w /setlinewidth ldef
/j /setlinejoin ldef
/cap /setlinecap ldef
/rc {rectclip} bdef
/rf {rectfill} bdef
% page state control
/pgsv () def
/bpage {/pgsv save def} bdef
/epage {pgsv restore} bdef
/bplot /gsave ldef
/eplot {stroke grestore} bdef
% orientation switch
/portraitMode 0 def /landscapeMode 1 def /rotateMode 2 def
% coordinate system mappings
/dpi2point 0 def
% font control
/FontSize 0 def
/FMS {/FontSize xstore findfont [FontSize 0 0 FontSize neg 0 0]
  makefont setfont} bdef
/reencode {exch dup where {pop load} {pop StandardEncoding} ifelse
  exch dup 3 1 roll findfont dup length dict begin
  { 1 index /FID ne {def}{pop pop} ifelse } forall
  /Encoding exch def currentdict end definefont pop} bdef
/isroman {findfont /CharStrings get /Agrave known} bdef
/FMSR {3 1 roll 1 index dup isroman {reencode} {pop pop} ifelse
  exch FMS} bdef
/csm {1 dpi2point div -1 dpi2point div scale neg translate
 dup landscapeMode eq {pop -90 rotate}
  {rotateMode eq {90 rotate} if} ifelse} bdef
% line types: solid, dotted, dashed, dotdash
/SO { [] 0 setdash } bdef
/DO { [.5 dpi2point mul 4 dpi2point mul] 0 setdash } bdef
/DA { [6 dpi2point mul] 0 setdash } bdef
/DD { [.5 dpi2point mul 4 dpi2point mul 6 dpi2point mul 4
  dpi2point mul] 0 setdash } bdef
% macros for lines and objects
/L {lineto stroke} bdef
/MP {3 1 roll moveto 1 sub {rlineto} repeat} bdef
/AP {{rlineto} repeat} bdef
/PDlw -1 def
/W {/PDlw currentlinewidth def setlinewidth} def
/PP {closepath eofill} bdef
/DP {closepath stroke} bdef
/MR {4 -2 roll moveto dup  0 exch rlineto exch 0 rlineto
  neg 0 exch rlineto closepath} bdef
/FR {MR stroke} bdef
/PR {MR fill} bdef
/L1i {{currentfile picstr readhexstring pop} image} bdef
/tMatrix matrix def
/MakeOval {newpath tMatrix currentmatrix pop translate scale
0 0 1 0 360 arc tMatrix setmatrix} bdef
/FO {MakeOval stroke} bdef
/PO {MakeOval fill} bdef
/PD {currentlinewidth 2 div 0 360 arc fill
   PDlw -1 eq not {PDlw w /PDlw -1 def} if} def
/FA {newpath tMatrix currentmatrix pop translate scale
  0 0 1 5 -2 roll arc tMatrix setmatrix stroke} bdef
/PA {newpath tMatrix currentmatrix pop	translate 0 0 moveto scale
  0 0 1 5 -2 roll arc closepath tMatrix setmatrix fill} bdef
/FAn {newpath tMatrix currentmatrix pop translate scale
  0 0 1 5 -2 roll arcn tMatrix setmatrix stroke} bdef
/PAn {newpath tMatrix currentmatrix pop translate 0 0 moveto scale
  0 0 1 5 -2 roll arcn closepath tMatrix setmatrix fill} bdef
/vradius 0 def /hradius 0 def /lry 0 def
/lrx 0 def /uly 0 def /ulx 0 def /rad 0 def
/MRR {/vradius xdef /hradius xdef /lry xdef /lrx xdef /uly xdef
  /ulx xdef newpath tMatrix currentmatrix pop ulx hradius add uly
  vradius add translate hradius vradius scale 0 0 1 180 270 arc 
  tMatrix setmatrix lrx hradius sub uly vradius add translate
  hradius vradius scale 0 0 1 270 360 arc tMatrix setmatrix
  lrx hradius sub lry vradius sub translate hradius vradius scale
  0 0 1 0 90 arc tMatrix setmatrix ulx hradius add lry vradius sub
  translate hradius vradius scale 0 0 1 90 180 arc tMatrix setmatrix
  closepath} bdef
/FRR {MRR stroke } bdef
/PRR {MRR fill } bdef
/MlrRR {/lry xdef /lrx xdef /uly xdef /ulx xdef /rad lry uly sub 2 div def
  newpath tMatrix currentmatrix pop ulx rad add uly rad add translate
  rad rad scale 0 0 1 90 270 arc tMatrix setmatrix lrx rad sub lry rad
  sub translate rad rad scale 0 0 1 270 90 arc tMatrix setmatrix
  closepath} bdef
/FlrRR {MlrRR stroke } bdef
/PlrRR {MlrRR fill } bdef
/MtbRR {/lry xdef /lrx xdef /uly xdef /ulx xdef /rad lrx ulx sub 2 div def
  newpath tMatrix currentmatrix pop ulx rad add uly rad add translate
  rad rad scale 0 0 1 180 360 arc tMatrix setmatrix lrx rad sub lry rad
  sub translate rad rad scale 0 0 1 0 180 arc tMatrix setmatrix
  closepath} bdef
/FtbRR {MtbRR stroke } bdef
/PtbRR {MtbRR fill } bdef
/stri 6 array def /dtri 6 array def
/smat 6 array def /dmat 6 array def
/tmat1 6 array def /tmat2 6 array def /dif 3 array def
/asub {/ind2 exch def /ind1 exch def dup dup
  ind1 get exch ind2 get sub exch } bdef
/tri_to_matrix {
  2 0 asub 3 1 asub 4 0 asub 5 1 asub
  dup 0 get exch 1 get 7 -1 roll astore } bdef
/compute_transform {
  dmat dtri tri_to_matrix tmat1 invertmatrix 
  smat stri tri_to_matrix tmat2 concatmatrix } bdef
/ds {stri astore pop} bdef
/dt {dtri astore pop} bdef
/db {2 copy /cols xdef /rows xdef mul dup 3 mul string
  currentfile 
  3 index 0 eq {/ASCIIHexDecode filter}
  {/ASCII85Decode filter 3 index 2 eq {/RunLengthDecode filter} if }
  ifelse exch readstring pop
  dup 0 3 index getinterval /rbmap xdef
  dup 2 index dup getinterval /gbmap xdef
  1 index dup 2 mul exch getinterval /bbmap xdef pop pop}bdef
/it {gs np dtri aload pop moveto lineto lineto cp c
  cols rows 8 compute_transform 
  rbmap gbmap bbmap true 3 colorimage gr}bdef
/il {newpath moveto lineto stroke}bdef
currentdict end def
%%EndProlog

%%BeginSetup
MathWorks begin

0 cap

end
%%EndSetup

%%Page: 1 1
%%BeginPageSetup
%%PageBoundingBox:     6    18   335   335
MathWorks begin
bpage
%%EndPageSetup

%%BeginObject: obj1
bplot

/dpi2point 12 def
portraitMode 0000 4320 csm

   79   295  3949  3804 rc
76 dict begin %Colortable dictionary
/c0 { 0.000000 0.000000 0.000000 sr} bdef
/c1 { 1.000000 1.000000 1.000000 sr} bdef
/c2 { 0.900000 0.000000 0.000000 sr} bdef
/c3 { 0.000000 0.820000 0.000000 sr} bdef
/c4 { 0.000000 0.000000 0.800000 sr} bdef
/c5 { 0.910000 0.820000 0.320000 sr} bdef
/c6 { 1.000000 0.260000 0.820000 sr} bdef
/c7 { 0.000000 0.820000 0.820000 sr} bdef
c0
1 j
1 sg
   0    0 4321 4321 rf
6 w
0 3348 3349 0 0 -3348 561 3758 4 MP
PP
-3349 0 0 3348 3349 0 0 -3348 561 3758 5 MP stroke
4 w
DO
SO
6 w
0 sg
 561 3758 mt 3910 3758 L
 561 3758 mt  561  410 L
 561 3758 mt  561 3725 L
%%IncludeResource: font Helvetica
/Helvetica /ISOLatin1Encoding 120 FMSR

 528 3904 mt 
(0) s
1231 3758 mt 1231 3725 L
1148 3904 mt 
(0.2) s
1901 3758 mt 1901 3725 L
1818 3904 mt 
(0.4) s
2570 3758 mt 2570 3725 L
2487 3904 mt 
(0.6) s
3240 3758 mt 3240 3725 L
3157 3904 mt 
(0.8) s
3910 3758 mt 3910 3725 L
3877 3904 mt 
(1) s
 561 3758 mt  595 3758 L
 461 3802 mt 
(0) s
 561 3423 mt  595 3423 L
 361 3467 mt 
(0.1) s
 561 3088 mt  595 3088 L
 361 3132 mt 
(0.2) s
 561 2754 mt  595 2754 L
 361 2798 mt 
(0.3) s
 561 2419 mt  595 2419 L
 361 2463 mt 
(0.4) s
 561 2084 mt  595 2084 L
 361 2128 mt 
(0.5) s
 561 1749 mt  595 1749 L
 361 1793 mt 
(0.6) s
 561 1414 mt  595 1414 L
 361 1458 mt 
(0.7) s
 561 1080 mt  595 1080 L
 361 1124 mt 
(0.8) s
 561  745 mt  595  745 L
 361  789 mt 
(0.9) s
 561  410 mt  595  410 L
 461  454 mt 
(1) s
gs 561 410 3350 3349 rc
DA
24 w
0.4 sg
3349 -3348 561 3758 2 MP stroke
SO
6 w
0.6 sg
335 -998 335 -440 335 -202 335 -219 334 -559 335 82 335 -332 335 -172 
335 -99 226 -198 670 3759 11 MP stroke
gr

0.6 sg
gs 621 573 3339 3236 rc
  24   24  896 3561 PO
  24   24 1231 3462 PO
  24   24 1566 3290 PO
  24   24 1901 2958 PO
  24   24 2236 3040 PO
  24   24 2570 2481 PO
  24   24 2905 2262 PO
  24   24 3240 2060 PO
  24   24 3575 1620 PO
  24   24 3910  622 PO
  24   24  896 3561 FO
  24   24 1231 3462 FO
  24   24 1566 3290 FO
  24   24 1901 2958 FO
  24   24 2236 3040 FO
  24   24 2570 2481 FO
  24   24 2905 2262 FO
  24   24 3240 2060 FO
  24   24 3575 1620 FO
  24   24 3910  622 FO
gr

gs 561 410 3350 3349 rc
335 -827 335 -496 335 -197 335 -223 334 -268 335 -109 335 -304 335 -111 
335 -235 335 -175 561 3754 11 MP stroke
gr

gs 512 760 3448 3044 rc
  24   24  561 3754 PO
  24   24  896 3579 PO
  24   24 1231 3344 PO
  24   24 1566 3233 PO
  24   24 1901 2929 PO
  24   24 2236 2820 PO
  24   24 2570 2552 PO
  24   24 2905 2329 PO
  24   24 3240 2132 PO
  24   24 3575 1636 PO
  24   24 3910  809 PO
  24   24  561 3754 FO
  24   24  896 3579 FO
  24   24 1231 3344 FO
  24   24 1566 3233 FO
  24   24 1901 2929 FO
  24   24 2236 2820 FO
  24   24 2570 2552 FO
  24   24 2905 2329 FO
  24   24 3240 2132 FO
  24   24 3575 1636 FO
  24   24 3910  809 FO
gr

gs 561 410 3350 3349 rc
335 -564 335 -569 335 -118 335 -304 334 -315 335 -247 335 -245 335 62 
335 -336 335 -50 561 3657 11 MP stroke
gr

gs 512 922 3448 2785 rc
  24   24  561 3657 PO
  24   24  896 3607 PO
  24   24 1231 3271 PO
  24   24 1566 3333 PO
  24   24 1901 3088 PO
  24   24 2236 2841 PO
  24   24 2570 2526 PO
  24   24 2905 2222 PO
  24   24 3240 2104 PO
  24   24 3575 1535 PO
  24   24 3910  971 PO
  24   24  561 3657 FO
  24   24  896 3607 FO
  24   24 1231 3271 FO
  24   24 1566 3333 FO
  24   24 1901 3088 FO
  24   24 2236 2841 FO
  24   24 2570 2526 FO
  24   24 2905 2222 FO
  24   24 3240 2104 FO
  24   24 3575 1535 FO
  24   24 3910  971 FO
gr

gs 561 410 3350 3349 rc
335 -568 335 -363 335 -287 335 -244 334 -244 335 -148 335 -316 335 -61 
335 -331 74 -55 822 3759 11 MP stroke
gr

gs 773 1093 3187 2716 rc
  24   24  896 3704 PO
  24   24 1231 3373 PO
  24   24 1566 3312 PO
  24   24 1901 2996 PO
  24   24 2236 2848 PO
  24   24 2570 2604 PO
  24   24 2905 2360 PO
  24   24 3240 2073 PO
  24   24 3575 1710 PO
  24   24 3910 1142 PO
  24   24  896 3704 FO
  24   24 1231 3373 FO
  24   24 1566 3312 FO
  24   24 1901 2996 FO
  24   24 2236 2848 FO
  24   24 2570 2604 FO
  24   24 2905 2360 FO
  24   24 3240 2073 FO
  24   24 3575 1710 FO
  24   24 3910 1142 FO
gr

gs 561 410 3350 3349 rc
335 -433 335 -470 335 -186 335 -215 334 -302 335 -116 335 -350 335 -46 
335 -199 302 -154 594 3759 11 MP stroke
gr

gs 545 1239 3415 2570 rc
  24   24  896 3605 PO
  24   24 1231 3406 PO
  24   24 1566 3360 PO
  24   24 1901 3010 PO
  24   24 2236 2894 PO
  24   24 2570 2592 PO
  24   24 2905 2377 PO
  24   24 3240 2191 PO
  24   24 3575 1721 PO
  24   24 3910 1288 PO
  24   24  896 3605 FO
  24   24 1231 3406 FO
  24   24 1566 3360 FO
  24   24 1901 3010 FO
  24   24 2236 2894 FO
  24   24 2570 2592 FO
  24   24 2905 2377 FO
  24   24 3240 2191 FO
  24   24 3575 1721 FO
  24   24 3910 1288 FO
gr

gs 561 410 3350 3349 rc
335 -474 335 -333 335 -250 335 -68 334 -432 335 -99 335 -167 335 -94 
335 -269 277 -157 619 3759 11 MP stroke
gr

gs 570 1367 3390 2442 rc
  24   24  896 3602 PO
  24   24 1231 3333 PO
  24   24 1566 3239 PO
  24   24 1901 3072 PO
  24   24 2236 2973 PO
  24   24 2570 2541 PO
  24   24 2905 2473 PO
  24   24 3240 2223 PO
  24   24 3575 1890 PO
  24   24 3910 1416 PO
  24   24  896 3602 FO
  24   24 1231 3333 FO
  24   24 1566 3239 FO
  24   24 1901 3072 FO
  24   24 2236 2973 FO
  24   24 2570 2541 FO
  24   24 2905 2473 FO
  24   24 3240 2223 FO
  24   24 3575 1890 FO
  24   24 3910 1416 FO
gr

gs 561 410 3350 3349 rc
335 -440 335 -248 335 -230 335 -255 334 -192 335 -250 335 -143 335 -278 
335 -154 335 102 561 3596 11 MP stroke
gr

gs 512 1459 3448 2289 rc
  24   24  561 3596 PO
  24   24  896 3698 PO
  24   24 1231 3544 PO
  24   24 1566 3266 PO
  24   24 1901 3123 PO
  24   24 2236 2873 PO
  24   24 2570 2681 PO
  24   24 2905 2426 PO
  24   24 3240 2196 PO
  24   24 3575 1948 PO
  24   24 3910 1508 PO
  24   24  561 3596 FO
  24   24  896 3698 FO
  24   24 1231 3544 FO
  24   24 1566 3266 FO
  24   24 1901 3123 FO
  24   24 2236 2873 FO
  24   24 2570 2681 FO
  24   24 2905 2426 FO
  24   24 3240 2196 FO
  24   24 3575 1948 FO
  24   24 3910 1508 FO
gr

gs 561 410 3350 3349 rc
335 -979 335 -404 335 -356 335 -222 334 -224 335 -277 335 -158 335 -293 
335 -57 335 -126 561 3730 11 MP stroke
gr

gs 512 585 3448 3195 rc
  24   24  561 3730 PO
  24   24  896 3604 PO
  24   24 1231 3547 PO
  24   24 1566 3254 PO
  24   24 1901 3096 PO
  24   24 2236 2819 PO
  24   24 2570 2595 PO
  24   24 2905 2373 PO
  24   24 3240 2017 PO
  24   24 3575 1613 PO
  24   24 3910  634 PO
  24   24  561 3730 FO
  24   24  896 3604 FO
  24   24 1231 3547 FO
  24   24 1566 3254 FO
  24   24 1901 3096 FO
  24   24 2236 2819 FO
  24   24 2570 2595 FO
  24   24 2905 2373 FO
  24   24 3240 2017 FO
  24   24 3575 1613 FO
  24   24 3910  634 FO
gr

gs 561 410 3350 3349 rc
335 -778 335 -406 335 -361 335 -253 334 -202 335 -172 335 -214 335 -282 
335 -139 298 -134 598 3759 11 MP stroke
gr

gs 549 769 3411 3040 rc
  24   24  896 3625 PO
  24   24 1231 3486 PO
  24   24 1566 3204 PO
  24   24 1901 2990 PO
  24   24 2236 2818 PO
  24   24 2570 2616 PO
  24   24 2905 2363 PO
  24   24 3240 2002 PO
  24   24 3575 1596 PO
  24   24 3910  818 PO
  24   24  896 3625 FO
  24   24 1231 3486 FO
  24   24 1566 3204 FO
  24   24 1901 2990 FO
  24   24 2236 2818 FO
  24   24 2570 2616 FO
  24   24 2905 2363 FO
  24   24 3240 2002 FO
  24   24 3575 1596 FO
  24   24 3910  818 FO
gr

gs 561 410 3350 3349 rc
335 -615 335 -379 335 -355 335 -194 334 -192 335 -228 335 -302 335 -140 
335 -225 335 -91 561 3731 11 MP stroke
gr

gs 512 961 3448 2820 rc
  24   24  561 3731 PO
  24   24  896 3640 PO
  24   24 1231 3415 PO
  24   24 1566 3275 PO
  24   24 1901 2973 PO
  24   24 2236 2745 PO
  24   24 2570 2553 PO
  24   24 2905 2359 PO
  24   24 3240 2004 PO
  24   24 3575 1625 PO
  24   24 3910 1010 PO
  24   24  561 3731 FO
  24   24  896 3640 FO
  24   24 1231 3415 FO
  24   24 1566 3275 FO
  24   24 1901 2973 FO
  24   24 2236 2745 FO
  24   24 2570 2553 FO
  24   24 2905 2359 FO
  24   24 3240 2004 FO
  24   24 3575 1625 FO
  24   24 3910 1010 FO
gr

gs 561 410 3350 3349 rc
335 -534 335 -320 335 -317 335 -406 334 -100 335 -195 335 -300 335 -269 
335 -47 263 -94 633 3759 11 MP stroke
gr

gs 584 1128 3376 2681 rc
  24   24  896 3665 PO
  24   24 1231 3618 PO
  24   24 1566 3349 PO
  24   24 1901 3049 PO
  24   24 2236 2854 PO
  24   24 2570 2754 PO
  24   24 2905 2348 PO
  24   24 3240 2031 PO
  24   24 3575 1711 PO
  24   24 3910 1177 PO
  24   24  896 3665 FO
  24   24 1231 3618 FO
  24   24 1566 3349 FO
  24   24 1901 3049 FO
  24   24 2236 2854 FO
  24   24 2570 2754 FO
  24   24 2905 2348 FO
  24   24 3240 2031 FO
  24   24 3575 1711 FO
  24   24 3910 1177 FO
gr

gs 561 410 3350 3349 rc
335 -493 335 -337 335 -353 335 -117 334 -237 335 -252 335 -139 335 -162 
335 -289 335 -2 561 3698 11 MP stroke
gr

gs 512 1268 3448 2480 rc
  24   24  561 3698 PO
  24   24  896 3696 PO
  24   24 1231 3407 PO
  24   24 1566 3245 PO
  24   24 1901 3106 PO
  24   24 2236 2854 PO
  24   24 2570 2617 PO
  24   24 2905 2500 PO
  24   24 3240 2147 PO
  24   24 3575 1810 PO
  24   24 3910 1317 PO
  24   24  561 3698 FO
  24   24  896 3696 FO
  24   24 1231 3407 FO
  24   24 1566 3245 FO
  24   24 1901 3106 FO
  24   24 2236 2854 FO
  24   24 2570 2617 FO
  24   24 2905 2500 FO
  24   24 3240 2147 FO
  24   24 3575 1810 FO
  24   24 3910 1317 FO
gr

gs 561 410 3350 3349 rc
335 -470 335 -268 335 -277 335 -274 334 -71 335 -339 335 -152 335 -208 
335 -52 335 -154 561 3686 11 MP stroke
gr

gs 512 1372 3448 2364 rc
  24   24  561 3686 PO
  24   24  896 3532 PO
  24   24 1231 3480 PO
  24   24 1566 3272 PO
  24   24 1901 3120 PO
  24   24 2236 2781 PO
  24   24 2570 2710 PO
  24   24 2905 2436 PO
  24   24 3240 2159 PO
  24   24 3575 1891 PO
  24   24 3910 1421 PO
  24   24  561 3686 FO
  24   24  896 3532 FO
  24   24 1231 3480 FO
  24   24 1566 3272 FO
  24   24 1901 3120 FO
  24   24 2236 2781 FO
  24   24 2570 2710 FO
  24   24 2905 2436 FO
  24   24 3240 2159 FO
  24   24 3575 1891 FO
  24   24 3910 1421 FO
gr

gs 561 410 3350 3349 rc
335 -983 335 -452 335 -231 335 -276 334 -254 335 -221 335 -209 335 -50 
335 -255 198 -191 698 3759 11 MP stroke
gr

gs 649 588 3311 3221 rc
  24   24  896 3568 PO
  24   24 1231 3313 PO
  24   24 1566 3263 PO
  24   24 1901 3054 PO
  24   24 2236 2833 PO
  24   24 2570 2579 PO
  24   24 2905 2303 PO
  24   24 3240 2072 PO
  24   24 3575 1620 PO
  24   24 3910  637 PO
  24   24  896 3568 FO
  24   24 1231 3313 FO
  24   24 1566 3263 FO
  24   24 1901 3054 FO
  24   24 2236 2833 FO
  24   24 2570 2579 FO
  24   24 2905 2303 FO
  24   24 3240 2072 FO
  24   24 3575 1620 FO
  24   24 3910  637 FO
gr

gs 561 410 3350 3349 rc
335 -868 335 -247 335 -440 335 -295 334 -197 335 -44 335 -386 335 -90 
335 -190 319 -153 577 3759 11 MP stroke
gr

gs 528 800 3432 3009 rc
  24   24  896 3606 PO
  24   24 1231 3416 PO
  24   24 1566 3326 PO
  24   24 1901 2940 PO
  24   24 2236 2896 PO
  24   24 2570 2699 PO
  24   24 2905 2404 PO
  24   24 3240 1964 PO
  24   24 3575 1717 PO
  24   24 3910  849 PO
  24   24  896 3606 FO
  24   24 1231 3416 FO
  24   24 1566 3326 FO
  24   24 1901 2940 FO
  24   24 2236 2896 FO
  24   24 2570 2699 FO
  24   24 2905 2404 FO
  24   24 3240 1964 FO
  24   24 3575 1717 FO
  24   24 3910  849 FO
gr

gs 561 410 3350 3349 rc
335 -680 335 -368 335 -288 335 -178 334 -361 335 -163 335 -208 335 -238 
335 -89 335 -145 561 3754 11 MP stroke
gr

gs 512 987 3448 2817 rc
  24   24  561 3754 PO
  24   24  896 3609 PO
  24   24 1231 3520 PO
  24   24 1566 3282 PO
  24   24 1901 3074 PO
  24   24 2236 2911 PO
  24   24 2570 2550 PO
  24   24 2905 2372 PO
  24   24 3240 2084 PO
  24   24 3575 1716 PO
  24   24 3910 1036 PO
  24   24  561 3754 FO
  24   24  896 3609 FO
  24   24 1231 3520 FO
  24   24 1566 3282 FO
  24   24 1901 3074 FO
  24   24 2236 2911 FO
  24   24 2570 2550 FO
  24   24 2905 2372 FO
  24   24 3240 2084 FO
  24   24 3575 1716 FO
  24   24 3910 1036 FO
gr

gs 561 410 3350 3349 rc
335 -582 335 -305 335 -394 335 -55 334 -303 335 -230 335 -216 335 -171 
335 -26 335 -196 561 3666 11 MP stroke
gr

gs 512 1139 3448 2577 rc
  24   24  561 3666 PO
  24   24  896 3470 PO
  24   24 1231 3444 PO
  24   24 1566 3273 PO
  24   24 1901 3057 PO
  24   24 2236 2827 PO
  24   24 2570 2524 PO
  24   24 2905 2469 PO
  24   24 3240 2075 PO
  24   24 3575 1770 PO
  24   24 3910 1188 PO
  24   24  561 3666 FO
  24   24  896 3470 FO
  24   24 1231 3444 FO
  24   24 1566 3273 FO
  24   24 1901 3057 FO
  24   24 2236 2827 FO
  24   24 2570 2524 FO
  24   24 2905 2469 FO
  24   24 3240 2075 FO
  24   24 3575 1770 FO
  24   24 3910 1188 FO
gr

gs 561 410 3350 3349 rc
335 -488 335 -346 335 -313 335 -193 334 -228 335 -90 335 -403 335 -106 
335 -26 256 -269 640 3759 11 MP stroke
gr

gs 591 1248 3369 2561 rc
  24   24  896 3490 PO
  24   24 1231 3464 PO
  24   24 1566 3358 PO
  24   24 1901 2955 PO
  24   24 2236 2865 PO
  24   24 2570 2637 PO
  24   24 2905 2444 PO
  24   24 3240 2131 PO
  24   24 3575 1785 PO
  24   24 3910 1297 PO
  24   24  896 3490 FO
  24   24 1231 3464 FO
  24   24 1566 3358 FO
  24   24 1901 2955 FO
  24   24 2236 2865 FO
  24   24 2570 2637 FO
  24   24 2905 2444 FO
  24   24 3240 2131 FO
  24   24 3575 1785 FO
  24   24 3910 1297 FO
gr

gs 561 410 3350 3349 rc
335 -1007 335 -317 335 -290 335 -436 334 -182 335 -107 335 -299 335 -12 
335 -326 335 -39 561 3691 11 MP stroke
gr

gs 512 627 3448 3114 rc
  24   24  561 3691 PO
  24   24  896 3652 PO
  24   24 1231 3326 PO
  24   24 1566 3314 PO
  24   24 1901 3015 PO
  24   24 2236 2908 PO
  24   24 2570 2726 PO
  24   24 2905 2290 PO
  24   24 3240 2000 PO
  24   24 3575 1683 PO
  24   24 3910  676 PO
  24   24  561 3691 FO
  24   24  896 3652 FO
  24   24 1231 3326 FO
  24   24 1566 3314 FO
  24   24 1901 3015 FO
  24   24 2236 2908 FO
  24   24 2570 2726 FO
  24   24 2905 2290 FO
  24   24 3240 2000 FO
  24   24 3575 1683 FO
  24   24 3910  676 FO
gr

gs 561 410 3350 3349 rc
335 -726 335 -531 335 -213 335 -248 334 -177 335 -317 335 -205 335 -21 
335 -287 335 -24 561 3630 11 MP stroke
gr

gs 512 832 3448 2848 rc
  24   24  561 3630 PO
  24   24  896 3606 PO
  24   24 1231 3319 PO
  24   24 1566 3298 PO
  24   24 1901 3093 PO
  24   24 2236 2776 PO
  24   24 2570 2599 PO
  24   24 2905 2351 PO
  24   24 3240 2138 PO
  24   24 3575 1607 PO
  24   24 3910  881 PO
  24   24  561 3630 FO
  24   24  896 3606 FO
  24   24 1231 3319 FO
  24   24 1566 3298 FO
  24   24 1901 3093 FO
  24   24 2236 2776 FO
  24   24 2570 2599 FO
  24   24 2905 2351 FO
  24   24 3240 2138 FO
  24   24 3575 1607 FO
  24   24 3910  881 FO
gr

gs 561 410 3350 3349 rc
335 -651 335 -444 335 -234 335 -216 334 -315 335 -138 335 -68 335 -262 
335 -261 335 -94 561 3741 11 MP stroke
gr

gs 512 1009 3448 2782 rc
  24   24  561 3741 PO
  24   24  896 3647 PO
  24   24 1231 3386 PO
  24   24 1566 3124 PO
  24   24 1901 3056 PO
  24   24 2236 2918 PO
  24   24 2570 2603 PO
  24   24 2905 2387 PO
  24   24 3240 2153 PO
  24   24 3575 1709 PO
  24   24 3910 1058 PO
  24   24  561 3741 FO
  24   24  896 3647 FO
  24   24 1231 3386 FO
  24   24 1566 3124 FO
  24   24 1901 3056 FO
  24   24 2236 2918 FO
  24   24 2570 2603 FO
  24   24 2905 2387 FO
  24   24 3240 2153 FO
  24   24 3575 1709 FO
  24   24 3910 1058 FO
gr

gs 561 410 3350 3349 rc
335 -556 335 -458 335 -197 335 -232 334 -311 335 -190 335 -106 335 -137 
335 -96 335 -244 561 3705 11 MP stroke
gr

gs 512 1129 3448 2626 rc
  24   24  561 3705 PO
  24   24  896 3461 PO
  24   24 1231 3365 PO
  24   24 1566 3228 PO
  24   24 1901 3122 PO
  24   24 2236 2932 PO
  24   24 2570 2621 PO
  24   24 2905 2389 PO
  24   24 3240 2192 PO
  24   24 3575 1734 PO
  24   24 3910 1178 PO
  24   24  561 3705 FO
  24   24  896 3461 FO
  24   24 1231 3365 FO
  24   24 1566 3228 FO
  24   24 1901 3122 FO
  24   24 2236 2932 FO
  24   24 2570 2621 FO
  24   24 2905 2389 FO
  24   24 3240 2192 FO
  24   24 3575 1734 FO
  24   24 3910 1178 FO
gr

gs 561 410 3350 3349 rc
335 -985 335 -384 335 -318 335 -288 334 -144 335 -210 335 -179 335 -223 
335 -247 159 -99 737 3759 11 MP stroke
gr

gs 688 633 3272 3176 rc
  24   24  896 3660 PO
  24   24 1231 3413 PO
  24   24 1566 3190 PO
  24   24 1901 3011 PO
  24   24 2236 2801 PO
  24   24 2570 2657 PO
  24   24 2905 2369 PO
  24   24 3240 2051 PO
  24   24 3575 1667 PO
  24   24 3910  682 PO
  24   24  896 3660 FO
  24   24 1231 3413 FO
  24   24 1566 3190 FO
  24   24 1901 3011 FO
  24   24 2236 2801 FO
  24   24 2570 2657 FO
  24   24 2905 2369 FO
  24   24 3240 2051 FO
  24   24 3575 1667 FO
  24   24 3910  682 FO
gr

gs 561 410 3350 3349 rc
335 -863 335 -251 335 -401 335 -225 334 -248 335 -207 335 -98 335 -181 
335 -175 296 -229 600 3759 11 MP stroke
gr

gs 551 832 3409 2977 rc
  24   24  896 3530 PO
  24   24 1231 3355 PO
  24   24 1566 3174 PO
  24   24 1901 3076 PO
  24   24 2236 2869 PO
  24   24 2570 2621 PO
  24   24 2905 2396 PO
  24   24 3240 1995 PO
  24   24 3575 1744 PO
  24   24 3910  881 PO
  24   24  896 3530 FO
  24   24 1231 3355 FO
  24   24 1566 3174 FO
  24   24 1901 3076 FO
  24   24 2236 2869 FO
  24   24 2570 2621 FO
  24   24 2905 2396 FO
  24   24 3240 1995 FO
  24   24 3575 1744 FO
  24   24 3910  881 FO
gr

gs 561 410 3350 3349 rc
335 -776 335 -334 335 -248 335 -246 334 -103 335 -361 335 -195 335 -64 
335 -261 195 -146 701 3759 11 MP stroke
gr

gs 652 976 3308 2833 rc
  24   24  896 3613 PO
  24   24 1231 3352 PO
  24   24 1566 3288 PO
  24   24 1901 3093 PO
  24   24 2236 2732 PO
  24   24 2570 2629 PO
  24   24 2905 2383 PO
  24   24 3240 2135 PO
  24   24 3575 1801 PO
  24   24 3910 1025 PO
  24   24  896 3613 FO
  24   24 1231 3352 FO
  24   24 1566 3288 FO
  24   24 1901 3093 FO
  24   24 2236 2732 FO
  24   24 2570 2629 FO
  24   24 2905 2383 FO
  24   24 3240 2135 FO
  24   24 3575 1801 FO
  24   24 3910 1025 FO
gr

gs 561 410 3350 3349 rc
335 -1069 335 -309 335 -344 335 -155 334 -234 335 -191 335 -226 335 -188 
335 -176 335 -88 561 3668 11 MP stroke
gr

gs 512 639 3448 3079 rc
  24   24  561 3668 PO
  24   24  896 3580 PO
  24   24 1231 3404 PO
  24   24 1566 3216 PO
  24   24 1901 2990 PO
  24   24 2236 2799 PO
  24   24 2570 2565 PO
  24   24 2905 2410 PO
  24   24 3240 2066 PO
  24   24 3575 1757 PO
  24   24 3910  688 PO
  24   24  561 3668 FO
  24   24  896 3580 FO
  24   24 1231 3404 FO
  24   24 1566 3216 FO
  24   24 1901 2990 FO
  24   24 2236 2799 FO
  24   24 2570 2565 FO
  24   24 2905 2410 FO
  24   24 3240 2066 FO
  24   24 3575 1757 FO
  24   24 3910  688 FO
gr

gs 561 410 3350 3349 rc
335 -906 335 -343 335 -282 335 -161 334 -158 335 -315 335 -154 335 -290 
335 -13 261 -272 635 3759 11 MP stroke
gr

gs 586 816 3374 2993 rc
  24   24  896 3487 PO
  24   24 1231 3474 PO
  24   24 1566 3184 PO
  24   24 1901 3030 PO
  24   24 2236 2715 PO
  24   24 2570 2557 PO
  24   24 2905 2396 PO
  24   24 3240 2114 PO
  24   24 3575 1771 PO
  24   24 3910  865 PO
  24   24  896 3487 FO
  24   24 1231 3474 FO
  24   24 1566 3184 FO
  24   24 1901 3030 FO
  24   24 2236 2715 FO
  24   24 2570 2557 FO
  24   24 2905 2396 FO
  24   24 3240 2114 FO
  24   24 3575 1771 FO
  24   24 3910  865 FO
gr

gs 561 410 3350 3349 rc
335 -1050 335 -398 335 -314 335 -155 334 -294 335 -155 335 -185 335 -246 
335 -198 221 -109 675 3759 11 MP stroke
gr

gs 626 606 3334 3203 rc
  24   24  896 3650 PO
  24   24 1231 3452 PO
  24   24 1566 3206 PO
  24   24 1901 3021 PO
  24   24 2236 2866 PO
  24   24 2570 2572 PO
  24   24 2905 2417 PO
  24   24 3240 2103 PO
  24   24 3575 1705 PO
  24   24 3910  655 PO
  24   24  896 3650 FO
  24   24 1231 3452 FO
  24   24 1566 3206 FO
  24   24 1901 3021 FO
  24   24 2236 2866 FO
  24   24 2570 2572 FO
  24   24 2905 2417 FO
  24   24 3240 2103 FO
  24   24 3575 1705 FO
  24   24 3910  655 FO
gr

gs 561 410 3350 3349 rc
36 w
0 sg
335 -728 335 -375 335 -286 335 -227 334 -244 335 -189 335 -224 335 -154 
335 -181 330 -161 566 3759 11 MP stroke
gr

36 w
0 sg
gs 456 880 3565 2990 rc
0 j
0 -58 -58 0 0 58 58 0 867 3569 5 MP
DP
0 -58 -58 0 0 58 58 0 1202 3388 5 MP
DP
0 -58 -58 0 0 58 58 0 1537 3234 5 MP
DP
0 -58 -58 0 0 58 58 0 1872 3010 5 MP
DP
0 -58 -58 0 0 58 58 0 2207 2821 5 MP
DP
0 -58 -58 0 0 58 58 0 2541 2577 5 MP
DP
0 -58 -58 0 0 58 58 0 2876 2350 5 MP
DP
0 -58 -58 0 0 58 58 0 3211 2064 5 MP
DP
0 -58 -58 0 0 58 58 0 3546 1689 5 MP
DP
0 -58 -58 0 0 58 58 0 3881 961 5 MP
DP
gr

gs 561 410 3350 3349 rc
gr

1758 4047 mt 
(Input correlation c) s
 225 2635 mt  -90 rotate
(Output correlation ) s
90 rotate
%%IncludeResource: font Symbol
/Symbol /ISOLatin1Encoding 120 FMSR

 225 1648 mt  -90 rotate
(r) s
90 rotate
%%IncludeResource: font Helvetica
/Helvetica /ISOLatin1Encoding 96 FMSR

 285 1583 mt  -90 rotate
(T) s
90 rotate
6 w

end %%Color Dict

eplot
%%EndObject

epage
end

showpage

%%Trailer
%%EOF
