%!PS-Adobe-3.0 EPSF-3.0
%%Creator: MATLAB, The MathWorks, Inc. Version 7.14.0.739 (R2012a). Operating System: Linux 2.6.33.7.2-rt30-rt #1 SMP PREEMPT RT Tue Apr 17 15:22:21 CEST 2012 x86_64.
%%Title: ./c_vs_rhoT.eps
%%CreationDate: 05/07/2013  09:38:32
%%DocumentNeededFonts: Helvetica
%%DocumentProcessColors: Cyan Magenta Yellow Black
%%LanguageLevel: 2
%%Pages: 1
%%BoundingBox:     6    18   335   335
%%EndComments

%%BeginProlog
% MathWorks dictionary
/MathWorks 160 dict begin
% definition operators
/bdef {bind def} bind def
/ldef {load def} bind def
/xdef {exch def} bdef
/xstore {exch store} bdef
% operator abbreviations
/c  /clip ldef
/cc /concat ldef
/cp /closepath ldef
/gr /grestore ldef
/gs /gsave ldef
/mt /moveto ldef
/np /newpath ldef
/cm /currentmatrix ldef
/sm /setmatrix ldef
/rm /rmoveto ldef
/rl /rlineto ldef
/s {show newpath} bdef
/sc {setcmykcolor} bdef
/sr /setrgbcolor ldef
/sg /setgray ldef
/w /setlinewidth ldef
/j /setlinejoin ldef
/cap /setlinecap ldef
/rc {rectclip} bdef
/rf {rectfill} bdef
% page state control
/pgsv () def
/bpage {/pgsv save def} bdef
/epage {pgsv restore} bdef
/bplot /gsave ldef
/eplot {stroke grestore} bdef
% orientation switch
/portraitMode 0 def /landscapeMode 1 def /rotateMode 2 def
% coordinate system mappings
/dpi2point 0 def
% font control
/FontSize 0 def
/FMS {/FontSize xstore findfont [FontSize 0 0 FontSize neg 0 0]
  makefont setfont} bdef
/reencode {exch dup where {pop load} {pop StandardEncoding} ifelse
  exch dup 3 1 roll findfont dup length dict begin
  { 1 index /FID ne {def}{pop pop} ifelse } forall
  /Encoding exch def currentdict end definefont pop} bdef
/isroman {findfont /CharStrings get /Agrave known} bdef
/FMSR {3 1 roll 1 index dup isroman {reencode} {pop pop} ifelse
  exch FMS} bdef
/csm {1 dpi2point div -1 dpi2point div scale neg translate
 dup landscapeMode eq {pop -90 rotate}
  {rotateMode eq {90 rotate} if} ifelse} bdef
% line types: solid, dotted, dashed, dotdash
/SO { [] 0 setdash } bdef
/DO { [.5 dpi2point mul 4 dpi2point mul] 0 setdash } bdef
/DA { [6 dpi2point mul] 0 setdash } bdef
/DD { [.5 dpi2point mul 4 dpi2point mul 6 dpi2point mul 4
  dpi2point mul] 0 setdash } bdef
% macros for lines and objects
/L {lineto stroke} bdef
/MP {3 1 roll moveto 1 sub {rlineto} repeat} bdef
/AP {{rlineto} repeat} bdef
/PDlw -1 def
/W {/PDlw currentlinewidth def setlinewidth} def
/PP {closepath eofill} bdef
/DP {closepath stroke} bdef
/MR {4 -2 roll moveto dup  0 exch rlineto exch 0 rlineto
  neg 0 exch rlineto closepath} bdef
/FR {MR stroke} bdef
/PR {MR fill} bdef
/L1i {{currentfile picstr readhexstring pop} image} bdef
/tMatrix matrix def
/MakeOval {newpath tMatrix currentmatrix pop translate scale
0 0 1 0 360 arc tMatrix setmatrix} bdef
/FO {MakeOval stroke} bdef
/PO {MakeOval fill} bdef
/PD {currentlinewidth 2 div 0 360 arc fill
   PDlw -1 eq not {PDlw w /PDlw -1 def} if} def
/FA {newpath tMatrix currentmatrix pop translate scale
  0 0 1 5 -2 roll arc tMatrix setmatrix stroke} bdef
/PA {newpath tMatrix currentmatrix pop	translate 0 0 moveto scale
  0 0 1 5 -2 roll arc closepath tMatrix setmatrix fill} bdef
/FAn {newpath tMatrix currentmatrix pop translate scale
  0 0 1 5 -2 roll arcn tMatrix setmatrix stroke} bdef
/PAn {newpath tMatrix currentmatrix pop translate 0 0 moveto scale
  0 0 1 5 -2 roll arcn closepath tMatrix setmatrix fill} bdef
/vradius 0 def /hradius 0 def /lry 0 def
/lrx 0 def /uly 0 def /ulx 0 def /rad 0 def
/MRR {/vradius xdef /hradius xdef /lry xdef /lrx xdef /uly xdef
  /ulx xdef newpath tMatrix currentmatrix pop ulx hradius add uly
  vradius add translate hradius vradius scale 0 0 1 180 270 arc 
  tMatrix setmatrix lrx hradius sub uly vradius add translate
  hradius vradius scale 0 0 1 270 360 arc tMatrix setmatrix
  lrx hradius sub lry vradius sub translate hradius vradius scale
  0 0 1 0 90 arc tMatrix setmatrix ulx hradius add lry vradius sub
  translate hradius vradius scale 0 0 1 90 180 arc tMatrix setmatrix
  closepath} bdef
/FRR {MRR stroke } bdef
/PRR {MRR fill } bdef
/MlrRR {/lry xdef /lrx xdef /uly xdef /ulx xdef /rad lry uly sub 2 div def
  newpath tMatrix currentmatrix pop ulx rad add uly rad add translate
  rad rad scale 0 0 1 90 270 arc tMatrix setmatrix lrx rad sub lry rad
  sub translate rad rad scale 0 0 1 270 90 arc tMatrix setmatrix
  closepath} bdef
/FlrRR {MlrRR stroke } bdef
/PlrRR {MlrRR fill } bdef
/MtbRR {/lry xdef /lrx xdef /uly xdef /ulx xdef /rad lrx ulx sub 2 div def
  newpath tMatrix currentmatrix pop ulx rad add uly rad add translate
  rad rad scale 0 0 1 180 360 arc tMatrix setmatrix lrx rad sub lry rad
  sub translate rad rad scale 0 0 1 0 180 arc tMatrix setmatrix
  closepath} bdef
/FtbRR {MtbRR stroke } bdef
/PtbRR {MtbRR fill } bdef
/stri 6 array def /dtri 6 array def
/smat 6 array def /dmat 6 array def
/tmat1 6 array def /tmat2 6 array def /dif 3 array def
/asub {/ind2 exch def /ind1 exch def dup dup
  ind1 get exch ind2 get sub exch } bdef
/tri_to_matrix {
  2 0 asub 3 1 asub 4 0 asub 5 1 asub
  dup 0 get exch 1 get 7 -1 roll astore } bdef
/compute_transform {
  dmat dtri tri_to_matrix tmat1 invertmatrix 
  smat stri tri_to_matrix tmat2 concatmatrix } bdef
/ds {stri astore pop} bdef
/dt {dtri astore pop} bdef
/db {2 copy /cols xdef /rows xdef mul dup 3 mul string
  currentfile 
  3 index 0 eq {/ASCIIHexDecode filter}
  {/ASCII85Decode filter 3 index 2 eq {/RunLengthDecode filter} if }
  ifelse exch readstring pop
  dup 0 3 index getinterval /rbmap xdef
  dup 2 index dup getinterval /gbmap xdef
  1 index dup 2 mul exch getinterval /bbmap xdef pop pop}bdef
/it {gs np dtri aload pop moveto lineto lineto cp c
  cols rows 8 compute_transform 
  rbmap gbmap bbmap true 3 colorimage gr}bdef
/il {newpath moveto lineto stroke}bdef
currentdict end def
%%EndProlog

%%BeginSetup
MathWorks begin

0 cap

end
%%EndSetup

%%Page: 1 1
%%BeginPageSetup
%%PageBoundingBox:     6    18   335   335
MathWorks begin
bpage
%%EndPageSetup

%%BeginObject: obj1
bplot

/dpi2point 12 def
portraitMode 0000 4320 csm

   79   295  3949  3804 rc
87 dict begin %Colortable dictionary
/c0 { 0.000000 0.000000 0.000000 sr} bdef
/c1 { 1.000000 1.000000 1.000000 sr} bdef
/c2 { 0.900000 0.000000 0.000000 sr} bdef
/c3 { 0.000000 0.820000 0.000000 sr} bdef
/c4 { 0.000000 0.000000 0.800000 sr} bdef
/c5 { 0.910000 0.820000 0.320000 sr} bdef
/c6 { 1.000000 0.260000 0.820000 sr} bdef
/c7 { 0.000000 0.820000 0.820000 sr} bdef
c0
1 j
1 sg
   0    0 4321 4321 rf
6 w
0 3348 3349 0 0 -3348 561 3758 4 MP
PP
-3349 0 0 3348 3349 0 0 -3348 561 3758 5 MP stroke
4 w
DO
SO
6 w
0 sg
 561 3758 mt 3910 3758 L
 561 3758 mt  561  410 L
 561 3758 mt  561 3725 L
%%IncludeResource: font Helvetica
/Helvetica /ISOLatin1Encoding 120 FMSR

 528 3904 mt 
(0) s
1231 3758 mt 1231 3725 L
1148 3904 mt 
(0.2) s
1901 3758 mt 1901 3725 L
1818 3904 mt 
(0.4) s
2570 3758 mt 2570 3725 L
2487 3904 mt 
(0.6) s
3240 3758 mt 3240 3725 L
3157 3904 mt 
(0.8) s
3910 3758 mt 3910 3725 L
3877 3904 mt 
(1) s
 561 3758 mt  595 3758 L
 461 3802 mt 
(0) s
 561 3423 mt  595 3423 L
 361 3467 mt 
(0.1) s
 561 3088 mt  595 3088 L
 361 3132 mt 
(0.2) s
 561 2754 mt  595 2754 L
 361 2798 mt 
(0.3) s
 561 2419 mt  595 2419 L
 361 2463 mt 
(0.4) s
 561 2084 mt  595 2084 L
 361 2128 mt 
(0.5) s
 561 1749 mt  595 1749 L
 361 1793 mt 
(0.6) s
 561 1414 mt  595 1414 L
 361 1458 mt 
(0.7) s
 561 1080 mt  595 1080 L
 361 1124 mt 
(0.8) s
 561  745 mt  595  745 L
 361  789 mt 
(0.9) s
 561  410 mt  595  410 L
 461  454 mt 
(1) s
gs 561 410 3350 3349 rc
DA
24 w
0.4 sg
3349 -3348 561 3758 2 MP stroke
SO
6 w
0.6 sg
335 -668 335 -414 335 -391 335 -200 334 -404 335 -148 335 -280 335 -187 
335 -204 335 26 561 3584 11 MP stroke
gr

0.6 sg
  24   24  561 3584 PO
  24   24  896 3610 PO
  24   24 1231 3406 PO
  24   24 1566 3219 PO
  24   24 1901 2939 PO
  24   24 2236 2791 PO
  24   24 2570 2387 PO
  24   24 2905 2187 PO
  24   24 3240 1796 PO
  24   24 3575 1382 PO
  24   24 3910  714 PO
  24   24  561 3584 FO
  24   24  896 3610 FO
  24   24 1231 3406 FO
  24   24 1566 3219 FO
  24   24 1901 2939 FO
  24   24 2236 2791 FO
  24   24 2570 2387 FO
  24   24 2905 2187 FO
  24   24 3240 1796 FO
  24   24 3575 1382 FO
  24   24 3910  714 FO
gs 561 410 3350 3349 rc
335 -899 335 -573 335 -170 335 -336 334 -444 335 -198 335 53 335 -324 
335 -131 335 -175 561 3607 11 MP stroke
gr

  24   24  561 3607 PO
  24   24  896 3432 PO
  24   24 1231 3301 PO
  24   24 1566 2977 PO
  24   24 1901 3030 PO
  24   24 2236 2832 PO
  24   24 2570 2388 PO
  24   24 2905 2052 PO
  24   24 3240 1882 PO
  24   24 3575 1309 PO
  24   24 3910  410 PO
  24   24  561 3607 FO
  24   24  896 3432 FO
  24   24 1231 3301 FO
  24   24 1566 2977 FO
  24   24 1901 3030 FO
  24   24 2236 2832 FO
  24   24 2570 2388 FO
  24   24 2905 2052 FO
  24   24 3240 1882 FO
  24   24 3575 1309 FO
  24   24 3910  410 FO
gs 561 410 3350 3349 rc
335 -663 335 -506 335 -190 335 -282 334 -351 335 -68 335 -399 335 -182 
335 -306 335 82 561 3579 11 MP stroke
gr

  24   24  561 3579 PO
  24   24  896 3661 PO
  24   24 1231 3355 PO
  24   24 1566 3173 PO
  24   24 1901 2774 PO
  24   24 2236 2706 PO
  24   24 2570 2355 PO
  24   24 2905 2073 PO
  24   24 3240 1883 PO
  24   24 3575 1377 PO
  24   24 3910  714 PO
  24   24  561 3579 FO
  24   24  896 3661 FO
  24   24 1231 3355 FO
  24   24 1566 3173 FO
  24   24 1901 2774 FO
  24   24 2236 2706 FO
  24   24 2570 2355 FO
  24   24 2905 2073 FO
  24   24 3240 1883 FO
  24   24 3575 1377 FO
  24   24 3910  714 FO
gs 561 410 3350 3349 rc
335 -893 335 -615 335 -312 335 -118 334 -451 335 -141 335 -457 335 -62 
335 -239 335 72 561 3626 11 MP stroke
gr

  24   24  561 3626 PO
  24   24  896 3698 PO
  24   24 1231 3459 PO
  24   24 1566 3397 PO
  24   24 1901 2940 PO
  24   24 2236 2799 PO
  24   24 2570 2348 PO
  24   24 2905 2230 PO
  24   24 3240 1918 PO
  24   24 3575 1303 PO
  24   24 3910  410 PO
  24   24  561 3626 FO
  24   24  896 3698 FO
  24   24 1231 3459 FO
  24   24 1566 3397 FO
  24   24 1901 2940 FO
  24   24 2236 2799 FO
  24   24 2570 2348 FO
  24   24 2905 2230 FO
  24   24 3240 1918 FO
  24   24 3575 1303 FO
  24   24 3910  410 FO
gs 561 410 3350 3349 rc
335 -633 335 -509 335 -163 335 -333 334 -391 335 -199 335 -366 335 38 
335 -244 335 -151 561 3665 11 MP stroke
gr

  24   24  561 3665 PO
  24   24  896 3514 PO
  24   24 1231 3270 PO
  24   24 1566 3308 PO
  24   24 1901 2942 PO
  24   24 2236 2743 PO
  24   24 2570 2352 PO
  24   24 2905 2019 PO
  24   24 3240 1856 PO
  24   24 3575 1347 PO
  24   24 3910  714 PO
  24   24  561 3665 FO
  24   24  896 3514 FO
  24   24 1231 3270 FO
  24   24 1566 3308 FO
  24   24 1901 2942 FO
  24   24 2236 2743 FO
  24   24 2570 2352 FO
  24   24 2905 2019 FO
  24   24 3240 1856 FO
  24   24 3575 1347 FO
  24   24 3910  714 FO
gs 561 410 3350 3349 rc
335 -954 335 -399 335 -335 335 -223 334 -314 335 -337 335 -338 335 -5 
335 -196 264 -248 632 3759 11 MP stroke
gr

  24   24  896 3511 PO
  24   24 1231 3315 PO
  24   24 1566 3310 PO
  24   24 1901 2972 PO
  24   24 2236 2635 PO
  24   24 2570 2321 PO
  24   24 2905 2098 PO
  24   24 3240 1763 PO
  24   24 3575 1364 PO
  24   24 3910  410 PO
  24   24  896 3511 FO
  24   24 1231 3315 FO
  24   24 1566 3310 FO
  24   24 1901 2972 FO
  24   24 2236 2635 FO
  24   24 2570 2321 FO
  24   24 2905 2098 FO
  24   24 3240 1763 FO
  24   24 3575 1364 FO
  24   24 3910  410 FO
gs 561 410 3350 3349 rc
335 -647 335 -567 335 -107 335 -370 334 -366 335 -161 335 -279 335 -115 
335 -155 302 -278 594 3759 11 MP stroke
gr

  24   24  896 3481 PO
  24   24 1231 3326 PO
  24   24 1566 3211 PO
  24   24 1901 2932 PO
  24   24 2236 2771 PO
  24   24 2570 2405 PO
  24   24 2905 2035 PO
  24   24 3240 1928 PO
  24   24 3575 1361 PO
  24   24 3910  714 PO
  24   24  896 3481 FO
  24   24 1231 3326 FO
  24   24 1566 3211 FO
  24   24 1901 2932 FO
  24   24 2236 2771 FO
  24   24 2570 2405 FO
  24   24 2905 2035 FO
  24   24 3240 1928 FO
  24   24 3575 1361 FO
  24   24 3910  714 FO
gs 561 410 3350 3349 rc
335 -595 335 -336 335 -437 335 -406 334 -296 335 -121 335 -319 335 -209 
335 -205 311 -148 585 3759 11 MP stroke
gr

  24   24  896 3611 PO
  24   24 1231 3406 PO
  24   24 1566 3197 PO
  24   24 1901 2878 PO
  24   24 2236 2757 PO
  24   24 2570 2461 PO
  24   24 2905 2055 PO
  24   24 3240 1618 PO
  24   24 3575 1282 PO
  24   24 3910  687 PO
  24   24  896 3611 FO
  24   24 1231 3406 FO
  24   24 1566 3197 FO
  24   24 1901 2878 FO
  24   24 2236 2757 FO
  24   24 2570 2461 FO
  24   24 2905 2055 FO
  24   24 3240 1618 FO
  24   24 3575 1282 FO
  24   24 3910  687 FO
gs 561 410 3350 3349 rc
335 -939 335 -368 335 -376 335 -374 334 -238 335 -298 335 -208 335 -245 
335 -44 335 -213 561 3713 11 MP stroke
gr

  24   24  561 3713 PO
  24   24  896 3500 PO
  24   24 1231 3456 PO
  24   24 1566 3211 PO
  24   24 1901 3003 PO
  24   24 2236 2705 PO
  24   24 2570 2467 PO
  24   24 2905 2093 PO
  24   24 3240 1717 PO
  24   24 3575 1349 PO
  24   24 3910  410 PO
  24   24  561 3713 FO
  24   24  896 3500 FO
  24   24 1231 3456 FO
  24   24 1566 3211 FO
  24   24 1901 3003 FO
  24   24 2236 2705 FO
  24   24 2570 2467 FO
  24   24 2905 2093 FO
  24   24 3240 1717 FO
  24   24 3575 1349 FO
  24   24 3910  410 FO
gs 561 410 3350 3349 rc
335 -682 335 -452 335 -319 335 -334 334 -323 335 -128 335 -396 335 -222 
335 -24 153 -192 743 3759 11 MP stroke
gr

  24   24  896 3567 PO
  24   24 1231 3543 PO
  24   24 1566 3321 PO
  24   24 1901 2925 PO
  24   24 2236 2797 PO
  24   24 2570 2474 PO
  24   24 2905 2140 PO
  24   24 3240 1821 PO
  24   24 3575 1369 PO
  24   24 3910  687 PO
  24   24  896 3567 FO
  24   24 1231 3543 FO
  24   24 1566 3321 FO
  24   24 1901 2925 FO
  24   24 2236 2797 FO
  24   24 2570 2474 FO
  24   24 2905 2140 FO
  24   24 3240 1821 FO
  24   24 3575 1369 FO
  24   24 3910  687 FO
gs 561 410 3350 3349 rc
335 -922 335 -404 335 -271 335 -431 334 -339 335 -145 335 -356 335 -112 
335 -160 225 -209 671 3759 11 MP stroke
gr

  24   24  896 3550 PO
  24   24 1231 3390 PO
  24   24 1566 3278 PO
  24   24 1901 2922 PO
  24   24 2236 2777 PO
  24   24 2570 2438 PO
  24   24 2905 2007 PO
  24   24 3240 1736 PO
  24   24 3575 1332 PO
  24   24 3910  410 PO
  24   24  896 3550 FO
  24   24 1231 3390 FO
  24   24 1566 3278 FO
  24   24 1901 2922 FO
  24   24 2236 2777 FO
  24   24 2570 2438 FO
  24   24 2905 2007 FO
  24   24 3240 1736 FO
  24   24 3575 1332 FO
  24   24 3910  410 FO
gs 561 410 3350 3349 rc
335 -661 335 -292 335 -407 335 -369 334 -272 335 -463 335 138 335 -405 
335 -197 295 -144 601 3759 11 MP stroke
gr

  24   24  896 3615 PO
  24   24 1231 3418 PO
  24   24 1566 3013 PO
  24   24 1901 3151 PO
  24   24 2236 2688 PO
  24   24 2570 2416 PO
  24   24 2905 2047 PO
  24   24 3240 1640 PO
  24   24 3575 1348 PO
  24   24 3910  687 PO
  24   24  896 3615 FO
  24   24 1231 3418 FO
  24   24 1566 3013 FO
  24   24 1901 3151 FO
  24   24 2236 2688 FO
  24   24 2570 2416 FO
  24   24 2905 2047 FO
  24   24 3240 1640 FO
  24   24 3575 1348 FO
  24   24 3910  687 FO
gs 561 410 3350 3349 rc
335 -880 335 -470 335 -321 335 -235 334 -388 335 -346 335 -141 335 -289 
335 -36 335 -200 561 3716 11 MP stroke
gr

  24   24  561 3716 PO
  24   24  896 3516 PO
  24   24 1231 3480 PO
  24   24 1566 3191 PO
  24   24 1901 3050 PO
  24   24 2236 2704 PO
  24   24 2570 2316 PO
  24   24 2905 2081 PO
  24   24 3240 1760 PO
  24   24 3575 1290 PO
  24   24 3910  410 PO
  24   24  561 3716 FO
  24   24  896 3516 FO
  24   24 1231 3480 FO
  24   24 1566 3191 FO
  24   24 1901 3050 FO
  24   24 2236 2704 FO
  24   24 2570 2316 FO
  24   24 2905 2081 FO
  24   24 3240 1760 FO
  24   24 3575 1290 FO
  24   24 3910  410 FO
gs 561 410 3350 3349 rc
335 -652 335 -457 335 -269 335 -366 334 -271 335 -212 335 -429 335 -60 
335 -194 214 -135 682 3759 11 MP stroke
gr

  24   24  896 3624 PO
  24   24 1231 3430 PO
  24   24 1566 3370 PO
  24   24 1901 2941 PO
  24   24 2236 2729 PO
  24   24 2570 2458 PO
  24   24 2905 2092 PO
  24   24 3240 1823 PO
  24   24 3575 1366 PO
  24   24 3910  714 PO
  24   24  896 3624 FO
  24   24 1231 3430 FO
  24   24 1566 3370 FO
  24   24 1901 2941 FO
  24   24 2236 2729 FO
  24   24 2570 2458 FO
  24   24 2905 2092 FO
  24   24 3240 1823 FO
  24   24 3575 1366 FO
  24   24 3910  714 FO
gs 561 410 3350 3349 rc
335 -924 335 -589 335 -234 335 -271 334 -359 335 -97 335 -361 335 -126 
335 -239 224 -149 672 3759 11 MP stroke
gr

  24   24  896 3610 PO
  24   24 1231 3371 PO
  24   24 1566 3245 PO
  24   24 1901 2884 PO
  24   24 2236 2787 PO
  24   24 2570 2428 PO
  24   24 2905 2157 PO
  24   24 3240 1923 PO
  24   24 3575 1334 PO
  24   24 3910  410 PO
  24   24  896 3610 FO
  24   24 1231 3371 FO
  24   24 1566 3245 FO
  24   24 1901 2884 FO
  24   24 2236 2787 FO
  24   24 2570 2428 FO
  24   24 2905 2157 FO
  24   24 3240 1923 FO
  24   24 3575 1334 FO
  24   24 3910  410 FO
gs 561 410 3350 3349 rc
335 -558 335 -539 335 -280 335 -344 334 -264 335 -369 335 -290 335 168 
335 -360 335 -148 561 3698 11 MP stroke
gr

  24   24  561 3698 PO
  24   24  896 3550 PO
  24   24 1231 3190 PO
  24   24 1566 3358 PO
  24   24 1901 3068 PO
  24   24 2236 2699 PO
  24   24 2570 2435 PO
  24   24 2905 2091 PO
  24   24 3240 1811 PO
  24   24 3575 1272 PO
  24   24 3910  714 PO
  24   24  561 3698 FO
  24   24  896 3550 FO
  24   24 1231 3190 FO
  24   24 1566 3358 FO
  24   24 1901 3068 FO
  24   24 2236 2699 FO
  24   24 2570 2435 FO
  24   24 2905 2091 FO
  24   24 3240 1811 FO
  24   24 3575 1272 FO
  24   24 3910  714 FO
gs 561 410 3350 3349 rc
335 -919 335 -441 335 -298 335 -381 334 -245 335 -141 335 -501 335 39 
335 -385 111 -77 785 3759 11 MP stroke
gr

  24   24  896 3682 PO
  24   24 1231 3297 PO
  24   24 1566 3336 PO
  24   24 1901 2835 PO
  24   24 2236 2694 PO
  24   24 2570 2449 PO
  24   24 2905 2068 PO
  24   24 3240 1770 PO
  24   24 3575 1329 PO
  24   24 3910  410 PO
  24   24  896 3682 FO
  24   24 1231 3297 FO
  24   24 1566 3336 FO
  24   24 1901 2835 FO
  24   24 2236 2694 FO
  24   24 2570 2449 FO
  24   24 2905 2068 FO
  24   24 3240 1770 FO
  24   24 3575 1329 FO
  24   24 3910  410 FO
gs 561 410 3350 3349 rc
335 -605 335 -513 335 -158 335 -360 334 -413 335 -190 335 -297 335 -90 
335 -163 324 -256 572 3759 11 MP stroke
gr

  24   24  896 3503 PO
  24   24 1231 3340 PO
  24   24 1566 3250 PO
  24   24 1901 2953 PO
  24   24 2236 2763 PO
  24   24 2570 2350 PO
  24   24 2905 1990 PO
  24   24 3240 1832 PO
  24   24 3575 1319 PO
  24   24 3910  714 PO
  24   24  896 3503 FO
  24   24 1231 3340 FO
  24   24 1566 3250 FO
  24   24 1901 2953 FO
  24   24 2236 2763 FO
  24   24 2570 2350 FO
  24   24 2905 1990 FO
  24   24 3240 1832 FO
  24   24 3575 1319 FO
  24   24 3910  714 FO
gs 561 410 3350 3349 rc
335 -657 335 -487 335 -387 335 -341 334 -78 335 -330 335 -261 335 -260 
335 -136 335 -93 561 3717 11 MP stroke
gr

  24   24  561 3717 PO
  24   24  896 3624 PO
  24   24 1231 3488 PO
  24   24 1566 3228 PO
  24   24 1901 2967 PO
  24   24 2236 2637 PO
  24   24 2570 2559 PO
  24   24 2905 2218 PO
  24   24 3240 1831 PO
  24   24 3575 1344 PO
  24   24 3910  687 PO
  24   24  561 3717 FO
  24   24  896 3624 FO
  24   24 1231 3488 FO
  24   24 1566 3228 FO
  24   24 1901 2967 FO
  24   24 2236 2637 FO
  24   24 2570 2559 FO
  24   24 2905 2218 FO
  24   24 3240 1831 FO
  24   24 3575 1344 FO
  24   24 3910  687 FO
gs 561 410 3350 3349 rc
335 -910 335 -421 335 -439 335 -215 334 -178 335 -327 335 -184 335 -425 
335 -78 335 -125 561 3712 11 MP stroke
gr

  24   24  561 3712 PO
  24   24  896 3587 PO
  24   24 1231 3509 PO
  24   24 1566 3084 PO
  24   24 1901 2900 PO
  24   24 2236 2573 PO
  24   24 2570 2395 PO
  24   24 2905 2180 PO
  24   24 3240 1741 PO
  24   24 3575 1320 PO
  24   24 3910  410 PO
  24   24  561 3712 FO
  24   24  896 3587 FO
  24   24 1231 3509 FO
  24   24 1566 3084 FO
  24   24 1901 2900 FO
  24   24 2236 2573 FO
  24   24 2570 2395 FO
  24   24 2905 2180 FO
  24   24 3240 1741 FO
  24   24 3575 1320 FO
  24   24 3910  410 FO
gs 561 410 3350 3349 rc
335 -725 335 -345 335 -484 335 -49 334 -310 335 -272 335 -301 335 -193 
335 -238 335 -125 561 3729 11 MP stroke
gr

  24   24  561 3729 PO
  24   24  896 3604 PO
  24   24 1231 3366 PO
  24   24 1566 3173 PO
  24   24 1901 2872 PO
  24   24 2236 2600 PO
  24   24 2570 2290 PO
  24   24 2905 2241 PO
  24   24 3240 1757 PO
  24   24 3575 1412 PO
  24   24 3910  687 PO
  24   24  561 3729 FO
  24   24  896 3604 FO
  24   24 1231 3366 FO
  24   24 1566 3173 FO
  24   24 1901 2872 FO
  24   24 2236 2600 FO
  24   24 2570 2290 FO
  24   24 2905 2241 FO
  24   24 3240 1757 FO
  24   24 3575 1412 FO
  24   24 3910  687 FO
gs 561 410 3350 3349 rc
335 -912 335 -393 335 -390 335 -326 334 -178 335 -363 335 -355 335 -231 
335 -15 335 -156 561 3729 11 MP stroke
gr

  24   24  561 3729 PO
  24   24  896 3573 PO
  24   24 1231 3558 PO
  24   24 1566 3327 PO
  24   24 1901 2972 PO
  24   24 2236 2609 PO
  24   24 2570 2431 PO
  24   24 2905 2105 PO
  24   24 3240 1715 PO
  24   24 3575 1322 PO
  24   24 3910  410 PO
  24   24  561 3729 FO
  24   24  896 3573 FO
  24   24 1231 3558 FO
  24   24 1566 3327 FO
  24   24 1901 2972 FO
  24   24 2236 2609 FO
  24   24 2570 2431 FO
  24   24 2905 2105 FO
  24   24 3240 1715 FO
  24   24 3575 1322 FO
  24   24 3910  410 FO
gs 561 410 3350 3349 rc
335 -622 335 -537 335 -303 335 -228 334 -319 335 -231 335 -245 335 -169 
335 -127 328 -264 568 3759 11 MP stroke
gr

  24   24  896 3495 PO
  24   24 1231 3368 PO
  24   24 1566 3199 PO
  24   24 1901 2954 PO
  24   24 2236 2723 PO
  24   24 2570 2404 PO
  24   24 2905 2176 PO
  24   24 3240 1873 PO
  24   24 3575 1336 PO
  24   24 3910  714 PO
  24   24  896 3495 FO
  24   24 1231 3368 FO
  24   24 1566 3199 FO
  24   24 1901 2954 FO
  24   24 2236 2723 FO
  24   24 2570 2404 FO
  24   24 2905 2176 FO
  24   24 3240 1873 FO
  24   24 3575 1336 FO
  24   24 3910  714 FO
gs 561 410 3350 3349 rc
335 -1033 335 -371 335 -319 335 -303 334 -406 335 -44 335 -452 335 -39 
335 -104 335 -239 561 3720 11 MP stroke
gr

  24   24  561 3720 PO
  24   24  896 3481 PO
  24   24 1231 3377 PO
  24   24 1566 3338 PO
  24   24 1901 2886 PO
  24   24 2236 2842 PO
  24   24 2570 2436 PO
  24   24 2905 2133 PO
  24   24 3240 1814 PO
  24   24 3575 1443 PO
  24   24 3910  410 PO
  24   24  561 3720 FO
  24   24  896 3481 FO
  24   24 1231 3377 FO
  24   24 1566 3338 FO
  24   24 1901 2886 FO
  24   24 2236 2842 FO
  24   24 2570 2436 FO
  24   24 2905 2133 FO
  24   24 3240 1814 FO
  24   24 3575 1443 FO
  24   24 3910  410 FO
gs 561 410 3350 3349 rc
335 -644 335 -529 335 -265 335 -275 334 -373 335 -241 335 -191 335 -166 
335 -131 335 -206 561 3735 11 MP stroke
gr

  24   24  561 3735 PO
  24   24  896 3529 PO
  24   24 1231 3398 PO
  24   24 1566 3232 PO
  24   24 1901 3041 PO
  24   24 2236 2800 PO
  24   24 2570 2427 PO
  24   24 2905 2152 PO
  24   24 3240 1887 PO
  24   24 3575 1358 PO
  24   24 3910  714 PO
  24   24  561 3735 FO
  24   24  896 3529 FO
  24   24 1231 3398 FO
  24   24 1566 3232 FO
  24   24 1901 3041 FO
  24   24 2236 2800 FO
  24   24 2570 2427 FO
  24   24 2905 2152 FO
  24   24 3240 1887 FO
  24   24 3575 1358 FO
  24   24 3910  714 FO
gs 561 410 3350 3349 rc
335 -623 335 -452 335 -277 335 -371 334 -325 335 -360 335 -140 335 -129 
335 -162 259 -233 637 3759 11 MP stroke
gr

  24   24  896 3526 PO
  24   24 1231 3364 PO
  24   24 1566 3235 PO
  24   24 1901 3095 PO
  24   24 2236 2735 PO
  24   24 2570 2410 PO
  24   24 2905 2039 PO
  24   24 3240 1762 PO
  24   24 3575 1310 PO
  24   24 3910  687 PO
  24   24  896 3526 FO
  24   24 1231 3364 FO
  24   24 1566 3235 FO
  24   24 1901 3095 FO
  24   24 2236 2735 FO
  24   24 2570 2410 FO
  24   24 2905 2039 FO
  24   24 3240 1762 FO
  24   24 3575 1310 FO
  24   24 3910  687 FO
gs 561 410 3350 3349 rc
335 -889 335 -486 335 -314 335 -385 334 -82 335 -521 335 -121 335 -125 
335 -322 335 70 561 3585 11 MP stroke
gr

  24   24  561 3585 PO
  24   24  896 3655 PO
  24   24 1231 3333 PO
  24   24 1566 3208 PO
  24   24 1901 3087 PO
  24   24 2236 2566 PO
  24   24 2570 2484 PO
  24   24 2905 2099 PO
  24   24 3240 1785 PO
  24   24 3575 1299 PO
  24   24 3910  410 PO
  24   24  561 3585 FO
  24   24  896 3655 FO
  24   24 1231 3333 FO
  24   24 1566 3208 FO
  24   24 1901 3087 FO
  24   24 2236 2566 FO
  24   24 2570 2484 FO
  24   24 2905 2099 FO
  24   24 3240 1785 FO
  24   24 3575 1299 FO
  24   24 3910  410 FO
gs 561 410 3350 3349 rc
335 -610 335 -497 335 -303 335 -401 334 -113 335 -305 335 -250 335 -142 
335 -239 149 -185 747 3759 11 MP stroke
gr

  24   24  896 3574 PO
  24   24 1231 3335 PO
  24   24 1566 3193 PO
  24   24 1901 2943 PO
  24   24 2236 2638 PO
  24   24 2570 2525 PO
  24   24 2905 2124 PO
  24   24 3240 1821 PO
  24   24 3575 1324 PO
  24   24 3910  714 PO
  24   24  896 3574 FO
  24   24 1231 3335 FO
  24   24 1566 3193 FO
  24   24 1901 2943 FO
  24   24 2236 2638 FO
  24   24 2570 2525 FO
  24   24 2905 2124 FO
  24   24 3240 1821 FO
  24   24 3575 1324 FO
  24   24 3910  714 FO
gs 561 410 3350 3349 rc
36 w
0 sg
335 -761 335 -463 335 -304 335 -309 334 -303 335 -241 335 -276 335 -153 
335 -179 335 -184 561 3751 11 MP stroke
gr

36 w
0 sg
0 j
0 -58 -58 0 0 58 58 0 532 3722 5 MP
DP
0 -58 -58 0 0 58 58 0 867 3538 5 MP
DP
0 -58 -58 0 0 58 58 0 1202 3359 5 MP
DP
0 -58 -58 0 0 58 58 0 1537 3206 5 MP
DP
0 -58 -58 0 0 58 58 0 1872 2930 5 MP
DP
0 -58 -58 0 0 58 58 0 2207 2689 5 MP
DP
0 -58 -58 0 0 58 58 0 2541 2386 5 MP
DP
0 -58 -58 0 0 58 58 0 2876 2077 5 MP
DP
0 -58 -58 0 0 58 58 0 3211 1773 5 MP
DP
0 -58 -58 0 0 58 58 0 3546 1310 5 MP
DP
0 -58 -58 0 0 58 58 0 3881 549 5 MP
DP
gs 561 410 3350 3349 rc
gr

1758 4047 mt 
(Input correlation c) s
 225 2635 mt  -90 rotate
(Output correlation ) s
90 rotate
%%IncludeResource: font Symbol
/Symbol /ISOLatin1Encoding 120 FMSR

 225 1648 mt  -90 rotate
(r) s
90 rotate
%%IncludeResource: font Helvetica
/Helvetica /ISOLatin1Encoding 96 FMSR

 285 1583 mt  -90 rotate
(T) s
90 rotate
6 w

end %%Color Dict

eplot
%%EndObject

epage
end

showpage

%%Trailer
%%EOF
