%!PS-Adobe-3.0 EPSF-3.0
%%Creator: MATLAB, The MathWorks, Inc. Version 7.14.0.739 (R2012a). Operating System: Linux 2.6.33.7.2-rt30-rt #1 SMP PREEMPT RT Tue Apr 17 15:22:21 CEST 2012 x86_64.
%%Title: ./c_vs_rate.eps
%%CreationDate: 10/28/2013  21:08:36
%%DocumentNeededFonts: Helvetica
%%DocumentProcessColors: Cyan Magenta Yellow Black
%%LanguageLevel: 2
%%Pages: 1
%%BoundingBox:    31     4   465   364
%%EndComments

%%BeginProlog
% MathWorks dictionary
/MathWorks 160 dict begin
% definition operators
/bdef {bind def} bind def
/ldef {load def} bind def
/xdef {exch def} bdef
/xstore {exch store} bdef
% operator abbreviations
/c  /clip ldef
/cc /concat ldef
/cp /closepath ldef
/gr /grestore ldef
/gs /gsave ldef
/mt /moveto ldef
/np /newpath ldef
/cm /currentmatrix ldef
/sm /setmatrix ldef
/rm /rmoveto ldef
/rl /rlineto ldef
/s {show newpath} bdef
/sc {setcmykcolor} bdef
/sr /setrgbcolor ldef
/sg /setgray ldef
/w /setlinewidth ldef
/j /setlinejoin ldef
/cap /setlinecap ldef
/rc {rectclip} bdef
/rf {rectfill} bdef
% page state control
/pgsv () def
/bpage {/pgsv save def} bdef
/epage {pgsv restore} bdef
/bplot /gsave ldef
/eplot {stroke grestore} bdef
% orientation switch
/portraitMode 0 def /landscapeMode 1 def /rotateMode 2 def
% coordinate system mappings
/dpi2point 0 def
% font control
/FontSize 0 def
/FMS {/FontSize xstore findfont [FontSize 0 0 FontSize neg 0 0]
  makefont setfont} bdef
/reencode {exch dup where {pop load} {pop StandardEncoding} ifelse
  exch dup 3 1 roll findfont dup length dict begin
  { 1 index /FID ne {def}{pop pop} ifelse } forall
  /Encoding exch def currentdict end definefont pop} bdef
/isroman {findfont /CharStrings get /Agrave known} bdef
/FMSR {3 1 roll 1 index dup isroman {reencode} {pop pop} ifelse
  exch FMS} bdef
/csm {1 dpi2point div -1 dpi2point div scale neg translate
 dup landscapeMode eq {pop -90 rotate}
  {rotateMode eq {90 rotate} if} ifelse} bdef
% line types: solid, dotted, dashed, dotdash
/SO { [] 0 setdash } bdef
/DO { [.5 dpi2point mul 4 dpi2point mul] 0 setdash } bdef
/DA { [6 dpi2point mul] 0 setdash } bdef
/DD { [.5 dpi2point mul 4 dpi2point mul 6 dpi2point mul 4
  dpi2point mul] 0 setdash } bdef
% macros for lines and objects
/L {lineto stroke} bdef
/MP {3 1 roll moveto 1 sub {rlineto} repeat} bdef
/AP {{rlineto} repeat} bdef
/PDlw -1 def
/W {/PDlw currentlinewidth def setlinewidth} def
/PP {closepath eofill} bdef
/DP {closepath stroke} bdef
/MR {4 -2 roll moveto dup  0 exch rlineto exch 0 rlineto
  neg 0 exch rlineto closepath} bdef
/FR {MR stroke} bdef
/PR {MR fill} bdef
/L1i {{currentfile picstr readhexstring pop} image} bdef
/tMatrix matrix def
/MakeOval {newpath tMatrix currentmatrix pop translate scale
0 0 1 0 360 arc tMatrix setmatrix} bdef
/FO {MakeOval stroke} bdef
/PO {MakeOval fill} bdef
/PD {currentlinewidth 2 div 0 360 arc fill
   PDlw -1 eq not {PDlw w /PDlw -1 def} if} def
/FA {newpath tMatrix currentmatrix pop translate scale
  0 0 1 5 -2 roll arc tMatrix setmatrix stroke} bdef
/PA {newpath tMatrix currentmatrix pop	translate 0 0 moveto scale
  0 0 1 5 -2 roll arc closepath tMatrix setmatrix fill} bdef
/FAn {newpath tMatrix currentmatrix pop translate scale
  0 0 1 5 -2 roll arcn tMatrix setmatrix stroke} bdef
/PAn {newpath tMatrix currentmatrix pop translate 0 0 moveto scale
  0 0 1 5 -2 roll arcn closepath tMatrix setmatrix fill} bdef
/vradius 0 def /hradius 0 def /lry 0 def
/lrx 0 def /uly 0 def /ulx 0 def /rad 0 def
/MRR {/vradius xdef /hradius xdef /lry xdef /lrx xdef /uly xdef
  /ulx xdef newpath tMatrix currentmatrix pop ulx hradius add uly
  vradius add translate hradius vradius scale 0 0 1 180 270 arc 
  tMatrix setmatrix lrx hradius sub uly vradius add translate
  hradius vradius scale 0 0 1 270 360 arc tMatrix setmatrix
  lrx hradius sub lry vradius sub translate hradius vradius scale
  0 0 1 0 90 arc tMatrix setmatrix ulx hradius add lry vradius sub
  translate hradius vradius scale 0 0 1 90 180 arc tMatrix setmatrix
  closepath} bdef
/FRR {MRR stroke } bdef
/PRR {MRR fill } bdef
/MlrRR {/lry xdef /lrx xdef /uly xdef /ulx xdef /rad lry uly sub 2 div def
  newpath tMatrix currentmatrix pop ulx rad add uly rad add translate
  rad rad scale 0 0 1 90 270 arc tMatrix setmatrix lrx rad sub lry rad
  sub translate rad rad scale 0 0 1 270 90 arc tMatrix setmatrix
  closepath} bdef
/FlrRR {MlrRR stroke } bdef
/PlrRR {MlrRR fill } bdef
/MtbRR {/lry xdef /lrx xdef /uly xdef /ulx xdef /rad lrx ulx sub 2 div def
  newpath tMatrix currentmatrix pop ulx rad add uly rad add translate
  rad rad scale 0 0 1 180 360 arc tMatrix setmatrix lrx rad sub lry rad
  sub translate rad rad scale 0 0 1 0 180 arc tMatrix setmatrix
  closepath} bdef
/FtbRR {MtbRR stroke } bdef
/PtbRR {MtbRR fill } bdef
/stri 6 array def /dtri 6 array def
/smat 6 array def /dmat 6 array def
/tmat1 6 array def /tmat2 6 array def /dif 3 array def
/asub {/ind2 exch def /ind1 exch def dup dup
  ind1 get exch ind2 get sub exch } bdef
/tri_to_matrix {
  2 0 asub 3 1 asub 4 0 asub 5 1 asub
  dup 0 get exch 1 get 7 -1 roll astore } bdef
/compute_transform {
  dmat dtri tri_to_matrix tmat1 invertmatrix 
  smat stri tri_to_matrix tmat2 concatmatrix } bdef
/ds {stri astore pop} bdef
/dt {dtri astore pop} bdef
/db {2 copy /cols xdef /rows xdef mul dup 3 mul string
  currentfile 
  3 index 0 eq {/ASCIIHexDecode filter}
  {/ASCII85Decode filter 3 index 2 eq {/RunLengthDecode filter} if }
  ifelse exch readstring pop
  dup 0 3 index getinterval /rbmap xdef
  dup 2 index dup getinterval /gbmap xdef
  1 index dup 2 mul exch getinterval /bbmap xdef pop pop}bdef
/it {gs np dtri aload pop moveto lineto lineto cp c
  cols rows 8 compute_transform 
  rbmap gbmap bbmap true 3 colorimage gr}bdef
/il {newpath moveto lineto stroke}bdef
currentdict end def
%%EndProlog

%%BeginSetup
MathWorks begin

0 cap

end
%%EndSetup

%%Page: 1 1
%%BeginPageSetup
%%PageBoundingBox:    31     4   465   364
MathWorks begin
bpage
%%EndPageSetup

%%BeginObject: obj1
bplot

/dpi2point 12 def
portraitMode 0000 4320 csm

  382   -48  5209  4318 rc
76 dict begin %Colortable dictionary
/c0 { 0.000000 0.000000 0.000000 sr} bdef
/c1 { 1.000000 1.000000 1.000000 sr} bdef
/c2 { 0.900000 0.000000 0.000000 sr} bdef
/c3 { 0.000000 0.820000 0.000000 sr} bdef
/c4 { 0.000000 0.000000 0.800000 sr} bdef
/c5 { 0.910000 0.820000 0.320000 sr} bdef
/c6 { 1.000000 0.260000 0.820000 sr} bdef
/c7 { 0.000000 0.820000 0.820000 sr} bdef
c0
1 j
1 sg
   0    0 6049 4321 rf
6 w
0 2376 4234 0 0 -2376 907 3888 4 MP
PP
-4234 0 0 2376 4234 0 0 -2376 907 3888 5 MP stroke
4 w
DO
SO
6 w
0 sg
 907 3888 mt 5141 3888 L
 907 3888 mt  907 1512 L
 907 3888 mt  907 3930 L
%%IncludeResource: font Helvetica
/Helvetica /ISOLatin1Encoding 120 FMSR

 874 4075 mt 
(0) s
1753 3888 mt 1753 3930 L
1720 4075 mt 
(5) s
2600 3888 mt 2600 3930 L
2534 4075 mt 
(10) s
3447 3888 mt 3447 3930 L
3381 4075 mt 
(15) s
4294 3888 mt 4294 3930 L
4228 4075 mt 
(20) s
5141 3888 mt 5141 3930 L
5075 4075 mt 
(25) s
 907 3888 mt  864 3888 L
 764 3932 mt 
(0) s
 907 3591 mt  864 3591 L
 664 3635 mt 
(0.1) s
 907 3294 mt  864 3294 L
 664 3338 mt 
(0.2) s
 907 2997 mt  864 2997 L
 664 3041 mt 
(0.3) s
 907 2700 mt  864 2700 L
 664 2744 mt 
(0.4) s
 907 2403 mt  864 2403 L
 664 2447 mt 
(0.5) s
 907 2106 mt  864 2106 L
 664 2150 mt 
(0.6) s
 907 1809 mt  864 1809 L
 664 1853 mt 
(0.7) s
 907 1512 mt  864 1512 L
 664 1556 mt 
(0.8) s
gs 907 1512 4235 2377 rc
gr

gs 1028 1506 3571 1652 rc
0.6 sg
  24   24 3343 2549 PO
  24   24 2445 2530 PO
  24   24 3672 2910 PO
  24   24 2679 2413 PO
  24   24 3132 2515 PO
  24   24 3001 2567 PO
  24   24 3491 2600 PO
  24   24 3663 2969 PO
  24   24 2604 2418 PO
  24   24 3157 2521 PO
  24   24 2560 2447 PO
  24   24 3215 2558 PO
  24   24 2420 2439 PO
  24   24 3081 2583 PO
  24   24 2423 2495 PO
  24   24 3323 2537 PO
  24   24 3299 2544 PO
  24   24 2618 2526 PO
  24   24 3462 2558 PO
  24   24 3216 2547 PO
  24   24 3179 2526 PO
  24   24 3032 2582 PO
  24   24 2391 2462 PO
  24   24 2819 2644 PO
  24   24 3339 2595 PO
  24   24 2648 2566 PO
  24   24 3634 2889 PO
  24   24 3078 2521 PO
  24   24 2162 2286 PO
  24   24 2100 2299 PO
  24   24 2019 2310 PO
  24   24 2353 2282 PO
  24   24 2723 2500 PO
  24   24 2616 2532 PO
  24   24 2292 2348 PO
  24   24 2743 2558 PO
  24   24 2019 2262 PO
  24   24 2256 2318 PO
  24   24 2791 2598 PO
  24   24 2015 2284 PO
  24   24 2142 2310 PO
  24   24 2681 2584 PO
  24   24 2144 2373 PO
  24   24 2859 2601 PO
  24   24 2303 2427 PO
  24   24 2791 2605 PO
  24   24 2761 2536 PO
  24   24 2641 2625 PO
  24   24 2118 2295 PO
  24   24 2468 2617 PO
  24   24 2327 2426 PO
  24   24 2678 2518 PO
  24   24 3356 2651 PO
  24   24 2453 2497 PO
  24   24 3686 2902 PO
  24   24 2688 2472 PO
  24   24 3143 2632 PO
  24   24 3012 2659 PO
  24   24 3505 2631 PO
  24   24 3678 2936 PO
  24   24 2613 2495 PO
  24   24 3169 2615 PO
  24   24 2569 2586 PO
  24   24 3227 2574 PO
  24   24 2428 2513 PO
  24   24 3092 2647 PO
  24   24 2431 2607 PO
  24   24 3336 2570 PO
  24   24 3312 2619 PO
  24   24 2627 2555 PO
  24   24 3475 2636 PO
  24   24 3228 2626 PO
  24   24 3191 2537 PO
  24   24 3043 2610 PO
  24   24 2829 2727 PO
  24   24 3352 2578 PO
  24   24 2657 2558 PO
  24   24 3648 2968 PO
  24   24 3089 2592 PO
  24   24 3820 2661 PO
  24   24 4213 3070 PO
  24   24 3026 2606 PO
  24   24 3567 2717 PO
  24   24 3411 2702 PO
  24   24 3997 2623 PO
  24   24 4203 3017 PO
  24   24 3597 2617 PO
  24   24 3667 2715 PO
  24   24 3506 2714 PO
  24   24 3796 2652 PO
  24   24 3767 2659 PO
  24   24 3962 2683 PO
  24   24 3668 2634 PO
  24   24 3623 2625 PO
  24   24 3448 2785 PO
  24   24 3194 2720 PO
  24   24 3815 2599 PO
  24   24 4167 2964 PO
  24   24 3502 2610 PO
  24   24 3907 2554 PO
  24   24 4312 2932 PO
  24   24 3647 2616 PO
  24   24 3486 2570 PO
  24   24 4090 2606 PO
  24   24 4302 2893 PO
  24   24 3678 2600 PO
  24   24 3750 2634 PO
  24   24 3584 2677 PO
  24   24 3882 2539 PO
  24   24 3853 2537 PO
  24   24 4053 2612 PO
  24   24 3751 2634 PO
  24   24 3705 2580 PO
  24   24 3524 2738 PO
  24   24 3262 2693 PO
  24   24 3902 2547 PO
  24   24 4265 2821 PO
  24   24 3580 2576 PO
  24   24 1799 2354 PO
  24   24 1754 2268 PO
  24   24 1697 2226 PO
  24   24 1601 2146 PO
  24   24 1410 2135 PO
  24   24 1891 2317 PO
  24   24 1697 2155 PO
  24   24 1866 2370 PO
  24   24 1410 2068 PO
  24   24 1442 2161 PO
  24   24 1694 2229 PO
  24   24 1784 2302 PO
  24   24 1786 2363 PO
  24   24 1475 2125 PO
  24   24 1899 2445 PO
  24   24 1767 2265 PO
  24   24 3077 2535 PO
  24   24 2277 2379 PO
  24   24 2208 2405 PO
  24   24 2120 2383 PO
  24   24 2485 2340 PO
  24   24 2888 2459 PO
  24   24 2772 2519 PO
  24   24 3208 2607 PO
  24   24 2418 2346 PO
  24   24 2911 2514 PO
  24   24 2120 2364 PO
  24   24 2380 2444 PO
  24   24 2963 2546 PO
  24   24 2116 2331 PO
  24   24 2254 2272 PO
  24   24 2843 2581 PO
  24   24 2257 2410 PO
  24   24 3059 2499 PO
  24   24 3038 2608 PO
  24   24 2431 2406 PO
  24   24 3182 2547 PO
  24   24 2963 2501 PO
  24   24 2930 2413 PO
  24   24 2800 2583 PO
  24   24 2228 2334 PO
  24   24 2610 2523 PO
  24   24 3073 2521 PO
  24   24 2457 2416 PO
  24   24 2840 2486 PO
  24   24 1446 2027 PO
  24   24 1297 1912 PO
  24   24 1297 1922 PO
  24   24 1322 1981 PO
  24   24 1228 1856 PO
  24   24 1347 1969 PO
  24   24 3031 2634 PO
  24   24 2248 2427 PO
  24   24 2181 2371 PO
  24   24 2095 2385 PO
  24   24 2452 2333 PO
  24   24 2846 2505 PO
  24   24 2732 2492 PO
  24   24 2387 2343 PO
  24   24 2868 2586 PO
  24   24 2094 2379 PO
  24   24 2348 2428 PO
  24   24 2919 2598 PO
  24   24 2090 2384 PO
  24   24 2226 2399 PO
  24   24 2802 2588 PO
  24   24 2228 2454 PO
  24   24 3013 2543 PO
  24   24 2992 2572 PO
  24   24 2398 2439 PO
  24   24 3134 2599 PO
  24   24 2920 2573 PO
  24   24 2887 2512 PO
  24   24 2760 2570 PO
  24   24 2201 2381 PO
  24   24 2574 2604 PO
  24   24 3027 2559 PO
  24   24 2424 2417 PO
  24   24 2799 2551 PO
  24   24 1082 1661 PO
  24   24 1077 1555 PO
  24   24 1114 1727 PO
  24   24 3915 2623 PO
  24   24 4116 2907 PO
  24   24 3526 2619 PO
  24   24 3594 2627 PO
  24   24 3438 2614 PO
  24   24 3719 2507 PO
  24   24 3692 2589 PO
  24   24 3881 2606 PO
  24   24 3595 2579 PO
  24   24 3552 2555 PO
  24   24 3381 2669 PO
  24   24 3133 2688 PO
  24   24 3738 2525 PO
  24   24 2933 2578 PO
  24   24 4081 2890 PO
  24   24 3434 2559 PO
  24   24 2155 2388 PO
  24   24 1908 2285 PO
  24   24 2122 2477 PO
  24   24 1905 2320 PO
  24   24 2019 2267 PO
  24   24 2505 2677 PO
  24   24 2021 2375 PO
  24   24 2165 2466 PO
  24   24 2469 2715 PO
  24   24 1998 2334 PO
  24   24 2313 2641 PO
  24   24 2186 2479 PO
  24   24 2503 2578 PO
  24   24 2092 2403 PO
  24   24 1858 2237 PO
  24   24 2062 2331 PO
  24   24 1855 2285 PO
  24   24 1963 2289 PO
  24   24 1965 2362 PO
  24   24 2102 2412 PO
  24   24 1943 2223 PO
  24   24 2242 2579 PO
  24   24 2122 2377 PO
  24   24 4321 2869 PO
  24   24 4549 3108 PO
  24   24 3879 2928 PO
  24   24 3956 2890 PO
  24   24 3779 2916 PO
  24   24 4099 2839 PO
  24   24 4067 2891 PO
  24   24 4282 2837 PO
  24   24 3957 2904 PO
  24   24 3908 2874 PO
  24   24 3715 2982 PO
  24   24 4120 2888 PO
  24   24 4509 2993 PO
  24   24 3775 2910 PO
  24   24 2012 2404 PO
  24   24 1794 2274 PO
  24   24 1983 2433 PO
  24   24 1791 2242 PO
  24   24 1892 2292 PO
  24   24 1894 2311 PO
  24   24 1545 2191 PO
  24   24 2021 2371 PO
  24   24 1873 2300 PO
  24   24 2152 2679 PO
  24   24 2040 2434 PO
  24   24 2344 2323 PO
  24   24 2812 2532 PO
  24   24 2060 2296 PO
  24   24 2307 2358 PO
  24   24 2861 2575 PO
  24   24 2056 2323 PO
  24   24 2188 2329 PO
  24   24 2747 2587 PO
  24   24 2190 2430 PO
  24   24 2952 2505 PO
  24   24 2932 2561 PO
  24   24 2355 2438 PO
  24   24 2862 2607 PO
  24   24 2830 2511 PO
  24   24 2706 2538 PO
  24   24 2163 2347 PO
  24   24 2526 2520 PO
  24   24 2966 2551 PO
  24   24 2381 2384 PO
  24   24 2745 2564 PO
  24   24 1687 2083 PO
  24   24 1853 2300 PO
  24   24 1403 1963 PO
  24   24 1435 2090 PO
  24   24 1684 2132 PO
  24   24 1773 2102 PO
  24   24 1774 2320 PO
  24   24 1468 2070 PO
  24   24 1756 2142 PO
  24   24 1266 1875 PO
  24   24 1290 1974 PO
  24   24 1203 1843 PO
  24   24 1313 1950 PO
  24   24 3654 2643 PO
  24   24 3837 2956 PO
  24   24 2711 2565 PO
  24   24 3299 2669 PO
  24   24 2665 2630 PO
  24   24 3361 2721 PO
  24   24 3218 2647 PO
  24   24 3475 2606 PO
  24   24 3450 2560 PO
  24   24 2725 2581 PO
  24   24 3622 2673 PO
  24   24 3361 2625 PO
  24   24 3322 2537 PO
  24   24 3166 2700 PO
  24   24 2940 2678 PO
  24   24 3492 2548 PO
  24   24 2757 2512 PO
  24   24 3805 2942 PO
  24   24 3214 2660 PO
  24   24 3493 2705 PO
  24   24 3665 2942 PO
  24   24 2605 2522 PO
  24   24 3158 2571 PO
  24   24 2562 2553 PO
  24   24 3217 2579 PO
  24   24 2421 2516 PO
  24   24 3082 2677 PO
  24   24 2423 2630 PO
  24   24 3324 2618 PO
  24   24 3301 2657 PO
  24   24 2619 2616 PO
  24   24 3463 2610 PO
  24   24 3217 2602 PO
  24   24 3180 2648 PO
  24   24 3033 2661 PO
  24   24 2392 2538 PO
  24   24 2820 2673 PO
  24   24 3340 2564 PO
  24   24 2649 2599 PO
  24   24 3635 2940 PO
  24   24 3079 2640 PO
  24   24 3757 2644 PO
  24   24 3591 2700 PO
  24   24 3890 2568 PO
  24   24 3861 2622 PO
  24   24 4061 2630 PO
  24   24 3758 2619 PO
  24   24 3712 2580 PO
  24   24 3531 2763 PO
  24   24 3268 2762 PO
  24   24 3910 2568 PO
  24   24 4274 2894 PO
  24   24 3587 2637 PO
  24   24 3947 2937 PO
  24   24 3770 3041 PO
  24   24 4089 2924 PO
  24   24 4058 2849 PO
  24   24 4272 2843 PO
  24   24 3948 2932 PO
  24   24 3899 2888 PO
  24   24 3706 3028 PO
  24   24 4110 2849 PO
  24   24 4498 3073 PO
  24   24 3766 2860 PO
  24   24 2779 2649 PO
  24   24 2008 2331 PO
  24   24 2134 2344 PO
  24   24 2670 2576 PO
  24   24 2136 2427 PO
  24   24 2847 2640 PO
  24   24 2294 2424 PO
  24   24 2780 2498 PO
  24   24 2749 2570 PO
  24   24 2630 2630 PO
  24   24 2110 2364 PO
  24   24 2458 2537 PO
  24   24 2319 2357 PO
  24   24 2667 2525 PO
  24   24 3389 2560 PO
  24   24 3244 2588 PO
  24   24 3504 2520 PO
  24   24 3479 2601 PO
  24   24 2746 2601 PO
  24   24 3653 2578 PO
  24   24 3389 2546 PO
  24   24 3349 2515 PO
  24   24 3192 2687 PO
  24   24 2963 2675 PO
  24   24 3522 2531 PO
  24   24 2778 2567 PO
  24   24 3838 2881 PO
  24   24 3240 2595 PO
  24   24 1791 2195 PO
  24   24 1892 2136 PO
  24   24 1893 2316 PO
  24   24 1545 2129 PO
  24   24 2020 2356 PO
  24   24 1873 2181 PO
  24   24 2152 2610 PO
  24   24 2040 2395 PO
  24   24 1113 1706 PO
  24   24 2731 2611 PO
  24   24 1980 2342 PO
  24   24 2102 2316 PO
  24   24 2624 2594 PO
  24   24 2104 2446 PO
  24   24 2259 2476 PO
  24   24 2731 2575 PO
  24   24 2702 2615 PO
  24   24 2586 2637 PO
  24   24 2079 2325 PO
  24   24 2418 2604 PO
  24   24 2282 2454 PO
  24   24 2622 2558 PO
  24   24 1203 1874 PO
  24   24 1313 1962 PO
  24   24 1222 1878 PO
  24   24 1339 1928 PO
  24   24 1107 1707 PO
  24   24 3725 2567 PO
  24   24 3454 2537 PO
  24   24 3413 2489 PO
  24   24 3251 2632 PO
  24   24 3016 2608 PO
  24   24 3589 2473 PO
  24   24 2827 2473 PO
  24   24 3914 2816 PO
  24   24 3301 2490 PO
  24   24 1870 2245 PO
  24   24 2147 2638 PO
  24   24 2036 2380 PO
  24   24 2443 2637 PO
  24   24 1980 2197 PO
  24   24 2289 2514 PO
  24   24 2165 2336 PO
  24   24 3560 2672 PO
  24   24 3305 2608 PO
  24   24 3267 2571 PO
  24   24 3114 2686 PO
  24   24 2893 2679 PO
  24   24 3433 2597 PO
  24   24 2715 2482 PO
  24   24 3739 2876 PO
  24   24 3162 2555 PO
  24   24 2446 2817 PO
  24   24 1982 2449 PO
  24   24 2292 2704 PO
  24   24 2167 2509 PO
  24   24 3856 2554 PO
  24   24 3572 2553 PO
  24   24 3530 2473 PO
  24   24 3360 2638 PO
  24   24 3114 2698 PO
  24   24 3714 2467 PO
  24   24 2916 2595 PO
  24   24 4055 2831 PO
  24   24 3413 2589 PO
  24   24 3827 2579 PO
  24   24 3546 2577 PO
  24   24 3504 2590 PO
  24   24 3336 2678 PO
  24   24 3093 2697 PO
  24   24 3687 2564 PO
  24   24 2897 2630 PO
  24   24 4024 2850 PO
  24   24 3388 2586 PO
  24   24 2794 2558 PO
  24   24 2764 2514 PO
  24   24 2644 2633 PO
  24   24 2120 2274 PO
  24   24 2470 2632 PO
  24   24 2330 2344 PO
  24   24 2681 2558 PO
  24   24 3343 2549 FO
  24   24 2445 2530 FO
  24   24 3672 2910 FO
  24   24 2679 2413 FO
  24   24 3132 2515 FO
  24   24 3001 2567 FO
  24   24 3491 2600 FO
  24   24 3663 2969 FO
  24   24 2604 2418 FO
  24   24 3157 2521 FO
  24   24 2560 2447 FO
  24   24 3215 2558 FO
  24   24 2420 2439 FO
  24   24 3081 2583 FO
  24   24 2423 2495 FO
  24   24 3323 2537 FO
  24   24 3299 2544 FO
  24   24 2618 2526 FO
  24   24 3462 2558 FO
  24   24 3216 2547 FO
  24   24 3179 2526 FO
  24   24 3032 2582 FO
  24   24 2391 2462 FO
  24   24 2819 2644 FO
  24   24 3339 2595 FO
  24   24 2648 2566 FO
  24   24 3634 2889 FO
  24   24 3078 2521 FO
  24   24 2162 2286 FO
  24   24 2100 2299 FO
  24   24 2019 2310 FO
  24   24 2353 2282 FO
  24   24 2723 2500 FO
  24   24 2616 2532 FO
  24   24 2292 2348 FO
  24   24 2743 2558 FO
  24   24 2019 2262 FO
  24   24 2256 2318 FO
  24   24 2791 2598 FO
  24   24 2015 2284 FO
  24   24 2142 2310 FO
  24   24 2681 2584 FO
  24   24 2144 2373 FO
  24   24 2859 2601 FO
  24   24 2303 2427 FO
  24   24 2791 2605 FO
  24   24 2761 2536 FO
  24   24 2641 2625 FO
  24   24 2118 2295 FO
  24   24 2468 2617 FO
  24   24 2327 2426 FO
  24   24 2678 2518 FO
  24   24 3356 2651 FO
  24   24 2453 2497 FO
  24   24 3686 2902 FO
  24   24 2688 2472 FO
  24   24 3143 2632 FO
  24   24 3012 2659 FO
  24   24 3505 2631 FO
  24   24 3678 2936 FO
  24   24 2613 2495 FO
  24   24 3169 2615 FO
  24   24 2569 2586 FO
  24   24 3227 2574 FO
  24   24 2428 2513 FO
  24   24 3092 2647 FO
  24   24 2431 2607 FO
  24   24 3336 2570 FO
  24   24 3312 2619 FO
  24   24 2627 2555 FO
  24   24 3475 2636 FO
  24   24 3228 2626 FO
  24   24 3191 2537 FO
  24   24 3043 2610 FO
  24   24 2829 2727 FO
  24   24 3352 2578 FO
  24   24 2657 2558 FO
  24   24 3648 2968 FO
  24   24 3089 2592 FO
  24   24 3820 2661 FO
  24   24 4213 3070 FO
  24   24 3026 2606 FO
  24   24 3567 2717 FO
  24   24 3411 2702 FO
  24   24 3997 2623 FO
  24   24 4203 3017 FO
  24   24 3597 2617 FO
  24   24 3667 2715 FO
  24   24 3506 2714 FO
  24   24 3796 2652 FO
  24   24 3767 2659 FO
  24   24 3962 2683 FO
  24   24 3668 2634 FO
  24   24 3623 2625 FO
  24   24 3448 2785 FO
  24   24 3194 2720 FO
  24   24 3815 2599 FO
  24   24 4167 2964 FO
  24   24 3502 2610 FO
  24   24 3907 2554 FO
  24   24 4312 2932 FO
  24   24 3647 2616 FO
  24   24 3486 2570 FO
  24   24 4090 2606 FO
  24   24 4302 2893 FO
  24   24 3678 2600 FO
  24   24 3750 2634 FO
  24   24 3584 2677 FO
  24   24 3882 2539 FO
  24   24 3853 2537 FO
  24   24 4053 2612 FO
  24   24 3751 2634 FO
  24   24 3705 2580 FO
  24   24 3524 2738 FO
  24   24 3262 2693 FO
  24   24 3902 2547 FO
  24   24 4265 2821 FO
  24   24 3580 2576 FO
  24   24 1799 2354 FO
  24   24 1754 2268 FO
  24   24 1697 2226 FO
  24   24 1601 2146 FO
  24   24 1410 2135 FO
  24   24 1891 2317 FO
  24   24 1697 2155 FO
  24   24 1866 2370 FO
  24   24 1410 2068 FO
  24   24 1442 2161 FO
  24   24 1694 2229 FO
  24   24 1784 2302 FO
  24   24 1786 2363 FO
  24   24 1475 2125 FO
  24   24 1899 2445 FO
  24   24 1767 2265 FO
  24   24 3077 2535 FO
  24   24 2277 2379 FO
  24   24 2208 2405 FO
  24   24 2120 2383 FO
  24   24 2485 2340 FO
  24   24 2888 2459 FO
  24   24 2772 2519 FO
  24   24 3208 2607 FO
  24   24 2418 2346 FO
  24   24 2911 2514 FO
  24   24 2120 2364 FO
  24   24 2380 2444 FO
  24   24 2963 2546 FO
  24   24 2116 2331 FO
  24   24 2254 2272 FO
  24   24 2843 2581 FO
  24   24 2257 2410 FO
  24   24 3059 2499 FO
  24   24 3038 2608 FO
  24   24 2431 2406 FO
  24   24 3182 2547 FO
  24   24 2963 2501 FO
  24   24 2930 2413 FO
  24   24 2800 2583 FO
  24   24 2228 2334 FO
  24   24 2610 2523 FO
  24   24 3073 2521 FO
  24   24 2457 2416 FO
  24   24 2840 2486 FO
  24   24 1446 2027 FO
  24   24 1297 1912 FO
  24   24 1297 1922 FO
  24   24 1322 1981 FO
  24   24 1228 1856 FO
  24   24 1347 1969 FO
  24   24 3031 2634 FO
  24   24 2248 2427 FO
  24   24 2181 2371 FO
  24   24 2095 2385 FO
  24   24 2452 2333 FO
  24   24 2846 2505 FO
  24   24 2732 2492 FO
  24   24 2387 2343 FO
  24   24 2868 2586 FO
  24   24 2094 2379 FO
  24   24 2348 2428 FO
  24   24 2919 2598 FO
  24   24 2090 2384 FO
  24   24 2226 2399 FO
  24   24 2802 2588 FO
  24   24 2228 2454 FO
  24   24 3013 2543 FO
  24   24 2992 2572 FO
  24   24 2398 2439 FO
  24   24 3134 2599 FO
  24   24 2920 2573 FO
  24   24 2887 2512 FO
  24   24 2760 2570 FO
  24   24 2201 2381 FO
  24   24 2574 2604 FO
  24   24 3027 2559 FO
  24   24 2424 2417 FO
  24   24 2799 2551 FO
  24   24 1082 1661 FO
  24   24 1077 1555 FO
  24   24 1114 1727 FO
  24   24 3915 2623 FO
  24   24 4116 2907 FO
  24   24 3526 2619 FO
  24   24 3594 2627 FO
  24   24 3438 2614 FO
  24   24 3719 2507 FO
  24   24 3692 2589 FO
  24   24 3881 2606 FO
  24   24 3595 2579 FO
  24   24 3552 2555 FO
  24   24 3381 2669 FO
  24   24 3133 2688 FO
  24   24 3738 2525 FO
  24   24 2933 2578 FO
  24   24 4081 2890 FO
  24   24 3434 2559 FO
  24   24 2155 2388 FO
  24   24 1908 2285 FO
  24   24 2122 2477 FO
  24   24 1905 2320 FO
  24   24 2019 2267 FO
  24   24 2505 2677 FO
  24   24 2021 2375 FO
  24   24 2165 2466 FO
  24   24 2469 2715 FO
  24   24 1998 2334 FO
  24   24 2313 2641 FO
  24   24 2186 2479 FO
  24   24 2503 2578 FO
  24   24 2092 2403 FO
  24   24 1858 2237 FO
  24   24 2062 2331 FO
  24   24 1855 2285 FO
  24   24 1963 2289 FO
  24   24 1965 2362 FO
  24   24 2102 2412 FO
  24   24 1943 2223 FO
  24   24 2242 2579 FO
  24   24 2122 2377 FO
  24   24 4321 2869 FO
  24   24 4549 3108 FO
  24   24 3879 2928 FO
  24   24 3956 2890 FO
  24   24 3779 2916 FO
  24   24 4099 2839 FO
  24   24 4067 2891 FO
  24   24 4282 2837 FO
  24   24 3957 2904 FO
  24   24 3908 2874 FO
  24   24 3715 2982 FO
  24   24 4120 2888 FO
  24   24 4509 2993 FO
  24   24 3775 2910 FO
  24   24 2012 2404 FO
  24   24 1794 2274 FO
  24   24 1983 2433 FO
  24   24 1791 2242 FO
  24   24 1892 2292 FO
  24   24 1894 2311 FO
  24   24 1545 2191 FO
  24   24 2021 2371 FO
  24   24 1873 2300 FO
  24   24 2152 2679 FO
  24   24 2040 2434 FO
  24   24 2344 2323 FO
  24   24 2812 2532 FO
  24   24 2060 2296 FO
  24   24 2307 2358 FO
  24   24 2861 2575 FO
  24   24 2056 2323 FO
  24   24 2188 2329 FO
  24   24 2747 2587 FO
  24   24 2190 2430 FO
  24   24 2952 2505 FO
  24   24 2932 2561 FO
  24   24 2355 2438 FO
  24   24 2862 2607 FO
  24   24 2830 2511 FO
  24   24 2706 2538 FO
  24   24 2163 2347 FO
  24   24 2526 2520 FO
  24   24 2966 2551 FO
  24   24 2381 2384 FO
  24   24 2745 2564 FO
  24   24 1687 2083 FO
  24   24 1853 2300 FO
  24   24 1403 1963 FO
  24   24 1435 2090 FO
  24   24 1684 2132 FO
  24   24 1773 2102 FO
  24   24 1774 2320 FO
  24   24 1468 2070 FO
  24   24 1756 2142 FO
  24   24 1266 1875 FO
  24   24 1290 1974 FO
  24   24 1203 1843 FO
  24   24 1313 1950 FO
  24   24 3654 2643 FO
  24   24 3837 2956 FO
  24   24 2711 2565 FO
  24   24 3299 2669 FO
  24   24 2665 2630 FO
  24   24 3361 2721 FO
  24   24 3218 2647 FO
  24   24 3475 2606 FO
  24   24 3450 2560 FO
  24   24 2725 2581 FO
  24   24 3622 2673 FO
  24   24 3361 2625 FO
  24   24 3322 2537 FO
  24   24 3166 2700 FO
  24   24 2940 2678 FO
  24   24 3492 2548 FO
  24   24 2757 2512 FO
  24   24 3805 2942 FO
  24   24 3214 2660 FO
  24   24 3493 2705 FO
  24   24 3665 2942 FO
  24   24 2605 2522 FO
  24   24 3158 2571 FO
  24   24 2562 2553 FO
  24   24 3217 2579 FO
  24   24 2421 2516 FO
  24   24 3082 2677 FO
  24   24 2423 2630 FO
  24   24 3324 2618 FO
  24   24 3301 2657 FO
  24   24 2619 2616 FO
  24   24 3463 2610 FO
  24   24 3217 2602 FO
  24   24 3180 2648 FO
  24   24 3033 2661 FO
  24   24 2392 2538 FO
  24   24 2820 2673 FO
  24   24 3340 2564 FO
  24   24 2649 2599 FO
  24   24 3635 2940 FO
  24   24 3079 2640 FO
  24   24 3757 2644 FO
  24   24 3591 2700 FO
  24   24 3890 2568 FO
  24   24 3861 2622 FO
  24   24 4061 2630 FO
  24   24 3758 2619 FO
  24   24 3712 2580 FO
  24   24 3531 2763 FO
  24   24 3268 2762 FO
  24   24 3910 2568 FO
  24   24 4274 2894 FO
  24   24 3587 2637 FO
  24   24 3947 2937 FO
  24   24 3770 3041 FO
  24   24 4089 2924 FO
  24   24 4058 2849 FO
  24   24 4272 2843 FO
  24   24 3948 2932 FO
  24   24 3899 2888 FO
  24   24 3706 3028 FO
  24   24 4110 2849 FO
  24   24 4498 3073 FO
  24   24 3766 2860 FO
  24   24 2779 2649 FO
  24   24 2008 2331 FO
  24   24 2134 2344 FO
  24   24 2670 2576 FO
  24   24 2136 2427 FO
  24   24 2847 2640 FO
  24   24 2294 2424 FO
  24   24 2780 2498 FO
  24   24 2749 2570 FO
  24   24 2630 2630 FO
  24   24 2110 2364 FO
  24   24 2458 2537 FO
  24   24 2319 2357 FO
  24   24 2667 2525 FO
  24   24 3389 2560 FO
  24   24 3244 2588 FO
  24   24 3504 2520 FO
  24   24 3479 2601 FO
  24   24 2746 2601 FO
  24   24 3653 2578 FO
  24   24 3389 2546 FO
  24   24 3349 2515 FO
  24   24 3192 2687 FO
  24   24 2963 2675 FO
  24   24 3522 2531 FO
  24   24 2778 2567 FO
  24   24 3838 2881 FO
  24   24 3240 2595 FO
  24   24 1791 2195 FO
  24   24 1892 2136 FO
  24   24 1893 2316 FO
  24   24 1545 2129 FO
  24   24 2020 2356 FO
  24   24 1873 2181 FO
  24   24 2152 2610 FO
  24   24 2040 2395 FO
  24   24 1113 1706 FO
  24   24 2731 2611 FO
  24   24 1980 2342 FO
  24   24 2102 2316 FO
  24   24 2624 2594 FO
  24   24 2104 2446 FO
  24   24 2259 2476 FO
  24   24 2731 2575 FO
  24   24 2702 2615 FO
  24   24 2586 2637 FO
  24   24 2079 2325 FO
  24   24 2418 2604 FO
  24   24 2282 2454 FO
  24   24 2622 2558 FO
  24   24 1203 1874 FO
  24   24 1313 1962 FO
  24   24 1222 1878 FO
  24   24 1339 1928 FO
  24   24 1107 1707 FO
  24   24 3725 2567 FO
  24   24 3454 2537 FO
  24   24 3413 2489 FO
  24   24 3251 2632 FO
  24   24 3016 2608 FO
  24   24 3589 2473 FO
  24   24 2827 2473 FO
  24   24 3914 2816 FO
  24   24 3301 2490 FO
  24   24 1870 2245 FO
  24   24 2147 2638 FO
  24   24 2036 2380 FO
  24   24 2443 2637 FO
  24   24 1980 2197 FO
  24   24 2289 2514 FO
  24   24 2165 2336 FO
  24   24 3560 2672 FO
  24   24 3305 2608 FO
  24   24 3267 2571 FO
  24   24 3114 2686 FO
  24   24 2893 2679 FO
  24   24 3433 2597 FO
  24   24 2715 2482 FO
  24   24 3739 2876 FO
  24   24 3162 2555 FO
  24   24 2446 2817 FO
  24   24 1982 2449 FO
  24   24 2292 2704 FO
  24   24 2167 2509 FO
  24   24 3856 2554 FO
  24   24 3572 2553 FO
  24   24 3530 2473 FO
  24   24 3360 2638 FO
  24   24 3114 2698 FO
  24   24 3714 2467 FO
  24   24 2916 2595 FO
  24   24 4055 2831 FO
  24   24 3413 2589 FO
  24   24 3827 2579 FO
  24   24 3546 2577 FO
  24   24 3504 2590 FO
  24   24 3336 2678 FO
  24   24 3093 2697 FO
  24   24 3687 2564 FO
  24   24 2897 2630 FO
  24   24 4024 2850 FO
  24   24 3388 2586 FO
  24   24 2794 2558 FO
  24   24 2764 2514 FO
  24   24 2644 2633 FO
  24   24 2120 2274 FO
  24   24 2470 2632 FO
  24   24 2330 2344 FO
  24   24 2681 2558 FO
gr

0.6 sg
gs 907 1512 4235 2377 rc
24 w
0 sg
0 225 1161 1644 2 MP stroke
81 0 1120 1644 2 MP stroke
81 0 1120 1869 2 MP stroke
0 140 1330 1900 2 MP stroke
82 0 1289 1900 2 MP stroke
82 0 1289 2040 2 MP stroke
0 112 1499 2057 2 MP stroke
81 0 1459 2057 2 MP stroke
81 0 1459 2169 2 MP stroke
0 113 1669 2105 2 MP stroke
81 0 1628 2105 2 MP stroke
81 0 1628 2218 2 MP stroke
0 155 1838 2198 2 MP stroke
82 0 1797 2198 2 MP stroke
82 0 1797 2353 2 MP stroke
0 128 2007 2274 2 MP stroke
81 0 1967 2274 2 MP stroke
81 0 1967 2402 2 MP stroke
0 188 2177 2308 2 MP stroke
81 0 2136 2308 2 MP stroke
81 0 2136 2496 2 MP stroke
0 204 2346 2349 2 MP stroke
82 0 2305 2349 2 MP stroke
82 0 2305 2553 2 MP stroke
0 244 2515 2440 2 MP stroke
81 0 2475 2440 2 MP stroke
81 0 2475 2684 2 MP stroke
0 105 2685 2500 2 MP stroke
81 0 2644 2500 2 MP stroke
81 0 2644 2605 2 MP stroke
0 133 2854 2504 2 MP stroke
82 0 2813 2504 2 MP stroke
82 0 2813 2637 2 MP stroke
0 120 3024 2532 2 MP stroke
81 0 2983 2532 2 MP stroke
81 0 2983 2652 2 MP stroke
0 130 3193 2550 2 MP stroke
82 0 3152 2550 2 MP stroke
82 0 3152 2680 2 MP stroke
0 119 3362 2536 2 MP stroke
81 0 3322 2536 2 MP stroke
81 0 3322 2655 2 MP stroke
0 153 3532 2537 2 MP stroke
81 0 3491 2537 2 MP stroke
81 0 3491 2690 2 MP stroke
0 353 3701 2566 2 MP stroke
82 0 3660 2566 2 MP stroke
82 0 3660 2919 2 MP stroke
0 329 3870 2547 2 MP stroke
81 0 3830 2547 2 MP stroke
81 0 3830 2876 2 MP stroke
0 238 4040 2685 2 MP stroke
81 0 3999 2685 2 MP stroke
81 0 3999 2923 2 MP stroke
0 196 4209 2823 2 MP stroke
82 0 4168 2823 2 MP stroke
82 0 4168 3019 2 MP stroke
0 64 4378 2866 2 MP stroke
81 0 4338 2866 2 MP stroke
81 0 4338 2930 2 MP stroke
0 118 4548 2999 2 MP stroke
81 0 4507 2999 2 MP stroke
81 0 4507 3117 2 MP stroke
170 160 169 -23 169 117 170 93 169 -31 169 129 170 17 169 -19 
169 23 170 22 169 18 170 -10 169 111 169 49 170 64 169 62 
169 114 170 49 169 143 169 214 1161 1756 21 MP stroke
gs 1063 1658 3584 1499 rc
0 j
0 -58 -58 0 0 58 58 0 1132 1727 5 MP
DP
0 -58 -58 0 0 58 58 0 1301 1941 5 MP
DP
0 -58 -58 0 0 58 58 0 1470 2084 5 MP
DP
0 -58 -58 0 0 58 58 0 1640 2133 5 MP
DP
0 -58 -58 0 0 58 58 0 1809 2247 5 MP
DP
0 -58 -58 0 0 58 58 0 1978 2309 5 MP
DP
0 -58 -58 0 0 58 58 0 2148 2373 5 MP
DP
0 -58 -58 0 0 58 58 0 2317 2422 5 MP
DP
0 -58 -58 0 0 58 58 0 2486 2533 5 MP
DP
0 -58 -58 0 0 58 58 0 2656 2523 5 MP
DP
0 -58 -58 0 0 58 58 0 2825 2541 5 MP
DP
0 -58 -58 0 0 58 58 0 2995 2563 5 MP
DP
0 -58 -58 0 0 58 58 0 3164 2586 5 MP
DP
0 -58 -58 0 0 58 58 0 3333 2567 5 MP
DP
0 -58 -58 0 0 58 58 0 3503 2584 5 MP
DP
0 -58 -58 0 0 58 58 0 3672 2713 5 MP
DP
0 -58 -58 0 0 58 58 0 3841 2682 5 MP
DP
0 -58 -58 0 0 58 58 0 4011 2775 5 MP
DP
0 -58 -58 0 0 58 58 0 4180 2892 5 MP
DP
0 -58 -58 0 0 58 58 0 4349 2869 5 MP
DP
0 -58 -58 0 0 58 58 0 4519 3029 5 MP
DP
gr

gr

24 w
0 sg
4294 2544 mt 
(N) s
%%IncludeResource: font Helvetica
/Helvetica /ISOLatin1Encoding 96 FMSR

4380 2604 mt 
(cells) s
%%IncludeResource: font Helvetica
/Helvetica /ISOLatin1Encoding 120 FMSR

4572 2544 mt 
(=5) s
4294 2693 mt 
(N) s
%%IncludeResource: font Helvetica
/Helvetica /ISOLatin1Encoding 96 FMSR

4380 2753 mt 
(pairs) s
%%IncludeResource: font Helvetica
/Helvetica /ISOLatin1Encoding 120 FMSR

4588 2693 mt 
(=470) s
2092 4218 mt 
(Geometric mean output rate \(AP/s\)) s
 528 3251 mt  -90 rotate
(Output correlation ) s
90 rotate
%%IncludeResource: font Symbol
/Symbol /ISOLatin1Encoding 120 FMSR

 528 2264 mt  -90 rotate
(r) s
90 rotate
%%IncludeResource: font Helvetica
/Helvetica /ISOLatin1Encoding 96 FMSR

 588 2199 mt  -90 rotate
(T) s
90 rotate
6 w
1 sg
0 432 4234 0 0 -432 907 3888 4 MP
PP
-4234 0 0 432 4234 0 0 -432 907 3888 5 MP stroke
4 w
DO
SO
6 w
0 sg
 907 3888 mt 5141 3888 L
5141 3888 mt 5141 3456 L
 907 3888 mt  907 3930 L
%%IncludeResource: font Helvetica
/Helvetica /ISOLatin1Encoding 120 FMSR

 874 4075 mt 
(0) s
1753 3888 mt 1753 3930 L
1720 4075 mt 
(5) s
2600 3888 mt 2600 3930 L
2534 4075 mt 
(10) s
3447 3888 mt 3447 3930 L
3381 4075 mt 
(15) s
4294 3888 mt 4294 3930 L
4228 4075 mt 
(20) s
5141 3888 mt 5141 3930 L
5075 4075 mt 
(25) s
5141 3888 mt 5183 3888 L
5217 3932 mt 
(0) s
5141 3672 mt 5183 3672 L
5217 3716 mt 
(25) s
5141 3456 mt 5183 3456 L
5217 3500 mt 
(50) s
gs 907 3456 4235 433 rc
/c8 { 0.600000 0.600000 1.000000 sr} bdef
c8
0 0 136 0 0 0 923 3888 4 MP
PP
0 78 135 0 0 -78 1093 3888 4 MP
PP
0 104 136 0 0 -104 1262 3888 4 MP
PP
0 61 135 0 0 -61 1432 3888 4 MP
PP
0 52 135 0 0 -52 1601 3888 4 MP
PP
0 225 136 0 0 -225 1770 3888 4 MP
PP
0 216 135 0 0 -216 1940 3888 4 MP
PP
0 372 135 0 0 -372 2109 3888 4 MP
PP
0 277 136 0 0 -277 2278 3888 4 MP
PP
0 165 135 0 0 -165 2448 3888 4 MP
PP
0 363 136 0 0 -363 2617 3888 4 MP
PP
0 303 136 0 0 -303 2786 3888 4 MP
PP
0 242 135 0 0 -242 2956 3888 4 MP
PP
0 277 136 0 0 -277 3125 3888 4 MP
PP
0 260 136 0 0 -260 3294 3888 4 MP
PP
0 303 135 0 0 -303 3464 3888 4 MP
PP
0 312 136 0 0 -312 3633 3888 4 MP
PP
0 199 135 0 0 -199 3803 3888 4 MP
PP
0 147 135 0 0 -147 3972 3888 4 MP
PP
0 61 136 0 0 -61 4141 3888 4 MP
PP
0 26 135 0 0 -26 4311 3888 4 MP
PP
0 26 135 0 0 -26 4480 3888 4 MP
PP
0 0 136 0 0 0 4649 3888 4 MP
PP
0 0 135 0 0 0 4819 3888 4 MP
PP
0 0 136 0 0 0 4988 3888 4 MP
PP
0 sg
4234 0 907 3888 2 MP stroke
gr

5491 4100 mt  -90 rotate
(Number of pairs) s
90 rotate
1 sg
0 864 1815 0 0 -864 907 1080 4 MP
PP
-1815 0 0 864 1815 0 0 -864 907 1080 5 MP stroke
4 w
DO
SO
6 w
0 sg
 907 1080 mt 2722 1080 L
 907 1080 mt  907  216 L
 907 1080 mt  907 1098 L
 874 1243 mt 
(0) s
1732 1080 mt 1732 1098 L
1666 1243 mt 
(10) s
2557 1080 mt 2557 1098 L
2491 1243 mt 
(20) s
 907  864 mt  888  864 L
 688  908 mt 
(0.5) s
 907  324 mt  888  324 L
 788  368 mt 
(1) s
gs 907 216 1816 865 rc
DA
24 w
0.6 sg
1815 0 907 324 2 MP stroke
SO
6 w
gs 919 392 1608 493 rc
/c9 { 0.000000 0.500000 1.000000 sr} bdef
c9
  36   36 1926  723 PO
  36   36 1586  679 PO
  36   36 1937  735 PO
  36   36 2364  797 PO
  36   36 2453  811 PO
  36   36 1249  652 PO
  36   36 1715  721 PO
  36   36 1113  611 PO
  36   36 1681  718 PO
  36   36  992  465 PO
  36   36 1926  723 FO
  36   36 1586  679 FO
  36   36 1937  735 FO
  36   36 2364  797 FO
  36   36 2453  811 FO
  36   36 1249  652 FO
  36   36 1715  721 FO
  36   36 1113  611 FO
  36   36 1681  718 FO
  36   36  992  465 FO
gr

c9
gr

c9
gs 1009 511 1751 407 rc
/c10 { 0.000000 1.000000 1.000000 sr} bdef
c10
  36   36 2288  789 PO
  36   36 1458  693 PO
  36   36 1404  662 PO
  36   36 2686  844 PO
  36   36 1339  663 PO
  36   36 1637  701 PO
  36   36 1241  637 PO
  36   36 1082  584 PO
  36   36 2059  735 PO
  36   36 1927  731 PO
  36   36 2288  789 FO
  36   36 1458  693 FO
  36   36 1404  662 FO
  36   36 2686  844 FO
  36   36 1339  663 FO
  36   36 1637  701 FO
  36   36 1241  637 FO
  36   36 1082  584 FO
  36   36 2059  735 FO
  36   36 1927  731 FO
gr

c10
gs 907 216 1816 865 rc
gr

gs 914 383 1835 549 rc
/c11 { 0.500000 1.000000 0.500000 sr} bdef
c11
  36   36 2461  803 PO
  36   36 2675  858 PO
  36   36 1577  691 PO
  36   36 2085  769 PO
  36   36 1339  659 PO
  36   36  992  513 PO
  36   36 1543  701 PO
  36   36 1082  587 PO
  36   36 1105  597 PO
  36   36  987  456 PO
  36   36 2461  803 FO
  36   36 2675  858 FO
  36   36 1577  691 FO
  36   36 2085  769 FO
  36   36 1339  659 FO
  36   36  992  513 FO
  36   36 1543  701 FO
  36   36 1082  587 FO
  36   36 1105  597 FO
  36   36  987  456 FO
gr

c11
gs 907 216 1816 865 rc
gs 952 466 1387 392 rc
/c12 { 1.000000 1.000000 0.000000 sr} bdef
c12
  36   36 2147  780 PO
  36   36 1025  539 PO
  36   36 1336  644 PO
  36   36 1439  677 PO
  36   36 2007  749 PO
  36   36 1441  682 PO
  36   36 2265  784 PO
  36   36 2239  782 PO
  36   36 1130  591 PO
  36   36 1588  695 PO
  36   36 2147  780 FO
  36   36 1025  539 FO
  36   36 1336  644 FO
  36   36 1439  677 FO
  36   36 2007  749 FO
  36   36 1441  682 FO
  36   36 2265  784 FO
  36   36 2239  782 FO
  36   36 1130  591 FO
  36   36 1588  695 FO
gr

c12
gs 1346 597 1365 314 rc
/c13 { 1.000000 0.500000 0.000000 sr} bdef
c13
  36   36 2426  792 PO
  36   36 2148  759 PO
  36   36 2108  754 PO
  36   36 1958  749 PO
  36   36 1419  670 PO
  36   36 1758  693 PO
  36   36 2283  792 PO
  36   36 1612  702 PO
  36   36 2637  837 PO
  36   36 2003  741 PO
  36   36 2426  792 FO
  36   36 2148  759 FO
  36   36 2108  754 FO
  36   36 1958  749 FO
  36   36 1419  670 FO
  36   36 1758  693 FO
  36   36 2283  792 FO
  36   36 1612  702 FO
  36   36 2637  837 FO
  36   36 2003  741 FO
gr

c13
gr

c13
0 sg
%%IncludeResource: font Symbol
/Symbol /ISOLatin1Encoding 120 FMSR

1589 1354 mt 
(n) s
%%IncludeResource: font Helvetica
/Helvetica /ISOLatin1Encoding 96 FMSR

1651 1414 mt 
(i) s
%%IncludeResource: font Helvetica
/Helvetica /ISOLatin1Encoding 120 FMSR

1672 1354 mt 
( \(AP/s\)) s
 552  743 mt  -90 rotate
(CV) s
90 rotate
%%IncludeResource: font Helvetica
/Helvetica /ISOLatin1Encoding 96 FMSR

 612  577 mt  -90 rotate
(i) s
90 rotate
1 sg
0 864 1815 0 0 -864 3326 1080 4 MP
PP
-1815 0 0 864 1815 0 0 -864 3326 1080 5 MP stroke
4 w
DO
SO
6 w
0 sg
3326 1080 mt 5141 1080 L
3326 1080 mt 3326  216 L
3585 1080 mt 3585 1098 L
%%IncludeResource: font Helvetica
/Helvetica /ISOLatin1Encoding 120 FMSR

3502 1243 mt 
(0.4) s
4103 1080 mt 4103 1098 L
4020 1243 mt 
(0.6) s
4622 1080 mt 4622 1098 L
4539 1243 mt 
(0.8) s
5141 1080 mt 5141 1098 L
5108 1243 mt 
(1) s
3326 1080 mt 3307 1080 L
3207 1124 mt 
(0) s
3326  864 mt 3307  864 L
3107  908 mt 
(0.2) s
3326  647 mt 3307  647 L
3107  691 mt 
(0.4) s
3326  431 mt 3307  431 L
3107  475 mt 
(0.6) s
gs 3326 216 1816 865 rc
gr

gs 3825 182 1036 664 rc
0.6 sg
  24   24 4100  593 PO
  24   24 4217  586 PO
  24   24 4029  724 PO
  24   24 4208  543 PO
  24   24 4167  581 PO
  24   24 4171  599 PO
  24   24 4082  611 PO
  24   24 4010  745 PO
  24   24 4219  545 PO
  24   24 4125  583 PO
  24   24 4207  556 PO
  24   24 4111  596 PO
  24   24 4235  553 PO
  24   24 4149  605 PO
  24   24 4229  573 PO
  24   24 4106  588 PO
  24   24 4109  591 PO
  24   24 4215  585 PO
  24   24 4097  596 PO
  24   24 4138  592 PO
  24   24 4143  585 PO
  24   24 4150  605 PO
  24   24 4243  561 PO
  24   24 4217  627 PO
  24   24 4096  609 PO
  24   24 4206  599 PO
  24   24 4038  717 PO
  24   24 4159  583 PO
  24   24 4270  497 PO
  24   24 4307  502 PO
  24   24 4306  506 PO
  24   24 4260  496 PO
  24   24 4218  575 PO
  24   24 4223  587 PO
  24   24 4272  520 PO
  24   24 4175  596 PO
  24   24 4311  489 PO
  24   24 4260  509 PO
  24   24 4161  611 PO
  24   24 4328  496 PO
  24   24 4289  506 PO
  24   24 4200  606 PO
  24   24 4282  529 PO
  24   24 4159  612 PO
  24   24 4268  548 PO
  24   24 4188  613 PO
  24   24 4194  588 PO
  24   24 4201  620 PO
  24   24 4297  501 PO
  24   24 4270  617 PO
  24   24 4258  548 PO
  24   24 4210  582 PO
  24   24 4087  630 PO
  24   24 4203  574 PO
  24   24 4017  721 PO
  24   24 4194  565 PO
  24   24 4154  623 PO
  24   24 4158  633 PO
  24   24 4069  623 PO
  24   24 3998  734 PO
  24   24 4205  573 PO
  24   24 4112  617 PO
  24   24 4193  606 PO
  24   24 4098  602 PO
  24   24 4221  580 PO
  24   24 4136  628 PO
  24   24 4215  614 PO
  24   24 4093  601 PO
  24   24 4096  618 PO
  24   24 4201  595 PO
  24   24 4084  624 PO
  24   24 4124  621 PO
  24   24 4130  588 PO
  24   24 4136  615 PO
  24   24 4203  658 PO
  24   24 4083  603 PO
  24   24 4192  596 PO
  24   24 4025  745 PO
  24   24 4145  608 PO
  24   24 4013  633 PO
  24   24 3946  782 PO
  24   24 4115  614 PO
  24   24 4077  654 PO
  24   24 4081  648 PO
  24   24 3997  620 PO
  24   24 3929  763 PO
  24   24 4037  618 PO
  24   24 4024  653 PO
  24   24 4060  653 PO
  24   24 4019  630 PO
  24   24 4022  633 PO
  24   24 4010  642 PO
  24   24 4049  624 PO
  24   24 4054  620 PO
  24   24 4060  678 PO
  24   24 4124  655 PO
  24   24 4009  611 PO
  24   24 3955  744 PO
  24   24 4069  615 PO
  24   24 3996  595 PO
  24   24 3930  732 PO
  24   24 4059  617 PO
  24   24 4062  600 PO
  24   24 3979  614 PO
  24   24 3912  718 PO
  24   24 4019  611 PO
  24   24 4007  624 PO
  24   24 4042  639 PO
  24   24 4002  589 PO
  24   24 4005  589 PO
  24   24 3993  616 PO
  24   24 4031  624 PO
  24   24 4037  604 PO
  24   24 4043  662 PO
  24   24 4105  645 PO
  24   24 3992  592 PO
  24   24 3938  692 PO
  24   24 4051  602 PO
  24   24 4303  522 PO
  24   24 4340  490 PO
  24   24 4339  475 PO
  24   24 4370  446 PO
  24   24 4432  442 PO
  24   24 4304  508 PO
  24   24 4344  450 PO
  24   24 4292  528 PO
  24   24 4429  418 PO
  24   24 4417  452 PO
  24   24 4361  476 PO
  24   24 4322  503 PO
  24   24 4315  525 PO
  24   24 4424  439 PO
  24   24 4300  555 PO
  24   24 4330  489 PO
  24   24 4102  588 PO
  24   24 4220  531 PO
  24   24 4256  540 PO
  24   24 4255  532 PO
  24   24 4211  517 PO
  24   24 4170  560 PO
  24   24 4174  582 PO
  24   24 4085  614 PO
  24   24 4222  519 PO
  24   24 4128  580 PO
  24   24 4259  525 PO
  24   24 4210  555 PO
  24   24 4114  592 PO
  24   24 4276  513 PO
  24   24 4238  492 PO
  24   24 4152  605 PO
  24   24 4232  542 PO
  24   24 4109  574 PO
  24   24 4112  614 PO
  24   24 4218  541 PO
  24   24 4099  592 PO
  24   24 4140  575 PO
  24   24 4146  543 PO
  24   24 4153  605 PO
  24   24 4246  515 PO
  24   24 4220  583 PO
  24   24 4098  583 PO
  24   24 4209  544 PO
  24   24 4162  570 PO
  24   24 4418  403 PO
  24   24 4482  361 PO
  24   24 4479  365 PO
  24   24 4467  386 PO
  24   24 4535  341 PO
  24   24 4473  382 PO
  24   24 4105  624 PO
  24   24 4223  549 PO
  24   24 4259  528 PO
  24   24 4258  533 PO
  24   24 4213  514 PO
  24   24 4173  577 PO
  24   24 4177  572 PO
  24   24 4225  518 PO
  24   24 4130  606 PO
  24   24 4262  531 PO
  24   24 4213  549 PO
  24   24 4117  610 PO
  24   24 4279  533 PO
  24   24 4241  538 PO
  24   24 4155  607 PO
  24   24 4235  558 PO
  24   24 4112  591 PO
  24   24 4115  601 PO
  24   24 4221  553 PO
  24   24 4102  611 PO
  24   24 4143  601 PO
  24   24 4149  579 PO
  24   24 4155  600 PO
  24   24 4249  532 PO
  24   24 4223  613 PO
  24   24 4101  596 PO
  24   24 4211  545 PO
  24   24 4164  594 PO
  24   24 4741  270 PO
  24   24 4811  231 PO
  24   24 4710  294 PO
  24   24 4006  620 PO
  24   24 3938  723 PO
  24   24 4046  618 PO
  24   24 4034  621 PO
  24   24 4070  617 PO
  24   24 4029  578 PO
  24   24 4032  607 PO
  24   24 4020  613 PO
  24   24 4058  604 PO
  24   24 4064  595 PO
  24   24 4070  636 PO
  24   24 4134  643 PO
  24   24 4019  584 PO
  24   24 4123  603 PO
  24   24 3964  717 PO
  24   24 4079  596 PO
  24   24 4256  534 PO
  24   24 4294  497 PO
  24   24 4244  566 PO
  24   24 4311  510 PO
  24   24 4273  490 PO
  24   24 4185  639 PO
  24   24 4266  530 PO
  24   24 4252  563 PO
  24   24 4185  653 PO
  24   24 4281  515 PO
  24   24 4254  626 PO
  24   24 4242  567 PO
  24   24 4195  603 PO
  24   24 4292  540 PO
  24   24 4331  479 PO
  24   24 4280  513 PO
  24   24 4349  497 PO
  24   24 4309  498 PO
  24   24 4303  525 PO
  24   24 4288  543 PO
  24   24 4318  474 PO
  24   24 4291  604 PO
  24   24 4278  530 PO
  24   24 3939  709 PO
  24   24 3874  796 PO
  24   24 3978  731 PO
  24   24 3966  717 PO
  24   24 4000  726 PO
  24   24 3961  698 PO
  24   24 3964  717 PO
  24   24 3952  697 PO
  24   24 3990  722 PO
  24   24 3995  711 PO
  24   24 4001  750 PO
  24   24 3952  716 PO
  24   24 3899  754 PO
  24   24 4009  724 PO
  24   24 4291  540 PO
  24   24 4331  493 PO
  24   24 4280  551 PO
  24   24 4348  481 PO
  24   24 4309  499 PO
  24   24 4302  506 PO
  24   24 4410  463 PO
  24   24 4287  528 PO
  24   24 4317  502 PO
  24   24 4290  640 PO
  24   24 4278  551 PO
  24   24 4246  511 PO
  24   24 4151  587 PO
  24   24 4284  501 PO
  24   24 4235  523 PO
  24   24 4137  602 PO
  24   24 4301  511 PO
  24   24 4263  513 PO
  24   24 4176  607 PO
  24   24 4257  549 PO
  24   24 4132  577 PO
  24   24 4135  597 PO
  24   24 4242  552 PO
  24   24 4164  614 PO
  24   24 4170  579 PO
  24   24 4176  589 PO
  24   24 4271  519 PO
  24   24 4245  582 PO
  24   24 4121  594 PO
  24   24 4233  533 PO
  24   24 4185  598 PO
  24   24 4361  423 PO
  24   24 4309  502 PO
  24   24 4447  380 PO
  24   24 4435  426 PO
  24   24 4379  441 PO
  24   24 4339  430 PO
  24   24 4332  510 PO
  24   24 4442  419 PO
  24   24 4348  445 PO
  24   24 4512  348 PO
  24   24 4499  384 PO
  24   24 4568  336 PO
  24   24 4506  375 PO
  24   24 4069  627 PO
  24   24 3998  741 PO
  24   24 4205  599 PO
  24   24 4112  636 PO
  24   24 4193  622 PO
  24   24 4098  655 PO
  24   24 4136  628 PO
  24   24 4093  614 PO
  24   24 4096  597 PO
  24   24 4201  604 PO
  24   24 4084  638 PO
  24   24 4124  620 PO
  24   24 4130  588 PO
  24   24 4136  648 PO
  24   24 4203  640 PO
  24   24 4082  592 PO
  24   24 4192  579 PO
  24   24 4025  736 PO
  24   24 4145  633 PO
  24   24 4073  650 PO
  24   24 4001  736 PO
  24   24 4209  583 PO
  24   24 4115  601 PO
  24   24 4197  594 PO
  24   24 4102  604 PO
  24   24 4225  581 PO
  24   24 4140  639 PO
  24   24 4219  622 PO
  24   24 4097  618 PO
  24   24 4100  632 PO
  24   24 4205  617 PO
  24   24 4087  615 PO
  24   24 4128  612 PO
  24   24 4134  629 PO
  24   24 4140  633 PO
  24   24 4233  589 PO
  24   24 4207  638 PO
  24   24 4086  598 PO
  24   24 4196  611 PO
  24   24 4029  735 PO
  24   24 4149  626 PO
  24   24 4017  627 PO
  24   24 4053  648 PO
  24   24 4012  600 PO
  24   24 4015  619 PO
  24   24 4003  622 PO
  24   24 4041  618 PO
  24   24 4047  604 PO
  24   24 4053  671 PO
  24   24 4116  670 PO
  24   24 4002  600 PO
  24   24 3948  718 PO
  24   24 4061  625 PO
  24   24 3948  734 PO
  24   24 3982  772 PO
  24   24 3943  729 PO
  24   24 3946  702 PO
  24   24 3935  700 PO
  24   24 3971  732 PO
  24   24 3977  716 PO
  24   24 3982  767 PO
  24   24 3934  702 PO
  24   24 3882  783 PO
  24   24 3991  706 PO
  24   24 4148  629 PO
  24   24 4313  513 PO
  24   24 4274  518 PO
  24   24 4187  603 PO
  24   24 4268  548 PO
  24   24 4145  626 PO
  24   24 4253  547 PO
  24   24 4174  574 PO
  24   24 4180  600 PO
  24   24 4187  622 PO
  24   24 4283  525 PO
  24   24 4256  589 PO
  24   24 4244  523 PO
  24   24 4196  584 PO
  24   24 4058  597 PO
  24   24 4094  607 PO
  24   24 4053  582 PO
  24   24 4056  612 PO
  24   24 4158  612 PO
  24   24 4044  603 PO
  24   24 4083  592 PO
  24   24 4089  580 PO
  24   24 4095  643 PO
  24   24 4160  639 PO
  24   24 4042  586 PO
  24   24 4149  599 PO
  24   24 3987  713 PO
  24   24 4104  610 PO
  24   24 4353  464 PO
  24   24 4313  443 PO
  24   24 4307  508 PO
  24   24 4415  440 PO
  24   24 4292  522 PO
  24   24 4322  459 PO
  24   24 4294  615 PO
  24   24 4282  537 PO
  24   24 4654  286 PO
  24   24 4137  615 PO
  24   24 4301  517 PO
  24   24 4263  508 PO
  24   24 4175  609 PO
  24   24 4256  555 PO
  24   24 4242  566 PO
  24   24 4163  602 PO
  24   24 4169  617 PO
  24   24 4176  625 PO
  24   24 4271  511 PO
  24   24 4244  613 PO
  24   24 4232  558 PO
  24   24 4185  596 PO
  24   24 4565  347 PO
  24   24 4503  379 PO
  24   24 4552  349 PO
  24   24 4490  367 PO
  24   24 4721  286 PO
  24   24 4031  599 PO
  24   24 4070  589 PO
  24   24 4075  571 PO
  24   24 4082  623 PO
  24   24 4146  614 PO
  24   24 4030  565 PO
  24   24 4135  565 PO
  24   24 3974  690 PO
  24   24 4090  571 PO
  24   24 4339  482 PO
  24   24 4311  625 PO
  24   24 4299  531 PO
  24   24 4203  625 PO
  24   24 4300  465 PO
  24   24 4273  580 PO
  24   24 4261  515 PO
  24   24 4067  637 PO
  24   24 4107  614 PO
  24   24 4113  601 PO
  24   24 4119  642 PO
  24   24 4185  640 PO
  24   24 4066  610 PO
  24   24 4174  568 PO
  24   24 4009  712 PO
  24   24 4128  595 PO
  24   24 4197  690 PO
  24   24 4293  557 PO
  24   24 4266  649 PO
  24   24 4255  578 PO
  24   24 4026  594 PO
  24   24 4065  594 PO
  24   24 4070  565 PO
  24   24 4076  625 PO
  24   24 4141  647 PO
  24   24 4025  563 PO
  24   24 4130  609 PO
  24   24 3970  695 PO
  24   24 4085  607 PO
  24   24 4029  604 PO
  24   24 4068  603 PO
  24   24 4073  608 PO
  24   24 4080  640 PO
  24   24 4144  646 PO
  24   24 4028  598 PO
  24   24 4133  622 PO
  24   24 3973  702 PO
  24   24 4088  606 PO
  24   24 4171  596 PO
  24   24 4176  580 PO
  24   24 4183  623 PO
  24   24 4279  493 PO
  24   24 4252  623 PO
  24   24 4240  518 PO
  24   24 4192  596 PO
  24   24 4100  593 FO
  24   24 4217  586 FO
  24   24 4029  724 FO
  24   24 4208  543 FO
  24   24 4167  581 FO
  24   24 4171  599 FO
  24   24 4082  611 FO
  24   24 4010  745 FO
  24   24 4219  545 FO
  24   24 4125  583 FO
  24   24 4207  556 FO
  24   24 4111  596 FO
  24   24 4235  553 FO
  24   24 4149  605 FO
  24   24 4229  573 FO
  24   24 4106  588 FO
  24   24 4109  591 FO
  24   24 4215  585 FO
  24   24 4097  596 FO
  24   24 4138  592 FO
  24   24 4143  585 FO
  24   24 4150  605 FO
  24   24 4243  561 FO
  24   24 4217  627 FO
  24   24 4096  609 FO
  24   24 4206  599 FO
  24   24 4038  717 FO
  24   24 4159  583 FO
  24   24 4270  497 FO
  24   24 4307  502 FO
  24   24 4306  506 FO
  24   24 4260  496 FO
  24   24 4218  575 FO
  24   24 4223  587 FO
  24   24 4272  520 FO
  24   24 4175  596 FO
  24   24 4311  489 FO
  24   24 4260  509 FO
  24   24 4161  611 FO
  24   24 4328  496 FO
  24   24 4289  506 FO
  24   24 4200  606 FO
  24   24 4282  529 FO
  24   24 4159  612 FO
  24   24 4268  548 FO
  24   24 4188  613 FO
  24   24 4194  588 FO
  24   24 4201  620 FO
  24   24 4297  501 FO
  24   24 4270  617 FO
  24   24 4258  548 FO
  24   24 4210  582 FO
  24   24 4087  630 FO
  24   24 4203  574 FO
  24   24 4017  721 FO
  24   24 4194  565 FO
  24   24 4154  623 FO
  24   24 4158  633 FO
  24   24 4069  623 FO
  24   24 3998  734 FO
  24   24 4205  573 FO
  24   24 4112  617 FO
  24   24 4193  606 FO
  24   24 4098  602 FO
  24   24 4221  580 FO
  24   24 4136  628 FO
  24   24 4215  614 FO
  24   24 4093  601 FO
  24   24 4096  618 FO
  24   24 4201  595 FO
  24   24 4084  624 FO
  24   24 4124  621 FO
  24   24 4130  588 FO
  24   24 4136  615 FO
  24   24 4203  658 FO
  24   24 4083  603 FO
  24   24 4192  596 FO
  24   24 4025  745 FO
  24   24 4145  608 FO
  24   24 4013  633 FO
  24   24 3946  782 FO
  24   24 4115  614 FO
  24   24 4077  654 FO
  24   24 4081  648 FO
  24   24 3997  620 FO
  24   24 3929  763 FO
  24   24 4037  618 FO
  24   24 4024  653 FO
  24   24 4060  653 FO
  24   24 4019  630 FO
  24   24 4022  633 FO
  24   24 4010  642 FO
  24   24 4049  624 FO
  24   24 4054  620 FO
  24   24 4060  678 FO
  24   24 4124  655 FO
  24   24 4009  611 FO
  24   24 3955  744 FO
  24   24 4069  615 FO
  24   24 3996  595 FO
  24   24 3930  732 FO
  24   24 4059  617 FO
  24   24 4062  600 FO
  24   24 3979  614 FO
  24   24 3912  718 FO
  24   24 4019  611 FO
  24   24 4007  624 FO
  24   24 4042  639 FO
  24   24 4002  589 FO
  24   24 4005  589 FO
  24   24 3993  616 FO
  24   24 4031  624 FO
  24   24 4037  604 FO
  24   24 4043  662 FO
  24   24 4105  645 FO
  24   24 3992  592 FO
  24   24 3938  692 FO
  24   24 4051  602 FO
  24   24 4303  522 FO
  24   24 4340  490 FO
  24   24 4339  475 FO
  24   24 4370  446 FO
  24   24 4432  442 FO
  24   24 4304  508 FO
  24   24 4344  450 FO
  24   24 4292  528 FO
  24   24 4429  418 FO
  24   24 4417  452 FO
  24   24 4361  476 FO
  24   24 4322  503 FO
  24   24 4315  525 FO
  24   24 4424  439 FO
  24   24 4300  555 FO
  24   24 4330  489 FO
  24   24 4102  588 FO
  24   24 4220  531 FO
  24   24 4256  540 FO
  24   24 4255  532 FO
  24   24 4211  517 FO
  24   24 4170  560 FO
  24   24 4174  582 FO
  24   24 4085  614 FO
  24   24 4222  519 FO
  24   24 4128  580 FO
  24   24 4259  525 FO
  24   24 4210  555 FO
  24   24 4114  592 FO
  24   24 4276  513 FO
  24   24 4238  492 FO
  24   24 4152  605 FO
  24   24 4232  542 FO
  24   24 4109  574 FO
  24   24 4112  614 FO
  24   24 4218  541 FO
  24   24 4099  592 FO
  24   24 4140  575 FO
  24   24 4146  543 FO
  24   24 4153  605 FO
  24   24 4246  515 FO
  24   24 4220  583 FO
  24   24 4098  583 FO
  24   24 4209  544 FO
  24   24 4162  570 FO
  24   24 4418  403 FO
  24   24 4482  361 FO
  24   24 4479  365 FO
  24   24 4467  386 FO
  24   24 4535  341 FO
  24   24 4473  382 FO
  24   24 4105  624 FO
  24   24 4223  549 FO
  24   24 4259  528 FO
  24   24 4258  533 FO
  24   24 4213  514 FO
  24   24 4173  577 FO
  24   24 4177  572 FO
  24   24 4225  518 FO
  24   24 4130  606 FO
  24   24 4262  531 FO
  24   24 4213  549 FO
  24   24 4117  610 FO
  24   24 4279  533 FO
  24   24 4241  538 FO
  24   24 4155  607 FO
  24   24 4235  558 FO
  24   24 4112  591 FO
  24   24 4115  601 FO
  24   24 4221  553 FO
  24   24 4102  611 FO
  24   24 4143  601 FO
  24   24 4149  579 FO
  24   24 4155  600 FO
  24   24 4249  532 FO
  24   24 4223  613 FO
  24   24 4101  596 FO
  24   24 4211  545 FO
  24   24 4164  594 FO
  24   24 4741  270 FO
  24   24 4811  231 FO
  24   24 4710  294 FO
  24   24 4006  620 FO
  24   24 3938  723 FO
  24   24 4046  618 FO
  24   24 4034  621 FO
  24   24 4070  617 FO
  24   24 4029  578 FO
  24   24 4032  607 FO
  24   24 4020  613 FO
  24   24 4058  604 FO
  24   24 4064  595 FO
  24   24 4070  636 FO
  24   24 4134  643 FO
  24   24 4019  584 FO
  24   24 4123  603 FO
  24   24 3964  717 FO
  24   24 4079  596 FO
  24   24 4256  534 FO
  24   24 4294  497 FO
  24   24 4244  566 FO
  24   24 4311  510 FO
  24   24 4273  490 FO
  24   24 4185  639 FO
  24   24 4266  530 FO
  24   24 4252  563 FO
  24   24 4185  653 FO
  24   24 4281  515 FO
  24   24 4254  626 FO
  24   24 4242  567 FO
  24   24 4195  603 FO
  24   24 4292  540 FO
  24   24 4331  479 FO
  24   24 4280  513 FO
  24   24 4349  497 FO
  24   24 4309  498 FO
  24   24 4303  525 FO
  24   24 4288  543 FO
  24   24 4318  474 FO
  24   24 4291  604 FO
  24   24 4278  530 FO
  24   24 3939  709 FO
  24   24 3874  796 FO
  24   24 3978  731 FO
  24   24 3966  717 FO
  24   24 4000  726 FO
  24   24 3961  698 FO
  24   24 3964  717 FO
  24   24 3952  697 FO
  24   24 3990  722 FO
  24   24 3995  711 FO
  24   24 4001  750 FO
  24   24 3952  716 FO
  24   24 3899  754 FO
  24   24 4009  724 FO
  24   24 4291  540 FO
  24   24 4331  493 FO
  24   24 4280  551 FO
  24   24 4348  481 FO
  24   24 4309  499 FO
  24   24 4302  506 FO
  24   24 4410  463 FO
  24   24 4287  528 FO
  24   24 4317  502 FO
  24   24 4290  640 FO
  24   24 4278  551 FO
  24   24 4246  511 FO
  24   24 4151  587 FO
  24   24 4284  501 FO
  24   24 4235  523 FO
  24   24 4137  602 FO
  24   24 4301  511 FO
  24   24 4263  513 FO
  24   24 4176  607 FO
  24   24 4257  549 FO
  24   24 4132  577 FO
  24   24 4135  597 FO
  24   24 4242  552 FO
  24   24 4164  614 FO
  24   24 4170  579 FO
  24   24 4176  589 FO
  24   24 4271  519 FO
  24   24 4245  582 FO
  24   24 4121  594 FO
  24   24 4233  533 FO
  24   24 4185  598 FO
  24   24 4361  423 FO
  24   24 4309  502 FO
  24   24 4447  380 FO
  24   24 4435  426 FO
  24   24 4379  441 FO
  24   24 4339  430 FO
  24   24 4332  510 FO
  24   24 4442  419 FO
  24   24 4348  445 FO
  24   24 4512  348 FO
  24   24 4499  384 FO
  24   24 4568  336 FO
  24   24 4506  375 FO
  24   24 4069  627 FO
  24   24 3998  741 FO
  24   24 4205  599 FO
  24   24 4112  636 FO
  24   24 4193  622 FO
  24   24 4098  655 FO
  24   24 4136  628 FO
  24   24 4093  614 FO
  24   24 4096  597 FO
  24   24 4201  604 FO
  24   24 4084  638 FO
  24   24 4124  620 FO
  24   24 4130  588 FO
  24   24 4136  648 FO
  24   24 4203  640 FO
  24   24 4082  592 FO
  24   24 4192  579 FO
  24   24 4025  736 FO
  24   24 4145  633 FO
  24   24 4073  650 FO
  24   24 4001  736 FO
  24   24 4209  583 FO
  24   24 4115  601 FO
  24   24 4197  594 FO
  24   24 4102  604 FO
  24   24 4225  581 FO
  24   24 4140  639 FO
  24   24 4219  622 FO
  24   24 4097  618 FO
  24   24 4100  632 FO
  24   24 4205  617 FO
  24   24 4087  615 FO
  24   24 4128  612 FO
  24   24 4134  629 FO
  24   24 4140  633 FO
  24   24 4233  589 FO
  24   24 4207  638 FO
  24   24 4086  598 FO
  24   24 4196  611 FO
  24   24 4029  735 FO
  24   24 4149  626 FO
  24   24 4017  627 FO
  24   24 4053  648 FO
  24   24 4012  600 FO
  24   24 4015  619 FO
  24   24 4003  622 FO
  24   24 4041  618 FO
  24   24 4047  604 FO
  24   24 4053  671 FO
  24   24 4116  670 FO
  24   24 4002  600 FO
  24   24 3948  718 FO
  24   24 4061  625 FO
  24   24 3948  734 FO
  24   24 3982  772 FO
  24   24 3943  729 FO
  24   24 3946  702 FO
  24   24 3935  700 FO
  24   24 3971  732 FO
  24   24 3977  716 FO
  24   24 3982  767 FO
  24   24 3934  702 FO
  24   24 3882  783 FO
  24   24 3991  706 FO
  24   24 4148  629 FO
  24   24 4313  513 FO
  24   24 4274  518 FO
  24   24 4187  603 FO
  24   24 4268  548 FO
  24   24 4145  626 FO
  24   24 4253  547 FO
  24   24 4174  574 FO
  24   24 4180  600 FO
  24   24 4187  622 FO
  24   24 4283  525 FO
  24   24 4256  589 FO
  24   24 4244  523 FO
  24   24 4196  584 FO
  24   24 4058  597 FO
  24   24 4094  607 FO
  24   24 4053  582 FO
  24   24 4056  612 FO
  24   24 4158  612 FO
  24   24 4044  603 FO
  24   24 4083  592 FO
  24   24 4089  580 FO
  24   24 4095  643 FO
  24   24 4160  639 FO
  24   24 4042  586 FO
  24   24 4149  599 FO
  24   24 3987  713 FO
  24   24 4104  610 FO
  24   24 4353  464 FO
  24   24 4313  443 FO
  24   24 4307  508 FO
  24   24 4415  440 FO
  24   24 4292  522 FO
  24   24 4322  459 FO
  24   24 4294  615 FO
  24   24 4282  537 FO
  24   24 4654  286 FO
  24   24 4137  615 FO
  24   24 4301  517 FO
  24   24 4263  508 FO
  24   24 4175  609 FO
  24   24 4256  555 FO
  24   24 4242  566 FO
  24   24 4163  602 FO
  24   24 4169  617 FO
  24   24 4176  625 FO
  24   24 4271  511 FO
  24   24 4244  613 FO
  24   24 4232  558 FO
  24   24 4185  596 FO
  24   24 4565  347 FO
  24   24 4503  379 FO
  24   24 4552  349 FO
  24   24 4490  367 FO
  24   24 4721  286 FO
  24   24 4031  599 FO
  24   24 4070  589 FO
  24   24 4075  571 FO
  24   24 4082  623 FO
  24   24 4146  614 FO
  24   24 4030  565 FO
  24   24 4135  565 FO
  24   24 3974  690 FO
  24   24 4090  571 FO
  24   24 4339  482 FO
  24   24 4311  625 FO
  24   24 4299  531 FO
  24   24 4203  625 FO
  24   24 4300  465 FO
  24   24 4273  580 FO
  24   24 4261  515 FO
  24   24 4067  637 FO
  24   24 4107  614 FO
  24   24 4113  601 FO
  24   24 4119  642 FO
  24   24 4185  640 FO
  24   24 4066  610 FO
  24   24 4174  568 FO
  24   24 4009  712 FO
  24   24 4128  595 FO
  24   24 4197  690 FO
  24   24 4293  557 FO
  24   24 4266  649 FO
  24   24 4255  578 FO
  24   24 4026  594 FO
  24   24 4065  594 FO
  24   24 4070  565 FO
  24   24 4076  625 FO
  24   24 4141  647 FO
  24   24 4025  563 FO
  24   24 4130  609 FO
  24   24 3970  695 FO
  24   24 4085  607 FO
  24   24 4029  604 FO
  24   24 4068  603 FO
  24   24 4073  608 FO
  24   24 4080  640 FO
  24   24 4144  646 FO
  24   24 4028  598 FO
  24   24 4133  622 FO
  24   24 3973  702 FO
  24   24 4088  606 FO
  24   24 4171  596 FO
  24   24 4176  580 FO
  24   24 4183  623 FO
  24   24 4279  493 FO
  24   24 4252  623 FO
  24   24 4240  518 FO
  24   24 4192  596 FO
gr

0.6 sg
gs 3326 216 1816 865 rc
24 w
0 sg
1523 -826 3326 1042 2 MP stroke
gr

24 w
0 sg
3718  121 mt 
(R = 0.899 - p = 0.0) s
3880 1364 mt 
(Sqrt\(CV) s
%%IncludeResource: font Helvetica
/Helvetica /ISOLatin1Encoding 96 FMSR

4311 1424 mt 
(i) s
%%IncludeResource: font Helvetica
/Helvetica /ISOLatin1Encoding 120 FMSR

4332 1364 mt 
( CV) s
%%IncludeResource: font Helvetica
/Helvetica /ISOLatin1Encoding 96 FMSR

4532 1424 mt 
(j) s
%%IncludeResource: font Helvetica
/Helvetica /ISOLatin1Encoding 120 FMSR

4553 1364 mt 
(\)) s
%%IncludeResource: font Symbol
/Symbol /ISOLatin1Encoding 120 FMSR

2971  711 mt  -90 rotate
(r) s
90 rotate
%%IncludeResource: font Helvetica
/Helvetica /ISOLatin1Encoding 96 FMSR

3031  646 mt  -90 rotate
(T) s
90 rotate
6 w

end %%Color Dict

eplot
%%EndObject

epage
end

showpage

%%Trailer
%%EOF
