%!PS-Adobe-3.0 EPSF-3.0
%%Creator: MATLAB, The MathWorks, Inc. Version 8.0.0.783 (R2012b). Operating System: Darwin 10.8.0 Darwin Kernel Version 10.8.0: Tue Jun  7 16:33:36 PDT 2011; root:xnu-1504.15.3~1/RELEASE_I386 i386.
%%Title: ./correlations_models.eps
%%CreationDate: 03/14/2014  09:42:37
%%DocumentNeededFonts: Helvetica
%%DocumentProcessColors: Cyan Magenta Yellow Black
%%LanguageLevel: 2
%%Pages: 1
%%BoundingBox:    40    11   530   344
%%EndComments

%%BeginProlog
% MathWorks dictionary
/MathWorks 160 dict begin
% definition operators
/bdef {bind def} bind def
/ldef {load def} bind def
/xdef {exch def} bdef
/xstore {exch store} bdef
% operator abbreviations
/c  /clip ldef
/cc /concat ldef
/cp /closepath ldef
/gr /grestore ldef
/gs /gsave ldef
/mt /moveto ldef
/np /newpath ldef
/cm /currentmatrix ldef
/sm /setmatrix ldef
/rm /rmoveto ldef
/rl /rlineto ldef
/s {show newpath} bdef
/sc {setcmykcolor} bdef
/sr /setrgbcolor ldef
/sg /setgray ldef
/w /setlinewidth ldef
/j /setlinejoin ldef
/cap /setlinecap ldef
/rc {rectclip} bdef
/rf {rectfill} bdef
% page state control
/pgsv () def
/bpage {/pgsv save def} bdef
/epage {pgsv restore} bdef
/bplot /gsave ldef
/eplot {stroke grestore} bdef
% orientation switch
/portraitMode 0 def /landscapeMode 1 def /rotateMode 2 def
% coordinate system mappings
/dpi2point 0 def
% font control
/FontSize 0 def
/FMS {/FontSize xstore findfont [FontSize 0 0 FontSize neg 0 0]
  makefont setfont} bdef
/reencode {exch dup where {pop load} {pop StandardEncoding} ifelse
  exch dup 3 1 roll findfont dup length dict begin
  { 1 index /FID ne {def}{pop pop} ifelse } forall
  /Encoding exch def currentdict end definefont pop} bdef
/isroman {findfont /CharStrings get /Agrave known} bdef
/FMSR {3 1 roll 1 index dup isroman {reencode} {pop pop} ifelse
  exch FMS} bdef
/csm {1 dpi2point div -1 dpi2point div scale neg translate
 dup landscapeMode eq {pop -90 rotate}
  {rotateMode eq {90 rotate} if} ifelse} bdef
% line types: solid, dotted, dashed, dotdash
/SO { [] 0 setdash } bdef
/DO { [.5 dpi2point mul 4 dpi2point mul] 0 setdash } bdef
/DA { [6 dpi2point mul] 0 setdash } bdef
/DD { [.5 dpi2point mul 4 dpi2point mul 6 dpi2point mul 4
  dpi2point mul] 0 setdash } bdef
% macros for lines and objects
/L {lineto stroke} bdef
/MP {3 1 roll moveto 1 sub {rlineto} repeat} bdef
/AP {{rlineto} repeat} bdef
/PDlw -1 def
/W {/PDlw currentlinewidth def setlinewidth} def
/PP {closepath eofill} bdef
/DP {closepath stroke} bdef
/MR {4 -2 roll moveto dup  0 exch rlineto exch 0 rlineto
  neg 0 exch rlineto closepath} bdef
/FR {MR stroke} bdef
/PR {MR fill} bdef
/L1i {{currentfile picstr readhexstring pop} image} bdef
/tMatrix matrix def
/MakeOval {newpath tMatrix currentmatrix pop translate scale
0 0 1 0 360 arc tMatrix setmatrix} bdef
/FO {MakeOval stroke} bdef
/PO {MakeOval fill} bdef
/PD {currentlinewidth 2 div 0 360 arc fill
   PDlw -1 eq not {PDlw w /PDlw -1 def} if} def
/FA {newpath tMatrix currentmatrix pop translate scale
  0 0 1 5 -2 roll arc tMatrix setmatrix stroke} bdef
/PA {newpath tMatrix currentmatrix pop	translate 0 0 moveto scale
  0 0 1 5 -2 roll arc closepath tMatrix setmatrix fill} bdef
/FAn {newpath tMatrix currentmatrix pop translate scale
  0 0 1 5 -2 roll arcn tMatrix setmatrix stroke} bdef
/PAn {newpath tMatrix currentmatrix pop translate 0 0 moveto scale
  0 0 1 5 -2 roll arcn closepath tMatrix setmatrix fill} bdef
/vradius 0 def /hradius 0 def /lry 0 def
/lrx 0 def /uly 0 def /ulx 0 def /rad 0 def
/MRR {/vradius xdef /hradius xdef /lry xdef /lrx xdef /uly xdef
  /ulx xdef newpath tMatrix currentmatrix pop ulx hradius add uly
  vradius add translate hradius vradius scale 0 0 1 180 270 arc 
  tMatrix setmatrix lrx hradius sub uly vradius add translate
  hradius vradius scale 0 0 1 270 360 arc tMatrix setmatrix
  lrx hradius sub lry vradius sub translate hradius vradius scale
  0 0 1 0 90 arc tMatrix setmatrix ulx hradius add lry vradius sub
  translate hradius vradius scale 0 0 1 90 180 arc tMatrix setmatrix
  closepath} bdef
/FRR {MRR stroke } bdef
/PRR {MRR fill } bdef
/MlrRR {/lry xdef /lrx xdef /uly xdef /ulx xdef /rad lry uly sub 2 div def
  newpath tMatrix currentmatrix pop ulx rad add uly rad add translate
  rad rad scale 0 0 1 90 270 arc tMatrix setmatrix lrx rad sub lry rad
  sub translate rad rad scale 0 0 1 270 90 arc tMatrix setmatrix
  closepath} bdef
/FlrRR {MlrRR stroke } bdef
/PlrRR {MlrRR fill } bdef
/MtbRR {/lry xdef /lrx xdef /uly xdef /ulx xdef /rad lrx ulx sub 2 div def
  newpath tMatrix currentmatrix pop ulx rad add uly rad add translate
  rad rad scale 0 0 1 180 360 arc tMatrix setmatrix lrx rad sub lry rad
  sub translate rad rad scale 0 0 1 0 180 arc tMatrix setmatrix
  closepath} bdef
/FtbRR {MtbRR stroke } bdef
/PtbRR {MtbRR fill } bdef
/stri 6 array def /dtri 6 array def
/smat 6 array def /dmat 6 array def
/tmat1 6 array def /tmat2 6 array def /dif 3 array def
/asub {/ind2 exch def /ind1 exch def dup dup
  ind1 get exch ind2 get sub exch } bdef
/tri_to_matrix {
  2 0 asub 3 1 asub 4 0 asub 5 1 asub
  dup 0 get exch 1 get 7 -1 roll astore } bdef
/compute_transform {
  dmat dtri tri_to_matrix tmat1 invertmatrix 
  smat stri tri_to_matrix tmat2 concatmatrix } bdef
/ds {stri astore pop} bdef
/dt {dtri astore pop} bdef
/db {2 copy /cols xdef /rows xdef mul dup 3 mul string
  currentfile 
  3 index 0 eq {/ASCIIHexDecode filter}
  {/ASCII85Decode filter 3 index 2 eq {/RunLengthDecode filter} if }
  ifelse exch readstring pop
  dup 0 3 index getinterval /rbmap xdef
  dup 2 index dup getinterval /gbmap xdef
  1 index dup 2 mul exch getinterval /bbmap xdef pop pop}bdef
/it {gs np dtri aload pop moveto lineto lineto cp c
  cols rows 8 compute_transform 
  rbmap gbmap bbmap true 3 colorimage gr}bdef
/il {newpath moveto lineto stroke}bdef
currentdict end def
%%EndProlog

%%BeginSetup
MathWorks begin

0 cap

end
%%EndSetup

%%Page: 1 1
%%BeginPageSetup
%%PageBoundingBox:    40    11   530   344
MathWorks begin
bpage
%%EndPageSetup

%%BeginObject: obj1
bplot

/dpi2point 12 def
portraitMode 0000 4320 csm

  480   182  5891  4003 rc
86 dict begin %Colortable dictionary
/c0 { 0.000000 0.000000 0.000000 sr} bdef
/c1 { 1.000000 1.000000 1.000000 sr} bdef
/c2 { 0.900000 0.000000 0.000000 sr} bdef
/c3 { 0.000000 0.820000 0.000000 sr} bdef
/c4 { 0.000000 0.000000 0.800000 sr} bdef
/c5 { 0.910000 0.820000 0.320000 sr} bdef
/c6 { 1.000000 0.260000 0.820000 sr} bdef
/c7 { 0.000000 0.820000 0.820000 sr} bdef
c0
1 j
1 sg
   0    0 6913 4321 rf
6 w
0 3521 5356 0 0 -3521 899 3845 4 MP
PP
-5356 0 0 3521 5356 0 0 -3521 899 3845 5 MP stroke
4 w
DO
SO
6 w
0 sg
 899 3845 mt 6255 3845 L
 899  324 mt 6255  324 L
 899 3845 mt  899  324 L
6255 3845 mt 6255  324 L
 899 3845 mt 6255 3845 L
 899 3845 mt  899  324 L
 899 3845 mt  899 3791 L
 899  324 mt  899  377 L
%%IncludeResource: font Helvetica
/Helvetica /ISOLatin1Encoding 120 FMSR

 866 3990 mt 
(0) s
1970 3845 mt 1970 3791 L
1970  324 mt 1970  377 L
1937 3990 mt 
(5) s
3041 3845 mt 3041 3791 L
3041  324 mt 3041  377 L
2975 3990 mt 
(10) s
4112 3845 mt 4112 3791 L
4112  324 mt 4112  377 L
4046 3990 mt 
(15) s
5183 3845 mt 5183 3791 L
5183  324 mt 5183  377 L
5117 3990 mt 
(20) s
6255 3845 mt 6255 3791 L
6255  324 mt 6255  377 L
6189 3990 mt 
(25) s
 899 3845 mt  952 3845 L
6255 3845 mt 6201 3845 L
 798 3889 mt 
(0) s
 899 3140 mt  952 3140 L
6255 3140 mt 6201 3140 L
 698 3184 mt 
(0.1) s
 899 2436 mt  952 2436 L
6255 2436 mt 6201 2436 L
 698 2480 mt 
(0.2) s
 899 1732 mt  952 1732 L
6255 1732 mt 6201 1732 L
 698 1776 mt 
(0.3) s
 899 1028 mt  952 1028 L
6255 1028 mt 6201 1028 L
 698 1072 mt 
(0.4) s
 899  324 mt  952  324 L
6255  324 mt 6201  324 L
 698  368 mt 
(0.5) s
 899 3845 mt 6255 3845 L
 899  324 mt 6255  324 L
 899 3845 mt  899  324 L
6255 3845 mt 6255  324 L
gs 899 324 5357 3522 rc
gr

  36   36  924 3483 FO
  36   36  928 3481 FO
  36   36  933 3411 FO
  36   36  938 3418 FO
  36   36  945 3366 FO
  36   36  950 3335 FO
  36   36  958 3297 FO
  36   36  966 3260 FO
  36   36  973 3212 FO
  36   36  982 3110 FO
  36   36  994 3127 FO
  36   36 1005 3119 FO
  36   36 1019 3071 FO
  36   36 1035 2906 FO
  36   36 1048 2906 FO
  36   36 1051 3003 FO
  36   36 1067 2973 FO
  36   36 1082 2924 FO
  36   36 1088 2819 FO
  36   36 1105 2832 FO
  36   36 1127 2809 FO
  36   36 1126 2773 FO
  36   36 1150 2770 FO
  36   36 1172 2780 FO
  36   36 1172 2711 FO
  36   36 1196 2732 FO
  36   36 1229 2676 FO
  36   36 1227 2658 FO
  36   36 1263 2503 FO
  36   36 1296 2555 FO
  36   36 1294 2535 FO
  36   36 1330 2451 FO
  36   36 1365 2511 FO
  36   36 1378 2377 FO
  36   36 1417 2404 FO
  36   36 1462 2371 FO
  36   36 1514 2396 FO
  36   36 1464 2233 FO
  36   36 1513 2158 FO
  36   36 1570 2207 FO
  36   36 1611 2140 FO
  36   36 1562 2274 FO
  36   36 1623 2263 FO
  36   36 1669 2185 FO
  36   36 1721 2059 FO
  36   36 1686 2198 FO
  36   36 1735 2109 FO
  36   36 1792 1966 FO
  36   36 1861 1941 FO
  36   36 1812 2084 FO
  36   36 1875 2046 FO
  36   36 1950 2043 FO
  36   36 2023 1965 FO
  36   36 2082 1986 FO
  36   36 1936 1984 FO
  36   36 2016 1945 FO
  36   36 2093 1944 FO
  36   36 2156 1912 FO
  36   36 2237 1997 FO
  36   36 2092 1821 FO
  36   36 2175 1760 FO
  36   36 2242 1843 FO
  36   36 2329 1715 FO
  36   36 2423 1717 FO
  36   36 2274 1717 FO
  36   36 2346 1769 FO
  36   36 2439 1769 FO
  36   36 2541 1683 FO
  36   36 2630 1699 FO
  36   36 2446 1799 FO
  36   36 2546 1697 FO
  36   36 2655 1609 FO
  36   36 2750 1657 FO
  36   36 2866 1565 FO
  36   36 2954 1423 FO
  36   36 2633 1740 FO
  36   36 2747 1597 FO
  36   36 2847 1660 FO
  36   36 2970 1625 FO
  36   36 3063 1523 FO
  36   36 3175 1660 FO
  36   36 2866 1596 FO
  36   36 2973 1598 FO
  36   36 3104 1528 FO
  36   36 3202 1581 FO
  36   36 3322 1424 FO
  36   36 3437 1594 FO
  36   36 3110 1440 FO
  36   36 3249 1524 FO
  36   36 3354 1339 FO
  36   36 3482 1328 FO
  36   36 3604 1415 FO
  36   36 3731 1395 FO
  36   36 3376 1358 FO
  36   36 3487 1422 FO
  36   36 3622 1470 FO
  36   36 3751 1443 FO
  36   36 3885 1380 FO
  36   36 3650 1292 FO
  36   36 3793 1246 FO
  36   36 3930 1234 FO
  36   36 4073 1308 FO
  36   36 3923 1271 FO
  36   36 4066 1212 FO
  36   36 4215 1209 FO
  36   36 4231 1263 FO
  36   36 4387 1251 FO
  36   36 4553 1252 FO
gs 899 324 5357 3522 rc
gr

0 j
0 -58 -58 0 0 58 58 0 937 3224 5 MP
/c8 { 1.000000 0.000000 0.000000 sr} bdef
c8
DP
0 -58 -58 0 0 58 58 0 947 3152 5 MP
DP
0 -58 -58 0 0 58 58 0 959 2946 5 MP
DP
0 -58 -58 0 0 58 58 0 971 3008 5 MP
DP
0 -58 -58 0 0 58 58 0 986 2893 5 MP
DP
0 -58 -58 0 0 58 58 0 998 2823 5 MP
DP
0 -58 -58 0 0 58 58 0 1012 2838 5 MP
DP
0 -58 -58 0 0 58 58 0 1015 2809 5 MP
DP
0 -58 -58 0 0 58 58 0 1031 2743 5 MP
DP
0 -58 -58 0 0 58 58 0 1051 2778 5 MP
DP
0 -58 -58 0 0 58 58 0 1048 2706 5 MP
DP
0 -58 -58 0 0 58 58 0 1069 2800 5 MP
DP
0 -58 -58 0 0 58 58 0 1090 2671 5 MP
DP
0 -58 -58 0 0 58 58 0 1091 2652 5 MP
DP
0 -58 -58 0 0 58 58 0 1115 2682 5 MP
DP
0 -58 -58 0 0 58 58 0 1143 2559 5 MP
DP
0 -58 -58 0 0 58 58 0 1144 2678 5 MP
DP
0 -58 -58 0 0 58 58 0 1176 2495 5 MP
DP
0 -58 -58 0 0 58 58 0 1205 2405 5 MP
DP
0 -58 -58 0 0 58 58 0 1209 2445 5 MP
DP
0 -58 -58 0 0 58 58 0 1240 2457 5 MP
DP
0 -58 -58 0 0 58 58 0 1267 2510 5 MP
DP
0 -58 -58 0 0 58 58 0 1284 2247 5 MP
DP
0 -58 -58 0 0 58 58 0 1314 2344 5 MP
DP
0 -58 -58 0 0 58 58 0 1356 2332 5 MP
DP
0 -58 -58 0 0 58 58 0 1391 2191 5 MP
DP
0 -58 -58 0 0 58 58 0 1355 2210 5 MP
DP
0 -58 -58 0 0 58 58 0 1401 2129 5 MP
DP
0 -58 -58 0 0 58 58 0 1439 2213 5 MP
DP
0 -58 -58 0 0 58 58 0 1495 1967 5 MP
DP
0 -58 -58 0 0 58 58 0 1440 2237 5 MP
DP
0 -58 -58 0 0 58 58 0 1480 2224 5 MP
DP
0 -58 -58 0 0 58 58 0 1541 2161 5 MP
DP
0 -58 -58 0 0 58 58 0 1593 2010 5 MP
DP
0 -58 -58 0 0 58 58 0 1539 2119 5 MP
DP
0 -58 -58 0 0 58 58 0 1605 1918 5 MP
DP
0 -58 -58 0 0 58 58 0 1662 1941 5 MP
DP
0 -58 -58 0 0 58 58 0 1716 1962 5 MP
DP
0 -58 -58 0 0 58 58 0 1657 1999 5 MP
DP
0 -58 -58 0 0 58 58 0 1719 1835 5 MP
DP
0 -58 -58 0 0 58 58 0 1776 1956 5 MP
DP
0 -58 -58 0 0 58 58 0 1844 1785 5 MP
DP
0 -58 -58 0 0 58 58 0 1803 1768 5 MP
DP
0 -58 -58 0 0 58 58 0 1866 1821 5 MP
DP
0 -58 -58 0 0 58 58 0 1940 1784 5 MP
DP
0 -58 -58 0 0 58 58 0 2020 1879 5 MP
DP
0 -58 -58 0 0 58 58 0 2086 1724 5 MP
DP
0 -58 -58 0 0 58 58 0 1943 1512 5 MP
DP
0 -58 -58 0 0 58 58 0 2024 1515 5 MP
DP
0 -58 -58 0 0 58 58 0 2110 1524 5 MP
DP
0 -58 -58 0 0 58 58 0 2180 1532 5 MP
DP
0 -58 -58 0 0 58 58 0 2260 1503 5 MP
DP
0 -58 -58 0 0 58 58 0 2102 1684 5 MP
DP
0 -58 -58 0 0 58 58 0 2194 1686 5 MP
DP
0 -58 -58 0 0 58 58 0 2269 1630 5 MP
DP
0 -58 -58 0 0 58 58 0 2354 1390 5 MP
DP
0 -58 -58 0 0 58 58 0 2445 1601 5 MP
DP
0 -58 -58 0 0 58 58 0 2293 1645 5 MP
DP
0 -58 -58 0 0 58 58 0 2374 1510 5 MP
DP
0 -58 -58 0 0 58 58 0 2464 1317 5 MP
DP
0 -58 -58 0 0 58 58 0 2563 1399 5 MP
DP
0 -58 -58 0 0 58 58 0 2662 1527 5 MP
DP
0 -58 -58 0 0 58 58 0 2742 1445 5 MP
DP
0 -58 -58 0 0 58 58 0 2486 1544 5 MP
DP
0 -58 -58 0 0 58 58 0 2584 1501 5 MP
DP
0 -58 -58 0 0 58 58 0 2689 1489 5 MP
DP
0 -58 -58 0 0 58 58 0 2796 1425 5 MP
DP
0 -58 -58 0 0 58 58 0 2882 1549 5 MP
DP
0 -58 -58 0 0 58 58 0 2989 1467 5 MP
DP
0 -58 -58 0 0 58 58 0 2681 1382 5 MP
DP
0 -58 -58 0 0 58 58 0 2793 1349 5 MP
DP
0 -58 -58 0 0 58 58 0 2905 1407 5 MP
DP
0 -58 -58 0 0 58 58 0 2997 1368 5 MP
DP
0 -58 -58 0 0 58 58 0 3110 1508 5 MP
DP
0 -58 -58 0 0 58 58 0 3227 1188 5 MP
DP
0 -58 -58 0 0 58 58 0 2909 1251 5 MP
DP
0 -58 -58 0 0 58 58 0 3028 1210 5 MP
DP
0 -58 -58 0 0 58 58 0 3125 1352 5 MP
DP
0 -58 -58 0 0 58 58 0 3245 1191 5 MP
DP
0 -58 -58 0 0 58 58 0 3369 1103 5 MP
DP
0 -58 -58 0 0 58 58 0 3482 1271 5 MP
DP
0 -58 -58 0 0 58 58 0 3162 1190 5 MP
DP
0 -58 -58 0 0 58 58 0 3264 1276 5 MP
DP
0 -58 -58 0 0 58 58 0 3392 1340 5 MP
DP
0 -58 -58 0 0 58 58 0 3523 1114 5 MP
DP
0 -58 -58 0 0 58 58 0 3643 1133 5 MP
DP
0 -58 -58 0 0 58 58 0 3777 1143 5 MP
DP
0 -58 -58 0 0 58 58 0 3888 1173 5 MP
DP
0 -58 -58 0 0 58 58 0 3404 1367 5 MP
DP
0 -58 -58 0 0 58 58 0 3539 1322 5 MP
DP
0 -58 -58 0 0 58 58 0 3678 1087 5 MP
DP
0 -58 -58 0 0 58 58 0 3805 1198 5 MP
DP
0 -58 -58 0 0 58 58 0 3947 1032 5 MP
DP
0 -58 -58 0 0 58 58 0 4064 1024 5 MP
DP
0 -58 -58 0 0 58 58 0 4194 1072 5 MP
DP
0 -58 -58 0 0 58 58 0 3659 1383 5 MP
DP
0 -58 -58 0 0 58 58 0 3804 1130 5 MP
DP
0 -58 -58 0 0 58 58 0 3937 1199 5 MP
DP
0 -58 -58 0 0 58 58 0 4085 1153 5 MP
DP
0 -58 -58 0 0 58 58 0 4207 1099 5 MP
DP
0 -58 -58 0 0 58 58 0 4343 1225 5 MP
DP
0 -58 -58 0 0 58 58 0 4475 1084 5 MP
DP
0 -58 -58 0 0 58 58 0 4612 1154 5 MP
DP
0 -58 -58 0 0 58 58 0 3960 1134 5 MP
DP
0 -58 -58 0 0 58 58 0 4100 1130 5 MP
DP
0 -58 -58 0 0 58 58 0 4256 1111 5 MP
DP
0 -58 -58 0 0 58 58 0 4385 1260 5 MP
DP
0 -58 -58 0 0 58 58 0 4528 1008 5 MP
DP
0 -58 -58 0 0 58 58 0 4667 1272 5 MP
DP
0 -58 -58 0 0 58 58 0 4812 1030 5 MP
DP
0 -58 -58 0 0 58 58 0 4268 957 5 MP
DP
0 -58 -58 0 0 58 58 0 4432 1022 5 MP
DP
0 -58 -58 0 0 58 58 0 4568 800 5 MP
DP
0 -58 -58 0 0 58 58 0 4718 814 5 MP
DP
0 -58 -58 0 0 58 58 0 4865 996 5 MP
DP
0 -58 -58 0 0 58 58 0 5017 933 5 MP
DP
0 -58 -58 0 0 58 58 0 4593 871 5 MP
DP
0 -58 -58 0 0 58 58 0 4735 1005 5 MP
DP
0 -58 -58 0 0 58 58 0 4892 1077 5 MP
DP
0 -58 -58 0 0 58 58 0 5046 1075 5 MP
DP
0 -58 -58 0 0 58 58 0 5205 953 5 MP
DP
0 -58 -58 0 0 58 58 0 4922 809 5 MP
DP
0 -58 -58 0 0 58 58 0 5086 831 5 MP
DP
0 -58 -58 0 0 58 58 0 5247 850 5 MP
DP
0 -58 -58 0 0 58 58 0 5414 865 5 MP
DP
0 -58 -58 0 0 58 58 0 5247 857 5 MP
DP
0 -58 -58 0 0 58 58 0 5414 814 5 MP
DP
0 -58 -58 0 0 58 58 0 5587 767 5 MP
DP
0 -58 -58 0 0 58 58 0 5598 855 5 MP
DP
0 -58 -58 0 0 58 58 0 5778 948 5 MP
DP
0 -58 -58 0 0 58 58 0 5966 853 5 MP
DP
gs 899 324 5357 3522 rc
gr

-41 71 -41 -71 82 0 916 3277 4 MP
/c9 { 0.000000 1.000000 0.000000 sr} bdef
c9
DP
-41 71 -41 -71 82 0 924 3231 4 MP
DP
-41 71 -41 -71 82 0 934 3042 4 MP
DP
-41 71 -41 -71 82 0 945 3105 4 MP
DP
-41 71 -41 -71 82 0 957 3019 4 MP
DP
-41 71 -41 -71 82 0 966 2947 4 MP
DP
-41 71 -41 -71 82 0 978 2978 4 MP
DP
-41 71 -41 -71 82 0 981 2907 4 MP
DP
-41 71 -41 -71 82 0 994 2869 4 MP
DP
-41 71 -41 -71 82 0 1011 2897 4 MP
DP
-41 71 -41 -71 82 0 1008 2826 4 MP
DP
-41 71 -41 -71 82 0 1026 2912 4 MP
DP
-41 71 -41 -71 82 0 1043 2808 4 MP
DP
-41 71 -41 -71 82 0 1044 2803 4 MP
DP
-41 71 -41 -71 82 0 1063 2801 4 MP
DP
-41 71 -41 -71 82 0 1088 2679 4 MP
DP
-41 71 -41 -71 82 0 1087 2799 4 MP
DP
-41 71 -41 -71 82 0 1115 2618 4 MP
DP
-41 71 -41 -71 82 0 1138 2547 4 MP
DP
-41 71 -41 -71 82 0 1141 2521 4 MP
DP
-41 71 -41 -71 82 0 1166 2622 4 MP
DP
-41 71 -41 -71 82 0 1188 2615 4 MP
DP
-41 71 -41 -71 82 0 1203 2402 4 MP
DP
-41 71 -41 -71 82 0 1228 2462 4 MP
DP
-41 71 -41 -71 82 0 1263 2493 4 MP
DP
-41 71 -41 -71 82 0 1292 2319 4 MP
DP
-41 71 -41 -71 82 0 1261 2360 4 MP
DP
-41 71 -41 -71 82 0 1299 2275 4 MP
DP
-41 71 -41 -71 82 0 1331 2357 4 MP
DP
-41 71 -41 -71 82 0 1377 2155 4 MP
DP
-41 71 -41 -71 82 0 1330 2375 4 MP
DP
-41 71 -41 -71 82 0 1364 2358 4 MP
DP
-41 71 -41 -71 82 0 1413 2319 4 MP
DP
-41 71 -41 -71 82 0 1457 2199 4 MP
DP
-41 71 -41 -71 82 0 1412 2300 4 MP
DP
-41 71 -41 -71 82 0 1466 2087 4 MP
DP
-41 71 -41 -71 82 0 1514 2100 4 MP
DP
-41 71 -41 -71 82 0 1558 2125 4 MP
DP
-41 71 -41 -71 82 0 1510 2156 4 MP
DP
-41 71 -41 -71 82 0 1560 2021 4 MP
DP
-41 71 -41 -71 82 0 1608 2143 4 MP
DP
-41 71 -41 -71 82 0 1664 1945 4 MP
DP
-41 71 -41 -71 82 0 1629 1964 4 MP
DP
-41 71 -41 -71 82 0 1681 2021 4 MP
DP
-41 71 -41 -71 82 0 1743 1978 4 MP
DP
-41 71 -41 -71 82 0 1809 2058 4 MP
DP
-41 71 -41 -71 82 0 1863 1925 4 MP
DP
-41 71 -41 -71 82 0 1745 1713 4 MP
DP
-41 71 -41 -71 82 0 1812 1697 4 MP
DP
-41 71 -41 -71 82 0 1882 1712 4 MP
DP
-41 71 -41 -71 82 0 1941 1714 4 MP
DP
-41 71 -41 -71 82 0 2006 1694 4 MP
DP
-41 71 -41 -71 82 0 1877 1867 4 MP
DP
-41 71 -41 -71 82 0 1952 1875 4 MP
DP
-41 71 -41 -71 82 0 2015 1810 4 MP
DP
-41 71 -41 -71 82 0 2084 1605 4 MP
DP
-41 71 -41 -71 82 0 2163 1762 4 MP
DP
-41 71 -41 -71 82 0 2034 1825 4 MP
DP
-41 71 -41 -71 82 0 2102 1738 4 MP
DP
-41 71 -41 -71 82 0 2176 1517 4 MP
DP
-41 71 -41 -71 82 0 2260 1555 4 MP
DP
-41 71 -41 -71 82 0 2344 1688 4 MP
DP
-41 71 -41 -71 82 0 2194 1697 4 MP
DP
-41 71 -41 -71 82 0 2274 1685 4 MP
DP
-41 71 -41 -71 82 0 2364 1644 4 MP
DP
-41 71 -41 -71 82 0 2454 1556 4 MP
DP
-41 71 -41 -71 82 0 2526 1718 4 MP
DP
-41 71 -41 -71 82 0 2616 1597 4 MP
DP
-41 71 -41 -71 82 0 2355 1579 4 MP
DP
-41 71 -41 -71 82 0 2451 1529 4 MP
DP
-41 71 -41 -71 82 0 2546 1564 4 MP
DP
-41 71 -41 -71 82 0 2622 1564 4 MP
DP
-41 71 -41 -71 82 0 2717 1656 4 MP
DP
-41 71 -41 -71 82 0 2818 1363 4 MP
DP
-41 71 -41 -71 82 0 2546 1400 4 MP
DP
-41 71 -41 -71 82 0 2647 1356 4 MP
DP
-41 71 -41 -71 82 0 2728 1575 4 MP
DP
-41 71 -41 -71 82 0 2829 1362 4 MP
DP
-41 71 -41 -71 82 0 2935 1298 4 MP
DP
-41 71 -41 -71 82 0 3030 1458 4 MP
DP
-41 71 -41 -71 82 0 2761 1344 4 MP
DP
-41 71 -41 -71 82 0 2847 1480 4 MP
DP
-41 71 -41 -71 82 0 2955 1501 4 MP
DP
-41 71 -41 -71 82 0 3068 1329 4 MP
DP
-41 71 -41 -71 82 0 3169 1346 4 MP
DP
-41 71 -41 -71 82 0 3286 1289 4 MP
DP
-41 71 -41 -71 82 0 3379 1341 4 MP
DP
-41 71 -41 -71 82 0 2966 1520 4 MP
DP
-41 71 -41 -71 82 0 3080 1436 4 MP
DP
-41 71 -41 -71 82 0 3200 1266 4 MP
DP
-41 71 -41 -71 82 0 3307 1350 4 MP
DP
-41 71 -41 -71 82 0 3431 1178 4 MP
DP
-41 71 -41 -71 82 0 3530 1172 4 MP
DP
-41 71 -41 -71 82 0 3643 1225 4 MP
DP
-41 71 -41 -71 82 0 3180 1519 4 MP
DP
-41 71 -41 -71 82 0 3306 1297 4 MP
DP
-41 71 -41 -71 82 0 3418 1413 4 MP
DP
-41 71 -41 -71 82 0 3547 1346 4 MP
DP
-41 71 -41 -71 82 0 3651 1249 4 MP
DP
-41 71 -41 -71 82 0 3768 1420 4 MP
DP
-41 71 -41 -71 82 0 3884 1216 4 MP
DP
-41 71 -41 -71 82 0 3438 1288 4 MP
DP
-41 71 -41 -71 82 0 3556 1300 4 MP
DP
-41 71 -41 -71 82 0 3692 1277 4 MP
DP
-41 71 -41 -71 82 0 3802 1398 4 MP
DP
-41 71 -41 -71 82 0 3925 1147 4 MP
DP
-41 71 -41 -71 82 0 4047 1396 4 MP
DP
-41 71 -41 -71 82 0 4172 1174 4 MP
DP
-41 71 -41 -71 82 0 3702 1127 4 MP
DP
-41 71 -41 -71 82 0 3845 1205 4 MP
DP
-41 71 -41 -71 82 0 3961 961 4 MP
DP
-41 71 -41 -71 82 0 4091 996 4 MP
DP
-41 71 -41 -71 82 0 4219 1170 4 MP
DP
-41 71 -41 -71 82 0 4351 1074 4 MP
DP
-41 71 -41 -71 82 0 3982 1050 4 MP
DP
-41 71 -41 -71 82 0 4103 1159 4 MP
DP
-41 71 -41 -71 82 0 4239 1241 4 MP
DP
-41 71 -41 -71 82 0 4373 1232 4 MP
DP
-41 71 -41 -71 82 0 4511 1116 4 MP
DP
-41 71 -41 -71 82 0 4266 977 4 MP
DP
-41 71 -41 -71 82 0 4410 957 4 MP
DP
-41 71 -41 -71 82 0 4551 970 4 MP
DP
-41 71 -41 -71 82 0 4695 1004 4 MP
DP
-41 71 -41 -71 82 0 4547 990 4 MP
DP
-41 71 -41 -71 82 0 4693 956 4 MP
DP
-41 71 -41 -71 82 0 4844 929 4 MP
DP
-41 71 -41 -71 82 0 4855 1016 4 MP
DP
-41 71 -41 -71 82 0 5011 1092 4 MP
DP
-41 71 -41 -71 82 0 5176 1019 4 MP
DP
gs 899 324 5357 3522 rc
gr

0 sg
2770 4133 mt 
(Geometric mean rate \(spike/s\)) s
 616 2378 mt  -90 rotate
(Correlation) s
90 rotate
 882 3888 mt 
( ) s
6239  366 mt 
( ) s
5591 3440 mt 
(LIF) s
gs 5146 3306 1050 481 rc
gs 5312 3324 147 147 rc
  36   36 5385 3397 FO
gr

gr

5591 3589 mt 
(EIF + Nap) s
gs 5146 3306 1050 481 rc
gs 5312 3473 147 147 rc
0 -58 -58 0 0 58 58 0 5356 3517 5 MP
c8
DP
gr

c8
gr

c8
0 sg
5591 3737 mt 
(EIF + Kv7) s
gs 5146 3306 1050 481 rc
gs 5312 3621 147 147 rc
-41 71 -41 -71 82 0 5344 3718 4 MP
c9
DP
gr

c9
gr

c9

end %%Color Dict

eplot
%%EndObject

epage
end

showpage

%%Trailer
%%EOF
