%!PS-Adobe-3.0 EPSF-3.0
%%Creator: MATLAB, The MathWorks, Inc. Version 8.0.0.783 (R2012b). Operating System: Darwin 10.8.0 Darwin Kernel Version 10.8.0: Tue Jun  7 16:33:36 PDT 2011; root:xnu-1504.15.3~1/RELEASE_I386 i386.
%%Title: ./counts_vs_binary_EIF_Kv7.eps
%%CreationDate: 03/14/2014  15:41:14
%%DocumentNeededFonts: Helvetica
%%DocumentProcessColors: Cyan Magenta Yellow Black
%%LanguageLevel: 2
%%Pages: 1
%%BoundingBox:    40    11   530   344
%%EndComments

%%BeginProlog
% MathWorks dictionary
/MathWorks 160 dict begin
% definition operators
/bdef {bind def} bind def
/ldef {load def} bind def
/xdef {exch def} bdef
/xstore {exch store} bdef
% operator abbreviations
/c  /clip ldef
/cc /concat ldef
/cp /closepath ldef
/gr /grestore ldef
/gs /gsave ldef
/mt /moveto ldef
/np /newpath ldef
/cm /currentmatrix ldef
/sm /setmatrix ldef
/rm /rmoveto ldef
/rl /rlineto ldef
/s {show newpath} bdef
/sc {setcmykcolor} bdef
/sr /setrgbcolor ldef
/sg /setgray ldef
/w /setlinewidth ldef
/j /setlinejoin ldef
/cap /setlinecap ldef
/rc {rectclip} bdef
/rf {rectfill} bdef
% page state control
/pgsv () def
/bpage {/pgsv save def} bdef
/epage {pgsv restore} bdef
/bplot /gsave ldef
/eplot {stroke grestore} bdef
% orientation switch
/portraitMode 0 def /landscapeMode 1 def /rotateMode 2 def
% coordinate system mappings
/dpi2point 0 def
% font control
/FontSize 0 def
/FMS {/FontSize xstore findfont [FontSize 0 0 FontSize neg 0 0]
  makefont setfont} bdef
/reencode {exch dup where {pop load} {pop StandardEncoding} ifelse
  exch dup 3 1 roll findfont dup length dict begin
  { 1 index /FID ne {def}{pop pop} ifelse } forall
  /Encoding exch def currentdict end definefont pop} bdef
/isroman {findfont /CharStrings get /Agrave known} bdef
/FMSR {3 1 roll 1 index dup isroman {reencode} {pop pop} ifelse
  exch FMS} bdef
/csm {1 dpi2point div -1 dpi2point div scale neg translate
 dup landscapeMode eq {pop -90 rotate}
  {rotateMode eq {90 rotate} if} ifelse} bdef
% line types: solid, dotted, dashed, dotdash
/SO { [] 0 setdash } bdef
/DO { [.5 dpi2point mul 4 dpi2point mul] 0 setdash } bdef
/DA { [6 dpi2point mul] 0 setdash } bdef
/DD { [.5 dpi2point mul 4 dpi2point mul 6 dpi2point mul 4
  dpi2point mul] 0 setdash } bdef
% macros for lines and objects
/L {lineto stroke} bdef
/MP {3 1 roll moveto 1 sub {rlineto} repeat} bdef
/AP {{rlineto} repeat} bdef
/PDlw -1 def
/W {/PDlw currentlinewidth def setlinewidth} def
/PP {closepath eofill} bdef
/DP {closepath stroke} bdef
/MR {4 -2 roll moveto dup  0 exch rlineto exch 0 rlineto
  neg 0 exch rlineto closepath} bdef
/FR {MR stroke} bdef
/PR {MR fill} bdef
/L1i {{currentfile picstr readhexstring pop} image} bdef
/tMatrix matrix def
/MakeOval {newpath tMatrix currentmatrix pop translate scale
0 0 1 0 360 arc tMatrix setmatrix} bdef
/FO {MakeOval stroke} bdef
/PO {MakeOval fill} bdef
/PD {currentlinewidth 2 div 0 360 arc fill
   PDlw -1 eq not {PDlw w /PDlw -1 def} if} def
/FA {newpath tMatrix currentmatrix pop translate scale
  0 0 1 5 -2 roll arc tMatrix setmatrix stroke} bdef
/PA {newpath tMatrix currentmatrix pop	translate 0 0 moveto scale
  0 0 1 5 -2 roll arc closepath tMatrix setmatrix fill} bdef
/FAn {newpath tMatrix currentmatrix pop translate scale
  0 0 1 5 -2 roll arcn tMatrix setmatrix stroke} bdef
/PAn {newpath tMatrix currentmatrix pop translate 0 0 moveto scale
  0 0 1 5 -2 roll arcn closepath tMatrix setmatrix fill} bdef
/vradius 0 def /hradius 0 def /lry 0 def
/lrx 0 def /uly 0 def /ulx 0 def /rad 0 def
/MRR {/vradius xdef /hradius xdef /lry xdef /lrx xdef /uly xdef
  /ulx xdef newpath tMatrix currentmatrix pop ulx hradius add uly
  vradius add translate hradius vradius scale 0 0 1 180 270 arc 
  tMatrix setmatrix lrx hradius sub uly vradius add translate
  hradius vradius scale 0 0 1 270 360 arc tMatrix setmatrix
  lrx hradius sub lry vradius sub translate hradius vradius scale
  0 0 1 0 90 arc tMatrix setmatrix ulx hradius add lry vradius sub
  translate hradius vradius scale 0 0 1 90 180 arc tMatrix setmatrix
  closepath} bdef
/FRR {MRR stroke } bdef
/PRR {MRR fill } bdef
/MlrRR {/lry xdef /lrx xdef /uly xdef /ulx xdef /rad lry uly sub 2 div def
  newpath tMatrix currentmatrix pop ulx rad add uly rad add translate
  rad rad scale 0 0 1 90 270 arc tMatrix setmatrix lrx rad sub lry rad
  sub translate rad rad scale 0 0 1 270 90 arc tMatrix setmatrix
  closepath} bdef
/FlrRR {MlrRR stroke } bdef
/PlrRR {MlrRR fill } bdef
/MtbRR {/lry xdef /lrx xdef /uly xdef /ulx xdef /rad lrx ulx sub 2 div def
  newpath tMatrix currentmatrix pop ulx rad add uly rad add translate
  rad rad scale 0 0 1 180 360 arc tMatrix setmatrix lrx rad sub lry rad
  sub translate rad rad scale 0 0 1 0 180 arc tMatrix setmatrix
  closepath} bdef
/FtbRR {MtbRR stroke } bdef
/PtbRR {MtbRR fill } bdef
/stri 6 array def /dtri 6 array def
/smat 6 array def /dmat 6 array def
/tmat1 6 array def /tmat2 6 array def /dif 3 array def
/asub {/ind2 exch def /ind1 exch def dup dup
  ind1 get exch ind2 get sub exch } bdef
/tri_to_matrix {
  2 0 asub 3 1 asub 4 0 asub 5 1 asub
  dup 0 get exch 1 get 7 -1 roll astore } bdef
/compute_transform {
  dmat dtri tri_to_matrix tmat1 invertmatrix 
  smat stri tri_to_matrix tmat2 concatmatrix } bdef
/ds {stri astore pop} bdef
/dt {dtri astore pop} bdef
/db {2 copy /cols xdef /rows xdef mul dup 3 mul string
  currentfile 
  3 index 0 eq {/ASCIIHexDecode filter}
  {/ASCII85Decode filter 3 index 2 eq {/RunLengthDecode filter} if }
  ifelse exch readstring pop
  dup 0 3 index getinterval /rbmap xdef
  dup 2 index dup getinterval /gbmap xdef
  1 index dup 2 mul exch getinterval /bbmap xdef pop pop}bdef
/it {gs np dtri aload pop moveto lineto lineto cp c
  cols rows 8 compute_transform 
  rbmap gbmap bbmap true 3 colorimage gr}bdef
/il {newpath moveto lineto stroke}bdef
currentdict end def
%%EndProlog

%%BeginSetup
MathWorks begin

0 cap

end
%%EndSetup

%%Page: 1 1
%%BeginPageSetup
%%PageBoundingBox:    40    11   530   344
MathWorks begin
bpage
%%EndPageSetup

%%BeginObject: obj1
bplot

/dpi2point 12 def
portraitMode 0000 4320 csm

  480   182  5891  4003 rc
86 dict begin %Colortable dictionary
/c0 { 0.000000 0.000000 0.000000 sr} bdef
/c1 { 1.000000 1.000000 1.000000 sr} bdef
/c2 { 0.900000 0.000000 0.000000 sr} bdef
/c3 { 0.000000 0.820000 0.000000 sr} bdef
/c4 { 0.000000 0.000000 0.800000 sr} bdef
/c5 { 0.910000 0.820000 0.320000 sr} bdef
/c6 { 1.000000 0.260000 0.820000 sr} bdef
/c7 { 0.000000 0.820000 0.820000 sr} bdef
c0
1 j
1 sg
   0    0 6913 4321 rf
6 w
0 3521 5356 0 0 -3521 899 3845 4 MP
PP
-5356 0 0 3521 5356 0 0 -3521 899 3845 5 MP stroke
4 w
DO
SO
6 w
0 sg
 899 3845 mt 6255 3845 L
 899  324 mt 6255  324 L
 899 3845 mt  899  324 L
6255 3845 mt 6255  324 L
 899 3845 mt 6255 3845 L
 899 3845 mt  899  324 L
 899 3845 mt  899 3791 L
 899  324 mt  899  377 L
%%IncludeResource: font Helvetica
/Helvetica /ISOLatin1Encoding 120 FMSR

 866 3990 mt 
(0) s
1970 3845 mt 1970 3791 L
1970  324 mt 1970  377 L
1937 3990 mt 
(5) s
3041 3845 mt 3041 3791 L
3041  324 mt 3041  377 L
2975 3990 mt 
(10) s
4112 3845 mt 4112 3791 L
4112  324 mt 4112  377 L
4046 3990 mt 
(15) s
5183 3845 mt 5183 3791 L
5183  324 mt 5183  377 L
5117 3990 mt 
(20) s
6255 3845 mt 6255 3791 L
6255  324 mt 6255  377 L
6189 3990 mt 
(25) s
 899 3845 mt  952 3845 L
6255 3845 mt 6201 3845 L
 798 3889 mt 
(0) s
 899 3140 mt  952 3140 L
6255 3140 mt 6201 3140 L
 698 3184 mt 
(0.1) s
 899 2436 mt  952 2436 L
6255 2436 mt 6201 2436 L
 698 2480 mt 
(0.2) s
 899 1732 mt  952 1732 L
6255 1732 mt 6201 1732 L
 698 1776 mt 
(0.3) s
 899 1028 mt  952 1028 L
6255 1028 mt 6201 1028 L
 698 1072 mt 
(0.4) s
 899  324 mt  952  324 L
6255  324 mt 6201  324 L
 698  368 mt 
(0.5) s
 899 3845 mt 6255 3845 L
 899  324 mt 6255  324 L
 899 3845 mt  899  324 L
6255 3845 mt 6255  324 L
gs 899 324 5357 3522 rc
gr

0 j
-41 71 -41 -71 82 0 910 2293 4 MP
DP
-41 71 -41 -71 82 0 926 3179 4 MP
DP
-41 71 -41 -71 82 0 931 3081 4 MP
DP
-41 71 -41 -71 82 0 932 3234 4 MP
DP
-41 71 -41 -71 82 0 968 3626 4 MP
DP
-41 71 -41 -71 82 0 956 2817 4 MP
DP
-41 71 -41 -71 82 0 988 3299 4 MP
DP
-41 71 -41 -71 82 0 970 3269 4 MP
DP
-41 71 -41 -71 82 0 1007 3274 4 MP
DP
-41 71 -41 -71 82 0 1022 3087 4 MP
DP
-41 71 -41 -71 82 0 991 3296 4 MP
DP
-41 71 -41 -71 82 0 1053 2823 4 MP
DP
-41 71 -41 -71 82 0 1078 2972 4 MP
DP
-41 71 -41 -71 82 0 1079 2820 4 MP
DP
-41 71 -41 -71 82 0 1100 2980 4 MP
DP
-41 71 -41 -71 82 0 1101 2762 4 MP
DP
-41 71 -41 -71 82 0 1143 3069 4 MP
DP
-41 71 -41 -71 82 0 1133 2849 4 MP
DP
-41 71 -41 -71 82 0 1180 3186 4 MP
DP
-41 71 -41 -71 82 0 1227 2130 4 MP
DP
-41 71 -41 -71 82 0 1234 2927 4 MP
DP
-41 71 -41 -71 82 0 1181 2419 4 MP
DP
-41 71 -41 -71 82 0 1229 2088 4 MP
DP
-41 71 -41 -71 82 0 1235 2220 4 MP
DP
-41 71 -41 -71 82 0 1293 2547 4 MP
DP
-41 71 -41 -71 82 0 1300 2275 4 MP
DP
-41 71 -41 -71 82 0 1339 2711 4 MP
DP
-41 71 -41 -71 82 0 1390 2517 4 MP
DP
-41 71 -41 -71 82 0 1365 2525 4 MP
DP
-41 71 -41 -71 82 0 1410 2337 4 MP
DP
-41 71 -41 -71 82 0 1468 2863 4 MP
DP
-41 71 -41 -71 82 0 1481 2416 4 MP
DP
-41 71 -41 -71 82 0 1552 2155 4 MP
DP
-41 71 -41 -71 82 0 1419 2176 4 MP
DP
-41 71 -41 -71 82 0 1479 2327 4 MP
DP
-41 71 -41 -71 82 0 1492 2296 4 MP
DP
-41 71 -41 -71 82 0 1564 1893 4 MP
DP
-41 71 -41 -71 82 0 1533 2073 4 MP
DP
-41 71 -41 -71 82 0 1548 1913 4 MP
DP
-41 71 -41 -71 82 0 1626 1844 4 MP
DP
-41 71 -41 -71 82 0 1669 2054 4 MP
DP
-41 71 -41 -71 82 0 1621 2087 4 MP
DP
-41 71 -41 -71 82 0 1707 1864 4 MP
DP
-41 71 -41 -71 82 0 1756 2270 4 MP
DP
-41 71 -41 -71 82 0 1821 2211 4 MP
DP
-41 71 -41 -71 82 0 1898 2098 4 MP
DP
-41 71 -41 -71 82 0 1726 1905 4 MP
DP
-41 71 -41 -71 82 0 1775 2217 4 MP
DP
-41 71 -41 -71 82 0 1841 2053 4 MP
DP
-41 71 -41 -71 82 0 1920 1975 4 MP
DP
-41 71 -41 -71 82 0 1941 1900 4 MP
DP
-41 71 -41 -71 82 0 1879 2133 4 MP
DP
-41 71 -41 -71 82 0 1952 2064 4 MP
DP
-41 71 -41 -71 82 0 2040 1788 4 MP
DP
-41 71 -41 -71 82 0 2064 1801 4 MP
DP
-41 71 -41 -71 82 0 2182 1890 4 MP
DP
-41 71 -41 -71 82 0 2015 2028 4 MP
DP
-41 71 -41 -71 82 0 2108 1763 4 MP
DP
-41 71 -41 -71 82 0 2133 1909 4 MP
DP
-41 71 -41 -71 82 0 2258 1658 4 MP
DP
-41 71 -41 -71 82 0 2308 1530 4 MP
DP
-41 71 -41 -71 82 0 2198 2360 4 MP
DP
-41 71 -41 -71 82 0 2224 1919 4 MP
DP
-41 71 -41 -71 82 0 2359 1952 4 MP
DP
-41 71 -41 -71 82 0 2413 1791 4 MP
DP
-41 71 -41 -71 82 0 2525 1939 4 MP
DP
-41 71 -41 -71 82 0 2609 1853 4 MP
DP
-41 71 -41 -71 82 0 2334 1932 4 MP
DP
-41 71 -41 -71 82 0 2480 1873 4 MP
DP
-41 71 -41 -71 82 0 2538 1850 4 MP
DP
-41 71 -41 -71 82 0 2659 2080 4 MP
DP
-41 71 -41 -71 82 0 2751 1825 4 MP
DP
-41 71 -41 -71 82 0 2860 1734 4 MP
DP
-41 71 -41 -71 82 0 2905 1652 4 MP
DP
-41 71 -41 -71 82 0 2512 1762 4 MP
DP
-41 71 -41 -71 82 0 2571 1971 4 MP
DP
-41 71 -41 -71 82 0 2695 1958 4 MP
DP
-41 71 -41 -71 82 0 2788 1735 4 MP
DP
-41 71 -41 -71 82 0 2899 1921 4 MP
DP
-41 71 -41 -71 82 0 2945 1729 4 MP
DP
-41 71 -41 -71 82 0 2739 1565 4 MP
DP
-41 71 -41 -71 82 0 2875 1738 4 MP
DP
-41 71 -41 -71 82 0 2978 1749 4 MP
DP
-41 71 -41 -71 82 0 3100 1780 4 MP
DP
-41 71 -41 -71 82 0 3151 1477 4 MP
DP
-41 71 -41 -71 82 0 3314 1669 4 MP
DP
-41 71 -41 -71 82 0 2948 1590 4 MP
DP
-41 71 -41 -71 82 0 3054 1649 4 MP
DP
-41 71 -41 -71 82 0 3181 1772 4 MP
DP
-41 71 -41 -71 82 0 3233 1480 4 MP
DP
-41 71 -41 -71 82 0 3402 1632 4 MP
DP
-41 71 -41 -71 82 0 3540 1440 4 MP
DP
-41 71 -41 -71 82 0 3576 1608 4 MP
DP
-41 71 -41 -71 82 0 3212 1645 4 MP
DP
-41 71 -41 -71 82 0 3348 1724 4 MP
DP
-41 71 -41 -71 82 0 3404 1511 4 MP
DP
-41 71 -41 -71 82 0 3585 1619 4 MP
DP
-41 71 -41 -71 82 0 3734 1478 4 MP
DP
-41 71 -41 -71 82 0 3772 1539 4 MP
DP
-41 71 -41 -71 82 0 3945 1339 4 MP
DP
-41 71 -41 -71 82 0 3475 1665 4 MP
DP
-41 71 -41 -71 82 0 3534 1600 4 MP
DP
-41 71 -41 -71 82 0 3724 1577 4 MP
DP
-41 71 -41 -71 82 0 3880 1439 4 MP
DP
-41 71 -41 -71 82 0 3920 1274 4 MP
DP
-41 71 -41 -71 82 0 4102 1481 4 MP
DP
-41 71 -41 -71 82 0 4207 1432 4 MP
DP
-41 71 -41 -71 82 0 3688 1616 4 MP
DP
-41 71 -41 -71 82 0 3889 1506 4 MP
DP
-41 71 -41 -71 82 0 4054 1648 4 MP
DP
-41 71 -41 -71 82 0 4096 1501 4 MP
DP
-41 71 -41 -71 82 0 4289 1449 4 MP
DP
-41 71 -41 -71 82 0 4400 1522 4 MP
DP
-41 71 -41 -71 82 0 3958 1591 4 MP
DP
-41 71 -41 -71 82 0 4126 1448 4 MP
DP
-41 71 -41 -71 82 0 4170 1672 4 MP
DP
-41 71 -41 -71 82 0 4367 1553 4 MP
DP
-41 71 -41 -71 82 0 4480 1497 4 MP
DP
-41 71 -41 -71 82 0 4359 1201 4 MP
DP
-41 71 -41 -71 82 0 4405 1547 4 MP
DP
-41 71 -41 -71 82 0 4616 1219 4 MP
DP
-41 71 -41 -71 82 0 4737 1524 4 MP
DP
-41 71 -41 -71 82 0 4598 1366 4 MP
DP
-41 71 -41 -71 82 0 4821 1122 4 MP
DP
-41 71 -41 -71 82 0 4948 1351 4 MP
DP
-41 71 -41 -71 82 0 4873 1283 4 MP
DP
-41 71 -41 -71 82 0 5002 1244 4 MP
DP
-41 71 -41 -71 82 0 5249 1375 4 MP
DP
gs 899 324 5357 3522 rc
gr

-41 71 -41 -71 82 0 916 3277 4 MP
/c8 { 0.000000 1.000000 0.000000 sr} bdef
c8
DP
-41 71 -41 -71 82 0 924 3231 4 MP
DP
-41 71 -41 -71 82 0 934 3042 4 MP
DP
-41 71 -41 -71 82 0 945 3105 4 MP
DP
-41 71 -41 -71 82 0 957 3019 4 MP
DP
-41 71 -41 -71 82 0 966 2947 4 MP
DP
-41 71 -41 -71 82 0 978 2978 4 MP
DP
-41 71 -41 -71 82 0 981 2907 4 MP
DP
-41 71 -41 -71 82 0 994 2869 4 MP
DP
-41 71 -41 -71 82 0 1011 2897 4 MP
DP
-41 71 -41 -71 82 0 1008 2826 4 MP
DP
-41 71 -41 -71 82 0 1026 2912 4 MP
DP
-41 71 -41 -71 82 0 1043 2808 4 MP
DP
-41 71 -41 -71 82 0 1044 2803 4 MP
DP
-41 71 -41 -71 82 0 1063 2801 4 MP
DP
-41 71 -41 -71 82 0 1088 2679 4 MP
DP
-41 71 -41 -71 82 0 1087 2799 4 MP
DP
-41 71 -41 -71 82 0 1115 2618 4 MP
DP
-41 71 -41 -71 82 0 1138 2547 4 MP
DP
-41 71 -41 -71 82 0 1141 2521 4 MP
DP
-41 71 -41 -71 82 0 1166 2622 4 MP
DP
-41 71 -41 -71 82 0 1188 2615 4 MP
DP
-41 71 -41 -71 82 0 1203 2402 4 MP
DP
-41 71 -41 -71 82 0 1228 2462 4 MP
DP
-41 71 -41 -71 82 0 1263 2493 4 MP
DP
-41 71 -41 -71 82 0 1292 2319 4 MP
DP
-41 71 -41 -71 82 0 1261 2360 4 MP
DP
-41 71 -41 -71 82 0 1299 2275 4 MP
DP
-41 71 -41 -71 82 0 1331 2357 4 MP
DP
-41 71 -41 -71 82 0 1377 2155 4 MP
DP
-41 71 -41 -71 82 0 1330 2375 4 MP
DP
-41 71 -41 -71 82 0 1364 2358 4 MP
DP
-41 71 -41 -71 82 0 1413 2319 4 MP
DP
-41 71 -41 -71 82 0 1457 2199 4 MP
DP
-41 71 -41 -71 82 0 1412 2300 4 MP
DP
-41 71 -41 -71 82 0 1466 2087 4 MP
DP
-41 71 -41 -71 82 0 1514 2100 4 MP
DP
-41 71 -41 -71 82 0 1558 2125 4 MP
DP
-41 71 -41 -71 82 0 1510 2156 4 MP
DP
-41 71 -41 -71 82 0 1560 2021 4 MP
DP
-41 71 -41 -71 82 0 1608 2143 4 MP
DP
-41 71 -41 -71 82 0 1664 1945 4 MP
DP
-41 71 -41 -71 82 0 1629 1964 4 MP
DP
-41 71 -41 -71 82 0 1681 2021 4 MP
DP
-41 71 -41 -71 82 0 1743 1978 4 MP
DP
-41 71 -41 -71 82 0 1809 2058 4 MP
DP
-41 71 -41 -71 82 0 1863 1925 4 MP
DP
-41 71 -41 -71 82 0 1745 1713 4 MP
DP
-41 71 -41 -71 82 0 1812 1697 4 MP
DP
-41 71 -41 -71 82 0 1882 1712 4 MP
DP
-41 71 -41 -71 82 0 1941 1714 4 MP
DP
-41 71 -41 -71 82 0 2006 1694 4 MP
DP
-41 71 -41 -71 82 0 1877 1867 4 MP
DP
-41 71 -41 -71 82 0 1952 1875 4 MP
DP
-41 71 -41 -71 82 0 2015 1810 4 MP
DP
-41 71 -41 -71 82 0 2084 1605 4 MP
DP
-41 71 -41 -71 82 0 2163 1762 4 MP
DP
-41 71 -41 -71 82 0 2034 1825 4 MP
DP
-41 71 -41 -71 82 0 2102 1738 4 MP
DP
-41 71 -41 -71 82 0 2176 1517 4 MP
DP
-41 71 -41 -71 82 0 2260 1555 4 MP
DP
-41 71 -41 -71 82 0 2344 1688 4 MP
DP
-41 71 -41 -71 82 0 2194 1697 4 MP
DP
-41 71 -41 -71 82 0 2274 1685 4 MP
DP
-41 71 -41 -71 82 0 2364 1644 4 MP
DP
-41 71 -41 -71 82 0 2454 1556 4 MP
DP
-41 71 -41 -71 82 0 2526 1718 4 MP
DP
-41 71 -41 -71 82 0 2616 1597 4 MP
DP
-41 71 -41 -71 82 0 2355 1579 4 MP
DP
-41 71 -41 -71 82 0 2451 1529 4 MP
DP
-41 71 -41 -71 82 0 2546 1564 4 MP
DP
-41 71 -41 -71 82 0 2622 1564 4 MP
DP
-41 71 -41 -71 82 0 2717 1656 4 MP
DP
-41 71 -41 -71 82 0 2818 1363 4 MP
DP
-41 71 -41 -71 82 0 2546 1400 4 MP
DP
-41 71 -41 -71 82 0 2647 1356 4 MP
DP
-41 71 -41 -71 82 0 2728 1575 4 MP
DP
-41 71 -41 -71 82 0 2829 1362 4 MP
DP
-41 71 -41 -71 82 0 2935 1298 4 MP
DP
-41 71 -41 -71 82 0 3030 1458 4 MP
DP
-41 71 -41 -71 82 0 2761 1344 4 MP
DP
-41 71 -41 -71 82 0 2847 1480 4 MP
DP
-41 71 -41 -71 82 0 2955 1501 4 MP
DP
-41 71 -41 -71 82 0 3068 1329 4 MP
DP
-41 71 -41 -71 82 0 3169 1346 4 MP
DP
-41 71 -41 -71 82 0 3286 1289 4 MP
DP
-41 71 -41 -71 82 0 3379 1341 4 MP
DP
-41 71 -41 -71 82 0 2966 1520 4 MP
DP
-41 71 -41 -71 82 0 3080 1436 4 MP
DP
-41 71 -41 -71 82 0 3200 1266 4 MP
DP
-41 71 -41 -71 82 0 3307 1350 4 MP
DP
-41 71 -41 -71 82 0 3431 1178 4 MP
DP
-41 71 -41 -71 82 0 3530 1172 4 MP
DP
-41 71 -41 -71 82 0 3643 1225 4 MP
DP
-41 71 -41 -71 82 0 3180 1519 4 MP
DP
-41 71 -41 -71 82 0 3306 1297 4 MP
DP
-41 71 -41 -71 82 0 3418 1413 4 MP
DP
-41 71 -41 -71 82 0 3547 1346 4 MP
DP
-41 71 -41 -71 82 0 3651 1249 4 MP
DP
-41 71 -41 -71 82 0 3768 1420 4 MP
DP
-41 71 -41 -71 82 0 3884 1216 4 MP
DP
-41 71 -41 -71 82 0 3438 1288 4 MP
DP
-41 71 -41 -71 82 0 3556 1300 4 MP
DP
-41 71 -41 -71 82 0 3692 1277 4 MP
DP
-41 71 -41 -71 82 0 3802 1398 4 MP
DP
-41 71 -41 -71 82 0 3925 1147 4 MP
DP
-41 71 -41 -71 82 0 4047 1396 4 MP
DP
-41 71 -41 -71 82 0 4172 1174 4 MP
DP
-41 71 -41 -71 82 0 3702 1127 4 MP
DP
-41 71 -41 -71 82 0 3845 1205 4 MP
DP
-41 71 -41 -71 82 0 3961 961 4 MP
DP
-41 71 -41 -71 82 0 4091 996 4 MP
DP
-41 71 -41 -71 82 0 4219 1170 4 MP
DP
-41 71 -41 -71 82 0 4351 1074 4 MP
DP
-41 71 -41 -71 82 0 3982 1050 4 MP
DP
-41 71 -41 -71 82 0 4103 1159 4 MP
DP
-41 71 -41 -71 82 0 4239 1241 4 MP
DP
-41 71 -41 -71 82 0 4373 1232 4 MP
DP
-41 71 -41 -71 82 0 4511 1116 4 MP
DP
-41 71 -41 -71 82 0 4266 977 4 MP
DP
-41 71 -41 -71 82 0 4410 957 4 MP
DP
-41 71 -41 -71 82 0 4551 970 4 MP
DP
-41 71 -41 -71 82 0 4695 1004 4 MP
DP
-41 71 -41 -71 82 0 4547 990 4 MP
DP
-41 71 -41 -71 82 0 4693 956 4 MP
DP
-41 71 -41 -71 82 0 4844 929 4 MP
DP
-41 71 -41 -71 82 0 4855 1016 4 MP
DP
-41 71 -41 -71 82 0 5011 1092 4 MP
DP
-41 71 -41 -71 82 0 5176 1019 4 MP
DP
gs 899 324 5357 3522 rc
gr

0 sg
2770 4133 mt 
(Geometric mean rate \(spike/s\)) s
 616 2378 mt  -90 rotate
(Correlation) s
90 rotate
 882 3888 mt 
( ) s
6239  366 mt 
( ) s
1 sg
0 334 1426 0 0 -334 4769 3786 4 MP
PP
-1426 0 0 334 1426 0 0 -334 4769 3786 5 MP stroke
4 w
DO
SO
6 w
0 sg
4769 3786 mt 6195 3786 L
4769 3452 mt 6195 3452 L
4769 3786 mt 4769 3452 L
6195 3786 mt 6195 3452 L
4769 3786 mt 6195 3786 L
4769 3786 mt 4769 3452 L
4769 3786 mt 6195 3786 L
4769 3452 mt 6195 3452 L
4769 3786 mt 4769 3452 L
6195 3786 mt 6195 3452 L
5218 3587 mt 
(Spike counts) s
gs 4769 3452 1427 335 rc
gs 4937 3471 147 147 rc
-41 71 -41 -71 82 0 4969 3568 4 MP
DP
gr

gr

5218 3736 mt 
(Binary spike train) s
gs 4769 3452 1427 335 rc
gs 4937 3620 147 147 rc
-41 71 -41 -71 82 0 4969 3717 4 MP
c8
DP
gr

c8
gr

c8

end %%Color Dict

eplot
%%EndObject

epage
end

showpage

%%Trailer
%%EOF
