%!PS-Adobe-3.0 EPSF-3.0
%%Creator: MATLAB, The MathWorks, Inc. Version 7.14.0.739 (R2012a). Operating System: Linux 2.6.33.7.2-rt30-rt #1 SMP PREEMPT RT Tue Apr 17 15:22:21 CEST 2012 x86_64.
%%Title: ./current_correlations_aLIF_20140716105546.eps
%%CreationDate: 07/16/2014  10:55:47
%%DocumentNeededFonts: Helvetica
%%DocumentProcessColors: Cyan Magenta Yellow Black
%%LanguageLevel: 2
%%Pages: 1
%%BoundingBox:    26    10   630   422
%%EndComments

%%BeginProlog
% MathWorks dictionary
/MathWorks 160 dict begin
% definition operators
/bdef {bind def} bind def
/ldef {load def} bind def
/xdef {exch def} bdef
/xstore {exch store} bdef
% operator abbreviations
/c  /clip ldef
/cc /concat ldef
/cp /closepath ldef
/gr /grestore ldef
/gs /gsave ldef
/mt /moveto ldef
/np /newpath ldef
/cm /currentmatrix ldef
/sm /setmatrix ldef
/rm /rmoveto ldef
/rl /rlineto ldef
/s {show newpath} bdef
/sc {setcmykcolor} bdef
/sr /setrgbcolor ldef
/sg /setgray ldef
/w /setlinewidth ldef
/j /setlinejoin ldef
/cap /setlinecap ldef
/rc {rectclip} bdef
/rf {rectfill} bdef
% page state control
/pgsv () def
/bpage {/pgsv save def} bdef
/epage {pgsv restore} bdef
/bplot /gsave ldef
/eplot {stroke grestore} bdef
% orientation switch
/portraitMode 0 def /landscapeMode 1 def /rotateMode 2 def
% coordinate system mappings
/dpi2point 0 def
% font control
/FontSize 0 def
/FMS {/FontSize xstore findfont [FontSize 0 0 FontSize neg 0 0]
  makefont setfont} bdef
/reencode {exch dup where {pop load} {pop StandardEncoding} ifelse
  exch dup 3 1 roll findfont dup length dict begin
  { 1 index /FID ne {def}{pop pop} ifelse } forall
  /Encoding exch def currentdict end definefont pop} bdef
/isroman {findfont /CharStrings get /Agrave known} bdef
/FMSR {3 1 roll 1 index dup isroman {reencode} {pop pop} ifelse
  exch FMS} bdef
/csm {1 dpi2point div -1 dpi2point div scale neg translate
 dup landscapeMode eq {pop -90 rotate}
  {rotateMode eq {90 rotate} if} ifelse} bdef
% line types: solid, dotted, dashed, dotdash
/SO { [] 0 setdash } bdef
/DO { [.5 dpi2point mul 4 dpi2point mul] 0 setdash } bdef
/DA { [6 dpi2point mul] 0 setdash } bdef
/DD { [.5 dpi2point mul 4 dpi2point mul 6 dpi2point mul 4
  dpi2point mul] 0 setdash } bdef
% macros for lines and objects
/L {lineto stroke} bdef
/MP {3 1 roll moveto 1 sub {rlineto} repeat} bdef
/AP {{rlineto} repeat} bdef
/PDlw -1 def
/W {/PDlw currentlinewidth def setlinewidth} def
/PP {closepath eofill} bdef
/DP {closepath stroke} bdef
/MR {4 -2 roll moveto dup  0 exch rlineto exch 0 rlineto
  neg 0 exch rlineto closepath} bdef
/FR {MR stroke} bdef
/PR {MR fill} bdef
/L1i {{currentfile picstr readhexstring pop} image} bdef
/tMatrix matrix def
/MakeOval {newpath tMatrix currentmatrix pop translate scale
0 0 1 0 360 arc tMatrix setmatrix} bdef
/FO {MakeOval stroke} bdef
/PO {MakeOval fill} bdef
/PD {currentlinewidth 2 div 0 360 arc fill
   PDlw -1 eq not {PDlw w /PDlw -1 def} if} def
/FA {newpath tMatrix currentmatrix pop translate scale
  0 0 1 5 -2 roll arc tMatrix setmatrix stroke} bdef
/PA {newpath tMatrix currentmatrix pop	translate 0 0 moveto scale
  0 0 1 5 -2 roll arc closepath tMatrix setmatrix fill} bdef
/FAn {newpath tMatrix currentmatrix pop translate scale
  0 0 1 5 -2 roll arcn tMatrix setmatrix stroke} bdef
/PAn {newpath tMatrix currentmatrix pop translate 0 0 moveto scale
  0 0 1 5 -2 roll arcn closepath tMatrix setmatrix fill} bdef
/vradius 0 def /hradius 0 def /lry 0 def
/lrx 0 def /uly 0 def /ulx 0 def /rad 0 def
/MRR {/vradius xdef /hradius xdef /lry xdef /lrx xdef /uly xdef
  /ulx xdef newpath tMatrix currentmatrix pop ulx hradius add uly
  vradius add translate hradius vradius scale 0 0 1 180 270 arc 
  tMatrix setmatrix lrx hradius sub uly vradius add translate
  hradius vradius scale 0 0 1 270 360 arc tMatrix setmatrix
  lrx hradius sub lry vradius sub translate hradius vradius scale
  0 0 1 0 90 arc tMatrix setmatrix ulx hradius add lry vradius sub
  translate hradius vradius scale 0 0 1 90 180 arc tMatrix setmatrix
  closepath} bdef
/FRR {MRR stroke } bdef
/PRR {MRR fill } bdef
/MlrRR {/lry xdef /lrx xdef /uly xdef /ulx xdef /rad lry uly sub 2 div def
  newpath tMatrix currentmatrix pop ulx rad add uly rad add translate
  rad rad scale 0 0 1 90 270 arc tMatrix setmatrix lrx rad sub lry rad
  sub translate rad rad scale 0 0 1 270 90 arc tMatrix setmatrix
  closepath} bdef
/FlrRR {MlrRR stroke } bdef
/PlrRR {MlrRR fill } bdef
/MtbRR {/lry xdef /lrx xdef /uly xdef /ulx xdef /rad lrx ulx sub 2 div def
  newpath tMatrix currentmatrix pop ulx rad add uly rad add translate
  rad rad scale 0 0 1 180 360 arc tMatrix setmatrix lrx rad sub lry rad
  sub translate rad rad scale 0 0 1 0 180 arc tMatrix setmatrix
  closepath} bdef
/FtbRR {MtbRR stroke } bdef
/PtbRR {MtbRR fill } bdef
/stri 6 array def /dtri 6 array def
/smat 6 array def /dmat 6 array def
/tmat1 6 array def /tmat2 6 array def /dif 3 array def
/asub {/ind2 exch def /ind1 exch def dup dup
  ind1 get exch ind2 get sub exch } bdef
/tri_to_matrix {
  2 0 asub 3 1 asub 4 0 asub 5 1 asub
  dup 0 get exch 1 get 7 -1 roll astore } bdef
/compute_transform {
  dmat dtri tri_to_matrix tmat1 invertmatrix 
  smat stri tri_to_matrix tmat2 concatmatrix } bdef
/ds {stri astore pop} bdef
/dt {dtri astore pop} bdef
/db {2 copy /cols xdef /rows xdef mul dup 3 mul string
  currentfile 
  3 index 0 eq {/ASCIIHexDecode filter}
  {/ASCII85Decode filter 3 index 2 eq {/RunLengthDecode filter} if }
  ifelse exch readstring pop
  dup 0 3 index getinterval /rbmap xdef
  dup 2 index dup getinterval /gbmap xdef
  1 index dup 2 mul exch getinterval /bbmap xdef pop pop}bdef
/it {gs np dtri aload pop moveto lineto lineto cp c
  cols rows 8 compute_transform 
  rbmap gbmap bbmap true 3 colorimage gr}bdef
/il {newpath moveto lineto stroke}bdef
currentdict end def
%%EndProlog

%%BeginSetup
MathWorks begin

0 cap

end
%%EndSetup

%%Page: 1 1
%%BeginPageSetup
%%PageBoundingBox:    26    10   630   422
MathWorks begin
bpage
%%EndPageSetup

%%BeginObject: obj1
bplot

/dpi2point 12 def
portraitMode 0000 5184 csm

  315   117  7246  4942 rc
76 dict begin %Colortable dictionary
/c0 { 0.000000 0.000000 0.000000 sr} bdef
/c1 { 1.000000 1.000000 1.000000 sr} bdef
/c2 { 0.900000 0.000000 0.000000 sr} bdef
/c3 { 0.000000 0.820000 0.000000 sr} bdef
/c4 { 0.000000 0.000000 0.800000 sr} bdef
/c5 { 0.910000 0.820000 0.320000 sr} bdef
/c6 { 1.000000 0.260000 0.820000 sr} bdef
/c7 { 0.000000 0.820000 0.820000 sr} bdef
c0
1 j
1 sg
   0    0 7777 5186 rf
6 w
0 4408 3888 0 0 -4408 778 4667 4 MP
PP
-3888 0 0 4408 3888 0 0 -4408 778 4667 5 MP stroke
4 w
DO
SO
6 w
0 sg
 778 4667 mt 4666 4667 L
 778 4667 mt  778  259 L
 778 4667 mt  778 4711 L
%%IncludeResource: font Helvetica
/Helvetica /ISOLatin1Encoding 120 FMSR

 745 4856 mt 
(0) s
1426 4667 mt 1426 4711 L
1393 4856 mt 
(5) s
2074 4667 mt 2074 4711 L
2008 4856 mt 
(10) s
2722 4667 mt 2722 4711 L
2656 4856 mt 
(15) s
3370 4667 mt 3370 4711 L
3304 4856 mt 
(20) s
4018 4667 mt 4018 4711 L
3952 4856 mt 
(25) s
4666 4667 mt 4666 4711 L
4600 4856 mt 
(30) s
 778 4667 mt  733 4667 L
 633 4711 mt 
(0) s
 778 3865 mt  733 3865 L
 533 3909 mt 
(0.1) s
 778 3064 mt  733 3064 L
 533 3108 mt 
(0.2) s
 778 2262 mt  733 2262 L
 533 2306 mt 
(0.3) s
 778 1461 mt  733 1461 L
 533 1505 mt 
(0.4) s
 778  659 mt  733  659 L
 533  703 mt 
(0.5) s
gs 778 259 3889 4409 rc
DA
24 w
0.3 sg
3888 0 778 659 2 MP stroke
SO
0.75 sg
0 -4408 1037 4667 2 MP stroke
12 w
/c8 { 1.000000 0.500000 0.000000 sr} bdef
c8
648 -4 648 -14 648 -27 648 -51 648 -58 129 -5 33 -2 32 -16 
32 -41 33 -76 32 -125 33 -158 32 -215 32 -134 778 1676 15 MP stroke
gr

12 w
c8
gs 705 677 3775 1073 rc
0 j
0 -58 -58 0 0 58 58 0 749 1647 5 MP
gs
PP
gr
DP
0 -58 -58 0 0 58 58 0 781 1513 5 MP
gs
PP
gr
DP
0 -58 -58 0 0 58 58 0 813 1298 5 MP
gs
PP
gr
DP
0 -58 -58 0 0 58 58 0 846 1140 5 MP
gs
PP
gr
DP
0 -58 -58 0 0 58 58 0 878 1015 5 MP
gs
PP
gr
DP
0 -58 -58 0 0 58 58 0 911 939 5 MP
gs
PP
gr
DP
0 -58 -58 0 0 58 58 0 943 898 5 MP
gs
PP
gr
DP
0 -58 -58 0 0 58 58 0 975 882 5 MP
gs
PP
gr
DP
0 -58 -58 0 0 58 58 0 1008 880 5 MP
gs
PP
gr
DP
0 -58 -58 0 0 58 58 0 1137 875 5 MP
gs
PP
gr
DP
0 -58 -58 0 0 58 58 0 1785 817 5 MP
gs
PP
gr
DP
0 -58 -58 0 0 58 58 0 2433 766 5 MP
gs
PP
gr
DP
0 -58 -58 0 0 58 58 0 3081 739 5 MP
gs
PP
gr
DP
0 -58 -58 0 0 58 58 0 3729 725 5 MP
gs
PP
gr
DP
0 -58 -58 0 0 58 58 0 4377 721 5 MP
gs
PP
gr
DP
gr

gs 778 259 3889 4409 rc
/c9 { 0.000000 1.000000 0.500000 sr} bdef
c9
648 -5 648 -29 648 -80 648 -147 648 -120 129 3 33 -10 32 -76 
32 -179 33 -301 32 -405 33 -426 32 -441 32 -217 778 3315 15 MP stroke
gr

c9
gs 705 809 3775 2580 rc
0 j
0 -58 -58 0 0 58 58 0 749 3286 5 MP
gs
PP
gr
DP
0 -58 -58 0 0 58 58 0 781 3069 5 MP
gs
PP
gr
DP
0 -58 -58 0 0 58 58 0 813 2628 5 MP
gs
PP
gr
DP
0 -58 -58 0 0 58 58 0 846 2202 5 MP
gs
PP
gr
DP
0 -58 -58 0 0 58 58 0 878 1797 5 MP
gs
PP
gr
DP
0 -58 -58 0 0 58 58 0 911 1496 5 MP
gs
PP
gr
DP
0 -58 -58 0 0 58 58 0 943 1317 5 MP
gs
PP
gr
DP
0 -58 -58 0 0 58 58 0 975 1241 5 MP
gs
PP
gr
DP
0 -58 -58 0 0 58 58 0 1008 1231 5 MP
gs
PP
gr
DP
0 -58 -58 0 0 58 58 0 1137 1234 5 MP
gs
PP
gr
DP
0 -58 -58 0 0 58 58 0 1785 1114 5 MP
gs
PP
gr
DP
0 -58 -58 0 0 58 58 0 2433 967 5 MP
gs
PP
gr
DP
0 -58 -58 0 0 58 58 0 3081 887 5 MP
gs
PP
gr
DP
0 -58 -58 0 0 58 58 0 3729 858 5 MP
gs
PP
gr
DP
0 -58 -58 0 0 58 58 0 4377 853 5 MP
gs
PP
gr
DP
gr

gs 778 259 3889 4409 rc
/c10 { 1.000000 0.000000 0.500000 sr} bdef
c10
648 7 648 -40 648 -96 648 -130 648 -77 129 21 33 -27 32 -149 
32 -320 33 -482 32 -578 33 -522 32 -460 32 -205 778 3740 15 MP stroke
gr

c10
gs 705 602 3775 3212 rc
0 j
0 -58 -58 0 0 58 58 0 749 3711 5 MP
gs
PP
gr
DP
0 -58 -58 0 0 58 58 0 781 3506 5 MP
gs
PP
gr
DP
0 -58 -58 0 0 58 58 0 813 3046 5 MP
gs
PP
gr
DP
0 -58 -58 0 0 58 58 0 846 2524 5 MP
gs
PP
gr
DP
0 -58 -58 0 0 58 58 0 878 1946 5 MP
gs
PP
gr
DP
0 -58 -58 0 0 58 58 0 911 1464 5 MP
gs
PP
gr
DP
0 -58 -58 0 0 58 58 0 943 1144 5 MP
gs
PP
gr
DP
0 -58 -58 0 0 58 58 0 975 995 5 MP
gs
PP
gr
DP
0 -58 -58 0 0 58 58 0 1008 968 5 MP
gs
PP
gr
DP
0 -58 -58 0 0 58 58 0 1137 989 5 MP
gs
PP
gr
DP
0 -58 -58 0 0 58 58 0 1785 912 5 MP
gs
PP
gr
DP
0 -58 -58 0 0 58 58 0 2433 782 5 MP
gs
PP
gr
DP
0 -58 -58 0 0 58 58 0 3081 686 5 MP
gs
PP
gr
DP
0 -58 -58 0 0 58 58 0 3729 646 5 MP
gs
PP
gr
DP
0 -58 -58 0 0 58 58 0 4377 653 5 MP
gs
PP
gr
DP
gr

gs 778 259 3889 4409 rc
/c11 { 0.000000 0.500000 1.000000 sr} bdef
c11
648 0 648 -32 648 -134 648 -181 648 -39 129 18 33 -49 32 -223 
32 -431 33 -580 32 -596 33 -463 32 -355 32 -146 778 4016 15 MP stroke
gr

c11
gs 705 732 3775 3358 rc
0 j
0 -58 -58 0 0 58 58 0 749 3987 5 MP
gs
PP
gr
DP
0 -58 -58 0 0 58 58 0 781 3841 5 MP
gs
PP
gr
DP
0 -58 -58 0 0 58 58 0 813 3486 5 MP
gs
PP
gr
DP
0 -58 -58 0 0 58 58 0 846 3023 5 MP
gs
PP
gr
DP
0 -58 -58 0 0 58 58 0 878 2427 5 MP
gs
PP
gr
DP
0 -58 -58 0 0 58 58 0 911 1847 5 MP
gs
PP
gr
DP
0 -58 -58 0 0 58 58 0 943 1416 5 MP
gs
PP
gr
DP
0 -58 -58 0 0 58 58 0 975 1193 5 MP
gs
PP
gr
DP
0 -58 -58 0 0 58 58 0 1008 1144 5 MP
gs
PP
gr
DP
0 -58 -58 0 0 58 58 0 1137 1162 5 MP
gs
PP
gr
DP
0 -58 -58 0 0 58 58 0 1785 1123 5 MP
gs
PP
gr
DP
0 -58 -58 0 0 58 58 0 2433 942 5 MP
gs
PP
gr
DP
0 -58 -58 0 0 58 58 0 3081 808 5 MP
gs
PP
gr
DP
0 -58 -58 0 0 58 58 0 3729 776 5 MP
gs
PP
gr
DP
0 -58 -58 0 0 58 58 0 4377 776 5 MP
gs
PP
gr
DP
gr

gs 778 259 3889 4409 rc
gr

0 sg
4303  530 mt 
(c = 0.5) s
1166  508 mt 
(tau) s
%%IncludeResource: font Helvetica
/Helvetica /ISOLatin1Encoding 96 FMSR

1332  568 mt 
(arp) s
%%IncludeResource: font Helvetica
/Helvetica /ISOLatin1Encoding 120 FMSR

1473  508 mt 
( = 2 ms) s
%%IncludeResource: font Symbol
/Symbol /ISOLatin1Encoding 120 FMSR

2516 4999 mt 
(D) s
%%IncludeResource: font Helvetica
/Helvetica /ISOLatin1Encoding 120 FMSR

2589 4999 mt 
( t \(ms\)) s
 451 2961 mt  -90 rotate
(Current correlation) s
90 rotate
 761 4710 mt 
( ) s
4650  301 mt 
( ) s
6 w
3746 4117 mt 
(nu = 0.765 Hz) s
gs 3285 3982 1323 627 rc
12 w
c8
354 0 3355 4074 2 MP stroke
gs 3459 4001 147 147 rc
0 j
0 -58 -58 0 0 58 58 0 3503 4045 5 MP
gs
PP
gr
DP
gr

gr

12 w
c8
0 sg
3746 4264 mt 
(nu = 5.03 Hz) s
gs 3285 3982 1323 627 rc
c9
354 0 3355 4221 2 MP stroke
gs 3459 4148 147 147 rc
0 j
0 -58 -58 0 0 58 58 0 3503 4192 5 MP
gs
PP
gr
DP
gr

gr

c9
0 sg
3746 4411 mt 
(nu = 10.085 Hz) s
gs 3285 3982 1323 627 rc
c10
354 0 3355 4368 2 MP stroke
gs 3459 4295 147 147 rc
0 j
0 -58 -58 0 0 58 58 0 3503 4339 5 MP
gs
PP
gr
DP
gr

gr

c10
0 sg
3746 4558 mt 
(nu = 20.11 Hz) s
gs 3285 3982 1323 627 rc
c11
354 0 3355 4515 2 MP stroke
gs 3459 4442 147 147 rc
0 j
0 -58 -58 0 0 58 58 0 3503 4486 5 MP
gs
PP
gr
DP
gr

6 w
gr

6 w
c11
gs 5054 259 2490 4409 rc
0 sg
0 -2808 2 -2 1 -3 2 -5 1 -3 2 -3 1 -2 2 -3 
1 -1 2 0 2 0 1 -1 2 -1 1 0 2 -1 1 -1 
2 -1 1 -3 2 -3 1 -3 2 -3 1 -1 2 -1 1 -1 
2 -2 1 -2 2 -2 1 -1 2 -2 1 -1 2 -1 1 -1 
2 -1 1 -1 2 -1 2 0 1 0 2 -2 1 -2 2 -3 
1 -2 2 -3 1 -2 2 -3 1 -3 2 -4 1 -5 2 -4 
1 -4 2 -5 1 -3 2 -4 1 -3 2 -3 1 -3 2 -3 
1 -3 2 -3 1 -2 2 -3 2 -2 1 -4 2 -4 1 -6 
2 -5 1 -5 2 -5 1 -4 2 -3 1 -4 2 -3 1 -3 
2 -3 1 -3 2 -1 1 -2 2 -1 1 0 2 0 1 1 
2 0 1 0 2 0 1 0 2 0 1 0 2 0 2 0 
1 -1 2 -2 1 -3 2 -3 1 -2 2 -2 1 1 2 0 
1 0 2 1 1 1 2 1 1 1 2 4 1 3 2 3 
1 2 2 1 1 1 2 1 1 0 2 2 1 0 2 1 
2 -1 1 -2 2 0 1 -1 2 -2 1 -2 2 -2 1 -1 
2 -2 1 0 2 -1 1 0 2 1 1 0 2 0 1 1 
2 1 1 1 2 2 1 1 2 1 1 2 2 2 1 2 
2 1 2 0 1 0 2 -1 1 -1 2 -2 1 -2 2 -1 
1 -1 2 -1 1 -1 2 -2 1 -2 2 -3 1 -3 2 -4 
1 -4 2 -3 1 -4 2 -3 1 -4 2 -4 1 -3 2 -2 
1 -2 2 -3 1 -3 2 -3 2 -4 1 -4 2 -3 1 -3 
2 -4 1 -3 2 -5 1 -4 2 -2 1 -2 2 -3 1 -3 
2 -3 1 -2 2 -3 1 -3 2 -3 1 -5 2 -6 1 -3 
2 -4 1 -2 2 -3 1 -1 2 -1 2 -1 1 1 2 0 
1 0 2 1 1 1 2 1 1 1 2 0 1 0 2 -1 
1 0 2 1 1 1 2 2 1 1 2 2 1 2 2 4 
1 2 2 2 1 2 2 2 1 3 2 3 2 3 1 3 
2 3 1 2 2 2 1 2 2 2 1 1 2 1 1 1 
2 0 1 -1 2 -1 1 -1 2 -3 1 -3 2 -4 1 -3 
2 -4 1 -4 2 -4 1 -4 2 -4 1 -4 2 -3 2 -3 
1 -3 2 -3 1 -3 2 -3 1 -4 2 -5 1 -4 2 -3 
1 -3 2 -4 1 -3 2 -4 1 -4 2 -4 1 -5 2 -4 
1 -5 2 -4 1 -6 2 -5 1 -5 2 -3 1 -3 2 -3 
1 -3 2 -4 2 -5 1 -3 2 -4 1 -5 2 -5 1 -4 
2 -4 1 -7 2 -6 1 -6 2 -7 1 -7 2 -7 1 -8 
2 -7 1 -8 2 -7 1 -7 2 -6 1 -6 2 -6 1 -7 
2 -7 1 -6 2 -7 2 -6 1 -6 2 -5 1 -7 2 -7 
1 -6 2 -6 1 -5 5236 3679 300 MP stroke
2 -5 1 -4 2 -4 1 -5 2 -5 1 -5 2 -6 1 -5 
2 -5 1 -4 2 -3 1 -4 2 -3 1 -2 2 -2 1 0 
2 -2 2 -2 1 -2 2 0 1 0 2 0 1 -2 2 -2 
1 -2 2 -2 1 -2 2 -3 1 -2 2 -1 1 -1 2 0 
1 -1 2 1 1 1 2 0 1 1 2 2 1 2 2 4 
1 3 2 2 1 2 2 3 2 1 1 2 2 1 1 2 
2 0 1 1 2 0 1 -1 2 -1 1 0 2 -1 1 2 
2 2 1 1 2 0 1 1 2 -1 1 -1 2 -1 1 -1 
2 -3 1 -2 2 -1 1 -1 2 -2 2 -2 1 -2 2 0 
1 -1 2 -2 1 -2 2 -2 1 -2 2 -4 1 -2 2 -2 
1 -2 2 -2 1 -2 2 -1 1 0 2 -1 1 0 2 -1 
1 -1 2 1 1 0 2 -1 1 -1 2 -3 2 -2 1 -2 
2 -2 1 -1 2 -3 1 -1 5084 3793 101 MP stroke
1 0 2 0 1 0 2 -1 1 -2 2 -3 2 -2 1 -3 
2 -3 1 -4 2 -4 1 -6 2 -6 1 -7 2 -6 1 -6 
2 -6 1 -5 2 -6 1 -5 2 -5 1 -4 2 -4 1 -2 
2 -2 1 -1 2 -1 1 -1 2 -1 1 -1 2 -1 2 -1 
1 -3 2 -2 1 -2 2 -1 1 -2 2 -2 1 -2 2 -1 
1 -1 2 0 1 -1 2 -1 1 -1 2 -2 1 0 2 -2 
1 0 2 -1 1 1 2 0 1 0 2 -1 1 0 2 0 
2 1 1 0 2 2 1 2 2 2 1 2 2 1 1 1 
2 1 1 2 2 3 1 3 2 4 1 4 2 3 1 2 
2 1 1 2 2 2 1 2 2 1 1 0 2 1 1 1 
2 0 1 0 2 1 2 1 1 1 2 1 1 2 2 1 
1 1 2 0 1 2 2 2 1 2 2 2 1 3 2 3 
1 1 2 1 1 1 2 2 1 1 2 2 1 1 2 1 
1 2 2 2 1 2 2 3 2 3 1 2 2 3 1 2 
2 3 1 3 2 2 1 1 2 3 1 2 2 2 1 3 
2 3 1 4 2 2 1 3 2 2 1 2 2 2 1 3 
2 3 1 3 2 3 1 3 2 3 2 3 1 3 2 3 
1 3 2 2 1 2 2 2 1 3 2 2 1 3 2 3 
1 3 2 2 1 4 2 5 1 4 2 6 1 6 2 5 
1 6 2 5 1 7 2 5 1 6 2 6 1 5 2 6 
2 6 1 6 2 6 1 5 2 6 1 6 2 5 1 5 
2 5 1 4 2 6 1 5 2 6 1 6 2 7 1 6 
2 6 1 7 2 6 1 6 2 5 1 6 2 6 1 4 
2 4 2 5 1 5 2 5 1 6 2 7 1 6 2 7 
1 5 2 7 1 6 2 5 1 7 2 6 1 6 2 5 
1 5 2 5 1 6 2 6 1 6 2 7 1 6 2 7 
1 7 2 7 2 7 1 8 2 8 1 8 2 8 1 6 
2 8 1 6 2 6 1 7 2 7 1 6 2 6 1 7 
2 6 1 7 2 8 1 9 2 10 1 10 2 10 1 9 
2 9 1 8 2 8 2 7 1 7 2 7 1 6 2 5 
1 5 2 6 1 6 2 4 1 5 2 5 1 5 2 5 
1 2 2 3 1 2 2 2 1 1 2 2 1 1 2 0 
1 -1 2 0 1 -1 2 0 1 0 2 -1 2 -2 1 -2 
2 -2 1 -4 2 -4 1 -3 2 -5 1 -5 2 -6 1 -5 
2 -5 1 -4 2 -3 1 -3 2 -3 1 -5 2 -5 1 -4 
2 -4 1 -3 2 -3 1 -3 2 -3 1 -5 2 -6 2 -4 
1 -5 2 -5 1 -5 2 -6 1 -7 2 -6 1 -6 2 -6 
1 -8 2 -7 1 -8 7058 3246 300 MP stroke
2 -8 1 -9 2 -8 1 -9 2 -9 1 -8 2 -8 1 -10 
2 -9 1 -8 2 -7 1 -7 2 -7 2 -5 1 -6 2 -5 
1 -5 2 -5 1 -5 2 -3 1 -4 2 -4 1 -3 2 -1 
1 -3 2 -1 1 -3 2 -2 1 -2 2 -2 1 -1 2 -1 
1 -1 2 -1 1 -2 2 -2 1 -2 2 -3 1 -2 2 -3 
2 -2 1 -2 2 -4 1 -3 2 -3 1 -4 2 -3 1 -2 
2 -3 1 -2 2 -3 1 -3 2 -2 1 -2 2 -1 1 -1 
2 -3 1 -3 2 -2 1 -3 2 -3 1 -3 2 -2 1 -1 
2 0 2 -1 1 0 2 -1 1 -1 2 1 1 2 2 2 
1 2 2 3 1 1 2 2 1 2 2 1 1 2 2 1 
1 1 2 0 1 0 2 1 1 0 2 0 1 0 2 0 
1 1 2 -1 2 -2 1 -2 2 -4 1 -4 2 -5 1 -6 
2 -8 1 -7 2 -7 1 -6 2 -6 1 -6 2 -6 1 -7 
2 -5 1 -7 2 -7 1 -7 2 -7 1 -7 2 -8 1 -7 
2 -6 1 -7 2 -6 1 -5 2 -6 2 -4 1 -6 2 -5 
1 -6 2 -7 1 -5 2 -7 1 -8 2 -7 1 -8 2 -6 
1 -7 2 -6 1 -6 2 -6 1 -7 2 -6 1 -6 2 -6 
1 -6 2 -6 1 -6 2 -6 1 -7 2 -6 2 -6 1 -6 
2 -5 1 -5 2 -6 1 -6 2 -4 1 -3 2 -3 1 -2 
2 -2 1 -3 2 -2 1 -2 2 -3 1 -4 2 -2 1 -3 
2 -4 1 -4 2 -3 1 -2 2 -2 1 -2 2 -1 2 0 
1 -1 2 -2 1 0 2 -1 1 1 2 1 1 1 2 0 
1 0 2 -2 1 0 2 0 1 -1 2 0 1 -1 2 -2 
1 -1 2 -2 1 -1 2 0 1 1 2 0 1 -1 2 -2 
2 -2 1 -2 2 -1 1 -1 2 0 1 -1 2 0 1 0 
2 -1 1 -1 2 0 1 -1 2 1 1 0 2 1 1 1 
2 0 1 2 2 1 1 1 2 2 1 2 2 2 1 2 
2 3 1 2 2 2 2 1 1 1 2 2 1 1 2 1 
1 2 2 1 1 0 2 2 1 1 2 1 1 1 2 0 
1 0 2 -1 1 0 2 1 1 1 2 0 1 1 2 0 
1 1 2 2 1 1 2 0 2 -1 1 -1 2 -1 1 -2 
2 -1 1 -1 2 -1 1 -1 2 0 1 -2 2 -2 1 -2 
2 -4 1 -3 2 -4 1 -5 2 -5 1 -2 2 -2 1 -1 
2 -1 1 0 2 0 1 0 2 0 2 0 1 0 2 0 
1 0 2 1 1 1 2 1 1 2 2 1 1 1 2 0 
1 0 2 2 1 2 2 3 1 2 2 2 1 1 2 2 
1 2 2 3 1 3 2 4 1 3 2 3 1 3 2 3 
2 3 1 3 2 2 6603 3844 300 MP stroke
1 2 2 3 1 3 2 3 1 1 2 1 1 0 2 0 
1 1 2 1 1 1 2 1 1 2 2 0 1 -1 2 0 
1 1 2 2 1 2 2 4 1 3 2 4 2 3 1 2 
2 5 1 4 2 4 1 4 2 3 1 4 2 3 1 2 
2 1 1 2 2 1 1 2 2 0 1 1 2 0 1 -1 
2 0 1 0 2 -1 1 -1 2 -1 1 0 2 1 2 0 
1 -1 2 -1 1 0 2 -1 1 0 2 1 1 1 2 -1 
1 0 2 0 1 1 2 0 1 -1 2 1 1 1 2 2 
1 3 2 1 1 -1 2 0 1 1 2 2 1 2 2 3 
1 3 2 2 2 2 1 0 2 1 1 1 2 1 1 1 
2 2 1 1 2 1 1 1 2 -1 1 0 2 0 1 0 
2 1 1 0 2 1 1 -1 2 -1 1 -1 2 -2 1 0 
2 0 1 -1 2 -1 2 -1 1 0 2 0 1 0 2 -1 
1 -1 2 0 1 -1 2 -1 1 -1 2 -2 1 -2 2 -2 
1 -2 2 -2 1 -3 2 -3 1 -3 2 -2 1 -1 2 -2 
1 -2 2 -3 1 -3 2 -2 2 -3 1 -2 2 -3 1 -2 
2 -2 1 -5 2 -4 1 -4 2 -6 1 -5 2 -4 1 -5 
2 -5 1 -5 2 -6 1 -7 2 -6 1 -6 2 -6 1 -6 
2 -6 1 -5 2 -5 1 -5 2 -5 2 -5 1 -5 2 -6 
1 -4 2 -5 1 -5 2 -6 1 -5 2 -4 1 -6 2 -6 
1 -6 2 -5 1 -4 2 -5 1 -5 2 -5 1 -4 2 -3 
1 -3 2 -3 1 -3 2 -3 1 -1 2 -1 1 -1 2 -2 
2 -2 1 -2 2 -2 1 -1 2 -1 1 -1 2 -1 1 0 
2 0 1 0 2 0 1 -1 2 -1 1 1 2 1 1 1 
2 0 1 -1 2 -1 1 0 2 0 1 0 2 0 1 1 
2 -1 2 1 1 0 2 -1 1 0 2 0 1 -2 2 -3 
1 -3 2 -5 1 -5 2 -4 1 -6 2 -5 1 -4 2 -5 
1 -3 2 -3 1 -4 2 -3 1 -3 2 -2 1 -3 2 -4 
1 -4 2 -5 2 -5 1 -4 2 -4 1 -3 2 -3 1 -2 
2 -2 1 -2 2 -2 1 -3 2 -3 1 -2 2 -3 1 -2 
2 -2 1 -1 2 -2 1 -1 2 -1 1 0 2 0 1 0 
2 -2 1 1 2 0 1 0 2 -1 2 0 1 0 2 -1 
1 1 2 0 1 2 2 3 1 3 2 3 1 3 2 3 
1 2 2 3 1 3 2 5 1 3 2 4 1 4 2 3 
1 4 2 2 1 3 2 4 1 3 2 4 2 4 1 2 
2 3 1 3 2 4 1 4 2 4 1 4 2 4 1 3 
2 4 1 3 2 3 1 2 2 3 1 3 2 3 1 2 
2 2 1 2 2 2 6149 4026 300 MP stroke
1 2 2 2 1 2 2 1 2 0 1 0 2 0 1 -2 
2 -1 1 -1 2 0 1 -1 2 -1 1 -2 2 -2 1 -2 
2 -1 1 -2 2 -2 1 -2 2 -2 1 -2 2 -2 1 -2 
2 -2 1 -4 2 -3 1 -3 2 -2 2 -2 1 -2 2 -1 
1 -1 2 -1 1 -1 2 -1 1 -1 2 0 1 1 2 2 
1 2 2 0 1 1 2 2 1 0 2 0 1 1 2 -1 
1 -1 2 -1 1 -2 2 -2 1 -2 2 -2 1 -3 2 -4 
2 -5 1 -5 2 -3 1 -4 2 -4 1 -4 2 -4 1 -6 
2 -5 1 -5 2 -6 1 -6 2 -7 1 -9 2 -8 1 -7 
2 -8 1 -6 2 -8 1 -7 2 -7 1 -8 2 -7 1 -8 
2 -9 2 -8 1 -8 2 -7 1 -8 2 -6 1 -7 2 -7 
1 -7 2 -7 1 -6 2 -7 1 -6 2 -5 1 -6 2 -7 
1 -5 2 -5 1 -5 2 -5 1 -5 2 -5 1 -4 2 -4 
1 -5 2 -3 2 -4 1 -4 2 -4 1 -4 2 -3 1 -3 
2 -4 1 -3 2 -2 1 -1 2 -2 1 -1 2 -4 1 -3 
2 -4 1 -5 2 -4 1 -4 2 -5 1 -5 2 -4 1 -3 
2 -2 1 -1 2 -2 1 -2 2 -3 2 -3 1 -2 2 -3 
1 -4 2 -4 1 -3 2 -4 1 -5 2 -4 1 -5 2 -4 
1 -4 2 -3 1 -4 2 -5 1 -6 2 -7 1 -6 2 -6 
1 -6 2 -5 1 -5 2 -5 1 -5 2 -3 2 -3 1 -3 
2 -3 1 -4 2 -4 1 -4 2 -4 1 -3 2 -4 1 -5 
2 -4 1 -4 2 -3 1 -2 2 -3 1 -2 2 -2 1 -2 
2 -2 1 -1 2 -1 1 -3 2 -3 1 -3 2 -2 2 -3 
1 -3 2 -2 1 -1 2 -1 1 -1 2 -1 1 -1 2 1 
1 0 2 1 1 2 2 3 1 3 2 3 1 4 2 3 
1 4 2 3 1 3 2 3 1 5 2 4 1 5 2 6 
1 4 2 3 2 4 1 3 2 2 1 0 2 1 1 1 
2 1 1 1 2 1 1 3 2 4 1 3 2 2 1 4 
2 3 1 5 2 4 1 6 2 7 1 6 2 7 1 7 
2 8 1 6 2 7 2 7 1 8 2 7 1 7 2 7 
1 7 2 7 1 7 2 8 1 9 2 10 1 9 2 10 
1 9 2 8 1 8 2 7 1 5 2 7 1 7 2 7 
1 6 2 7 1 7 2 8 2 8 1 9 2 505 1 506 
2 506 1 506 2 506 1 506 2 506 1 505 5739 259 271 MP stroke
0 -1349 5084 2956 2 MP stroke
gr

0 sg
%%IncludeResource: font Helvetica
/Helvetica /ISOLatin1Encoding 108 FMSR

4999 2408 mt  -90 rotate
(5 mV) s
90 rotate
gs 5054 259 2490 4409 rc
608 0 5084 4667 2 MP stroke
gr

5241 4982 mt 
(20 ms) s
gs 6221 259 1167 1816 rc
1 -982 9 -1 8 -1 9 -1 8 -2 9 -1 8 -1 9 0 
8 -1 8 0 9 0 8 0 9 0 8 -1 9 0 8 0 
9 -1 8 -1 9 -1 8 -1 8 -1 9 0 8 0 9 -1 
8 0 9 -1 8 -1 9 0 8 -1 8 0 9 -1 8 0 
9 0 8 -1 9 0 8 0 9 0 8 -1 8 -1 6221 1263 40 MP stroke
9 1 8 1 9 2 8 2 9 2 8 1 9 1 8 1 
9 2 8 0 8 0 9 1 8 0 9 0 8 1 9 0 
8 1 9 1 8 1 8 1 9 2 8 1 9 1 8 2 
9 2 8 2 9 3 8 2 9 3 8 2 8 2 9 3 
8 2 9 3 8 2 9 3 8 2 9 3 8 2 8 3 
9 2 8 4 9 3 8 3 9 4 8 3 9 3 8 2 
9 3 8 2 8 2 9 3 8 2 9 2 8 3 9 2 
8 3 9 3 8 3 8 177 9 177 8 177 9 177 8 177 
9 177 8 177 9 176 6820 259 68 MP stroke
0 -472 7387 1202 2 MP stroke
gr

7317 1092 mt  -90 rotate
(5 mV) s
90 rotate
gs 6221 259 1167 1816 rc
338 0 6550 1979 2 MP stroke
gr

6602 2155 mt 
(2 ms) s

end %%Color Dict

eplot
%%EndObject

epage
end

showpage

%%Trailer
%%EOF
