%!PS-Adobe-3.0 EPSF-3.0
%%Creator: MATLAB, The MathWorks, Inc. Version 8.0.0.783 (R2012b). Operating System: Darwin 10.8.0 Darwin Kernel Version 10.8.0: Tue Jun  7 16:33:36 PDT 2011; root:xnu-1504.15.3~1/RELEASE_I386 i386.
%%Title: ./current_correlations_IFeta_tarp_2_ms_L_100_s.eps
%%CreationDate: 07/11/2014  12:20:50
%%DocumentNeededFonts: Helvetica
%%DocumentProcessColors: Cyan Magenta Yellow Black
%%LanguageLevel: 2
%%Pages: 1
%%BoundingBox:    26    10   630   422
%%EndComments

%%BeginProlog
% MathWorks dictionary
/MathWorks 160 dict begin
% definition operators
/bdef {bind def} bind def
/ldef {load def} bind def
/xdef {exch def} bdef
/xstore {exch store} bdef
% operator abbreviations
/c  /clip ldef
/cc /concat ldef
/cp /closepath ldef
/gr /grestore ldef
/gs /gsave ldef
/mt /moveto ldef
/np /newpath ldef
/cm /currentmatrix ldef
/sm /setmatrix ldef
/rm /rmoveto ldef
/rl /rlineto ldef
/s {show newpath} bdef
/sc {setcmykcolor} bdef
/sr /setrgbcolor ldef
/sg /setgray ldef
/w /setlinewidth ldef
/j /setlinejoin ldef
/cap /setlinecap ldef
/rc {rectclip} bdef
/rf {rectfill} bdef
% page state control
/pgsv () def
/bpage {/pgsv save def} bdef
/epage {pgsv restore} bdef
/bplot /gsave ldef
/eplot {stroke grestore} bdef
% orientation switch
/portraitMode 0 def /landscapeMode 1 def /rotateMode 2 def
% coordinate system mappings
/dpi2point 0 def
% font control
/FontSize 0 def
/FMS {/FontSize xstore findfont [FontSize 0 0 FontSize neg 0 0]
  makefont setfont} bdef
/reencode {exch dup where {pop load} {pop StandardEncoding} ifelse
  exch dup 3 1 roll findfont dup length dict begin
  { 1 index /FID ne {def}{pop pop} ifelse } forall
  /Encoding exch def currentdict end definefont pop} bdef
/isroman {findfont /CharStrings get /Agrave known} bdef
/FMSR {3 1 roll 1 index dup isroman {reencode} {pop pop} ifelse
  exch FMS} bdef
/csm {1 dpi2point div -1 dpi2point div scale neg translate
 dup landscapeMode eq {pop -90 rotate}
  {rotateMode eq {90 rotate} if} ifelse} bdef
% line types: solid, dotted, dashed, dotdash
/SO { [] 0 setdash } bdef
/DO { [.5 dpi2point mul 4 dpi2point mul] 0 setdash } bdef
/DA { [6 dpi2point mul] 0 setdash } bdef
/DD { [.5 dpi2point mul 4 dpi2point mul 6 dpi2point mul 4
  dpi2point mul] 0 setdash } bdef
% macros for lines and objects
/L {lineto stroke} bdef
/MP {3 1 roll moveto 1 sub {rlineto} repeat} bdef
/AP {{rlineto} repeat} bdef
/PDlw -1 def
/W {/PDlw currentlinewidth def setlinewidth} def
/PP {closepath eofill} bdef
/DP {closepath stroke} bdef
/MR {4 -2 roll moveto dup  0 exch rlineto exch 0 rlineto
  neg 0 exch rlineto closepath} bdef
/FR {MR stroke} bdef
/PR {MR fill} bdef
/L1i {{currentfile picstr readhexstring pop} image} bdef
/tMatrix matrix def
/MakeOval {newpath tMatrix currentmatrix pop translate scale
0 0 1 0 360 arc tMatrix setmatrix} bdef
/FO {MakeOval stroke} bdef
/PO {MakeOval fill} bdef
/PD {currentlinewidth 2 div 0 360 arc fill
   PDlw -1 eq not {PDlw w /PDlw -1 def} if} def
/FA {newpath tMatrix currentmatrix pop translate scale
  0 0 1 5 -2 roll arc tMatrix setmatrix stroke} bdef
/PA {newpath tMatrix currentmatrix pop	translate 0 0 moveto scale
  0 0 1 5 -2 roll arc closepath tMatrix setmatrix fill} bdef
/FAn {newpath tMatrix currentmatrix pop translate scale
  0 0 1 5 -2 roll arcn tMatrix setmatrix stroke} bdef
/PAn {newpath tMatrix currentmatrix pop translate 0 0 moveto scale
  0 0 1 5 -2 roll arcn closepath tMatrix setmatrix fill} bdef
/vradius 0 def /hradius 0 def /lry 0 def
/lrx 0 def /uly 0 def /ulx 0 def /rad 0 def
/MRR {/vradius xdef /hradius xdef /lry xdef /lrx xdef /uly xdef
  /ulx xdef newpath tMatrix currentmatrix pop ulx hradius add uly
  vradius add translate hradius vradius scale 0 0 1 180 270 arc 
  tMatrix setmatrix lrx hradius sub uly vradius add translate
  hradius vradius scale 0 0 1 270 360 arc tMatrix setmatrix
  lrx hradius sub lry vradius sub translate hradius vradius scale
  0 0 1 0 90 arc tMatrix setmatrix ulx hradius add lry vradius sub
  translate hradius vradius scale 0 0 1 90 180 arc tMatrix setmatrix
  closepath} bdef
/FRR {MRR stroke } bdef
/PRR {MRR fill } bdef
/MlrRR {/lry xdef /lrx xdef /uly xdef /ulx xdef /rad lry uly sub 2 div def
  newpath tMatrix currentmatrix pop ulx rad add uly rad add translate
  rad rad scale 0 0 1 90 270 arc tMatrix setmatrix lrx rad sub lry rad
  sub translate rad rad scale 0 0 1 270 90 arc tMatrix setmatrix
  closepath} bdef
/FlrRR {MlrRR stroke } bdef
/PlrRR {MlrRR fill } bdef
/MtbRR {/lry xdef /lrx xdef /uly xdef /ulx xdef /rad lrx ulx sub 2 div def
  newpath tMatrix currentmatrix pop ulx rad add uly rad add translate
  rad rad scale 0 0 1 180 360 arc tMatrix setmatrix lrx rad sub lry rad
  sub translate rad rad scale 0 0 1 0 180 arc tMatrix setmatrix
  closepath} bdef
/FtbRR {MtbRR stroke } bdef
/PtbRR {MtbRR fill } bdef
/stri 6 array def /dtri 6 array def
/smat 6 array def /dmat 6 array def
/tmat1 6 array def /tmat2 6 array def /dif 3 array def
/asub {/ind2 exch def /ind1 exch def dup dup
  ind1 get exch ind2 get sub exch } bdef
/tri_to_matrix {
  2 0 asub 3 1 asub 4 0 asub 5 1 asub
  dup 0 get exch 1 get 7 -1 roll astore } bdef
/compute_transform {
  dmat dtri tri_to_matrix tmat1 invertmatrix 
  smat stri tri_to_matrix tmat2 concatmatrix } bdef
/ds {stri astore pop} bdef
/dt {dtri astore pop} bdef
/db {2 copy /cols xdef /rows xdef mul dup 3 mul string
  currentfile 
  3 index 0 eq {/ASCIIHexDecode filter}
  {/ASCII85Decode filter 3 index 2 eq {/RunLengthDecode filter} if }
  ifelse exch readstring pop
  dup 0 3 index getinterval /rbmap xdef
  dup 2 index dup getinterval /gbmap xdef
  1 index dup 2 mul exch getinterval /bbmap xdef pop pop}bdef
/it {gs np dtri aload pop moveto lineto lineto cp c
  cols rows 8 compute_transform 
  rbmap gbmap bbmap true 3 colorimage gr}bdef
/il {newpath moveto lineto stroke}bdef
currentdict end def
%%EndProlog

%%BeginSetup
MathWorks begin

0 cap

end
%%EndSetup

%%Page: 1 1
%%BeginPageSetup
%%PageBoundingBox:    26    10   630   422
MathWorks begin
bpage
%%EndPageSetup

%%BeginObject: obj1
bplot

/dpi2point 12 def
portraitMode 0000 5184 csm

  315   117  7252  4945 rc
91 dict begin %Colortable dictionary
/c0 { 0.000000 0.000000 0.000000 sr} bdef
/c1 { 1.000000 1.000000 1.000000 sr} bdef
/c2 { 0.900000 0.000000 0.000000 sr} bdef
/c3 { 0.000000 0.820000 0.000000 sr} bdef
/c4 { 0.000000 0.000000 0.800000 sr} bdef
/c5 { 0.910000 0.820000 0.320000 sr} bdef
/c6 { 1.000000 0.260000 0.820000 sr} bdef
/c7 { 0.000000 0.820000 0.820000 sr} bdef
c0
1 j
1 sg
   0    0 7783 5190 rf
6 w
0 4411 3891 0 0 -4411 778 4670 4 MP
PP
-3891 0 0 4411 3891 0 0 -4411 778 4670 5 MP stroke
4 w
DO
SO
6 w
0 sg
 778 4670 mt 4669 4670 L
 778 4670 mt  778  259 L
 778 4670 mt  778 4714 L
%%IncludeResource: font Helvetica
/Helvetica /ISOLatin1Encoding 120 FMSR

 745 4859 mt 
(0) s
1556 4670 mt 1556 4714 L
1523 4859 mt 
(2) s
2334 4670 mt 2334 4714 L
2301 4859 mt 
(4) s
3112 4670 mt 3112 4714 L
3079 4859 mt 
(6) s
3890 4670 mt 3890 4714 L
3857 4859 mt 
(8) s
4669 4670 mt 4669 4714 L
4603 4859 mt 
(10) s
 778 4670 mt  733 4670 L
 633 4714 mt 
(0) s
 778 3868 mt  733 3868 L
 533 3912 mt 
(0.1) s
 778 3066 mt  733 3066 L
 533 3110 mt 
(0.2) s
 778 2264 mt  733 2264 L
 533 2308 mt 
(0.3) s
 778 1462 mt  733 1462 L
 533 1506 mt 
(0.4) s
 778  660 mt  733  660 L
 533  704 mt 
(0.5) s
gs 778 259 3892 4412 rc
DA
24 w
0.3 sg
3891 0 778 660 2 MP stroke
SO
0.75 sg
0 -4411 1556 4670 2 MP stroke
12 w
/c8 { 1.000000 0.500000 0.000000 sr} bdef
c8
196 -1 389 -2 389 -2 389 -5 389 -6 390 -7 389 -7 389 -6 
194 -4 78 -7 78 -51 78 -133 78 -237 77 -318 78 -394 78 -420 
78 -407 78 -353 77 -297 778 3320 20 MP stroke
gr

12 w
c8
0 j
0 -58 -58 0 0 58 58 0 749 3291 5 MP
gs
PP
gr
DP
0 -58 -58 0 0 58 58 0 826 2994 5 MP
gs
PP
gr
DP
0 -58 -58 0 0 58 58 0 904 2641 5 MP
gs
PP
gr
DP
0 -58 -58 0 0 58 58 0 982 2234 5 MP
gs
PP
gr
DP
0 -58 -58 0 0 58 58 0 1060 1814 5 MP
gs
PP
gr
DP
0 -58 -58 0 0 58 58 0 1138 1420 5 MP
gs
PP
gr
DP
0 -58 -58 0 0 58 58 0 1215 1102 5 MP
gs
PP
gr
DP
0 -58 -58 0 0 58 58 0 1293 865 5 MP
gs
PP
gr
DP
0 -58 -58 0 0 58 58 0 1371 732 5 MP
gs
PP
gr
DP
0 -58 -58 0 0 58 58 0 1449 681 5 MP
gs
PP
gr
DP
0 -58 -58 0 0 58 58 0 1527 674 5 MP
gs
PP
gr
DP
0 -58 -58 0 0 58 58 0 1721 670 5 MP
gs
PP
gr
DP
0 -58 -58 0 0 58 58 0 2110 664 5 MP
gs
PP
gr
DP
0 -58 -58 0 0 58 58 0 2499 657 5 MP
gs
PP
gr
DP
0 -58 -58 0 0 58 58 0 2889 650 5 MP
gs
PP
gr
DP
0 -58 -58 0 0 58 58 0 3278 644 5 MP
gs
PP
gr
DP
0 -58 -58 0 0 58 58 0 3667 639 5 MP
gs
PP
gr
DP
0 -58 -58 0 0 58 58 0 4056 637 5 MP
gs
PP
gr
DP
0 -58 -58 0 0 58 58 0 4445 635 5 MP
gs
PP
gr
DP
gs 778 259 3892 4412 rc
/c9 { 0.000000 1.000000 0.500000 sr} bdef
c9
196 -3 389 -10 389 -10 389 -10 389 -13 390 -17 389 -20 389 -21 
194 -10 78 -8 78 -95 78 -255 78 -418 77 -494 78 -515 78 -453 
78 -363 78 -270 77 -192 778 3996 20 MP stroke
gr

c9
0 -58 -58 0 0 58 58 0 749 3967 5 MP
gs
PP
gr
DP
0 -58 -58 0 0 58 58 0 826 3775 5 MP
gs
PP
gr
DP
0 -58 -58 0 0 58 58 0 904 3505 5 MP
gs
PP
gr
DP
0 -58 -58 0 0 58 58 0 982 3142 5 MP
gs
PP
gr
DP
0 -58 -58 0 0 58 58 0 1060 2689 5 MP
gs
PP
gr
DP
0 -58 -58 0 0 58 58 0 1138 2174 5 MP
gs
PP
gr
DP
0 -58 -58 0 0 58 58 0 1215 1680 5 MP
gs
PP
gr
DP
0 -58 -58 0 0 58 58 0 1293 1262 5 MP
gs
PP
gr
DP
0 -58 -58 0 0 58 58 0 1371 1007 5 MP
gs
PP
gr
DP
0 -58 -58 0 0 58 58 0 1449 912 5 MP
gs
PP
gr
DP
0 -58 -58 0 0 58 58 0 1527 904 5 MP
gs
PP
gr
DP
0 -58 -58 0 0 58 58 0 1721 894 5 MP
gs
PP
gr
DP
0 -58 -58 0 0 58 58 0 2110 873 5 MP
gs
PP
gr
DP
0 -58 -58 0 0 58 58 0 2499 853 5 MP
gs
PP
gr
DP
0 -58 -58 0 0 58 58 0 2889 836 5 MP
gs
PP
gr
DP
0 -58 -58 0 0 58 58 0 3278 823 5 MP
gs
PP
gr
DP
0 -58 -58 0 0 58 58 0 3667 813 5 MP
gs
PP
gr
DP
0 -58 -58 0 0 58 58 0 4056 803 5 MP
gs
PP
gr
DP
0 -58 -58 0 0 58 58 0 4445 793 5 MP
gs
PP
gr
DP
gs 778 259 3892 4412 rc
/c10 { 1.000000 0.000000 0.500000 sr} bdef
c10
196 -4 389 -8 389 -11 389 -12 389 -21 390 -26 389 -30 389 -36 
194 -19 78 -11 78 -113 78 -315 78 -509 77 -566 78 -549 78 -447 
78 -332 78 -233 77 -161 778 4185 20 MP stroke
gr

c10
0 -58 -58 0 0 58 58 0 749 4156 5 MP
gs
PP
gr
DP
0 -58 -58 0 0 58 58 0 826 3995 5 MP
gs
PP
gr
DP
0 -58 -58 0 0 58 58 0 904 3762 5 MP
gs
PP
gr
DP
0 -58 -58 0 0 58 58 0 982 3430 5 MP
gs
PP
gr
DP
0 -58 -58 0 0 58 58 0 1060 2983 5 MP
gs
PP
gr
DP
0 -58 -58 0 0 58 58 0 1138 2434 5 MP
gs
PP
gr
DP
0 -58 -58 0 0 58 58 0 1215 1868 5 MP
gs
PP
gr
DP
0 -58 -58 0 0 58 58 0 1293 1359 5 MP
gs
PP
gr
DP
0 -58 -58 0 0 58 58 0 1371 1044 5 MP
gs
PP
gr
DP
0 -58 -58 0 0 58 58 0 1449 931 5 MP
gs
PP
gr
DP
0 -58 -58 0 0 58 58 0 1527 920 5 MP
gs
PP
gr
DP
0 -58 -58 0 0 58 58 0 1721 901 5 MP
gs
PP
gr
DP
0 -58 -58 0 0 58 58 0 2110 865 5 MP
gs
PP
gr
DP
0 -58 -58 0 0 58 58 0 2499 835 5 MP
gs
PP
gr
DP
0 -58 -58 0 0 58 58 0 2889 809 5 MP
gs
PP
gr
DP
0 -58 -58 0 0 58 58 0 3278 788 5 MP
gs
PP
gr
DP
0 -58 -58 0 0 58 58 0 3667 776 5 MP
gs
PP
gr
DP
0 -58 -58 0 0 58 58 0 4056 765 5 MP
gs
PP
gr
DP
0 -58 -58 0 0 58 58 0 4445 757 5 MP
gs
PP
gr
DP
gs 778 259 3892 4412 rc
/c11 { 0.000000 0.500000 1.000000 sr} bdef
c11
196 -7 389 -18 389 -25 389 -24 389 -22 390 -30 389 -35 389 -48 
194 -27 78 -4 78 -114 78 -328 78 -542 77 -596 78 -569 78 -454 
78 -334 78 -229 77 -153 778 4230 20 MP stroke
gr

c11
0 -58 -58 0 0 58 58 0 749 4201 5 MP
gs
PP
gr
DP
0 -58 -58 0 0 58 58 0 826 4048 5 MP
gs
PP
gr
DP
0 -58 -58 0 0 58 58 0 904 3819 5 MP
gs
PP
gr
DP
0 -58 -58 0 0 58 58 0 982 3485 5 MP
gs
PP
gr
DP
0 -58 -58 0 0 58 58 0 1060 3031 5 MP
gs
PP
gr
DP
0 -58 -58 0 0 58 58 0 1138 2462 5 MP
gs
PP
gr
DP
0 -58 -58 0 0 58 58 0 1215 1866 5 MP
gs
PP
gr
DP
0 -58 -58 0 0 58 58 0 1293 1324 5 MP
gs
PP
gr
DP
0 -58 -58 0 0 58 58 0 1371 996 5 MP
gs
PP
gr
DP
0 -58 -58 0 0 58 58 0 1449 882 5 MP
gs
PP
gr
DP
0 -58 -58 0 0 58 58 0 1527 878 5 MP
gs
PP
gr
DP
0 -58 -58 0 0 58 58 0 1721 851 5 MP
gs
PP
gr
DP
0 -58 -58 0 0 58 58 0 2110 803 5 MP
gs
PP
gr
DP
0 -58 -58 0 0 58 58 0 2499 768 5 MP
gs
PP
gr
DP
0 -58 -58 0 0 58 58 0 2889 738 5 MP
gs
PP
gr
DP
0 -58 -58 0 0 58 58 0 3278 716 5 MP
gs
PP
gr
DP
0 -58 -58 0 0 58 58 0 3667 692 5 MP
gs
PP
gr
DP
0 -58 -58 0 0 58 58 0 4056 667 5 MP
gs
PP
gr
DP
0 -58 -58 0 0 58 58 0 4445 649 5 MP
gs
PP
gr
DP
gs 778 259 3892 4412 rc
gr

0 sg
4306  530 mt 
(c = 0.5) s
1595  508 mt 
(tau) s
%%IncludeResource: font Helvetica
/Helvetica /ISOLatin1Encoding 96 FMSR

1761  568 mt 
(arp) s
%%IncludeResource: font Helvetica
/Helvetica /ISOLatin1Encoding 120 FMSR

1902  508 mt 
( = 2 ms) s
%%IncludeResource: font Symbol
/Symbol /ISOLatin1Encoding 120 FMSR

2517 5002 mt 
(D) s
%%IncludeResource: font Helvetica
/Helvetica /ISOLatin1Encoding 120 FMSR

2590 5002 mt 
( t \(ms\)) s
 451 2962 mt  -90 rotate
(Current correlation) s
90 rotate
 761 4713 mt 
( ) s
4653  301 mt 
( ) s
6 w
3729 4119 mt 
(nu = 2.375 Hz) s
gs 3288 3985 1323 627 rc
12 w
c8
339 0 3355 4076 2 MP stroke
gs 3452 4003 147 147 rc
0 -58 -58 0 0 58 58 0 3496 4047 5 MP
gs
PP
gr
DP
gr

gr

12 w
c8
0 sg
3729 4267 mt 
(nu = 7.725 Hz) s
gs 3288 3985 1323 627 rc
c9
339 0 3355 4224 2 MP stroke
gs 3452 4151 147 147 rc
0 -58 -58 0 0 58 58 0 3496 4195 5 MP
gs
PP
gr
DP
gr

gr

c9
0 sg
3729 4414 mt 
(nu = 13.635 Hz) s
gs 3288 3985 1323 627 rc
c10
339 0 3355 4371 2 MP stroke
gs 3452 4298 147 147 rc
0 -58 -58 0 0 58 58 0 3496 4342 5 MP
gs
PP
gr
DP
gr

gr

c10
0 sg
3729 4562 mt 
(nu = 23.445 Hz) s
gs 3288 3985 1323 627 rc
c11
339 0 3355 4519 2 MP stroke
gs 3452 4446 147 147 rc
0 -58 -58 0 0 58 58 0 3496 4490 5 MP
gs
PP
gr
DP
gr

6 w
gr

6 w
c11
gs 5058 259 2492 4412 rc
0 sg
0 -2315 1 4 2 1 1 1 2 1 1 1 2 0 1 1 
2 1 2 0 1 0 2 -2 1 -2 2 0 1 -1 2 0 
1 0 2 1 1 -1 2 -1 1 -1 2 0 1 0 2 0 
1 0 2 -2 1 -3 2 -2 1 -1 2 0 1 -1 2 0 
1 -1 2 -1 2 -2 1 -3 2 -2 1 -3 2 -3 1 -4 
2 -4 1 -5 2 -3 1 -4 2 -4 1 -1 2 -4 1 -2 
2 -3 1 -3 2 -2 1 -3 2 -3 1 -4 2 -3 1 -3 
2 -2 2 -4 1 -3 2 -4 1 -4 2 -2 1 -2 2 -2 
1 -2 2 -5 1 -4 2 -5 1 -5 2 -5 1 -6 2 -6 
1 -5 2 -6 1 -4 2 -5 1 -4 2 -4 1 -5 2 -6 
1 -6 2 -8 2 -8 1 -7 2 -6 1 -6 2 -7 1 -6 
2 -5 1 -4 2 -3 1 -3 2 -4 1 -5 2 -3 1 -5 
2 -5 1 -4 2 -3 1 -3 2 -2 1 -3 2 -2 1 -2 
2 -1 2 -1 1 0 2 0 1 -2 2 -1 1 -2 2 -2 
1 -2 2 -1 1 -1 2 0 1 0 2 0 1 1 2 0 
1 1 2 0 1 3 2 3 1 4 2 5 1 6 2 6 
1 6 2 5 2 5 1 6 2 6 1 5 2 7 1 5 
2 5 1 6 2 6 1 6 2 6 1 6 2 7 1 6 
2 7 1 5 2 5 1 6 2 6 1 5 2 4 1 3 
2 1 1 1 2 1 2 1 1 0 2 1 1 2 2 0 
1 0 2 -1 1 -2 2 -2 1 -1 2 -2 1 -3 2 -1 
1 -1 2 -1 1 -1 2 -1 1 -1 2 0 1 0 2 -3 
1 -1 2 -2 2 -3 1 -3 2 -4 1 -4 2 -4 1 -5 
2 -4 1 -4 2 -3 1 -3 2 -4 1 -3 2 -4 1 -3 
2 -4 1 -5 2 -3 1 -4 2 -4 1 -1 2 -3 1 -2 
2 -3 1 -3 2 -4 2 -4 1 -4 2 -4 1 -5 2 -6 
1 -6 2 -7 1 -6 2 -5 1 -5 2 -5 1 -5 2 -5 
1 -6 2 -6 1 -7 2 -5 1 -6 2 -5 1 -5 2 -4 
1 -3 2 -3 2 -2 1 1 2 1 1 0 2 0 1 -1 
2 -1 1 0 2 0 1 0 2 -1 1 -1 2 -2 1 -3 
2 -2 1 -4 2 -2 1 -3 2 -5 1 -5 2 -6 1 -5 
2 -4 1 -6 2 -4 2 -7 1 -7 2 -6 1 -5 2 -5 
1 -4 2 -4 1 -4 2 -3 1 -4 2 -4 1 -4 2 -3 
1 -4 2 -3 1 -2 2 -2 1 -3 2 -1 1 -2 2 -3 
1 -3 2 -3 2 -5 1 -4 2 -4 1 -5 2 -4 1 -5 
2 -4 1 -4 2 -5 1 -5 2 -5 1 -6 2 -6 1 -6 
2 -6 1 -6 2 -6 1 -6 2 -5 1 -6 2 -6 1 -6 
2 -6 1 -4 2 -6 5240 3202 300 MP stroke
2 -4 1 -5 2 -5 1 -6 2 -7 1 -7 2 -7 1 -8 
2 -10 1 -10 2 -9 1 -9 2 -7 1 -8 2 -7 1 -8 
2 -8 1 -6 2 -7 1 -7 2 -7 1 -6 2 -8 2 -7 
1 -6 2 -7 1 -7 2 -7 1 -8 2 -9 1 -6 2 -7 
1 -6 2 -7 1 -8 2 -7 1 -7 2 -7 1 -8 2 -8 
1 -9 2 -7 1 -6 2 -5 1 -6 2 -7 1 -7 2 -9 
2 -9 1 -8 2 -9 1 -9 2 -9 1 -8 2 -7 1 -8 
2 -7 1 -9 2 -7 1 -9 2 -8 1 -9 2 -9 1 -10 
2 -11 1 -9 2 -12 1 -12 2 -11 1 -11 2 -11 2 -10 
1 -9 2 -11 1 -10 2 -9 1 -11 2 -11 1 -11 2 -9 
1 -10 2 -10 1 -9 2 -9 1 -10 2 -9 1 -8 2 -10 
1 -12 2 -13 1 -13 2 -12 1 -11 2 -15 1 -14 2 -14 
2 -14 1 -14 2 -13 1 -15 5088 4084 101 MP stroke
1 1 2 1 1 0 2 -1 2 0 1 1 2 2 1 4 
2 4 1 3 2 5 1 4 2 3 1 4 2 4 1 3 
2 3 1 3 2 3 1 1 2 1 1 0 2 -2 1 -1 
2 -2 1 -1 2 -1 1 0 2 0 2 -1 1 -1 2 -1 
1 -2 2 -1 1 0 2 0 1 0 2 -1 1 0 2 -3 
1 -1 2 -2 1 -1 2 -2 1 -1 2 -2 1 -1 2 -2 
1 -2 2 -2 1 -2 2 -2 2 -2 1 1 2 -1 1 0 
2 -3 1 -2 2 -1 1 -2 2 -1 1 -2 2 -4 1 -4 
2 -4 1 -4 2 -4 1 -4 2 -3 1 -3 2 -2 1 -2 
2 1 1 -1 2 0 1 -3 2 -2 2 -2 1 -1 2 -4 
1 -4 2 -5 1 -4 2 -5 1 -4 2 -5 1 -3 2 -4 
1 -3 2 -2 1 -2 2 -4 1 -5 2 -5 1 -4 2 -3 
1 -1 2 -4 1 -4 2 -5 2 -4 1 -3 2 -3 1 -3 
2 -4 1 -5 2 -3 1 -5 2 -3 1 -2 2 -3 1 -2 
2 -3 1 -3 2 -3 1 -5 2 -4 1 -5 2 -4 1 -5 
2 -6 1 -5 2 -7 1 -6 2 -6 2 -7 1 -8 2 -7 
1 -7 2 -7 1 -6 2 -5 1 -5 2 -3 1 -5 2 -4 
1 -6 2 -4 1 -4 2 -4 1 -5 2 -4 1 -4 2 -5 
1 -4 2 -5 1 -5 2 -3 2 -2 1 -2 2 -4 1 -5 
2 -3 1 -3 2 -2 1 -2 2 -4 1 -3 2 -4 1 -5 
2 -3 1 -4 2 -4 1 -3 2 -2 1 -1 2 -1 1 -2 
2 -2 1 0 2 0 1 0 2 -1 2 -1 1 -1 2 -1 
1 -1 2 0 1 0 2 0 1 2 2 1 1 1 2 0 
1 -1 2 -1 1 0 2 0 1 1 2 -1 1 -1 2 -3 
1 -3 2 -3 1 -4 2 -5 2 -6 1 -6 2 -7 1 -8 
2 -8 1 -9 2 -7 1 -5 2 -5 1 -4 2 -5 1 -5 
2 -7 1 -5 2 -7 1 -5 2 -6 1 -4 2 -3 1 -2 
2 -1 1 -1 2 -2 1 1 2 0 2 -2 1 -2 2 -2 
1 -3 2 -2 1 -1 2 -1 1 -1 2 -2 1 -2 2 -2 
1 -2 2 0 1 2 2 2 1 2 2 1 1 4 2 3 
1 2 2 3 1 4 2 4 2 4 1 3 2 2 1 4 
2 3 1 2 2 2 1 0 2 1 1 1 2 1 1 1 
2 2 1 3 2 2 1 2 2 0 1 0 2 -1 1 -1 
2 1 1 2 2 2 1 2 2 1 2 0 1 0 2 -2 
1 -2 2 -3 1 -3 2 -2 1 -3 2 -3 1 -3 2 -2 
1 -5 2 -4 1 -3 2 -4 1 -4 2 -3 1 -2 2 -2 
1 -2 2 -1 1 -2 2 -1 1 -4 2 -3 2 -2 1 -1 
2 -2 1 -1 2 1 7063 4669 300 MP stroke
1 1 2 2 1 3 2 3 1 4 2 5 1 4 2 4 
1 3 2 1 1 1 2 3 1 2 2 3 1 5 2 5 
1 4 2 5 2 4 1 3 2 4 1 4 2 3 1 2 
2 1 1 2 2 3 1 1 2 3 1 3 2 2 1 4 
2 4 1 3 2 3 1 4 2 1 1 3 2 4 1 1 
2 2 1 2 2 2 2 2 1 1 2 1 1 1 2 0 
1 1 2 0 1 -1 2 0 1 0 2 2 1 0 2 -1 
1 -1 2 -1 1 -1 2 -2 1 -1 2 0 1 0 2 0 
1 2 2 2 2 1 1 2 2 2 1 2 2 4 1 5 
2 3 1 1 2 -1 1 0 2 -1 1 -1 2 -1 1 0 
2 0 1 1 2 3 1 2 2 3 1 3 2 3 1 2 
2 2 1 3 2 2 2 2 1 2 2 4 1 4 2 4 
1 4 2 4 1 3 2 2 1 3 2 3 1 3 2 1 
1 2 2 3 1 4 2 3 1 2 2 3 1 2 2 4 
1 4 2 3 2 3 1 2 2 3 1 4 2 5 1 7 
2 6 1 7 2 6 1 6 2 6 1 5 2 6 1 6 
2 6 1 5 2 7 1 7 2 6 1 5 2 5 1 4 
2 5 1 4 2 2 2 3 1 2 2 3 1 2 2 2 
1 2 2 1 1 0 2 -1 1 -1 2 -1 1 1 2 1 
1 -1 2 -1 1 0 2 1 1 2 2 3 1 1 2 2 
1 3 2 5 2 4 1 3 2 4 1 3 2 3 1 3 
2 3 1 2 2 4 1 3 2 3 1 3 2 4 1 4 
2 4 1 4 2 3 1 4 2 3 1 2 2 -1 1 0 
2 -2 1 0 2 0 2 0 1 1 2 2 1 0 2 0 
1 2 2 2 1 1 2 2 1 2 2 3 1 1 2 1 
1 1 2 1 1 -1 2 1 1 2 2 3 1 3 2 6 
1 7 2 9 2 7 1 8 2 9 1 10 2 9 1 9 
2 8 1 9 2 10 1 8 2 9 1 9 2 10 1 8 
2 9 1 9 2 9 1 8 2 6 1 6 2 5 1 4 
2 5 1 4 2 4 2 2 1 2 2 1 1 1 2 0 
1 1 2 1 1 0 2 0 1 -1 2 -1 1 -1 2 -2 
1 -1 2 -3 1 0 2 1 1 -2 2 1 1 1 2 3 
1 2 2 2 1 1 2 0 2 0 1 -1 2 0 1 1 
2 1 1 -2 2 -1 1 -2 2 -2 1 -3 2 -2 1 -3 
2 -1 1 -1 2 -2 1 -2 2 -3 1 0 2 -1 1 0 
2 0 1 -1 2 -3 2 -3 1 -2 2 -2 1 0 2 1 
1 1 2 1 1 1 2 1 1 -1 2 0 1 1 2 2 
1 2 2 2 1 4 6609 3981 300 MP stroke
2 2 1 2 2 3 1 2 2 3 1 3 2 3 1 1 
2 0 2 -1 1 -2 2 -2 1 -2 2 -3 1 -3 2 -2 
1 -1 2 1 1 1 2 1 1 3 2 3 1 3 2 1 
1 1 2 1 1 -1 2 -1 1 -1 2 -2 1 -2 2 -2 
2 -1 1 -1 2 0 1 1 2 0 1 2 2 1 1 0 
2 -1 1 1 2 2 1 2 2 1 1 1 2 1 1 0 
2 -1 1 -1 2 1 1 1 2 0 1 -1 2 -3 1 -3 
2 -3 2 -1 1 0 2 -2 1 -1 2 0 1 2 2 1 
1 2 2 1 1 1 2 -2 1 -3 2 -2 1 -2 2 -2 
1 -2 2 -3 1 -2 2 -2 1 0 2 0 1 -1 2 0 
2 0 1 0 2 1 1 0 2 3 1 1 2 2 1 1 
2 1 1 3 2 3 1 3 2 3 1 3 2 4 1 4 
2 4 1 5 2 4 1 3 2 4 1 5 2 3 1 5 
2 4 2 2 1 3 2 2 1 2 2 0 1 1 2 0 
1 2 2 1 1 3 2 3 1 3 2 3 1 4 2 3 
1 2 2 2 1 2 2 3 1 3 2 3 1 4 2 4 
2 3 1 5 2 6 1 5 2 5 1 5 2 4 1 5 
2 5 1 5 2 5 1 4 2 6 1 7 2 6 1 7 
2 7 1 6 2 8 1 7 2 6 1 7 2 8 1 8 
2 8 2 6 1 7 2 8 1 9 2 9 1 11 2 11 
1 9 2 9 1 8 2 10 1 9 2 7 1 8 2 6 
1 7 2 7 1 7 2 7 1 7 2 7 1 5 2 5 
2 5 1 5 2 1 1 -1 2 0 1 -1 2 -2 1 -1 
2 -2 1 -1 2 -2 1 -2 2 -2 1 1 2 1 1 0 
2 0 1 0 2 -2 1 -4 2 -4 1 -6 2 -6 1 -6 
2 -6 2 -5 1 -4 2 -3 1 -3 2 -3 1 -2 2 -5 
1 -5 2 -4 1 -4 2 -3 1 -3 2 -2 1 -3 2 -6 
1 -4 2 -5 1 -5 2 -4 1 -4 2 -2 1 -3 2 -1 
1 1 2 1 2 0 1 -1 2 -1 1 -3 2 -4 1 -4 
2 -5 1 -3 2 -3 1 -2 2 -5 1 -3 2 -3 1 -3 
2 -4 1 -4 2 -5 1 -4 2 -4 1 -5 2 -4 1 -4 
2 -2 2 -1 1 -2 2 -2 1 -1 2 -1 1 -1 2 -3 
1 -1 2 -3 1 -1 2 -1 1 0 2 0 1 -1 2 -2 
1 -1 2 -1 1 -1 2 1 1 0 2 1 1 0 2 -2 
1 -1 2 -2 2 -2 1 -1 2 -1 1 -2 2 -1 1 -2 
2 -1 1 -2 2 -1 1 -1 2 -1 1 0 2 -1 1 -1 
2 -2 1 -3 2 -3 1 -2 2 -2 1 0 2 -1 1 0 
2 0 2 0 1 3 6154 3785 300 MP stroke
2 3 1 4 2 2 1 2 2 1 1 1 2 0 1 1 
2 1 1 0 2 0 1 -1 2 0 1 0 2 2 1 3 
2 3 1 4 2 5 1 5 2 3 1 3 2 3 2 2 
1 0 2 -1 1 -4 2 -3 1 -5 2 -3 1 -3 2 -5 
1 -4 2 -4 1 -4 2 -6 1 -8 2 -7 1 -7 2 -7 
1 -9 2 -8 1 -6 2 -7 1 -7 2 -7 2 -6 1 -4 
2 -5 1 -4 2 -4 1 -6 2 -5 1 -5 2 -5 1 -4 
2 -5 1 -3 2 -4 1 -5 2 -3 1 -3 2 -5 1 -2 
2 -1 1 -2 2 -3 1 -3 2 -3 1 -3 2 -3 2 -2 
1 0 2 0 1 1 2 0 1 0 2 0 1 0 2 -1 
1 0 2 1 1 0 2 0 1 0 2 -1 1 -3 2 -3 
1 -2 2 -4 1 -4 2 -3 1 -1 2 0 2 -1 1 -1 
2 0 1 2 2 1 1 -1 2 0 1 0 2 0 1 1 
2 -1 1 -1 2 -1 1 0 2 -4 1 -4 2 -3 1 -2 
2 -2 1 -4 2 -4 1 -3 2 -3 1 -3 2 -2 2 -3 
1 -5 2 -5 1 -6 2 -6 1 -5 2 -5 1 -6 2 -5 
1 -4 2 -4 1 -3 2 -2 1 -3 2 -3 1 -2 2 -4 
1 -4 2 -3 1 -3 2 -3 1 -3 2 -4 2 -3 1 -2 
2 -2 1 -1 2 -1 1 -3 2 -3 1 -4 2 -4 1 -3 
2 -4 1 -3 2 -3 1 -3 2 -1 1 -1 2 -3 1 -2 
2 -1 1 -2 2 -3 1 -2 2 -3 1 -3 2 -3 2 -4 
1 -4 2 -4 1 -3 2 -4 1 -7 2 -5 1 -6 2 -5 
1 -7 2 -6 1 -6 2 -5 1 -5 2 -5 1 -4 2 -5 
1 -5 2 -4 1 -5 2 -4 1 -5 2 -6 1 -6 2 -4 
2 -3 1 -2 2 -2 1 -1 2 -2 1 -2 2 -3 1 -2 
2 -2 1 -4 2 -2 1 -1 2 0 1 1 2 1 1 -1 
2 0 1 -1 2 -2 1 0 2 -1 1 -1 2 -1 2 -1 
1 -2 2 0 1 -1 2 0 1 0 2 2 1 2 2 1 
1 1 2 1 1 3 2 2 1 3 2 4 1 3 2 4 
1 3 2 4 1 3 2 2 1 2 2 4 1 3 2 4 
2 5 1 6 2 4 1 4 2 5 1 3 2 5 1 4 
2 4 1 4 2 3 1 3 2 3 1 4 2 3 1 3 
2 2 1 3 2 3 1 3 2 1 1 -6 2 559 2 558 
1 558 2 559 1 558 2 558 1 559 0 32 5745 259 271 MP stroke
0 -1314 5088 2886 2 MP stroke
gr

0 sg
%%IncludeResource: font Helvetica
/Helvetica /ISOLatin1Encoding 108 FMSR

5003 2355 mt  -90 rotate
(5 mV) s
90 rotate
gs 5058 259 2492 4412 rc
608 0 5088 4670 2 MP stroke
gr

5245 5006 mt 
(20 ms) s
gs 6226 258 1168 1818 rc
1 -868 9 2 8 0 9 0 8 1 8 0 9 0 8 0 
9 1 8 0 9 0 8 -1 9 -1 8 0 9 0 8 0 
8 0 9 0 8 0 9 0 8 -1 9 0 8 0 9 0 
8 0 9 -1 8 -1 8 0 9 -1 8 0 9 0 8 0 
9 -1 8 0 9 -1 8 -1 9 -1 8 -1 8 -1 6226 1134 40 MP stroke
9 -1 8 0 9 1 8 0 9 0 8 0 9 -1 8 0 
9 0 8 -1 9 0 8 -1 8 0 9 -1 8 0 9 0 
8 0 9 0 8 1 9 0 8 1 9 0 8 1 8 1 
9 0 8 2 9 1 8 1 9 2 8 1 9 1 8 1 
9 1 8 1 8 1 9 1 8 2 9 2 8 2 9 2 
8 1 9 2 8 1 9 2 8 1 8 2 9 1 8 2 
9 1 8 1 9 1 8 2 9 1 8 0 9 1 8 2 
9 1 8 0 8 -2 9 209 8 209 9 210 8 209 9 209 
8 209 9 209 0 13 6834 258 68 MP stroke
0 -492 7393 1243 2 MP stroke
gr

7323 1123 mt  -90 rotate
(5 mV) s
90 rotate
gs 6226 258 1168 1818 rc
339 0 6555 1977 2 MP stroke
gr

6607 2175 mt 
(2 ms) s

end %%Color Dict

eplot
%%EndObject

epage
end

showpage

%%Trailer
%%EOF
