%!PS-Adobe-3.0 EPSF-3.0
%%Creator: MATLAB, The MathWorks, Inc. Version 8.0.0.783 (R2012b). Operating System: Darwin 10.8.0 Darwin Kernel Version 10.8.0: Tue Jun  7 16:33:36 PDT 2011; root:xnu-1504.15.3~1/RELEASE_I386 i386.
%%Title: ./current_correlations_IFeta_tarp_3_ms_L_100_s.eps
%%CreationDate: 07/11/2014  13:38:23
%%DocumentNeededFonts: Helvetica
%%DocumentProcessColors: Cyan Magenta Yellow Black
%%LanguageLevel: 2
%%Pages: 1
%%BoundingBox:    26     8   630   422
%%EndComments

%%BeginProlog
% MathWorks dictionary
/MathWorks 160 dict begin
% definition operators
/bdef {bind def} bind def
/ldef {load def} bind def
/xdef {exch def} bdef
/xstore {exch store} bdef
% operator abbreviations
/c  /clip ldef
/cc /concat ldef
/cp /closepath ldef
/gr /grestore ldef
/gs /gsave ldef
/mt /moveto ldef
/np /newpath ldef
/cm /currentmatrix ldef
/sm /setmatrix ldef
/rm /rmoveto ldef
/rl /rlineto ldef
/s {show newpath} bdef
/sc {setcmykcolor} bdef
/sr /setrgbcolor ldef
/sg /setgray ldef
/w /setlinewidth ldef
/j /setlinejoin ldef
/cap /setlinecap ldef
/rc {rectclip} bdef
/rf {rectfill} bdef
% page state control
/pgsv () def
/bpage {/pgsv save def} bdef
/epage {pgsv restore} bdef
/bplot /gsave ldef
/eplot {stroke grestore} bdef
% orientation switch
/portraitMode 0 def /landscapeMode 1 def /rotateMode 2 def
% coordinate system mappings
/dpi2point 0 def
% font control
/FontSize 0 def
/FMS {/FontSize xstore findfont [FontSize 0 0 FontSize neg 0 0]
  makefont setfont} bdef
/reencode {exch dup where {pop load} {pop StandardEncoding} ifelse
  exch dup 3 1 roll findfont dup length dict begin
  { 1 index /FID ne {def}{pop pop} ifelse } forall
  /Encoding exch def currentdict end definefont pop} bdef
/isroman {findfont /CharStrings get /Agrave known} bdef
/FMSR {3 1 roll 1 index dup isroman {reencode} {pop pop} ifelse
  exch FMS} bdef
/csm {1 dpi2point div -1 dpi2point div scale neg translate
 dup landscapeMode eq {pop -90 rotate}
  {rotateMode eq {90 rotate} if} ifelse} bdef
% line types: solid, dotted, dashed, dotdash
/SO { [] 0 setdash } bdef
/DO { [.5 dpi2point mul 4 dpi2point mul] 0 setdash } bdef
/DA { [6 dpi2point mul] 0 setdash } bdef
/DD { [.5 dpi2point mul 4 dpi2point mul 6 dpi2point mul 4
  dpi2point mul] 0 setdash } bdef
% macros for lines and objects
/L {lineto stroke} bdef
/MP {3 1 roll moveto 1 sub {rlineto} repeat} bdef
/AP {{rlineto} repeat} bdef
/PDlw -1 def
/W {/PDlw currentlinewidth def setlinewidth} def
/PP {closepath eofill} bdef
/DP {closepath stroke} bdef
/MR {4 -2 roll moveto dup  0 exch rlineto exch 0 rlineto
  neg 0 exch rlineto closepath} bdef
/FR {MR stroke} bdef
/PR {MR fill} bdef
/L1i {{currentfile picstr readhexstring pop} image} bdef
/tMatrix matrix def
/MakeOval {newpath tMatrix currentmatrix pop translate scale
0 0 1 0 360 arc tMatrix setmatrix} bdef
/FO {MakeOval stroke} bdef
/PO {MakeOval fill} bdef
/PD {currentlinewidth 2 div 0 360 arc fill
   PDlw -1 eq not {PDlw w /PDlw -1 def} if} def
/FA {newpath tMatrix currentmatrix pop translate scale
  0 0 1 5 -2 roll arc tMatrix setmatrix stroke} bdef
/PA {newpath tMatrix currentmatrix pop	translate 0 0 moveto scale
  0 0 1 5 -2 roll arc closepath tMatrix setmatrix fill} bdef
/FAn {newpath tMatrix currentmatrix pop translate scale
  0 0 1 5 -2 roll arcn tMatrix setmatrix stroke} bdef
/PAn {newpath tMatrix currentmatrix pop translate 0 0 moveto scale
  0 0 1 5 -2 roll arcn closepath tMatrix setmatrix fill} bdef
/vradius 0 def /hradius 0 def /lry 0 def
/lrx 0 def /uly 0 def /ulx 0 def /rad 0 def
/MRR {/vradius xdef /hradius xdef /lry xdef /lrx xdef /uly xdef
  /ulx xdef newpath tMatrix currentmatrix pop ulx hradius add uly
  vradius add translate hradius vradius scale 0 0 1 180 270 arc 
  tMatrix setmatrix lrx hradius sub uly vradius add translate
  hradius vradius scale 0 0 1 270 360 arc tMatrix setmatrix
  lrx hradius sub lry vradius sub translate hradius vradius scale
  0 0 1 0 90 arc tMatrix setmatrix ulx hradius add lry vradius sub
  translate hradius vradius scale 0 0 1 90 180 arc tMatrix setmatrix
  closepath} bdef
/FRR {MRR stroke } bdef
/PRR {MRR fill } bdef
/MlrRR {/lry xdef /lrx xdef /uly xdef /ulx xdef /rad lry uly sub 2 div def
  newpath tMatrix currentmatrix pop ulx rad add uly rad add translate
  rad rad scale 0 0 1 90 270 arc tMatrix setmatrix lrx rad sub lry rad
  sub translate rad rad scale 0 0 1 270 90 arc tMatrix setmatrix
  closepath} bdef
/FlrRR {MlrRR stroke } bdef
/PlrRR {MlrRR fill } bdef
/MtbRR {/lry xdef /lrx xdef /uly xdef /ulx xdef /rad lrx ulx sub 2 div def
  newpath tMatrix currentmatrix pop ulx rad add uly rad add translate
  rad rad scale 0 0 1 180 360 arc tMatrix setmatrix lrx rad sub lry rad
  sub translate rad rad scale 0 0 1 0 180 arc tMatrix setmatrix
  closepath} bdef
/FtbRR {MtbRR stroke } bdef
/PtbRR {MtbRR fill } bdef
/stri 6 array def /dtri 6 array def
/smat 6 array def /dmat 6 array def
/tmat1 6 array def /tmat2 6 array def /dif 3 array def
/asub {/ind2 exch def /ind1 exch def dup dup
  ind1 get exch ind2 get sub exch } bdef
/tri_to_matrix {
  2 0 asub 3 1 asub 4 0 asub 5 1 asub
  dup 0 get exch 1 get 7 -1 roll astore } bdef
/compute_transform {
  dmat dtri tri_to_matrix tmat1 invertmatrix 
  smat stri tri_to_matrix tmat2 concatmatrix } bdef
/ds {stri astore pop} bdef
/dt {dtri astore pop} bdef
/db {2 copy /cols xdef /rows xdef mul dup 3 mul string
  currentfile 
  3 index 0 eq {/ASCIIHexDecode filter}
  {/ASCII85Decode filter 3 index 2 eq {/RunLengthDecode filter} if }
  ifelse exch readstring pop
  dup 0 3 index getinterval /rbmap xdef
  dup 2 index dup getinterval /gbmap xdef
  1 index dup 2 mul exch getinterval /bbmap xdef pop pop}bdef
/it {gs np dtri aload pop moveto lineto lineto cp c
  cols rows 8 compute_transform 
  rbmap gbmap bbmap true 3 colorimage gr}bdef
/il {newpath moveto lineto stroke}bdef
currentdict end def
%%EndProlog

%%BeginSetup
MathWorks begin

0 cap

end
%%EndSetup

%%Page: 1 1
%%BeginPageSetup
%%PageBoundingBox:    26     8   630   422
MathWorks begin
bpage
%%EndPageSetup

%%BeginObject: obj1
bplot

/dpi2point 12 def
portraitMode 0000 5184 csm

  315   117  7252  4966 rc
91 dict begin %Colortable dictionary
/c0 { 0.000000 0.000000 0.000000 sr} bdef
/c1 { 1.000000 1.000000 1.000000 sr} bdef
/c2 { 0.900000 0.000000 0.000000 sr} bdef
/c3 { 0.000000 0.820000 0.000000 sr} bdef
/c4 { 0.000000 0.000000 0.800000 sr} bdef
/c5 { 0.910000 0.820000 0.320000 sr} bdef
/c6 { 1.000000 0.260000 0.820000 sr} bdef
/c7 { 0.000000 0.820000 0.820000 sr} bdef
c0
1 j
1 sg
   0    0 7783 5190 rf
6 w
0 4411 3891 0 0 -4411 778 4670 4 MP
PP
-3891 0 0 4411 3891 0 0 -4411 778 4670 5 MP stroke
4 w
DO
SO
6 w
0 sg
 778 4670 mt 4669 4670 L
 778 4670 mt  778  259 L
 778 4670 mt  778 4714 L
%%IncludeResource: font Helvetica
/Helvetica /ISOLatin1Encoding 120 FMSR

 745 4859 mt 
(0) s
1556 4670 mt 1556 4714 L
1523 4859 mt 
(2) s
2334 4670 mt 2334 4714 L
2301 4859 mt 
(4) s
3112 4670 mt 3112 4714 L
3079 4859 mt 
(6) s
3890 4670 mt 3890 4714 L
3857 4859 mt 
(8) s
4669 4670 mt 4669 4714 L
4603 4859 mt 
(10) s
 778 4670 mt  733 4670 L
 633 4714 mt 
(0) s
 778 3868 mt  733 3868 L
 533 3912 mt 
(0.1) s
 778 3066 mt  733 3066 L
 533 3110 mt 
(0.2) s
 778 2264 mt  733 2264 L
 533 2308 mt 
(0.3) s
 778 1462 mt  733 1462 L
 533 1506 mt 
(0.4) s
 778  660 mt  733  660 L
 533  704 mt 
(0.5) s
gs 778 259 3892 4412 rc
DA
24 w
0.3 sg
3891 0 778 660 2 MP stroke
SO
0.75 sg
0 -4411 1945 4670 2 MP stroke
12 w
/c8 { 1.000000 0.500000 0.000000 sr} bdef
c8
196 -1 389 -1 389 -2 389 -1 389 -4 390 -5 389 -8 194 -4 
78 -3 78 -18 78 -56 77 -100 78 -171 78 -216 78 -278 78 -313 
78 -326 77 -308 78 -298 78 -272 78 -240 78 -203 77 -171 778 3613 24 MP stroke
gr

12 w
c8
0 j
0 -58 -58 0 0 58 58 0 749 3584 5 MP
gs
PP
gr
DP
0 -58 -58 0 0 58 58 0 826 3413 5 MP
gs
PP
gr
DP
0 -58 -58 0 0 58 58 0 904 3210 5 MP
gs
PP
gr
DP
0 -58 -58 0 0 58 58 0 982 2970 5 MP
gs
PP
gr
DP
0 -58 -58 0 0 58 58 0 1060 2698 5 MP
gs
PP
gr
DP
0 -58 -58 0 0 58 58 0 1138 2400 5 MP
gs
PP
gr
DP
0 -58 -58 0 0 58 58 0 1215 2092 5 MP
gs
PP
gr
DP
0 -58 -58 0 0 58 58 0 1293 1766 5 MP
gs
PP
gr
DP
0 -58 -58 0 0 58 58 0 1371 1453 5 MP
gs
PP
gr
DP
0 -58 -58 0 0 58 58 0 1449 1175 5 MP
gs
PP
gr
DP
0 -58 -58 0 0 58 58 0 1527 959 5 MP
gs
PP
gr
DP
0 -58 -58 0 0 58 58 0 1605 788 5 MP
gs
PP
gr
DP
0 -58 -58 0 0 58 58 0 1682 688 5 MP
gs
PP
gr
DP
0 -58 -58 0 0 58 58 0 1760 632 5 MP
gs
PP
gr
DP
0 -58 -58 0 0 58 58 0 1838 614 5 MP
gs
PP
gr
DP
0 -58 -58 0 0 58 58 0 1916 611 5 MP
gs
PP
gr
DP
0 -58 -58 0 0 58 58 0 2110 607 5 MP
gs
PP
gr
DP
0 -58 -58 0 0 58 58 0 2499 599 5 MP
gs
PP
gr
DP
0 -58 -58 0 0 58 58 0 2889 594 5 MP
gs
PP
gr
DP
0 -58 -58 0 0 58 58 0 3278 590 5 MP
gs
PP
gr
DP
0 -58 -58 0 0 58 58 0 3667 589 5 MP
gs
PP
gr
DP
0 -58 -58 0 0 58 58 0 4056 587 5 MP
gs
PP
gr
DP
0 -58 -58 0 0 58 58 0 4445 586 5 MP
gs
PP
gr
DP
gs 778 259 3892 4412 rc
/c9 { 0.000000 1.000000 0.500000 sr} bdef
c9
196 -4 389 -9 389 -14 389 -15 389 -20 390 -25 389 -27 194 -15 
78 -5 78 -32 78 -106 77 -197 78 -310 78 -356 78 -406 78 -390 
78 -350 77 -282 78 -245 78 -198 78 -158 78 -121 77 -93 778 4086 24 MP stroke
gr

c9
0 -58 -58 0 0 58 58 0 749 4057 5 MP
gs
PP
gr
DP
0 -58 -58 0 0 58 58 0 826 3964 5 MP
gs
PP
gr
DP
0 -58 -58 0 0 58 58 0 904 3843 5 MP
gs
PP
gr
DP
0 -58 -58 0 0 58 58 0 982 3685 5 MP
gs
PP
gr
DP
0 -58 -58 0 0 58 58 0 1060 3487 5 MP
gs
PP
gr
DP
0 -58 -58 0 0 58 58 0 1138 3242 5 MP
gs
PP
gr
DP
0 -58 -58 0 0 58 58 0 1215 2960 5 MP
gs
PP
gr
DP
0 -58 -58 0 0 58 58 0 1293 2610 5 MP
gs
PP
gr
DP
0 -58 -58 0 0 58 58 0 1371 2220 5 MP
gs
PP
gr
DP
0 -58 -58 0 0 58 58 0 1449 1814 5 MP
gs
PP
gr
DP
0 -58 -58 0 0 58 58 0 1527 1458 5 MP
gs
PP
gr
DP
0 -58 -58 0 0 58 58 0 1605 1148 5 MP
gs
PP
gr
DP
0 -58 -58 0 0 58 58 0 1682 951 5 MP
gs
PP
gr
DP
0 -58 -58 0 0 58 58 0 1760 845 5 MP
gs
PP
gr
DP
0 -58 -58 0 0 58 58 0 1838 813 5 MP
gs
PP
gr
DP
0 -58 -58 0 0 58 58 0 1916 808 5 MP
gs
PP
gr
DP
0 -58 -58 0 0 58 58 0 2110 793 5 MP
gs
PP
gr
DP
0 -58 -58 0 0 58 58 0 2499 766 5 MP
gs
PP
gr
DP
0 -58 -58 0 0 58 58 0 2889 741 5 MP
gs
PP
gr
DP
0 -58 -58 0 0 58 58 0 3278 721 5 MP
gs
PP
gr
DP
0 -58 -58 0 0 58 58 0 3667 706 5 MP
gs
PP
gr
DP
0 -58 -58 0 0 58 58 0 4056 692 5 MP
gs
PP
gr
DP
0 -58 -58 0 0 58 58 0 4445 683 5 MP
gs
PP
gr
DP
gs 778 259 3892 4412 rc
/c10 { 1.000000 0.000000 0.500000 sr} bdef
c10
196 -6 389 -17 389 -21 389 -21 389 -20 390 -33 389 -39 194 -22 
78 -3 78 -34 78 -120 77 -230 78 -358 78 -406 78 -441 78 -410 
78 -352 77 -273 78 -223 78 -170 78 -132 78 -96 77 -73 778 4355 24 MP stroke
gr

c10
0 -58 -58 0 0 58 58 0 749 4326 5 MP
gs
PP
gr
DP
0 -58 -58 0 0 58 58 0 826 4253 5 MP
gs
PP
gr
DP
0 -58 -58 0 0 58 58 0 904 4157 5 MP
gs
PP
gr
DP
0 -58 -58 0 0 58 58 0 982 4025 5 MP
gs
PP
gr
DP
0 -58 -58 0 0 58 58 0 1060 3855 5 MP
gs
PP
gr
DP
0 -58 -58 0 0 58 58 0 1138 3632 5 MP
gs
PP
gr
DP
0 -58 -58 0 0 58 58 0 1215 3359 5 MP
gs
PP
gr
DP
0 -58 -58 0 0 58 58 0 1293 3007 5 MP
gs
PP
gr
DP
0 -58 -58 0 0 58 58 0 1371 2597 5 MP
gs
PP
gr
DP
0 -58 -58 0 0 58 58 0 1449 2156 5 MP
gs
PP
gr
DP
0 -58 -58 0 0 58 58 0 1527 1750 5 MP
gs
PP
gr
DP
0 -58 -58 0 0 58 58 0 1605 1392 5 MP
gs
PP
gr
DP
0 -58 -58 0 0 58 58 0 1682 1162 5 MP
gs
PP
gr
DP
0 -58 -58 0 0 58 58 0 1760 1042 5 MP
gs
PP
gr
DP
0 -58 -58 0 0 58 58 0 1838 1008 5 MP
gs
PP
gr
DP
0 -58 -58 0 0 58 58 0 1916 1005 5 MP
gs
PP
gr
DP
0 -58 -58 0 0 58 58 0 2110 983 5 MP
gs
PP
gr
DP
0 -58 -58 0 0 58 58 0 2499 944 5 MP
gs
PP
gr
DP
0 -58 -58 0 0 58 58 0 2889 911 5 MP
gs
PP
gr
DP
0 -58 -58 0 0 58 58 0 3278 891 5 MP
gs
PP
gr
DP
0 -58 -58 0 0 58 58 0 3667 870 5 MP
gs
PP
gr
DP
0 -58 -58 0 0 58 58 0 4056 849 5 MP
gs
PP
gr
DP
0 -58 -58 0 0 58 58 0 4445 832 5 MP
gs
PP
gr
DP
gs 778 259 3892 4412 rc
/c11 { 0.000000 0.500000 1.000000 sr} bdef
c11
196 -8 389 -24 389 -27 389 -25 389 -36 390 -51 389 -58 194 -32 
78 -1 78 -30 78 -129 77 -251 78 -393 78 -435 78 -465 78 -418 
78 -349 77 -266 78 -215 78 -163 78 -125 78 -93 77 -70 778 4387 24 MP stroke
gr

c11
0 -58 -58 0 0 58 58 0 749 4358 5 MP
gs
PP
gr
DP
0 -58 -58 0 0 58 58 0 826 4288 5 MP
gs
PP
gr
DP
0 -58 -58 0 0 58 58 0 904 4195 5 MP
gs
PP
gr
DP
0 -58 -58 0 0 58 58 0 982 4070 5 MP
gs
PP
gr
DP
0 -58 -58 0 0 58 58 0 1060 3907 5 MP
gs
PP
gr
DP
0 -58 -58 0 0 58 58 0 1138 3692 5 MP
gs
PP
gr
DP
0 -58 -58 0 0 58 58 0 1215 3426 5 MP
gs
PP
gr
DP
0 -58 -58 0 0 58 58 0 1293 3077 5 MP
gs
PP
gr
DP
0 -58 -58 0 0 58 58 0 1371 2659 5 MP
gs
PP
gr
DP
0 -58 -58 0 0 58 58 0 1449 2194 5 MP
gs
PP
gr
DP
0 -58 -58 0 0 58 58 0 1527 1759 5 MP
gs
PP
gr
DP
0 -58 -58 0 0 58 58 0 1605 1366 5 MP
gs
PP
gr
DP
0 -58 -58 0 0 58 58 0 1682 1115 5 MP
gs
PP
gr
DP
0 -58 -58 0 0 58 58 0 1760 986 5 MP
gs
PP
gr
DP
0 -58 -58 0 0 58 58 0 1838 956 5 MP
gs
PP
gr
DP
0 -58 -58 0 0 58 58 0 1916 955 5 MP
gs
PP
gr
DP
0 -58 -58 0 0 58 58 0 2110 923 5 MP
gs
PP
gr
DP
0 -58 -58 0 0 58 58 0 2499 865 5 MP
gs
PP
gr
DP
0 -58 -58 0 0 58 58 0 2889 814 5 MP
gs
PP
gr
DP
0 -58 -58 0 0 58 58 0 3278 778 5 MP
gs
PP
gr
DP
0 -58 -58 0 0 58 58 0 3667 753 5 MP
gs
PP
gr
DP
0 -58 -58 0 0 58 58 0 4056 726 5 MP
gs
PP
gr
DP
0 -58 -58 0 0 58 58 0 4445 702 5 MP
gs
PP
gr
DP
gs 778 259 3892 4412 rc
gr

0 sg
4306  530 mt 
(c = 0.5) s
1984  508 mt 
(tau) s
%%IncludeResource: font Helvetica
/Helvetica /ISOLatin1Encoding 96 FMSR

2150  568 mt 
(arp) s
%%IncludeResource: font Helvetica
/Helvetica /ISOLatin1Encoding 120 FMSR

2291  508 mt 
( = 3 ms) s
%%IncludeResource: font Symbol
/Symbol /ISOLatin1Encoding 120 FMSR

2517 5002 mt 
(D) s
%%IncludeResource: font Helvetica
/Helvetica /ISOLatin1Encoding 120 FMSR

2590 5002 mt 
( t \(ms\)) s
 451 2962 mt  -90 rotate
(Current correlation) s
90 rotate
 761 4713 mt 
( ) s
4653  301 mt 
( ) s
6 w
3729 4119 mt 
(nu = 2.4 Hz) s
gs 3288 3985 1323 627 rc
12 w
c8
339 0 3355 4076 2 MP stroke
gs 3452 4003 147 147 rc
0 -58 -58 0 0 58 58 0 3496 4047 5 MP
gs
PP
gr
DP
gr

gr

12 w
c8
0 sg
3729 4267 mt 
(nu = 7.69 Hz) s
gs 3288 3985 1323 627 rc
c9
339 0 3355 4224 2 MP stroke
gs 3452 4151 147 147 rc
0 -58 -58 0 0 58 58 0 3496 4195 5 MP
gs
PP
gr
DP
gr

gr

c9
0 sg
3729 4414 mt 
(nu = 13.515 Hz) s
gs 3288 3985 1323 627 rc
c10
339 0 3355 4371 2 MP stroke
gs 3452 4298 147 147 rc
0 -58 -58 0 0 58 58 0 3496 4342 5 MP
gs
PP
gr
DP
gr

gr

c10
0 sg
3729 4562 mt 
(nu = 23.125 Hz) s
gs 3288 3985 1323 627 rc
c11
339 0 3355 4519 2 MP stroke
gs 3452 4446 147 147 rc
0 -58 -58 0 0 58 58 0 3496 4490 5 MP
gs
PP
gr
DP
gr

6 w
gr

6 w
c11
gs 5058 259 2492 4412 rc
0 sg
0 -3314 1 -6 2 -4 1 -4 2 -5 1 -3 2 -4 1 -3 
2 -2 2 -2 1 -2 2 -2 1 -2 2 -3 1 -3 2 -4 
1 -2 2 0 1 0 2 0 1 0 2 -1 1 -3 2 -4 
1 -1 2 -2 1 -2 2 -2 1 -4 2 -5 1 -7 2 -9 
1 -10 2 -10 2 -10 1 -9 2 -10 1 -9 2 -8 1 -8 
2 -9 1 -8 2 -8 1 -9 2 -9 1 -9 2 -11 1 -11 
2 -10 1 -9 2 -10 1 -10 2 -11 1 -12 2 -9 1 -8 
2 -10 2 -10 1 -9 2 -10 1 -12 2 -11 1 -11 2 -10 
1 -10 2 -10 1 -9 2 -8 1 -6 2 -7 1 -8 2 -11 
1 -10 2 -10 1 -9 2 -10 1 -7 2 -7 1 -7 2 -5 
1 -5 2 -7 2 -6 1 -6 2 -6 1 -6 2 -7 1 -7 
2 -6 1 -7 2 -6 1 -4 2 -4 1 -6 2 -4 1 -5 
2 -5 1 -5 2 -3 1 -2 2 0 1 1 2 3 1 2 
2 3 2 3 1 2 2 2 1 0 2 0 1 -1 2 0 
1 0 2 3 1 1 2 2 1 2 2 1 1 3 2 2 
1 3 2 4 1 3 2 7 1 7 2 6 1 7 2 5 
1 6 2 7 2 8 1 8 2 8 1 9 2 7 1 7 
2 5 1 6 2 5 1 6 2 6 1 7 2 7 1 6 
2 5 1 6 2 4 1 6 2 4 1 4 2 6 1 4 
2 3 1 4 2 3 2 4 1 4 2 4 1 6 2 4 
1 4 2 2 1 2 2 4 1 5 2 4 1 4 2 4 
1 4 2 3 1 4 2 3 1 2 2 3 1 4 2 5 
1 4 2 4 2 2 1 2 2 3 1 1 2 1 1 1 
2 0 1 2 2 1 1 0 2 -1 1 0 2 0 1 -1 
2 -1 1 -1 2 0 1 0 2 1 1 2 2 2 1 2 
2 1 1 2 2 3 2 3 1 3 2 5 1 4 2 3 
1 1 2 1 1 0 2 0 1 -1 2 -1 1 -2 2 -3 
1 -4 2 -1 1 -1 2 -1 1 -2 2 -2 1 -4 2 -4 
1 -6 2 -9 2 -7 1 -6 2 -6 1 -7 2 -7 1 -8 
2 -9 1 -10 2 -10 1 -9 2 -7 1 -5 2 -6 1 -3 
2 -2 1 -2 2 -1 1 0 2 -2 1 -1 2 -3 1 -2 
2 -3 1 -3 2 -2 2 -1 1 -2 2 0 1 -1 2 -1 
1 -1 2 0 1 0 2 1 1 1 2 1 1 -1 2 1 
1 0 2 0 1 -1 2 -1 1 -1 2 -3 1 -1 2 -1 
1 0 2 1 2 0 1 2 2 2 1 3 2 2 1 2 
2 0 1 -1 2 -2 1 -3 2 -3 1 -5 2 -5 1 -7 
2 -5 1 -7 2 -7 1 -6 2 -6 1 -7 2 -5 1 -7 
2 -5 1 -4 2 -4 5240 4108 300 MP stroke
2 -4 1 -4 2 -5 1 -5 2 -4 1 -6 2 -6 1 -7 
2 -7 1 -7 2 -6 1 -6 2 -5 1 -6 2 -5 1 -5 
2 -3 1 -5 2 -3 1 -3 2 -3 1 -3 2 -3 2 -3 
1 -4 2 -4 1 -4 2 -3 1 -3 2 -2 1 1 2 1 
1 0 2 -1 1 1 2 1 1 3 2 2 1 1 2 3 
1 0 2 2 1 0 2 -1 1 -3 2 -2 1 -3 2 -2 
2 -1 1 -3 2 -3 1 -4 2 -3 1 -3 2 -5 1 -6 
2 -5 1 -7 2 -6 1 -5 2 -5 1 -6 2 -6 1 -5 
2 -7 1 -5 2 -4 1 -5 2 -2 1 -3 2 -3 2 -2 
1 -3 2 -1 1 -2 2 -2 1 -1 2 -2 1 -3 2 -2 
1 -2 2 0 1 -1 2 -2 1 -3 2 -4 1 -3 2 -3 
1 -4 2 -4 1 -6 2 -4 1 -6 2 -8 1 -5 2 -5 
2 -3 1 -4 2 0 1 2 5088 4424 101 MP stroke
1 6 2 5 1 7 2 7 2 6 1 6 2 6 1 4 
2 4 1 4 2 2 1 3 2 3 1 4 2 1 1 3 
2 2 1 2 2 1 1 1 2 -1 1 -1 2 -1 1 -3 
2 -4 1 -6 2 -7 1 -5 2 -7 2 -4 1 -4 2 -3 
1 -4 2 -5 1 -3 2 -3 1 -2 2 -3 1 -5 2 -5 
1 -4 2 -4 1 -4 2 -4 1 -5 2 -6 1 -5 2 -3 
1 -4 2 -6 1 -5 2 -4 2 -5 1 -6 2 -6 1 -6 
2 -6 1 -5 2 -5 1 -4 2 -3 1 -2 2 -1 1 -2 
2 -3 1 -3 2 -5 1 -3 2 -1 1 1 2 -1 1 0 
2 -1 1 0 2 1 1 0 2 -1 2 -1 1 -2 2 1 
1 1 2 1 1 3 2 1 1 0 2 1 1 2 2 3 
1 4 2 4 1 7 2 7 1 6 2 6 1 8 2 7 
1 8 2 10 1 9 2 9 2 7 1 6 2 6 1 7 
2 8 1 8 2 8 1 8 2 7 1 7 2 6 1 5 
2 6 1 5 2 5 1 6 2 5 1 7 2 5 1 4 
2 3 1 3 2 4 1 4 2 5 2 6 1 6 2 6 
1 7 2 6 1 5 2 4 1 3 2 5 1 4 2 4 
1 3 2 6 1 4 2 4 1 4 2 5 1 3 2 2 
1 4 2 5 1 2 2 3 2 4 1 5 2 4 1 3 
2 2 1 2 2 1 1 1 2 2 1 2 2 2 1 3 
2 2 1 2 2 2 1 3 2 1 1 4 2 4 1 1 
2 3 1 2 2 1 1 1 2 1 2 0 1 0 2 1 
1 2 2 2 1 4 2 2 1 3 2 2 1 4 2 3 
1 3 2 2 1 4 2 5 1 5 2 5 1 5 2 4 
1 3 2 1 1 1 2 0 2 -2 1 -1 2 -2 1 -1 
2 -3 1 -3 2 -4 1 -5 2 -6 1 -6 2 -6 1 -7 
2 -6 1 -6 2 -5 1 -4 2 -5 1 -4 2 -6 1 -6 
2 -5 1 -4 2 -3 1 -4 2 -3 2 -2 1 -2 2 1 
1 0 2 0 1 2 2 1 1 -1 2 0 1 -1 2 0 
1 0 2 1 1 1 2 0 1 -1 2 2 1 1 2 1 
1 1 2 1 1 4 2 5 2 4 1 3 2 3 1 4 
2 3 1 3 2 4 1 2 2 1 1 2 2 2 1 4 
2 2 1 3 2 3 1 4 2 2 1 3 2 1 1 1 
2 0 1 0 2 1 1 0 2 -1 2 -1 1 -4 2 -5 
1 -3 2 -4 1 -2 2 -3 1 -4 2 -3 1 -2 2 -3 
1 -4 2 -3 1 -3 2 -3 1 0 2 -1 1 -3 2 -3 
1 -2 2 -2 1 -3 2 -2 1 -3 2 -3 2 -3 1 -5 
2 -4 1 -6 2 -4 7063 3762 300 MP stroke
1 -4 2 -4 1 -4 2 -2 1 -2 2 -3 1 -3 2 -3 
1 -4 2 -3 1 -1 2 0 1 1 2 2 1 1 2 2 
1 0 2 1 2 0 1 0 2 0 1 0 2 0 1 0 
2 0 1 0 2 0 1 1 2 1 1 2 2 1 1 0 
2 -1 1 -1 2 -1 1 -1 2 -1 1 0 2 2 1 2 
2 3 1 3 2 2 2 2 1 1 2 2 1 4 2 3 
1 2 2 1 1 2 2 1 1 2 2 0 1 -1 2 -1 
1 -2 2 -2 1 -3 2 -3 1 -2 2 -3 1 -2 2 -2 
1 -2 2 -2 2 -3 1 -3 2 -1 1 -1 2 -1 1 0 
2 0 1 2 2 1 1 2 2 2 1 3 2 2 1 2 
2 1 1 0 2 -1 1 -1 2 -1 1 -1 2 0 1 0 
2 -1 1 -1 2 0 2 -1 1 0 2 0 1 -3 2 -1 
1 -2 2 -2 1 -1 2 0 1 1 2 2 1 1 2 2 
1 1 2 3 1 1 2 0 1 0 2 1 1 0 2 0 
1 0 2 -2 2 0 1 -2 2 0 1 -1 2 -2 1 0 
2 -1 1 -1 2 -2 1 -3 2 -5 1 -4 2 -4 1 -3 
2 -3 1 -1 2 -1 1 -1 2 1 1 2 2 3 1 4 
2 3 1 2 2 3 2 3 1 5 2 4 1 6 2 7 
1 5 2 7 1 5 2 5 1 7 2 6 1 6 2 6 
1 6 2 8 1 8 2 9 1 9 2 10 1 9 2 8 
1 8 2 8 2 9 1 9 2 10 1 10 2 9 1 7 
2 8 1 7 2 6 1 8 2 6 1 7 2 7 1 8 
2 9 1 10 2 11 1 10 2 10 1 8 2 8 1 9 
2 8 1 6 2 7 2 7 1 6 2 8 1 8 2 9 
1 10 2 10 1 9 2 11 1 13 2 11 1 13 2 11 
1 12 2 10 1 8 2 9 1 10 2 10 1 9 2 10 
1 8 2 9 2 7 1 9 2 8 1 6 2 5 1 6 
2 4 1 3 2 4 1 3 2 3 1 4 2 4 1 3 
2 6 1 8 2 6 1 8 2 6 1 8 2 8 1 8 
2 8 1 8 2 5 2 6 1 7 2 8 1 6 2 6 
1 4 2 4 1 3 2 2 1 2 2 4 1 5 2 3 
1 5 2 5 1 6 2 6 1 6 2 7 1 5 2 5 
1 3 2 3 1 4 2 4 2 5 1 3 2 2 1 2 
2 3 1 2 2 2 1 2 2 3 1 2 2 2 1 3 
2 4 1 4 2 6 1 5 2 5 1 5 2 4 1 5 
2 4 1 4 2 2 2 3 1 3 2 3 1 2 2 3 
1 2 2 4 1 3 2 2 1 3 2 5 1 3 2 5 
1 5 2 5 1 5 6609 2812 300 MP stroke
2 5 1 5 2 5 1 3 2 2 1 2 2 1 1 1 
2 1 2 -2 1 -1 2 -2 1 -1 2 -1 1 0 2 -1 
1 -1 2 0 1 -2 2 -1 1 -3 2 -3 1 -6 2 -7 
1 -5 2 -7 1 -6 2 -7 1 -7 2 -8 1 -10 2 -10 
2 -9 1 -10 2 -12 1 -12 2 -10 1 -10 2 -11 1 -10 
2 -11 1 -10 2 -11 1 -11 2 -9 1 -8 2 -7 1 -8 
2 -8 1 -6 2 -6 1 -6 2 -6 1 -6 2 -4 1 -5 
2 -3 2 -4 1 -2 2 -2 1 -3 2 -3 1 -1 2 -3 
1 -4 2 -3 1 -1 2 1 1 3 2 1 1 2 2 1 
1 1 2 -1 1 1 2 0 1 2 2 -1 1 0 2 0 
2 0 1 1 2 3 1 5 2 2 1 2 2 1 1 4 
2 3 1 4 2 3 1 4 2 1 1 2 2 2 1 1 
2 2 1 3 2 4 1 3 2 3 1 2 2 2 1 3 
2 6 2 5 1 5 2 6 1 6 2 6 1 6 2 5 
1 6 2 4 1 5 2 5 1 5 2 6 1 7 2 6 
1 6 2 6 1 6 2 6 1 6 2 4 1 6 2 6 
2 4 1 4 2 3 1 2 2 2 1 2 2 3 1 3 
2 2 1 2 2 2 1 2 2 1 1 2 2 1 1 1 
2 2 1 1 2 3 1 1 2 1 1 1 2 1 1 2 
2 1 2 1 1 1 2 1 1 -1 2 2 1 2 2 1 
1 2 2 2 1 2 2 3 1 1 2 0 1 1 2 1 
1 1 2 2 1 1 2 1 1 3 2 2 1 3 2 3 
2 1 1 2 2 2 1 4 2 3 1 4 2 5 1 3 
2 3 1 3 2 4 1 5 2 5 1 4 2 6 1 5 
2 4 1 4 2 3 1 3 2 3 1 1 2 -1 1 -1 
2 -1 2 -1 1 -2 2 -2 1 -2 2 0 1 0 2 1 
1 1 2 -1 1 -3 2 -4 1 -3 2 -2 1 -3 2 -3 
1 -2 2 -1 1 -2 2 -1 1 2 2 0 1 1 2 0 
1 1 2 1 2 -1 1 3 2 3 1 1 2 2 1 0 
2 1 1 0 2 0 1 0 2 0 1 -2 2 -1 1 -3 
2 -1 1 -1 2 -2 1 -4 2 -2 1 -2 2 -1 1 -2 
2 -1 2 0 1 -1 2 -3 1 -1 2 -3 1 -2 2 -3 
1 -3 2 -3 1 -2 2 -3 1 -4 2 -3 1 -3 2 -4 
1 -4 2 -4 1 -6 2 -6 1 -6 2 -6 1 -7 2 -7 
1 -8 2 -8 2 -8 1 -8 2 -7 1 -9 2 -9 1 -9 
2 -10 1 -9 2 -7 1 -7 2 -6 1 -8 2 -9 1 -7 
2 -8 1 -6 2 -7 1 -5 2 -4 1 -4 2 -3 1 -4 
2 -4 2 -4 1 -4 6154 3054 300 MP stroke
2 -4 1 -4 2 -3 1 -2 2 -2 1 -2 2 -2 1 -2 
2 -2 1 -2 2 -2 1 -1 2 0 1 0 2 1 1 0 
2 0 1 0 2 0 1 1 2 0 1 2 2 1 2 0 
1 0 2 0 1 -1 2 1 1 1 2 0 1 1 2 2 
1 1 2 1 1 1 2 0 1 1 2 0 1 0 2 0 
1 -3 2 -2 1 -3 2 -5 1 -6 2 -6 2 -6 1 -6 
2 -7 1 -8 2 -9 1 -10 2 -8 1 -8 2 -8 1 -8 
2 -8 1 -9 2 -9 1 -9 2 -8 1 -9 2 -8 1 -8 
2 -9 1 -8 2 -8 1 -7 2 -6 1 -6 2 -9 2 -7 
1 -8 2 -7 1 -8 2 -8 1 -9 2 -11 1 -12 2 -11 
1 -10 2 -11 1 -11 2 -10 1 -10 2 -11 1 -10 2 -11 
1 -10 2 -11 1 -8 2 -9 1 -8 2 -8 2 -8 1 -7 
2 -7 1 -6 2 -6 1 -6 2 -7 1 -7 2 -6 1 -6 
2 -5 1 -5 2 -3 1 -4 2 -2 1 -2 2 -1 1 -2 
2 -3 1 -4 2 -6 1 -8 2 -8 1 -8 2 -9 2 -7 
1 -7 2 -7 1 -5 2 -4 1 -5 2 -5 1 -6 2 -5 
1 -6 2 -5 1 -5 2 -4 1 -7 2 -9 1 -8 2 -7 
1 -6 2 -7 1 -7 2 -6 1 -5 2 -4 2 -5 1 -4 
2 -4 1 -3 2 -5 1 -5 2 -5 1 -6 2 -6 1 -4 
2 -4 1 -2 2 -3 1 -2 2 -2 1 -1 2 -1 1 -2 
2 -5 1 -3 2 -4 1 -2 2 -3 1 -3 2 -4 2 -6 
1 -7 2 -6 1 -5 2 -7 1 -9 2 -7 1 -7 2 -7 
1 -9 2 -9 1 -10 2 -9 1 -10 2 -10 1 -13 2 -12 
1 -11 2 -10 1 -10 2 -10 1 -9 2 -7 1 -9 2 -8 
2 -7 1 -6 2 -4 1 -5 2 -5 1 -5 2 -7 1 -7 
2 -8 1 -9 2 -10 1 -11 2 -11 1 -8 2 -10 1 -10 
2 -10 1 -12 2 -11 1 -11 2 -13 1 -12 2 -12 2 -12 
1 -14 2 -13 1 -11 2 -11 1 -10 2 -12 1 -13 2 -16 
1 -15 2 -15 1 -14 2 -15 1 -15 2 -16 1 -15 2 -16 
1 -16 2 -14 1 -13 2 -14 1 -13 2 -14 1 -12 2 -13 
2 -14 1 -20 2 417 1 417 2 416 1 417 2 416 1 417 
2 417 1 416 2 417 1 416 1 245 5770 259 254 MP stroke
0 -1470 5088 3199 2 MP stroke
gr

0 sg
%%IncludeResource: font Helvetica
/Helvetica /ISOLatin1Encoding 108 FMSR

4983 2590 mt  -90 rotate
(5 mV) s
90 rotate
gs 5058 259 2492 4412 rc
608 0 5088 4670 2 MP stroke
gr

5245 5034 mt 
(20 ms) s
gs 6226 259 1168 1818 rc
1 -1137 8 -2 9 -2 8 -1 9 -2 8 -1 8 -1 9 -1 
8 -1 9 -1 8 0 8 -1 9 -1 8 -1 9 -1 8 -1 
8 -1 9 0 8 0 9 0 8 0 8 0 9 -1 8 -1 
9 -1 8 0 8 -1 9 -1 8 -1 9 -2 8 -3 8 -2 
9 -4 8 -3 9 -4 8 -3 8 -3 9 -3 8 -3 8 -3 
6226 1453 41 MP stroke
9 -4 8 -3 9 -3 8 -3 8 -4 9 -4 8 -3 9 -4 
8 -4 8 -5 9 -4 8 -4 9 -4 8 -5 8 -4 9 -4 
8 -4 9 -3 8 -4 8 -5 9 -5 8 -5 9 -5 8 -5 
8 -5 9 -6 8 -5 9 -5 8 -6 8 -5 9 -5 8 -5 
9 -4 8 -5 8 -4 9 -5 8 -4 9 -5 8 -7 8 143 
9 143 8 143 9 143 8 143 8 143 9 143 8 143 8 143 
9 143 5 84 6976 259 51 MP stroke
0 -505 7393 1268 2 MP stroke
gr

7324 1142 mt  -90 rotate
(5 mV) s
90 rotate
gs 6226 259 1168 1818 rc
504 0 6561 1975 2 MP stroke
gr

6696 2176 mt 
(3 ms) s

end %%Color Dict

eplot
%%EndObject

epage
end

showpage

%%Trailer
%%EOF
