%!PS-Adobe-3.0 EPSF-3.0
%%Creator: MATLAB, The MathWorks, Inc. Version 7.14.0.739 (R2012a). Operating System: Linux 2.6.33.7.2-rt30-rt #1 SMP PREEMPT RT Tue Apr 17 15:22:21 CEST 2012 x86_64.
%%Title: ./IF_eta_correlations_cc_20140622040934.eps
%%CreationDate: 06/22/2014  04:09:39
%%DocumentNeededFonts: Helvetica
%%DocumentProcessColors: Cyan Magenta Yellow Black
%%LanguageLevel: 2
%%Pages: 1
%%BoundingBox:    40    11   533   342
%%EndComments

%%BeginProlog
% MathWorks dictionary
/MathWorks 160 dict begin
% definition operators
/bdef {bind def} bind def
/ldef {load def} bind def
/xdef {exch def} bdef
/xstore {exch store} bdef
% operator abbreviations
/c  /clip ldef
/cc /concat ldef
/cp /closepath ldef
/gr /grestore ldef
/gs /gsave ldef
/mt /moveto ldef
/np /newpath ldef
/cm /currentmatrix ldef
/sm /setmatrix ldef
/rm /rmoveto ldef
/rl /rlineto ldef
/s {show newpath} bdef
/sc {setcmykcolor} bdef
/sr /setrgbcolor ldef
/sg /setgray ldef
/w /setlinewidth ldef
/j /setlinejoin ldef
/cap /setlinecap ldef
/rc {rectclip} bdef
/rf {rectfill} bdef
% page state control
/pgsv () def
/bpage {/pgsv save def} bdef
/epage {pgsv restore} bdef
/bplot /gsave ldef
/eplot {stroke grestore} bdef
% orientation switch
/portraitMode 0 def /landscapeMode 1 def /rotateMode 2 def
% coordinate system mappings
/dpi2point 0 def
% font control
/FontSize 0 def
/FMS {/FontSize xstore findfont [FontSize 0 0 FontSize neg 0 0]
  makefont setfont} bdef
/reencode {exch dup where {pop load} {pop StandardEncoding} ifelse
  exch dup 3 1 roll findfont dup length dict begin
  { 1 index /FID ne {def}{pop pop} ifelse } forall
  /Encoding exch def currentdict end definefont pop} bdef
/isroman {findfont /CharStrings get /Agrave known} bdef
/FMSR {3 1 roll 1 index dup isroman {reencode} {pop pop} ifelse
  exch FMS} bdef
/csm {1 dpi2point div -1 dpi2point div scale neg translate
 dup landscapeMode eq {pop -90 rotate}
  {rotateMode eq {90 rotate} if} ifelse} bdef
% line types: solid, dotted, dashed, dotdash
/SO { [] 0 setdash } bdef
/DO { [.5 dpi2point mul 4 dpi2point mul] 0 setdash } bdef
/DA { [6 dpi2point mul] 0 setdash } bdef
/DD { [.5 dpi2point mul 4 dpi2point mul 6 dpi2point mul 4
  dpi2point mul] 0 setdash } bdef
% macros for lines and objects
/L {lineto stroke} bdef
/MP {3 1 roll moveto 1 sub {rlineto} repeat} bdef
/AP {{rlineto} repeat} bdef
/PDlw -1 def
/W {/PDlw currentlinewidth def setlinewidth} def
/PP {closepath eofill} bdef
/DP {closepath stroke} bdef
/MR {4 -2 roll moveto dup  0 exch rlineto exch 0 rlineto
  neg 0 exch rlineto closepath} bdef
/FR {MR stroke} bdef
/PR {MR fill} bdef
/L1i {{currentfile picstr readhexstring pop} image} bdef
/tMatrix matrix def
/MakeOval {newpath tMatrix currentmatrix pop translate scale
0 0 1 0 360 arc tMatrix setmatrix} bdef
/FO {MakeOval stroke} bdef
/PO {MakeOval fill} bdef
/PD {currentlinewidth 2 div 0 360 arc fill
   PDlw -1 eq not {PDlw w /PDlw -1 def} if} def
/FA {newpath tMatrix currentmatrix pop translate scale
  0 0 1 5 -2 roll arc tMatrix setmatrix stroke} bdef
/PA {newpath tMatrix currentmatrix pop	translate 0 0 moveto scale
  0 0 1 5 -2 roll arc closepath tMatrix setmatrix fill} bdef
/FAn {newpath tMatrix currentmatrix pop translate scale
  0 0 1 5 -2 roll arcn tMatrix setmatrix stroke} bdef
/PAn {newpath tMatrix currentmatrix pop translate 0 0 moveto scale
  0 0 1 5 -2 roll arcn closepath tMatrix setmatrix fill} bdef
/vradius 0 def /hradius 0 def /lry 0 def
/lrx 0 def /uly 0 def /ulx 0 def /rad 0 def
/MRR {/vradius xdef /hradius xdef /lry xdef /lrx xdef /uly xdef
  /ulx xdef newpath tMatrix currentmatrix pop ulx hradius add uly
  vradius add translate hradius vradius scale 0 0 1 180 270 arc 
  tMatrix setmatrix lrx hradius sub uly vradius add translate
  hradius vradius scale 0 0 1 270 360 arc tMatrix setmatrix
  lrx hradius sub lry vradius sub translate hradius vradius scale
  0 0 1 0 90 arc tMatrix setmatrix ulx hradius add lry vradius sub
  translate hradius vradius scale 0 0 1 90 180 arc tMatrix setmatrix
  closepath} bdef
/FRR {MRR stroke } bdef
/PRR {MRR fill } bdef
/MlrRR {/lry xdef /lrx xdef /uly xdef /ulx xdef /rad lry uly sub 2 div def
  newpath tMatrix currentmatrix pop ulx rad add uly rad add translate
  rad rad scale 0 0 1 90 270 arc tMatrix setmatrix lrx rad sub lry rad
  sub translate rad rad scale 0 0 1 270 90 arc tMatrix setmatrix
  closepath} bdef
/FlrRR {MlrRR stroke } bdef
/PlrRR {MlrRR fill } bdef
/MtbRR {/lry xdef /lrx xdef /uly xdef /ulx xdef /rad lrx ulx sub 2 div def
  newpath tMatrix currentmatrix pop ulx rad add uly rad add translate
  rad rad scale 0 0 1 180 360 arc tMatrix setmatrix lrx rad sub lry rad
  sub translate rad rad scale 0 0 1 0 180 arc tMatrix setmatrix
  closepath} bdef
/FtbRR {MtbRR stroke } bdef
/PtbRR {MtbRR fill } bdef
/stri 6 array def /dtri 6 array def
/smat 6 array def /dmat 6 array def
/tmat1 6 array def /tmat2 6 array def /dif 3 array def
/asub {/ind2 exch def /ind1 exch def dup dup
  ind1 get exch ind2 get sub exch } bdef
/tri_to_matrix {
  2 0 asub 3 1 asub 4 0 asub 5 1 asub
  dup 0 get exch 1 get 7 -1 roll astore } bdef
/compute_transform {
  dmat dtri tri_to_matrix tmat1 invertmatrix 
  smat stri tri_to_matrix tmat2 concatmatrix } bdef
/ds {stri astore pop} bdef
/dt {dtri astore pop} bdef
/db {2 copy /cols xdef /rows xdef mul dup 3 mul string
  currentfile 
  3 index 0 eq {/ASCIIHexDecode filter}
  {/ASCII85Decode filter 3 index 2 eq {/RunLengthDecode filter} if }
  ifelse exch readstring pop
  dup 0 3 index getinterval /rbmap xdef
  dup 2 index dup getinterval /gbmap xdef
  1 index dup 2 mul exch getinterval /bbmap xdef pop pop}bdef
/it {gs np dtri aload pop moveto lineto lineto cp c
  cols rows 8 compute_transform 
  rbmap gbmap bbmap true 3 colorimage gr}bdef
/il {newpath moveto lineto stroke}bdef
currentdict end def
%%EndProlog

%%BeginSetup
MathWorks begin

0 cap

end
%%EndSetup

%%Page: 1 1
%%BeginPageSetup
%%PageBoundingBox:    40    11   533   342
MathWorks begin
bpage
%%EndPageSetup

%%BeginObject: obj1
bplot

/dpi2point 12 def
portraitMode 0000 4320 csm

  480   209  5924  3976 rc
76 dict begin %Colortable dictionary
/c0 { 0.000000 0.000000 0.000000 sr} bdef
/c1 { 1.000000 1.000000 1.000000 sr} bdef
/c2 { 0.900000 0.000000 0.000000 sr} bdef
/c3 { 0.000000 0.820000 0.000000 sr} bdef
/c4 { 0.000000 0.000000 0.800000 sr} bdef
/c5 { 0.910000 0.820000 0.320000 sr} bdef
/c6 { 1.000000 0.260000 0.820000 sr} bdef
/c7 { 0.000000 0.820000 0.820000 sr} bdef
c0
1 j
1 sg
   0    0 6913 4321 rf
6 w
0 3521 5356 0 0 -3521 899 3845 4 MP
PP
-5356 0 0 3521 5356 0 0 -3521 899 3845 5 MP stroke
4 w
DO
SO
6 w
0 sg
 899 3845 mt 6255 3845 L
 899 3845 mt  899  324 L
 899 3845 mt  899 3791 L
%%IncludeResource: font Helvetica
/Helvetica /ISOLatin1Encoding 120 FMSR

 866 3990 mt 
(0) s
1970 3845 mt 1970 3791 L
1904 3990 mt 
(20) s
3041 3845 mt 3041 3791 L
2975 3990 mt 
(40) s
4112 3845 mt 4112 3791 L
4046 3990 mt 
(60) s
5183 3845 mt 5183 3791 L
5117 3990 mt 
(80) s
6255 3845 mt 6255 3791 L
6155 3990 mt 
(100) s
 899 3845 mt  952 3845 L
 798 3889 mt 
(0) s
 899 3140 mt  952 3140 L
 698 3184 mt 
(0.1) s
 899 2436 mt  952 2436 L
 698 2480 mt 
(0.2) s
 899 1732 mt  952 1732 L
 698 1776 mt 
(0.3) s
 899 1028 mt  952 1028 L
 698 1072 mt 
(0.4) s
 899  324 mt  952  324 L
 698  368 mt 
(0.5) s
gs 899 324 5357 3522 rc
gr

gs 952 1047 5354 2849 rc
0.6 sg
  24   24 1204 2462 PO
  24   24 1136 2446 PO
  24   24 1074 2674 PO
  24   24 1162 2312 PO
  24   24 1121 2523 PO
  24   24 1191 2344 PO
  24   24 1169 2518 PO
  24   24 1232 2328 PO
  24   24 1344 1758 PO
  24   24 1436 1784 PO
  24   24 1269 1936 PO
  24   24 1366 1844 PO
  24   24 1450 1921 PO
  24   24 1211 2492 PO
  24   24 1310 2163 PO
  24   24 1395 1538 PO
  24   24 1471 1398 PO
  24   24 1278 2184 PO
  24   24 1360 1981 PO
  24   24 1432 1990 PO
  24   24 1348 2305 PO
  24   24 1417 1760 PO
  24   24 1482 2089 PO
  24   24 1428 2255 PO
  24   24 1494 2279 PO
  24   24 1531 1847 PO
  24   24 1660 1808 PO
  24   24 1775 2398 PO
  24   24 1562 2170 PO
  24   24 1681 1785 PO
  24   24 1821 2482 PO
  24   24 1603 2156 PO
  24   24 1711 1785 PO
  24   24 1942 3022 PO
  24   24 1552 2065 PO
  24   24 1654 1904 PO
  24   24 1767 2043 PO
  24   24 2105 3060 PO
  24   24 1536 2544 PO
  24   24 1634 2322 PO
  24   24 1726 2365 PO
  24   24 1917 2716 PO
  24   24 1649 2337 PO
  24   24 1743 2393 PO
  24   24 1892 2591 PO
  24   24 1816 2564 PO
  24   24 1964 2552 PO
  24   24 2096 2550 PO
  24   24 1204 2462 FO
  24   24 1136 2446 FO
  24   24 1074 2674 FO
  24   24 1162 2312 FO
  24   24 1121 2523 FO
  24   24 1191 2344 FO
  24   24 1169 2518 FO
  24   24 1232 2328 FO
  24   24 1344 1758 FO
  24   24 1436 1784 FO
  24   24 1269 1936 FO
  24   24 1366 1844 FO
  24   24 1450 1921 FO
  24   24 1211 2492 FO
  24   24 1310 2163 FO
  24   24 1395 1538 FO
  24   24 1471 1398 FO
  24   24 1278 2184 FO
  24   24 1360 1981 FO
  24   24 1432 1990 FO
  24   24 1348 2305 FO
  24   24 1417 1760 FO
  24   24 1482 2089 FO
  24   24 1428 2255 FO
  24   24 1494 2279 FO
  24   24 1531 1847 FO
  24   24 1660 1808 FO
  24   24 1775 2398 FO
  24   24 1562 2170 FO
  24   24 1681 1785 FO
  24   24 1821 2482 FO
  24   24 1603 2156 FO
  24   24 1711 1785 FO
  24   24 1942 3022 FO
  24   24 1552 2065 FO
  24   24 1654 1904 FO
  24   24 1767 2043 FO
  24   24 2105 3060 FO
  24   24 1536 2544 FO
  24   24 1634 2322 FO
  24   24 1726 2365 FO
  24   24 1917 2716 FO
  24   24 1649 2337 FO
  24   24 1743 2393 FO
  24   24 1892 2591 FO
  24   24 1816 2564 FO
  24   24 1964 2552 FO
  24   24 2096 2550 FO
gr

0.6 sg
gs 899 324 5357 3522 rc
gr

gs 952 1047 5354 2849 rc
  24   24 5653 2949 PO
  24   24 5653 2949 FO
gr

gs 899 324 5357 3522 rc
gr

gs 952 1047 5354 2849 rc
  24   24 5470 2976 PO
  24   24 5470 2976 FO
gr

gs 899 324 5357 3522 rc
gr

gs 952 1047 5354 2849 rc
  24   24 5364 3152 PO
  24   24 5364 3152 FO
gr

gs 899 324 5357 3522 rc
gr

gs 952 1047 5354 2849 rc
  24   24 5324 2974 PO
  24   24 5324 2974 FO
gr

gs 899 324 5357 3522 rc
gr

gs 952 1047 5354 2849 rc
  24   24 5340 3048 PO
  24   24 5340 3048 FO
gr

gs 899 324 5357 3522 rc
gr

gs 952 1047 5354 2849 rc
  24   24 4610 2815 PO
  24   24 5406 3009 PO
  24   24 6132 2932 PO
  24   24 4610 2815 FO
  24   24 5406 3009 FO
  24   24 6132 2932 FO
gr

gs 899 324 5357 3522 rc
gr

gs 952 1047 5354 2849 rc
  24   24 4392 3141 PO
  24   24 4952 3111 PO
  24   24 5525 2998 PO
  24   24 6009 3134 PO
  24   24 4392 3141 FO
  24   24 4952 3111 FO
  24   24 5525 2998 FO
  24   24 6009 3134 FO
gr

gs 899 324 5357 3522 rc
gr

gs 952 1047 5354 2849 rc
  24   24 4455 3190 PO
  24   24 4877 3143 PO
  24   24 5238 3087 PO
  24   24 5631 3073 PO
  24   24 5958 3097 PO
  24   24 4455 3190 FO
  24   24 4877 3143 FO
  24   24 5238 3087 FO
  24   24 5631 3073 FO
  24   24 5958 3097 FO
gr

gs 899 324 5357 3522 rc
gr

gs 952 1047 5354 2849 rc
  24   24 4422 3103 PO
  24   24 4692 2886 PO
  24   24 4941 2999 PO
  24   24 5212 3027 PO
  24   24 5444 3046 PO
  24   24 5721 3066 PO
  24   24 5950 3060 PO
  24   24 6188 3146 PO
  24   24 6043 3073 PO
  24   24 4422 3103 FO
  24   24 4692 2886 FO
  24   24 4941 2999 FO
  24   24 5212 3027 FO
  24   24 5444 3046 FO
  24   24 5721 3066 FO
  24   24 5950 3060 FO
  24   24 6188 3146 FO
  24   24 6043 3073 FO
gr

gs 899 324 5357 3522 rc
gr

gs 952 1047 5354 2849 rc
gr

gs 899 324 5357 3522 rc
gr

gs 952 1047 5354 2849 rc
gr

gs 899 324 5357 3522 rc
gr

gs 952 1047 5354 2849 rc
  24   24 6003 2884 PO
  24   24 6003 2884 FO
gr

gs 899 324 5357 3522 rc
gr

gs 952 1047 5354 2849 rc
gr

gs 899 324 5357 3522 rc
gr

gs 952 1047 5354 2849 rc
gr

gs 899 324 5357 3522 rc
gr

gs 952 1047 5354 2849 rc
gr

gs 899 324 5357 3522 rc
gr

gs 952 1047 5354 2849 rc
  24   24 1001 2531 PO
  24   24 1245 2360 PO
  24   24 1090 2583 PO
  24   24 1186 2306 PO
  24   24 1262 1988 PO
  24   24 1141 2258 PO
  24   24 1218 2110 PO
  24   24 1194 2359 PO
  24   24 1257 2182 PO
  24   24 1248 2142 PO
  24   24 1456 1446 PO
  24   24 1540 1753 PO
  24   24 1282 1687 PO
  24   24 1384 1631 PO
  24   24 1471 1856 PO
  24   24 1325 1708 PO
  24   24 1414 1317 PO
  24   24 1493 1447 PO
  24   24 1293 1958 PO
  24   24 1377 1630 PO
  24   24 1451 1621 PO
  24   24 1534 1863 PO
  24   24 1365 1973 PO
  24   24 1436 1644 PO
  24   24 1504 1781 PO
  24   24 1448 1782 PO
  24   24 1516 1682 PO
  24   24 1671 1790 PO
  24   24 1483 1423 PO
  24   24 1588 1434 PO
  24   24 1711 2529 PO
  24   24 1412 1662 PO
  24   24 1519 1368 PO
  24   24 1614 1218 PO
  24   24 1818 2588 PO
  24   24 1373 2123 PO
  24   24 1475 1388 PO
  24   24 1565 1217 PO
  24   24 1664 1707 PO
  24   24 1461 1800 PO
  24   24 1546 1619 PO
  24   24 1628 1742 PO
  24   24 1796 2414 PO
  24   24 1560 1932 PO
  24   24 1642 1990 PO
  24   24 1774 2233 PO
  24   24 1707 2149 PO
  24   24 1838 2309 PO
  24   24 1571 1976 PO
  24   24 1692 1875 PO
  24   24 1833 2232 PO
  24   24 1613 1469 PO
  24   24 1722 1408 PO
  24   24 1957 2589 PO
  24   24 1561 1561 PO
  24   24 1665 1713 PO
  24   24 1779 1610 PO
  24   24 2121 2755 PO
  24   24 1545 1865 PO
  24   24 1644 1912 PO
  24   24 1738 1903 PO
  24   24 1931 2221 PO
  24   24 1660 1980 PO
  24   24 1754 1851 PO
  24   24 1906 2091 PO
  24   24 1829 1885 PO
  24   24 1979 2085 PO
  24   24 2113 2195 PO
  24   24 1001 2531 FO
  24   24 1245 2360 FO
  24   24 1090 2583 FO
  24   24 1186 2306 FO
  24   24 1262 1988 FO
  24   24 1141 2258 FO
  24   24 1218 2110 FO
  24   24 1194 2359 FO
  24   24 1257 2182 FO
  24   24 1248 2142 FO
  24   24 1456 1446 FO
  24   24 1540 1753 FO
  24   24 1282 1687 FO
  24   24 1384 1631 FO
  24   24 1471 1856 FO
  24   24 1325 1708 FO
  24   24 1414 1317 FO
  24   24 1493 1447 FO
  24   24 1293 1958 FO
  24   24 1377 1630 FO
  24   24 1451 1621 FO
  24   24 1534 1863 FO
  24   24 1365 1973 FO
  24   24 1436 1644 FO
  24   24 1504 1781 FO
  24   24 1448 1782 FO
  24   24 1516 1682 FO
  24   24 1671 1790 FO
  24   24 1483 1423 FO
  24   24 1588 1434 FO
  24   24 1711 2529 FO
  24   24 1412 1662 FO
  24   24 1519 1368 FO
  24   24 1614 1218 FO
  24   24 1818 2588 FO
  24   24 1373 2123 FO
  24   24 1475 1388 FO
  24   24 1565 1217 FO
  24   24 1664 1707 FO
  24   24 1461 1800 FO
  24   24 1546 1619 FO
  24   24 1628 1742 FO
  24   24 1796 2414 FO
  24   24 1560 1932 FO
  24   24 1642 1990 FO
  24   24 1774 2233 FO
  24   24 1707 2149 FO
  24   24 1838 2309 FO
  24   24 1571 1976 FO
  24   24 1692 1875 FO
  24   24 1833 2232 FO
  24   24 1613 1469 FO
  24   24 1722 1408 FO
  24   24 1957 2589 FO
  24   24 1561 1561 FO
  24   24 1665 1713 FO
  24   24 1779 1610 FO
  24   24 2121 2755 FO
  24   24 1545 1865 FO
  24   24 1644 1912 FO
  24   24 1738 1903 FO
  24   24 1931 2221 FO
  24   24 1660 1980 FO
  24   24 1754 1851 FO
  24   24 1906 2091 FO
  24   24 1829 1885 FO
  24   24 1979 2085 FO
  24   24 2113 2195 FO
gr

gs 899 324 5357 3522 rc
gr

gs 952 1047 5354 2849 rc
  24   24 5312 2860 PO
  24   24 5312 2860 FO
gr

gs 899 324 5357 3522 rc
gr

gs 952 1047 5354 2849 rc
  24   24 5210 2887 PO
  24   24 5210 2887 FO
gr

gs 899 324 5357 3522 rc
gr

gs 952 1047 5354 2849 rc
  24   24 5172 2569 PO
  24   24 5172 2569 FO
gr

gs 899 324 5357 3522 rc
gr

gs 952 1047 5354 2849 rc
  24   24 5187 2862 PO
  24   24 6168 2743 PO
  24   24 5187 2862 FO
  24   24 6168 2743 FO
gr

gs 899 324 5357 3522 rc
gr

gs 952 1047 5354 2849 rc
  24   24 4482 2536 PO
  24   24 5251 2743 PO
  24   24 5952 2586 PO
  24   24 4482 2536 FO
  24   24 5251 2743 FO
  24   24 5952 2586 FO
gr

gs 899 324 5357 3522 rc
gr

gs 952 1047 5354 2849 rc
  24   24 4271 2705 PO
  24   24 4813 2773 PO
  24   24 5365 2568 PO
  24   24 5833 2812 PO
  24   24 4271 2705 FO
  24   24 4813 2773 FO
  24   24 5365 2568 FO
  24   24 5833 2812 FO
gr

gs 899 324 5357 3522 rc
gr

gs 952 1047 5354 2849 rc
  24   24 4333 2873 PO
  24   24 4740 2694 PO
  24   24 5089 2757 PO
  24   24 5468 2568 PO
  24   24 5784 2733 PO
  24   24 6108 2743 PO
  24   24 4301 2666 PO
  24   24 4562 2704 PO
  24   24 4802 2561 PO
  24   24 5064 2661 PO
  24   24 5288 2717 PO
  24   24 5555 2734 PO
  24   24 5776 2540 PO
  24   24 6006 2668 PO
  24   24 4333 2873 FO
  24   24 4740 2694 FO
  24   24 5089 2757 FO
  24   24 5468 2568 FO
  24   24 5784 2733 FO
  24   24 6108 2743 FO
  24   24 4301 2666 FO
  24   24 4562 2704 FO
  24   24 4802 2561 FO
  24   24 5064 2661 FO
  24   24 5288 2717 FO
  24   24 5555 2734 FO
  24   24 5776 2540 FO
  24   24 6006 2668 FO
gr

gs 899 324 5357 3522 rc
gr

gs 952 1047 5354 2849 rc
gr

gs 899 324 5357 3522 rc
gr

gs 952 1047 5354 2849 rc
  24   24 1078 1929 PO
  24   24 1301 1880 PO
  24   24 1168 2089 PO
  24   24 1253 1798 PO
  24   24 1326 1780 PO
  24   24 1226 2004 PO
  24   24 1296 1909 PO
  24   24 1286 1941 PO
  24   24 1345 1565 PO
  24   24 1499 1552 PO
  24   24 1606 2043 PO
  24   24 1346 1895 PO
  24   24 1439 1538 PO
  24   24 1522 1649 PO
  24   24 1312 1968 PO
  24   24 1400 1783 PO
  24   24 1479 1644 PO
  24   24 1565 1718 PO
  24   24 1388 1703 PO
  24   24 1463 1641 PO
  24   24 1534 1657 PO
  24   24 1475 1629 PO
  24   24 1547 1828 PO
  24   24 1603 1806 PO
  24   24 1733 2239 PO
  24   24 1426 1603 PO
  24   24 1536 1698 PO
  24   24 1634 1596 PO
  24   24 1844 2842 PO
  24   24 1490 1822 PO
  24   24 1583 1688 PO
  24   24 1685 1787 PO
  24   24 1476 2020 PO
  24   24 1564 1602 PO
  24   24 1648 1661 PO
  24   24 1821 2352 PO
  24   24 1578 1753 PO
  24   24 1663 1867 PO
  24   24 1798 2177 PO
  24   24 1729 2041 PO
  24   24 1863 2237 PO
  24   24 1650 2185 PO
  24   24 1765 1999 PO
  24   24 2012 2175 PO
  24   24 1596 1873 PO
  24   24 1705 2003 PO
  24   24 1825 1976 PO
  24   24 2185 2239 PO
  24   24 1683 1807 PO
  24   24 1782 2001 PO
  24   24 1985 2017 PO
  24   24 1700 1962 PO
  24   24 1799 1951 PO
  24   24 1958 2021 PO
  24   24 2232 2113 PO
  24   24 1877 1894 PO
  24   24 2036 1950 PO
  24   24 2225 2108 PO
  24   24 2176 1759 PO
  24   24 1078 1929 FO
  24   24 1301 1880 FO
  24   24 1168 2089 FO
  24   24 1253 1798 FO
  24   24 1326 1780 FO
  24   24 1226 2004 FO
  24   24 1296 1909 FO
  24   24 1286 1941 FO
  24   24 1345 1565 FO
  24   24 1499 1552 FO
  24   24 1606 2043 FO
  24   24 1346 1895 FO
  24   24 1439 1538 FO
  24   24 1522 1649 FO
  24   24 1312 1968 FO
  24   24 1400 1783 FO
  24   24 1479 1644 FO
  24   24 1565 1718 FO
  24   24 1388 1703 FO
  24   24 1463 1641 FO
  24   24 1534 1657 FO
  24   24 1475 1629 FO
  24   24 1547 1828 FO
  24   24 1603 1806 FO
  24   24 1733 2239 FO
  24   24 1426 1603 FO
  24   24 1536 1698 FO
  24   24 1634 1596 FO
  24   24 1844 2842 FO
  24   24 1490 1822 FO
  24   24 1583 1688 FO
  24   24 1685 1787 FO
  24   24 1476 2020 FO
  24   24 1564 1602 FO
  24   24 1648 1661 FO
  24   24 1821 2352 FO
  24   24 1578 1753 FO
  24   24 1663 1867 FO
  24   24 1798 2177 FO
  24   24 1729 2041 FO
  24   24 1863 2237 FO
  24   24 1650 2185 FO
  24   24 1765 1999 FO
  24   24 2012 2175 FO
  24   24 1596 1873 FO
  24   24 1705 2003 FO
  24   24 1825 1976 FO
  24   24 2185 2239 FO
  24   24 1683 1807 FO
  24   24 1782 2001 FO
  24   24 1985 2017 FO
  24   24 1700 1962 FO
  24   24 1799 1951 FO
  24   24 1958 2021 FO
  24   24 2232 2113 FO
  24   24 1877 1894 FO
  24   24 2036 1950 FO
  24   24 2225 2108 FO
  24   24 2176 1759 FO
gr

gs 899 324 5357 3522 rc
gr

gs 952 1047 5354 2849 rc
  24   24 5044 2770 PO
  24   24 5044 2770 FO
gr

gs 899 324 5357 3522 rc
gr

gs 952 1047 5354 2849 rc
  24   24 5007 2574 PO
  24   24 6190 3017 PO
  24   24 5007 2574 FO
  24   24 6190 3017 FO
gr

gs 899 324 5357 3522 rc
gr

gs 952 1047 5354 2849 rc
  24   24 3959 2495 PO
  24   24 5021 2411 PO
  24   24 5965 2730 PO
  24   24 3959 2495 FO
  24   24 5021 2411 FO
  24   24 5965 2730 FO
gr

gs 899 324 5357 3522 rc
gr

gs 952 1047 5354 2849 rc
  24   24 4344 2346 PO
  24   24 5083 2262 PO
  24   24 5757 2357 PO
  24   24 4344 2346 FO
  24   24 5083 2262 FO
  24   24 5757 2357 FO
gr

gs 899 324 5357 3522 rc
gr

gs 952 1047 5354 2849 rc
  24   24 4141 2666 PO
  24   24 4662 2658 PO
  24   24 5193 2558 PO
  24   24 5643 2519 PO
  24   24 6066 2438 PO
  24   24 4201 2507 PO
  24   24 4591 2166 PO
  24   24 4927 2425 PO
  24   24 5292 2307 PO
  24   24 5596 2456 PO
  24   24 5907 2522 PO
  24   24 4169 2329 PO
  24   24 4420 2240 PO
  24   24 4652 2428 PO
  24   24 4903 2560 PO
  24   24 5119 2463 PO
  24   24 5376 2460 PO
  24   24 5588 2453 PO
  24   24 5809 2514 PO
  24   24 4141 2666 FO
  24   24 4662 2658 FO
  24   24 5193 2558 FO
  24   24 5643 2519 FO
  24   24 6066 2438 FO
  24   24 4201 2507 FO
  24   24 4591 2166 FO
  24   24 4927 2425 FO
  24   24 5292 2307 FO
  24   24 5596 2456 FO
  24   24 5907 2522 FO
  24   24 4169 2329 FO
  24   24 4420 2240 FO
  24   24 4652 2428 FO
  24   24 4903 2560 FO
  24   24 5119 2463 FO
  24   24 5376 2460 FO
  24   24 5588 2453 FO
  24   24 5809 2514 FO
gr

gs 899 324 5357 3522 rc
gr

gs 952 1047 5354 2849 rc
  24   24 1198 2182 PO
  24   24 1175 2019 PO
  24   24 1374 1761 PO
  24   24 1446 1687 PO
  24   24 1262 1793 PO
  24   24 1340 1518 PO
  24   24 1408 1798 PO
  24   24 1329 1772 PO
  24   24 1394 1688 PO
  24   24 1405 1644 PO
  24   24 1560 1096 PO
  24   24 1338 1693 PO
  24   24 1431 1808 PO
  24   24 1515 1343 PO
  24   24 1606 1661 PO
  24   24 1418 1763 PO
  24   24 1498 1454 PO
  24   24 1573 1528 PO
  24   24 1511 1546 PO
  24   24 1587 1562 PO
  24   24 1708 1906 PO
  24   24 1646 1775 PO
  24   24 1879 2196 PO
  24   24 1513 1264 PO
  24   24 1609 1477 PO
  24   24 1715 1328 PO
  24   24 1498 1436 PO
  24   24 1589 1654 PO
  24   24 1676 1532 PO
  24   24 1856 1851 PO
  24   24 1604 1465 PO
  24   24 1692 1364 PO
  24   24 1832 1657 PO
  24   24 1761 1608 PO
  24   24 1900 1626 PO
  24   24 1811 2229 PO
  24   24 1948 2050 PO
  24   24 2355 2094 PO
  24   24 1898 2106 PO
  24   24 2129 1669 PO
  24   24 2567 2253 PO
  24   24 1805 2214 PO
  24   24 1918 2020 PO
  24   24 2098 1962 PO
  24   24 2408 1877 PO
  24   24 2007 1717 PO
  24   24 2186 1489 PO
  24   24 2400 1805 PO
  24   24 2666 1901 PO
  24   24 2345 1535 PO
  24   24 2520 1781 PO
  24   24 2681 1689 PO
  24   24 1198 2182 FO
  24   24 1175 2019 FO
  24   24 1374 1761 FO
  24   24 1446 1687 FO
  24   24 1262 1793 FO
  24   24 1340 1518 FO
  24   24 1408 1798 FO
  24   24 1329 1772 FO
  24   24 1394 1688 FO
  24   24 1405 1644 FO
  24   24 1560 1096 FO
  24   24 1338 1693 FO
  24   24 1431 1808 FO
  24   24 1515 1343 FO
  24   24 1606 1661 FO
  24   24 1418 1763 FO
  24   24 1498 1454 FO
  24   24 1573 1528 FO
  24   24 1511 1546 FO
  24   24 1587 1562 FO
  24   24 1708 1906 FO
  24   24 1646 1775 FO
  24   24 1879 2196 FO
  24   24 1513 1264 FO
  24   24 1609 1477 FO
  24   24 1715 1328 FO
  24   24 1498 1436 FO
  24   24 1589 1654 FO
  24   24 1676 1532 FO
  24   24 1856 1851 FO
  24   24 1604 1465 FO
  24   24 1692 1364 FO
  24   24 1832 1657 FO
  24   24 1761 1608 FO
  24   24 1900 1626 FO
  24   24 1811 2229 FO
  24   24 1948 2050 FO
  24   24 2355 2094 FO
  24   24 1898 2106 FO
  24   24 2129 1669 FO
  24   24 2567 2253 FO
  24   24 1805 2214 FO
  24   24 1918 2020 FO
  24   24 2098 1962 FO
  24   24 2408 1877 FO
  24   24 2007 1717 FO
  24   24 2186 1489 FO
  24   24 2400 1805 FO
  24   24 2666 1901 FO
  24   24 2345 1535 FO
  24   24 2520 1781 FO
  24   24 2681 1689 FO
gr

gs 899 324 5357 3522 rc
gr

gs 952 1047 5354 2849 rc
  24   24 4912 2552 PO
  24   24 6068 2841 PO
  24   24 3888 2570 PO
  24   24 4926 2450 PO
  24   24 5848 2637 PO
  24   24 4912 2552 FO
  24   24 6068 2841 FO
  24   24 3888 2570 FO
  24   24 4926 2450 FO
  24   24 5848 2637 FO
gr

gs 899 324 5357 3522 rc
gr

gs 952 1047 5354 2849 rc
  24   24 4264 2512 PO
  24   24 4986 2456 PO
  24   24 5645 2447 PO
  24   24 6188 2754 PO
  24   24 4066 2520 PO
  24   24 4575 2368 PO
  24   24 5094 2371 PO
  24   24 5533 2527 PO
  24   24 5946 2520 PO
  24   24 3804 2385 PO
  24   24 4124 2432 PO
  24   24 4506 2431 PO
  24   24 4834 2563 PO
  24   24 5190 2491 PO
  24   24 5487 2584 PO
  24   24 5791 2507 PO
  24   24 4094 2497 PO
  24   24 4339 2383 PO
  24   24 4565 2331 PO
  24   24 4810 2335 PO
  24   24 5021 2406 PO
  24   24 5272 2405 PO
  24   24 5480 2270 PO
  24   24 5695 2536 PO
  24   24 4264 2512 FO
  24   24 4986 2456 FO
  24   24 5645 2447 FO
  24   24 6188 2754 FO
  24   24 4066 2520 FO
  24   24 4575 2368 FO
  24   24 5094 2371 FO
  24   24 5533 2527 FO
  24   24 5946 2520 FO
  24   24 3804 2385 FO
  24   24 4124 2432 FO
  24   24 4506 2431 FO
  24   24 4834 2563 FO
  24   24 5190 2491 FO
  24   24 5487 2584 FO
  24   24 5791 2507 FO
  24   24 4094 2497 FO
  24   24 4339 2383 FO
  24   24 4565 2331 FO
  24   24 4810 2335 FO
  24   24 5021 2406 FO
  24   24 5272 2405 FO
  24   24 5480 2270 FO
  24   24 5695 2536 FO
gr

gs 899 324 5357 3522 rc
gr

gs 952 1047 5354 2849 rc
  24   24 6162 3418 PO
  24   24 6162 3418 FO
gr

gs 899 324 5357 3522 rc
gr

gs 952 1047 5354 2849 rc
  24   24 6130 3478 PO
  24   24 6130 3478 FO
gr

gs 899 324 5357 3522 rc
gr

gs 952 1047 5354 2849 rc
  24   24 1306 1593 PO
  24   24 1370 1877 PO
  24   24 1296 1666 PO
  24   24 1357 1428 PO
  24   24 1366 1529 PO
  24   24 1470 1529 PO
  24   24 1556 1537 PO
  24   24 1381 1393 PO
  24   24 1455 1431 PO
  24   24 1525 1488 PO
  24   24 1467 1435 PO
  24   24 1537 1568 PO
  24   24 1593 1528 PO
  24   24 1658 1300 PO
  24   24 1456 1601 PO
  24   24 1541 1373 PO
  24   24 1622 1491 PO
  24   24 1789 1886 PO
  24   24 1555 1571 PO
  24   24 1637 1655 PO
  24   24 1767 1960 PO
  24   24 1701 1711 PO
  24   24 1831 1901 PO
  24   24 2110 2193 PO
  24   24 1539 1772 PO
  24   24 1637 1583 PO
  24   24 1730 1629 PO
  24   24 1922 1850 PO
  24   24 1653 1664 PO
  24   24 1747 1514 PO
  24   24 1897 1796 PO
  24   24 1821 1725 PO
  24   24 1970 1651 PO
  24   24 2102 1794 PO
  24   24 2320 1738 PO
  24   24 2826 2087 PO
  24   24 2285 1904 PO
  24   24 2642 1705 PO
  24   24 3068 1928 PO
  24   24 2179 1712 PO
  24   24 2386 1847 PO
  24   24 2633 1934 PO
  24   24 2940 1863 PO
  24   24 3268 1849 PO
  24   24 2570 1851 PO
  24   24 2771 1735 PO
  24   24 2978 1789 PO
  24   24 3224 1969 PO
  24   24 2958 1698 PO
  24   24 3116 1797 PO
  24   24 3262 1748 PO
  24   24 6022 2954 PO
  24   24 3861 2469 PO
  24   24 4890 2265 PO
  24   24 5804 2652 PO
  24   24 1306 1593 FO
  24   24 1370 1877 FO
  24   24 1296 1666 FO
  24   24 1357 1428 FO
  24   24 1366 1529 FO
  24   24 1470 1529 FO
  24   24 1556 1537 FO
  24   24 1381 1393 FO
  24   24 1455 1431 FO
  24   24 1525 1488 FO
  24   24 1467 1435 FO
  24   24 1537 1568 FO
  24   24 1593 1528 FO
  24   24 1658 1300 FO
  24   24 1456 1601 FO
  24   24 1541 1373 FO
  24   24 1622 1491 FO
  24   24 1789 1886 FO
  24   24 1555 1571 FO
  24   24 1637 1655 FO
  24   24 1767 1960 FO
  24   24 1701 1711 FO
  24   24 1831 1901 FO
  24   24 2110 2193 FO
  24   24 1539 1772 FO
  24   24 1637 1583 FO
  24   24 1730 1629 FO
  24   24 1922 1850 FO
  24   24 1653 1664 FO
  24   24 1747 1514 FO
  24   24 1897 1796 FO
  24   24 1821 1725 FO
  24   24 1970 1651 FO
  24   24 2102 1794 FO
  24   24 2320 1738 FO
  24   24 2826 2087 FO
  24   24 2285 1904 FO
  24   24 2642 1705 FO
  24   24 3068 1928 FO
  24   24 2179 1712 FO
  24   24 2386 1847 FO
  24   24 2633 1934 FO
  24   24 2940 1863 FO
  24   24 3268 1849 FO
  24   24 2570 1851 FO
  24   24 2771 1735 FO
  24   24 2978 1789 FO
  24   24 3224 1969 FO
  24   24 2958 1698 FO
  24   24 3116 1797 FO
  24   24 3262 1748 FO
  24   24 6022 2954 FO
  24   24 3861 2469 FO
  24   24 4890 2265 FO
  24   24 5804 2652 FO
gr

gs 899 324 5357 3522 rc
gr

gs 952 1047 5354 2849 rc
  24   24 4234 2001 PO
  24   24 4950 2185 PO
  24   24 5603 2321 PO
  24   24 6141 2589 PO
  24   24 4038 2255 PO
  24   24 4542 2283 PO
  24   24 5057 2051 PO
  24   24 5492 2213 PO
  24   24 5902 2308 PO
  24   24 3778 2096 PO
  24   24 4096 2123 PO
  24   24 4474 2174 PO
  24   24 4799 2155 PO
  24   24 5152 2102 PO
  24   24 5446 2307 PO
  24   24 5748 2107 PO
  24   24 4065 2127 PO
  24   24 4308 1882 PO
  24   24 4532 2055 PO
  24   24 4776 2009 PO
  24   24 4985 2185 PO
  24   24 5233 2101 PO
  24   24 5439 2204 PO
  24   24 5653 2203 PO
  24   24 4234 2001 FO
  24   24 4950 2185 FO
  24   24 5603 2321 FO
  24   24 6141 2589 FO
  24   24 4038 2255 FO
  24   24 4542 2283 FO
  24   24 5057 2051 FO
  24   24 5492 2213 FO
  24   24 5902 2308 FO
  24   24 3778 2096 FO
  24   24 4096 2123 FO
  24   24 4474 2174 FO
  24   24 4799 2155 FO
  24   24 5152 2102 FO
  24   24 5446 2307 FO
  24   24 5748 2107 FO
  24   24 4065 2127 FO
  24   24 4308 1882 FO
  24   24 4532 2055 FO
  24   24 4776 2009 FO
  24   24 4985 2185 FO
  24   24 5233 2101 FO
  24   24 5439 2204 FO
  24   24 5653 2203 FO
gr

gs 899 324 5357 3522 rc
gr

gs 952 1047 5354 2849 rc
  24   24 6040 2886 PO
  24   24 6040 2886 FO
gr

gs 899 324 5357 3522 rc
gr

gs 952 1047 5354 2849 rc
  24   24 6117 2942 PO
  24   24 6117 2942 FO
gr

gs 899 324 5357 3522 rc
gr

gs 952 1047 5354 2849 rc
  24   24 5591 2975 PO
  24   24 6254 3015 PO
  24   24 5591 2975 FO
  24   24 6254 3015 FO
gr

gs 899 324 5357 3522 rc
gr

gs 952 1047 5354 2849 rc
  24   24 5922 2906 PO
  24   24 5922 2906 FO
gr

gs 899 324 5357 3522 rc
gr

gs 952 1047 5354 2849 rc
  24   24 5579 2981 PO
  24   24 5892 3041 PO
  24   24 6161 3091 PO
  24   24 5579 2981 FO
  24   24 5892 3041 FO
  24   24 6161 3091 FO
gr

gs 899 324 5357 3522 rc
gr

gs 952 1047 5354 2849 rc
  24   24 1441 1602 PO
  24   24 1509 1524 PO
  24   24 1453 1502 PO
  24   24 1521 1496 PO
  24   24 1602 1393 PO
  24   24 1765 1867 PO
  24   24 1537 1391 PO
  24   24 1616 1568 PO
  24   24 1743 1802 PO
  24   24 1679 1532 PO
  24   24 1874 1743 PO
  24   24 1618 1436 PO
  24   24 1707 1478 PO
  24   24 1850 1802 PO
  24   24 1777 1380 PO
  24   24 1919 1733 PO
  24   24 2526 2005 PO
  24   24 1783 1591 PO
  24   24 1893 1511 PO
  24   24 2069 1488 PO
  24   24 2371 1699 PO
  24   24 1980 1428 PO
  24   24 2155 1428 PO
  24   24 2364 1425 PO
  24   24 2310 1434 PO
  24   24 2480 1602 PO
  24   24 3872 2125 PO
  24   24 2486 1904 PO
  24   24 2895 1698 PO
  24   24 3383 1781 PO
  24   24 3916 2118 PO
  24   24 2602 1824 PO
  24   24 2885 1735 PO
  24   24 3237 1642 PO
  24   24 3612 2140 PO
  24   24 3995 1926 PO
  24   24 2812 1659 PO
  24   24 3043 1901 PO
  24   24 3280 1725 PO
  24   24 3562 1947 PO
  24   24 3804 2042 PO
  24   24 3257 1767 PO
  24   24 3438 1846 PO
  24   24 3605 1720 PO
  24   24 3786 1918 PO
  24   24 3942 1690 PO
  24   24 5821 2649 PO
  24   24 1441 1602 FO
  24   24 1509 1524 FO
  24   24 1453 1502 FO
  24   24 1521 1496 FO
  24   24 1602 1393 FO
  24   24 1765 1867 FO
  24   24 1537 1391 FO
  24   24 1616 1568 FO
  24   24 1743 1802 FO
  24   24 1679 1532 FO
  24   24 1874 1743 FO
  24   24 1618 1436 FO
  24   24 1707 1478 FO
  24   24 1850 1802 FO
  24   24 1777 1380 FO
  24   24 1919 1733 FO
  24   24 2526 2005 FO
  24   24 1783 1591 FO
  24   24 1893 1511 FO
  24   24 2069 1488 FO
  24   24 2371 1699 FO
  24   24 1980 1428 FO
  24   24 2155 1428 FO
  24   24 2364 1425 FO
  24   24 2310 1434 FO
  24   24 2480 1602 FO
  24   24 3872 2125 FO
  24   24 2486 1904 FO
  24   24 2895 1698 FO
  24   24 3383 1781 FO
  24   24 3916 2118 FO
  24   24 2602 1824 FO
  24   24 2885 1735 FO
  24   24 3237 1642 FO
  24   24 3612 2140 FO
  24   24 3995 1926 FO
  24   24 2812 1659 FO
  24   24 3043 1901 FO
  24   24 3280 1725 FO
  24   24 3562 1947 FO
  24   24 3804 2042 FO
  24   24 3257 1767 FO
  24   24 3438 1846 FO
  24   24 3605 1720 FO
  24   24 3786 1918 FO
  24   24 3942 1690 FO
  24   24 5821 2649 FO
gr

gs 899 324 5357 3522 rc
gr

gs 952 1047 5354 2849 rc
  24   24 4246 1927 PO
  24   24 4964 2189 PO
  24   24 5619 2243 PO
  24   24 6159 2552 PO
  24   24 4049 2184 PO
  24   24 4555 2193 PO
  24   24 5071 2128 PO
  24   24 5508 2375 PO
  24   24 5919 2351 PO
  24   24 3788 2158 PO
  24   24 4107 2055 PO
  24   24 4486 2073 PO
  24   24 4813 1966 PO
  24   24 5167 2086 PO
  24   24 5462 2294 PO
  24   24 5764 2004 PO
  24   24 4076 1939 PO
  24   24 4320 2004 PO
  24   24 4545 2046 PO
  24   24 4789 2158 PO
  24   24 4999 2095 PO
  24   24 5248 2115 PO
  24   24 5455 2254 PO
  24   24 5669 2138 PO
  24   24 4246 1927 FO
  24   24 4964 2189 FO
  24   24 5619 2243 FO
  24   24 6159 2552 FO
  24   24 4049 2184 FO
  24   24 4555 2193 FO
  24   24 5071 2128 FO
  24   24 5508 2375 FO
  24   24 5919 2351 FO
  24   24 3788 2158 FO
  24   24 4107 2055 FO
  24   24 4486 2073 FO
  24   24 4813 1966 FO
  24   24 5167 2086 FO
  24   24 5462 2294 FO
  24   24 5764 2004 FO
  24   24 4076 1939 FO
  24   24 4320 2004 FO
  24   24 4545 2046 FO
  24   24 4789 2158 FO
  24   24 4999 2095 FO
  24   24 5248 2115 FO
  24   24 5455 2254 FO
  24   24 5669 2138 FO
gr

gs 899 324 5357 3522 rc
gr

gs 952 1047 5354 2849 rc
  24   24 5895 2608 PO
  24   24 5895 2608 FO
gr

gs 899 324 5357 3522 rc
gr

gs 952 1047 5354 2849 rc
  24   24 5391 2528 PO
  24   24 6026 2591 PO
  24   24 5391 2528 FO
  24   24 6026 2591 FO
gr

gs 899 324 5357 3522 rc
gr

gs 952 1047 5354 2849 rc
  24   24 5308 2558 PO
  24   24 5708 2461 PO
  24   24 6144 2386 PO
  24   24 5308 2558 FO
  24   24 5708 2461 FO
  24   24 6144 2386 FO
gr

gs 899 324 5357 3522 rc
gr

gs 952 1047 5354 2849 rc
  24   24 5379 2342 PO
  24   24 5680 2577 PO
  24   24 5937 2488 PO
  24   24 6244 2584 PO
  24   24 5379 2342 FO
  24   24 5680 2577 FO
  24   24 5937 2488 FO
  24   24 6244 2584 FO
gr

gs 899 324 5357 3522 rc
gr

gs 952 1047 5354 2849 rc
  24   24 1632 1413 PO
  24   24 1762 1585 PO
  24   24 1696 1453 PO
  24   24 1869 1486 PO
  24   24 1795 1518 PO
  24   24 1940 1405 PO
  24   24 2335 1518 PO
  24   24 1953 1347 PO
  24   24 2124 1619 PO
  24   24 2328 1491 PO
  24   24 2275 1227 PO
  24   24 2441 1489 PO
  24   24 3146 1550 PO
  24   24 2225 1489 PO
  24   24 2440 1329 PO
  24   24 2696 1403 PO
  24   24 3014 1642 PO
  24   24 3354 1701 PO
  24   24 2630 1586 PO
  24   24 2839 1511 PO
  24   24 3053 1481 PO
  24   24 3308 1525 PO
  24   24 3033 1380 PO
  24   24 3196 1583 PO
  24   24 3347 1497 PO
  24   24 4296 1978 PO
  24   24 4843 2310 PO
  24   24 3135 1613 PO
  24   24 3531 1667 PO
  24   24 3954 1721 PO
  24   24 4385 1716 PO
  24   24 4750 2163 PO
  24   24 3053 1671 PO
  24   24 3313 1584 PO
  24   24 3579 1881 PO
  24   24 3897 1643 PO
  24   24 4169 1826 PO
  24   24 4465 1778 PO
  24   24 4712 1868 PO
  24   24 3554 1491 PO
  24   24 3758 1727 PO
  24   24 3945 1408 PO
  24   24 4150 1858 PO
  24   24 4325 1820 PO
  24   24 4533 1743 PO
  24   24 4706 1869 PO
  24   24 5690 2306 PO
  24   24 6238 2697 PO
  24   24 4096 1957 PO
  24   24 4609 2004 PO
  24   24 5133 1992 PO
  24   24 5577 2198 PO
  24   24 5994 2356 PO
  24   24 3831 1937 PO
  24   24 4155 1856 PO
  24   24 4540 1883 PO
  24   24 4871 2037 PO
  24   24 5231 1947 PO
  24   24 5530 1934 PO
  24   24 5837 2020 PO
  24   24 4124 1897 PO
  24   24 4371 1840 PO
  24   24 4599 1647 PO
  24   24 4847 2028 PO
  24   24 5060 1834 PO
  24   24 5313 1853 PO
  24   24 5523 1904 PO
  24   24 5741 2247 PO
  24   24 1632 1413 FO
  24   24 1762 1585 FO
  24   24 1696 1453 FO
  24   24 1869 1486 FO
  24   24 1795 1518 FO
  24   24 1940 1405 FO
  24   24 2335 1518 FO
  24   24 1953 1347 FO
  24   24 2124 1619 FO
  24   24 2328 1491 FO
  24   24 2275 1227 FO
  24   24 2441 1489 FO
  24   24 3146 1550 FO
  24   24 2225 1489 FO
  24   24 2440 1329 FO
  24   24 2696 1403 FO
  24   24 3014 1642 FO
  24   24 3354 1701 FO
  24   24 2630 1586 FO
  24   24 2839 1511 FO
  24   24 3053 1481 FO
  24   24 3308 1525 FO
  24   24 3033 1380 FO
  24   24 3196 1583 FO
  24   24 3347 1497 FO
  24   24 4296 1978 FO
  24   24 4843 2310 FO
  24   24 3135 1613 FO
  24   24 3531 1667 FO
  24   24 3954 1721 FO
  24   24 4385 1716 FO
  24   24 4750 2163 FO
  24   24 3053 1671 FO
  24   24 3313 1584 FO
  24   24 3579 1881 FO
  24   24 3897 1643 FO
  24   24 4169 1826 FO
  24   24 4465 1778 FO
  24   24 4712 1868 FO
  24   24 3554 1491 FO
  24   24 3758 1727 FO
  24   24 3945 1408 FO
  24   24 4150 1858 FO
  24   24 4325 1820 FO
  24   24 4533 1743 FO
  24   24 4706 1869 FO
  24   24 5690 2306 FO
  24   24 6238 2697 FO
  24   24 4096 1957 FO
  24   24 4609 2004 FO
  24   24 5133 1992 FO
  24   24 5577 2198 FO
  24   24 5994 2356 FO
  24   24 3831 1937 FO
  24   24 4155 1856 FO
  24   24 4540 1883 FO
  24   24 4871 2037 FO
  24   24 5231 1947 FO
  24   24 5530 1934 FO
  24   24 5837 2020 FO
  24   24 4124 1897 FO
  24   24 4371 1840 FO
  24   24 4599 1647 FO
  24   24 4847 2028 FO
  24   24 5060 1834 FO
  24   24 5313 1853 FO
  24   24 5523 1904 FO
  24   24 5741 2247 FO
gr

gs 899 324 5357 3522 rc
gr

gs 952 1047 5354 2849 rc
  24   24 5207 2136 PO
  24   24 5816 2105 PO
  24   24 5207 2136 FO
  24   24 5816 2105 FO
gr

gs 899 324 5357 3522 rc
gr

gs 952 1047 5354 2849 rc
  24   24 5127 2100 PO
  24   24 5511 2309 PO
  24   24 5929 2036 PO
  24   24 5127 2100 FO
  24   24 5511 2309 FO
  24   24 5929 2036 FO
gr

gs 899 324 5357 3522 rc
gr

gs 952 1047 5354 2849 rc
  24   24 4931 1883 PO
  24   24 5196 2119 PO
  24   24 5483 2159 PO
  24   24 5730 2012 PO
  24   24 6025 2341 PO
  24   24 4931 1883 FO
  24   24 5196 2119 FO
  24   24 5483 2159 FO
  24   24 5730 2012 FO
  24   24 6025 2341 FO
gr

gs 899 324 5357 3522 rc
gr

gs 952 1047 5354 2849 rc
  24   24 6039 2683 PO
  24   24 6039 2683 FO
gr

gs 899 324 5357 3522 rc
gr

gs 952 1047 5354 2849 rc
  24   24 6008 2669 PO
  24   24 6008 2669 FO
gr

gs 899 324 5357 3522 rc
gr

gs 952 1047 5354 2849 rc
  24   24 2030 1378 PO
  24   24 2218 1579 PO
  24   24 2170 1368 PO
  24   24 2432 1565 PO
  24   24 2703 1515 PO
  24   24 2375 1707 PO
  24   24 2554 1195 PO
  24   24 2736 1305 PO
  24   24 2719 1473 PO
  24   24 3004 1719 PO
  24   24 3342 1742 PO
  24   24 2621 1487 PO
  24   24 2829 1603 PO
  24   24 3042 1625 PO
  24   24 3296 1453 PO
  24   24 3022 1394 PO
  24   24 3185 1707 PO
  24   24 3335 1324 PO
  24   24 3774 1588 PO
  24   24 4180 1884 PO
  24   24 2926 1489 PO
  24   24 3171 1434 PO
  24   24 3422 1505 PO
  24   24 3720 1651 PO
  24   24 3977 1805 PO
  24   24 4256 1795 PO
  24   24 3398 1590 PO
  24   24 3590 1672 PO
  24   24 3766 1451 PO
  24   24 3958 1719 PO
  24   24 4123 1750 PO
  24   24 4320 1805 PO
  24   24 4707 1987 PO
  24   24 5106 2167 PO
  24   24 5481 2237 PO
  24   24 3536 1770 PO
  24   24 3827 1464 PO
  24   24 4173 1739 PO
  24   24 4471 1789 PO
  24   24 4794 1839 PO
  24   24 5064 2105 PO
  24   24 5340 1976 PO
  24   24 3799 1729 PO
  24   24 4022 1605 PO
  24   24 4227 1608 PO
  24   24 4450 1874 PO
  24   24 4641 1953 PO
  24   24 4869 1741 PO
  24   24 5057 1826 PO
  24   24 5253 2034 PO
  24   24 5700 2216 PO
  24   24 6128 2251 PO
  24   24 4240 1968 PO
  24   24 4636 1866 PO
  24   24 4976 1908 PO
  24   24 5345 1868 PO
  24   24 5652 2043 PO
  24   24 5967 1905 PO
  24   24 4209 1771 PO
  24   24 4463 1959 PO
  24   24 4697 1563 PO
  24   24 4951 1829 PO
  24   24 5169 1801 PO
  24   24 5429 1983 PO
  24   24 5645 1618 PO
  24   24 5868 2007 PO
  24   24 2030 1378 FO
  24   24 2218 1579 FO
  24   24 2170 1368 FO
  24   24 2432 1565 FO
  24   24 2703 1515 FO
  24   24 2375 1707 FO
  24   24 2554 1195 FO
  24   24 2736 1305 FO
  24   24 2719 1473 FO
  24   24 3004 1719 FO
  24   24 3342 1742 FO
  24   24 2621 1487 FO
  24   24 2829 1603 FO
  24   24 3042 1625 FO
  24   24 3296 1453 FO
  24   24 3022 1394 FO
  24   24 3185 1707 FO
  24   24 3335 1324 FO
  24   24 3774 1588 FO
  24   24 4180 1884 FO
  24   24 2926 1489 FO
  24   24 3171 1434 FO
  24   24 3422 1505 FO
  24   24 3720 1651 FO
  24   24 3977 1805 FO
  24   24 4256 1795 FO
  24   24 3398 1590 FO
  24   24 3590 1672 FO
  24   24 3766 1451 FO
  24   24 3958 1719 FO
  24   24 4123 1750 FO
  24   24 4320 1805 FO
  24   24 4707 1987 FO
  24   24 5106 2167 FO
  24   24 5481 2237 FO
  24   24 3536 1770 FO
  24   24 3827 1464 FO
  24   24 4173 1739 FO
  24   24 4471 1789 FO
  24   24 4794 1839 FO
  24   24 5064 2105 FO
  24   24 5340 1976 FO
  24   24 3799 1729 FO
  24   24 4022 1605 FO
  24   24 4227 1608 FO
  24   24 4450 1874 FO
  24   24 4641 1953 FO
  24   24 4869 1741 FO
  24   24 5057 1826 FO
  24   24 5253 2034 FO
  24   24 5700 2216 FO
  24   24 6128 2251 FO
  24   24 4240 1968 FO
  24   24 4636 1866 FO
  24   24 4976 1908 FO
  24   24 5345 1868 FO
  24   24 5652 2043 FO
  24   24 5967 1905 FO
  24   24 4209 1771 FO
  24   24 4463 1959 FO
  24   24 4697 1563 FO
  24   24 4951 1829 FO
  24   24 5169 1801 FO
  24   24 5429 1983 FO
  24   24 5645 1618 FO
  24   24 5868 2007 FO
gr

gs 899 324 5357 3522 rc
gr

gs 952 1047 5354 2849 rc
  24   24 5027 2063 PO
  24   24 5403 2120 PO
  24   24 5810 2018 PO
  24   24 6150 2376 PO
  24   24 5027 2063 FO
  24   24 5403 2120 FO
  24   24 5810 2018 FO
  24   24 6150 2376 FO
gr

gs 899 324 5357 3522 rc
gr

gs 952 1047 5354 2849 rc
  24   24 4836 1941 PO
  24   24 5095 1935 PO
  24   24 5376 2114 PO
  24   24 5617 2237 PO
  24   24 5904 2101 PO
  24   24 6142 2084 PO
  24   24 4836 1941 FO
  24   24 5095 1935 FO
  24   24 5376 2114 FO
  24   24 5617 2237 FO
  24   24 5904 2101 FO
  24   24 6142 2084 FO
gr

gs 899 324 5357 3522 rc
gr

gs 952 1047 5354 2849 rc
  24   24 5395 2270 PO
  24   24 5804 2373 PO
  24   24 6248 2029 PO
  24   24 5395 2270 FO
  24   24 5804 2373 FO
  24   24 6248 2029 FO
gr

gs 899 324 5357 3522 rc
gr

gs 952 1047 5354 2849 rc
  24   24 5469 2085 PO
  24   24 5775 2229 PO
  24   24 6037 2314 PO
  24   24 5469 2085 FO
  24   24 5775 2229 FO
  24   24 6037 2314 FO
gr

gs 899 324 5357 3522 rc
gr

gs 952 1047 5354 2849 rc
  24   24 2758 1391 PO
  24   24 2963 1430 PO
  24   24 3208 1289 PO
  24   24 2944 1331 PO
  24   24 3101 1627 PO
  24   24 3213 1435 PO
  24   24 3486 1372 PO
  24   24 3722 1633 PO
  24   24 3191 1300 PO
  24   24 3367 1615 PO
  24   24 3529 1387 PO
  24   24 3705 1791 PO
  24   24 3772 1386 PO
  24   24 4033 1631 PO
  24   24 4317 1752 PO
  24   24 3444 1625 PO
  24   24 3639 1248 PO
  24   24 3819 1504 PO
  24   24 4015 1709 PO
  24   24 4182 1771 PO
  24   24 4382 1866 PO
  24   24 4404 1509 PO
  24   24 4722 1721 PO
  24   24 4986 1835 PO
  24   24 5257 1851 PO
  24   24 3745 1608 PO
  24   24 3963 1600 PO
  24   24 4165 1426 PO
  24   24 4383 1612 PO
  24   24 4571 1719 PO
  24   24 4795 2016 PO
  24   24 4980 1853 PO
  24   24 5172 1987 PO
  24   24 5069 1744 PO
  24   24 5358 1931 PO
  24   24 5653 1866 PO
  24   24 4004 1743 PO
  24   24 4242 1694 PO
  24   24 4462 1463 PO
  24   24 4700 1702 PO
  24   24 4905 1819 PO
  24   24 5149 1711 PO
  24   24 5351 1660 PO
  24   24 5560 2048 PO
  24   24 5761 1918 PO
  24   24 6083 1954 PO
  24   24 4285 1611 PO
  24   24 4545 1604 PO
  24   24 4784 1741 PO
  24   24 5044 1657 PO
  24   24 5268 1826 PO
  24   24 5533 1700 PO
  24   24 5754 1725 PO
  24   24 5982 1861 PO
  24   24 2758 1391 FO
  24   24 2963 1430 FO
  24   24 3208 1289 FO
  24   24 2944 1331 FO
  24   24 3101 1627 FO
  24   24 3213 1435 FO
  24   24 3486 1372 FO
  24   24 3722 1633 FO
  24   24 3191 1300 FO
  24   24 3367 1615 FO
  24   24 3529 1387 FO
  24   24 3705 1791 FO
  24   24 3772 1386 FO
  24   24 4033 1631 FO
  24   24 4317 1752 FO
  24   24 3444 1625 FO
  24   24 3639 1248 FO
  24   24 3819 1504 FO
  24   24 4015 1709 FO
  24   24 4182 1771 FO
  24   24 4382 1866 FO
  24   24 4404 1509 FO
  24   24 4722 1721 FO
  24   24 4986 1835 FO
  24   24 5257 1851 FO
  24   24 3745 1608 FO
  24   24 3963 1600 FO
  24   24 4165 1426 FO
  24   24 4383 1612 FO
  24   24 4571 1719 FO
  24   24 4795 2016 FO
  24   24 4980 1853 FO
  24   24 5172 1987 FO
  24   24 5069 1744 FO
  24   24 5358 1931 FO
  24   24 5653 1866 FO
  24   24 4004 1743 FO
  24   24 4242 1694 FO
  24   24 4462 1463 FO
  24   24 4700 1702 FO
  24   24 4905 1819 FO
  24   24 5149 1711 FO
  24   24 5351 1660 FO
  24   24 5560 2048 FO
  24   24 5761 1918 FO
  24   24 6083 1954 FO
  24   24 4285 1611 FO
  24   24 4545 1604 FO
  24   24 4784 1741 FO
  24   24 5044 1657 FO
  24   24 5268 1826 FO
  24   24 5533 1700 FO
  24   24 5754 1725 FO
  24   24 5982 1861 FO
gr

gs 899 324 5357 3522 rc
gr

gs 952 1047 5354 2849 rc
  24   24 4797 2090 PO
  24   24 5053 1899 PO
  24   24 5331 2041 PO
  24   24 5570 2036 PO
  24   24 5854 1990 PO
  24   24 6090 2038 PO
  24   24 4797 2090 FO
  24   24 5053 1899 FO
  24   24 5331 2041 FO
  24   24 5570 2036 FO
  24   24 5854 1990 FO
  24   24 6090 2038 FO
gr

gs 899 324 5357 3522 rc
gr

gs 952 1047 5354 2849 rc
  24   24 5328 1896 PO
  24   24 5625 1857 PO
  24   24 5879 2128 PO
  24   24 6182 2010 PO
  24   24 5328 1896 FO
  24   24 5625 1857 FO
  24   24 5879 2128 FO
  24   24 6182 2010 FO
gr

gs 899 324 5357 3522 rc
gr

gs 952 1047 5354 2849 rc
  24   24 3613 1668 PO
  24   24 3791 1179 PO
  24   24 3985 1565 PO
  24   24 4151 1770 PO
  24   24 4349 1734 PO
  24   24 4013 1317 PO
  24   24 4222 1444 PO
  24   24 4401 1669 PO
  24   24 4614 1681 PO
  24   24 4791 1502 PO
  24   24 4974 1916 PO
  24   24 4440 1672 PO
  24   24 4631 1767 PO
  24   24 4858 1547 PO
  24   24 5046 1703 PO
  24   24 5241 1920 PO
  24   24 4881 1953 PO
  24   24 5123 1602 PO
  24   24 5324 1606 PO
  24   24 5532 1814 PO
  24   24 5351 1781 PO
  24   24 5562 1725 PO
  24   24 5782 2024 PO
  24   24 5846 1610 PO
  24   24 6079 1928 PO
  24   24 3613 1668 FO
  24   24 3791 1179 FO
  24   24 3985 1565 FO
  24   24 4151 1770 FO
  24   24 4349 1734 FO
  24   24 4013 1317 FO
  24   24 4222 1444 FO
  24   24 4401 1669 FO
  24   24 4614 1681 FO
  24   24 4791 1502 FO
  24   24 4974 1916 FO
  24   24 4440 1672 FO
  24   24 4631 1767 FO
  24   24 4858 1547 FO
  24   24 5046 1703 FO
  24   24 5241 1920 FO
  24   24 4881 1953 FO
  24   24 5123 1602 FO
  24   24 5324 1606 FO
  24   24 5532 1814 FO
  24   24 5351 1781 FO
  24   24 5562 1725 FO
  24   24 5782 2024 FO
  24   24 5846 1610 FO
  24   24 6079 1928 FO
gr

gs 899 324 5357 3522 rc
0 sg
0 678 1032 2090 2 MP stroke
113 0 976 2090 2 MP stroke
113 0 976 2768 2 MP stroke
0 441 1193 1995 2 MP stroke
112 0 1137 1995 2 MP stroke
112 0 1137 2436 2 MP stroke
0 443 1354 1561 2 MP stroke
112 0 1298 1561 2 MP stroke
112 0 1298 2004 2 MP stroke
0 493 1514 1400 2 MP stroke
113 0 1458 1400 2 MP stroke
113 0 1458 1893 2 MP stroke
0 598 1675 1473 2 MP stroke
112 0 1619 1473 2 MP stroke
112 0 1619 2071 2 MP stroke
0 695 1836 1655 2 MP stroke
112 0 1780 1655 2 MP stroke
112 0 1780 2350 2 MP stroke
0 931 1996 1507 2 MP stroke
113 0 1940 1507 2 MP stroke
113 0 1940 2438 2 MP stroke
0 939 2157 1482 2 MP stroke
112 0 2101 1482 2 MP stroke
112 0 2101 2421 2 MP stroke
0 484 2318 1393 2 MP stroke
112 0 2262 1393 2 MP stroke
112 0 2262 1877 2 MP stroke
0 528 2479 1391 2 MP stroke
113 0 2422 1391 2 MP stroke
113 0 2422 1919 2 MP stroke
0 493 2639 1472 2 MP stroke
112 0 2583 1472 2 MP stroke
112 0 2583 1965 2 MP stroke
0 514 2800 1356 2 MP stroke
112 0 2744 1356 2 MP stroke
112 0 2744 1870 2 MP stroke
0 363 2961 1416 2 MP stroke
113 0 2904 1416 2 MP stroke
113 0 2904 1779 2 MP stroke
0 354 3121 1455 2 MP stroke
112 0 3065 1455 2 MP stroke
112 0 3065 1809 2 MP stroke
0 389 3282 1422 2 MP stroke
112 0 3226 1422 2 MP stroke
112 0 3226 1811 2 MP stroke
0 319 3443 1460 2 MP stroke
113 0 3386 1460 2 MP stroke
113 0 3386 1779 2 MP stroke
0 506 3603 1437 2 MP stroke
113 0 3547 1437 2 MP stroke
113 0 3547 1943 2 MP stroke
0 614 3764 1429 2 MP stroke
112 0 3708 1429 2 MP stroke
112 0 3708 2043 2 MP stroke
0 733 3925 1540 2 MP stroke
113 0 3868 1540 2 MP stroke
113 0 3868 2273 2 MP stroke
0 724 4085 1618 2 MP stroke
113 0 4029 1618 2 MP stroke
113 0 4029 2342 2 MP stroke
0 1994 4246 1289 2 MP stroke
112 0 4190 1289 2 MP stroke
112 0 4190 3283 2 MP stroke
0 1541 4407 1456 2 MP stroke
113 0 4350 1456 2 MP stroke
113 0 4350 2997 2 MP stroke
0 1426 4567 1487 2 MP stroke
113 0 4511 1487 2 MP stroke
113 0 4511 2913 2 MP stroke
0 2152 4728 1388 2 MP stroke
112 0 4672 1388 2 MP stroke
112 0 4672 3540 2 MP stroke
0 869 4889 1841 2 MP stroke
113 0 4832 1841 2 MP stroke
113 0 4832 2710 2 MP stroke
0 1836 5049 1517 2 MP stroke
113 0 4993 1517 2 MP stroke
113 0 4993 3353 2 MP stroke
0 2113 5210 1733 2 MP stroke
112 0 5154 1733 2 MP stroke
0 1999 5371 1733 2 MP stroke
112 0 5315 1733 2 MP stroke
112 0 5315 3732 2 MP stroke
0 1340 5531 1800 2 MP stroke
113 0 5475 1800 2 MP stroke
113 0 5475 3140 2 MP stroke
0 2067 5692 1779 2 MP stroke
112 0 5636 1779 2 MP stroke
0 1887 5853 1959 2 MP stroke
112 0 5797 1959 2 MP stroke
0 1763 6013 2083 2 MP stroke
113 0 5957 2083 2 MP stroke
0 1471 6174 2375 2 MP stroke
112 0 6118 2375 2 MP stroke
gr

0 sg
gs 959 1524 5371 1887 rc
  36   36 1032 2429 PO
  36   36 1193 2215 PO
  36   36 1354 1782 PO
  36   36 1514 1647 PO
  36   36 1675 1772 PO
  36   36 1836 2002 PO
  36   36 1996 1972 PO
  36   36 2157 1952 PO
  36   36 2318 1635 PO
  36   36 2479 1655 PO
  36   36 2639 1718 PO
  36   36 2800 1613 PO
  36   36 2961 1597 PO
  36   36 3121 1632 PO
  36   36 3282 1617 PO
  36   36 3443 1619 PO
  36   36 3603 1690 PO
  36   36 3764 1736 PO
  36   36 3925 1906 PO
  36   36 4085 1980 PO
  36   36 4246 2286 PO
  36   36 4407 2226 PO
  36   36 4567 2200 PO
  36   36 4728 2464 PO
  36   36 4889 2275 PO
  36   36 5049 2435 PO
  36   36 5210 2807 PO
  36   36 5371 2733 PO
  36   36 5531 2470 PO
  36   36 5692 2901 PO
  36   36 5853 2995 PO
  36   36 6013 2995 PO
  36   36 6174 3337 PO
  36   36 1032 2429 FO
  36   36 1193 2215 FO
  36   36 1354 1782 FO
  36   36 1514 1647 FO
  36   36 1675 1772 FO
  36   36 1836 2002 FO
  36   36 1996 1972 FO
  36   36 2157 1952 FO
  36   36 2318 1635 FO
  36   36 2479 1655 FO
  36   36 2639 1718 FO
  36   36 2800 1613 FO
  36   36 2961 1597 FO
  36   36 3121 1632 FO
  36   36 3282 1617 FO
  36   36 3443 1619 FO
  36   36 3603 1690 FO
  36   36 3764 1736 FO
  36   36 3925 1906 FO
  36   36 4085 1980 FO
  36   36 4246 2286 FO
  36   36 4407 2226 FO
  36   36 4567 2200 FO
  36   36 4728 2464 FO
  36   36 4889 2275 FO
  36   36 5049 2435 FO
  36   36 5210 2807 FO
  36   36 5371 2733 FO
  36   36 5531 2470 FO
  36   36 5692 2901 FO
  36   36 5853 2995 FO
  36   36 6013 2995 FO
  36   36 6174 3337 FO
gr

gs 899 324 5357 3522 rc
gr

3012 4133 mt 
(Geometric mean rate) s
 616 2378 mt  -90 rotate
(Correlation) s
90 rotate

end %%Color Dict

eplot
%%EndObject

epage
end

showpage

%%Trailer
%%EOF
