%!PS-Adobe-3.0 EPSF-3.0
%%Creator: MATLAB, The MathWorks, Inc. Version 7.14.0.739 (R2012a). Operating System: Linux 2.6.33.7.2-rt30-rt #1 SMP PREEMPT RT Tue Apr 17 15:22:21 CEST 2012 x86_64.
%%Title: ./LIF_simple_correlations_cc_20140523054111.eps
%%CreationDate: 05/27/2014  11:36:14
%%DocumentNeededFonts: Helvetica
%%DocumentProcessColors: Cyan Magenta Yellow Black
%%LanguageLevel: 2
%%Pages: 1
%%BoundingBox:    40    11   533   343
%%EndComments

%%BeginProlog
% MathWorks dictionary
/MathWorks 160 dict begin
% definition operators
/bdef {bind def} bind def
/ldef {load def} bind def
/xdef {exch def} bdef
/xstore {exch store} bdef
% operator abbreviations
/c  /clip ldef
/cc /concat ldef
/cp /closepath ldef
/gr /grestore ldef
/gs /gsave ldef
/mt /moveto ldef
/np /newpath ldef
/cm /currentmatrix ldef
/sm /setmatrix ldef
/rm /rmoveto ldef
/rl /rlineto ldef
/s {show newpath} bdef
/sc {setcmykcolor} bdef
/sr /setrgbcolor ldef
/sg /setgray ldef
/w /setlinewidth ldef
/j /setlinejoin ldef
/cap /setlinecap ldef
/rc {rectclip} bdef
/rf {rectfill} bdef
% page state control
/pgsv () def
/bpage {/pgsv save def} bdef
/epage {pgsv restore} bdef
/bplot /gsave ldef
/eplot {stroke grestore} bdef
% orientation switch
/portraitMode 0 def /landscapeMode 1 def /rotateMode 2 def
% coordinate system mappings
/dpi2point 0 def
% font control
/FontSize 0 def
/FMS {/FontSize xstore findfont [FontSize 0 0 FontSize neg 0 0]
  makefont setfont} bdef
/reencode {exch dup where {pop load} {pop StandardEncoding} ifelse
  exch dup 3 1 roll findfont dup length dict begin
  { 1 index /FID ne {def}{pop pop} ifelse } forall
  /Encoding exch def currentdict end definefont pop} bdef
/isroman {findfont /CharStrings get /Agrave known} bdef
/FMSR {3 1 roll 1 index dup isroman {reencode} {pop pop} ifelse
  exch FMS} bdef
/csm {1 dpi2point div -1 dpi2point div scale neg translate
 dup landscapeMode eq {pop -90 rotate}
  {rotateMode eq {90 rotate} if} ifelse} bdef
% line types: solid, dotted, dashed, dotdash
/SO { [] 0 setdash } bdef
/DO { [.5 dpi2point mul 4 dpi2point mul] 0 setdash } bdef
/DA { [6 dpi2point mul] 0 setdash } bdef
/DD { [.5 dpi2point mul 4 dpi2point mul 6 dpi2point mul 4
  dpi2point mul] 0 setdash } bdef
% macros for lines and objects
/L {lineto stroke} bdef
/MP {3 1 roll moveto 1 sub {rlineto} repeat} bdef
/AP {{rlineto} repeat} bdef
/PDlw -1 def
/W {/PDlw currentlinewidth def setlinewidth} def
/PP {closepath eofill} bdef
/DP {closepath stroke} bdef
/MR {4 -2 roll moveto dup  0 exch rlineto exch 0 rlineto
  neg 0 exch rlineto closepath} bdef
/FR {MR stroke} bdef
/PR {MR fill} bdef
/L1i {{currentfile picstr readhexstring pop} image} bdef
/tMatrix matrix def
/MakeOval {newpath tMatrix currentmatrix pop translate scale
0 0 1 0 360 arc tMatrix setmatrix} bdef
/FO {MakeOval stroke} bdef
/PO {MakeOval fill} bdef
/PD {currentlinewidth 2 div 0 360 arc fill
   PDlw -1 eq not {PDlw w /PDlw -1 def} if} def
/FA {newpath tMatrix currentmatrix pop translate scale
  0 0 1 5 -2 roll arc tMatrix setmatrix stroke} bdef
/PA {newpath tMatrix currentmatrix pop	translate 0 0 moveto scale
  0 0 1 5 -2 roll arc closepath tMatrix setmatrix fill} bdef
/FAn {newpath tMatrix currentmatrix pop translate scale
  0 0 1 5 -2 roll arcn tMatrix setmatrix stroke} bdef
/PAn {newpath tMatrix currentmatrix pop translate 0 0 moveto scale
  0 0 1 5 -2 roll arcn closepath tMatrix setmatrix fill} bdef
/vradius 0 def /hradius 0 def /lry 0 def
/lrx 0 def /uly 0 def /ulx 0 def /rad 0 def
/MRR {/vradius xdef /hradius xdef /lry xdef /lrx xdef /uly xdef
  /ulx xdef newpath tMatrix currentmatrix pop ulx hradius add uly
  vradius add translate hradius vradius scale 0 0 1 180 270 arc 
  tMatrix setmatrix lrx hradius sub uly vradius add translate
  hradius vradius scale 0 0 1 270 360 arc tMatrix setmatrix
  lrx hradius sub lry vradius sub translate hradius vradius scale
  0 0 1 0 90 arc tMatrix setmatrix ulx hradius add lry vradius sub
  translate hradius vradius scale 0 0 1 90 180 arc tMatrix setmatrix
  closepath} bdef
/FRR {MRR stroke } bdef
/PRR {MRR fill } bdef
/MlrRR {/lry xdef /lrx xdef /uly xdef /ulx xdef /rad lry uly sub 2 div def
  newpath tMatrix currentmatrix pop ulx rad add uly rad add translate
  rad rad scale 0 0 1 90 270 arc tMatrix setmatrix lrx rad sub lry rad
  sub translate rad rad scale 0 0 1 270 90 arc tMatrix setmatrix
  closepath} bdef
/FlrRR {MlrRR stroke } bdef
/PlrRR {MlrRR fill } bdef
/MtbRR {/lry xdef /lrx xdef /uly xdef /ulx xdef /rad lrx ulx sub 2 div def
  newpath tMatrix currentmatrix pop ulx rad add uly rad add translate
  rad rad scale 0 0 1 180 360 arc tMatrix setmatrix lrx rad sub lry rad
  sub translate rad rad scale 0 0 1 0 180 arc tMatrix setmatrix
  closepath} bdef
/FtbRR {MtbRR stroke } bdef
/PtbRR {MtbRR fill } bdef
/stri 6 array def /dtri 6 array def
/smat 6 array def /dmat 6 array def
/tmat1 6 array def /tmat2 6 array def /dif 3 array def
/asub {/ind2 exch def /ind1 exch def dup dup
  ind1 get exch ind2 get sub exch } bdef
/tri_to_matrix {
  2 0 asub 3 1 asub 4 0 asub 5 1 asub
  dup 0 get exch 1 get 7 -1 roll astore } bdef
/compute_transform {
  dmat dtri tri_to_matrix tmat1 invertmatrix 
  smat stri tri_to_matrix tmat2 concatmatrix } bdef
/ds {stri astore pop} bdef
/dt {dtri astore pop} bdef
/db {2 copy /cols xdef /rows xdef mul dup 3 mul string
  currentfile 
  3 index 0 eq {/ASCIIHexDecode filter}
  {/ASCII85Decode filter 3 index 2 eq {/RunLengthDecode filter} if }
  ifelse exch readstring pop
  dup 0 3 index getinterval /rbmap xdef
  dup 2 index dup getinterval /gbmap xdef
  1 index dup 2 mul exch getinterval /bbmap xdef pop pop}bdef
/it {gs np dtri aload pop moveto lineto lineto cp c
  cols rows 8 compute_transform 
  rbmap gbmap bbmap true 3 colorimage gr}bdef
/il {newpath moveto lineto stroke}bdef
currentdict end def
%%EndProlog

%%BeginSetup
MathWorks begin

0 cap

end
%%EndSetup

%%Page: 1 1
%%BeginPageSetup
%%PageBoundingBox:    40    11   533   343
MathWorks begin
bpage
%%EndPageSetup

%%BeginObject: obj1
bplot

/dpi2point 12 def
portraitMode 0000 4320 csm

  480   203  5924  3982 rc
86 dict begin %Colortable dictionary
/c0 { 0.000000 0.000000 0.000000 sr} bdef
/c1 { 1.000000 1.000000 1.000000 sr} bdef
/c2 { 0.900000 0.000000 0.000000 sr} bdef
/c3 { 0.000000 0.820000 0.000000 sr} bdef
/c4 { 0.000000 0.000000 0.800000 sr} bdef
/c5 { 0.910000 0.820000 0.320000 sr} bdef
/c6 { 1.000000 0.260000 0.820000 sr} bdef
/c7 { 0.000000 0.820000 0.820000 sr} bdef
c0
1 j
1 sg
   0    0 6913 4321 rf
6 w
0 3521 5356 0 0 -3521 899 3845 4 MP
PP
-5356 0 0 3521 5356 0 0 -3521 899 3845 5 MP stroke
4 w
DO
SO
6 w
0 sg
 899 3845 mt 6255 3845 L
 899 3845 mt  899  324 L
 899 3845 mt  899 3791 L
%%IncludeResource: font Helvetica
/Helvetica /ISOLatin1Encoding 120 FMSR

 866 3990 mt 
(0) s
1970 3845 mt 1970 3791 L
1904 3990 mt 
(20) s
3041 3845 mt 3041 3791 L
2975 3990 mt 
(40) s
4112 3845 mt 4112 3791 L
4046 3990 mt 
(60) s
5183 3845 mt 5183 3791 L
5117 3990 mt 
(80) s
6255 3845 mt 6255 3791 L
6155 3990 mt 
(100) s
 899 3845 mt  952 3845 L
 798 3889 mt 
(0) s
 899 3140 mt  952 3140 L
 698 3184 mt 
(0.1) s
 899 2436 mt  952 2436 L
 698 2480 mt 
(0.2) s
 899 1732 mt  952 1732 L
 698 1776 mt 
(0.3) s
 899 1028 mt  952 1028 L
 698 1072 mt 
(0.4) s
 899  324 mt  952  324 L
 698  368 mt 
(0.5) s
gs 899 324 5357 3522 rc
gr

0.6 sg
  24   24  900 3585 PO
  24   24  930 3050 PO
  24   24  957 2788 PO
  24   24 1001 2547 PO
  24   24 1068 2284 PO
  24   24 1159 2150 PO
  24   24 1274 1936 PO
  24   24 1332 1879 PO
  24   24 1411 1779 PO
  24   24 1477 1774 PO
  24   24 1567 1669 PO
  24   24 1637 1637 PO
  24   24 1705 1631 PO
  24   24 1732 1562 PO
  24   24 1808 1534 PO
  24   24 1881 1529 PO
  24   24 1947 1518 PO
  24   24 1904 1478 PO
  24   24 1985 1397 PO
  24   24 2058 1406 PO
  24   24 2127 1424 PO
  24   24 2191 1384 PO
  24   24 2084 1377 PO
  24   24 2164 1344 PO
  24   24 2239 1276 PO
  24   24 2309 1332 PO
  24   24 2375 1404 PO
  24   24 2436 1301 PO
  24   24 2265 1264 PO
  24   24 2346 1285 PO
  24   24 2421 1280 PO
  24   24 2492 1278 PO
  24   24 2559 1187 PO
  24   24 2622 1232 PO
  24   24 2682 1218 PO
  24   24 2444 1285 PO
  24   24 2525 1218 PO
  24   24 2600 1257 PO
  24   24 2671 1188 PO
  24   24 2739 1136 PO
  24   24 2803 1143 PO
  24   24 2864 1328 PO
  24   24 2922 1359 PO
  24   24 2621 1246 PO
  24   24 2701 1194 PO
  24   24 2776 1132 PO
  24   24 2848 1104 PO
  24   24 2915 1144 PO
  24   24 2980 1202 PO
  24   24 3042 1201 PO
  24   24 3101 1211 PO
  24   24 3159  825 PO
  24   24 3213  893 PO
  24   24 2795 1147 PO
  24   24 2874 1079 PO
  24   24 2949 1039 PO
  24   24 3021 1080 PO
  24   24 3089 1131 PO
  24   24 3154 1261 PO
  24   24 3216 1159 PO
  24   24 3277  752 PO
  24   24 3334  724 PO
  24   24 3390  929 PO
  24   24 3445 1236 PO
  24   24 2966 1112 PO
  24   24 3045 1057 PO
  24   24 3119 1042 PO
  24   24 3191 1099 PO
  24   24 3259 1234 PO
  24   24 3324 1145 PO
  24   24 3388  806 PO
  24   24 3447  808 PO
  24   24 3506  983 PO
  24   24 3563 1253 PO
  24   24 3618 1296 PO
  24   24 3672 1079 PO
  24   24 3134 1032 PO
  24   24 3212  883 PO
  24   24 3286 1104 PO
  24   24 3357 1094 PO
  24   24 3425 1032 PO
  24   24 3491  708 PO
  24   24 3553  629 PO
  24   24 3614  847 PO
  24   24 3674 1191 PO
  24   24 3731 1237 PO
  24   24 3787 1040 PO
  24   24  900 3585 FO
  24   24  930 3050 FO
  24   24  957 2788 FO
  24   24 1001 2547 FO
  24   24 1068 2284 FO
  24   24 1159 2150 FO
  24   24 1274 1936 FO
  24   24 1332 1879 FO
  24   24 1411 1779 FO
  24   24 1477 1774 FO
  24   24 1567 1669 FO
  24   24 1637 1637 FO
  24   24 1705 1631 FO
  24   24 1732 1562 FO
  24   24 1808 1534 FO
  24   24 1881 1529 FO
  24   24 1947 1518 FO
  24   24 1904 1478 FO
  24   24 1985 1397 FO
  24   24 2058 1406 FO
  24   24 2127 1424 FO
  24   24 2191 1384 FO
  24   24 2084 1377 FO
  24   24 2164 1344 FO
  24   24 2239 1276 FO
  24   24 2309 1332 FO
  24   24 2375 1404 FO
  24   24 2436 1301 FO
  24   24 2265 1264 FO
  24   24 2346 1285 FO
  24   24 2421 1280 FO
  24   24 2492 1278 FO
  24   24 2559 1187 FO
  24   24 2622 1232 FO
  24   24 2682 1218 FO
  24   24 2444 1285 FO
  24   24 2525 1218 FO
  24   24 2600 1257 FO
  24   24 2671 1188 FO
  24   24 2739 1136 FO
  24   24 2803 1143 FO
  24   24 2864 1328 FO
  24   24 2922 1359 FO
  24   24 2621 1246 FO
  24   24 2701 1194 FO
  24   24 2776 1132 FO
  24   24 2848 1104 FO
  24   24 2915 1144 FO
  24   24 2980 1202 FO
  24   24 3042 1201 FO
  24   24 3101 1211 FO
  24   24 3159  825 FO
  24   24 3213  893 FO
  24   24 2795 1147 FO
  24   24 2874 1079 FO
  24   24 2949 1039 FO
  24   24 3021 1080 FO
  24   24 3089 1131 FO
  24   24 3154 1261 FO
  24   24 3216 1159 FO
  24   24 3277  752 FO
  24   24 3334  724 FO
  24   24 3390  929 FO
  24   24 3445 1236 FO
  24   24 2966 1112 FO
  24   24 3045 1057 FO
  24   24 3119 1042 FO
  24   24 3191 1099 FO
  24   24 3259 1234 FO
  24   24 3324 1145 FO
  24   24 3388  806 FO
  24   24 3447  808 FO
  24   24 3506  983 FO
  24   24 3563 1253 FO
  24   24 3618 1296 FO
  24   24 3672 1079 FO
  24   24 3134 1032 FO
  24   24 3212  883 FO
  24   24 3286 1104 FO
  24   24 3357 1094 FO
  24   24 3425 1032 FO
  24   24 3491  708 FO
  24   24 3553  629 FO
  24   24 3614  847 FO
  24   24 3674 1191 FO
  24   24 3731 1237 FO
  24   24 3787 1040 FO
gs 899 324 5357 3522 rc
gr

  24   24 3300  874 PO
  24   24 3377 1011 PO
  24   24 3450 1026 PO
  24   24 3521  930 PO
  24   24 3590  636 PO
  24   24 3654  618 PO
  24   24 3718  888 PO
  24   24 3780 1099 PO
  24   24 3839 1174 PO
  24   24 3897 1013 PO
  24   24 3300  874 FO
  24   24 3377 1011 FO
  24   24 3450 1026 FO
  24   24 3521  930 FO
  24   24 3590  636 FO
  24   24 3654  618 FO
  24   24 3718  888 FO
  24   24 3780 1099 FO
  24   24 3839 1174 FO
  24   24 3897 1013 FO
gs 899 324 5357 3522 rc
gr

  24   24 4063  557 PO
  24   24 4115 1174 PO
  24   24 4167 1453 PO
  24   24 3463 1076 PO
  24   24 3539 1172 PO
  24   24 3612  912 PO
  24   24 3683  634 PO
  24   24 3750  576 PO
  24   24 3816  878 PO
  24   24 3880 1167 PO
  24   24 3941 1157 PO
  24   24 4001  868 PO
  24   24 4063  557 FO
  24   24 4115 1174 FO
  24   24 4167 1453 FO
  24   24 3463 1076 FO
  24   24 3539 1172 FO
  24   24 3612  912 FO
  24   24 3683  634 FO
  24   24 3750  576 FO
  24   24 3816  878 FO
  24   24 3880 1167 FO
  24   24 3941 1157 FO
  24   24 4001  868 FO
gs 899 324 5357 3522 rc
gr

  24   24 4173  605 PO
  24   24 4227 1264 PO
  24   24 4280 1383 PO
  24   24 4333 1060 PO
  24   24 4173  605 FO
  24   24 4227 1264 FO
  24   24 4280 1383 FO
  24   24 4333 1060 FO
gs 899 324 5357 3522 rc
gr

  24   24 3624 1239 PO
  24   24 3700 1090 PO
  24   24 3773  844 PO
  24   24 3842  663 PO
  24   24 3910  976 PO
  24   24 3976 1169 PO
  24   24 4039 1304 PO
  24   24 4101 1039 PO
  24   24 4161  484 PO
  24   24 3624 1239 FO
  24   24 3700 1090 FO
  24   24 3773  844 FO
  24   24 3842  663 FO
  24   24 3910  976 FO
  24   24 3976 1169 FO
  24   24 4039 1304 FO
  24   24 4101 1039 FO
  24   24 4161  484 FO
gs 899 324 5357 3522 rc
gr

  24   24 4278  734 PO
  24   24 4334 1360 PO
  24   24 4389 1535 PO
  24   24 4443 1281 PO
  24   24 4278  734 FO
  24   24 4334 1360 FO
  24   24 4389 1535 FO
  24   24 4443 1281 FO
gs 899 324 5357 3522 rc
gr

  24   24 3782 1034 PO
  24   24 3858  749 PO
  24   24 3929  671 PO
  24   24 3999 1047 PO
  24   24 4067 1150 PO
  24   24 4132 1301 PO
  24   24 4196 1131 PO
  24   24 3782 1034 FO
  24   24 3858  749 FO
  24   24 3929  671 FO
  24   24 3999 1047 FO
  24   24 4067 1150 FO
  24   24 4132 1301 FO
  24   24 4196 1131 FO
gs 899 324 5357 3522 rc
gr

  24   24 4378  703 PO
  24   24 4436 1450 PO
  24   24 4492 1581 PO
  24   24 4548 1148 PO
  24   24 4378  703 FO
  24   24 4436 1450 FO
  24   24 4492 1581 FO
  24   24 4548 1148 FO
gs 899 324 5357 3522 rc
gr

  24   24 4760 1478 PO
  24   24 4811 1689 PO
  24   24 4861 1473 PO
  24   24 3940  573 PO
  24   24 4013  550 PO
  24   24 4085  846 PO
  24   24 4155 1085 PO
  24   24 4222 1074 PO
  24   24 4287  861 PO
  24   24 4760 1478 FO
  24   24 4811 1689 FO
  24   24 4861 1473 FO
  24   24 3940  573 FO
  24   24 4013  550 FO
  24   24 4085  846 FO
  24   24 4155 1085 FO
  24   24 4222 1074 FO
  24   24 4287  861 FO
gs 899 324 5357 3522 rc
gr

  24   24 4474  625 PO
  24   24 4534 1296 PO
  24   24 4592 1397 PO
  24   24 4649 1213 PO
  24   24 4474  625 FO
  24   24 4534 1296 FO
  24   24 4592 1397 FO
  24   24 4649 1213 FO
gs 899 324 5357 3522 rc
gr

  24   24 4867 1424 PO
  24   24 4919 1616 PO
  24   24 4971 1420 PO
  24   24 4867 1424 FO
  24   24 4919 1616 FO
  24   24 4971 1420 FO
gs 899 324 5357 3522 rc
gr

  24   24 4168  468 PO
  24   24 4240  789 PO
  24   24 4309  952 PO
  24   24 4376  639 PO
  24   24 4168  468 FO
  24   24 4240  789 FO
  24   24 4309  952 FO
  24   24 4376  639 FO
gs 899 324 5357 3522 rc
gr

  24   24 4629 1050 PO
  24   24 4689 1193 PO
  24   24 4747  913 PO
  24   24 4629 1050 FO
  24   24 4689 1193 FO
  24   24 4747  913 FO
gs 899 324 5357 3522 rc
gr

  24   24 4971 1039 PO
  24   24 5025 1324 PO
  24   24 5077 1126 PO
  24   24 4971 1039 FO
  24   24 5025 1324 FO
  24   24 5077 1126 FO
gs 899 324 5357 3522 rc
gr

  24   24 5280  648 PO
  24   24 4247  525 PO
  24   24 4320  756 PO
  24   24 4391  799 PO
  24   24 4459  527 PO
  24   24 5280  648 FO
  24   24 4247  525 FO
  24   24 4320  756 FO
  24   24 4391  799 FO
  24   24 4459  527 FO
gs 899 324 5357 3522 rc
gr

  24   24 4719  946 PO
  24   24 4780 1150 PO
  24   24 4840  732 PO
  24   24 4719  946 FO
  24   24 4780 1150 FO
  24   24 4840  732 FO
gs 899 324 5357 3522 rc
gr

  24   24 5069  943 PO
  24   24 5124 1324 PO
  24   24 5178 1109 PO
  24   24 5069  943 FO
  24   24 5124 1324 FO
  24   24 5178 1109 FO
gs 899 324 5357 3522 rc
gr

  24   24 5385  629 PO
  24   24 5435 1546 PO
  24   24 4399 1045 PO
  24   24 4471 1134 PO
  24   24 4541  924 PO
  24   24 5385  629 FO
  24   24 5435 1546 FO
  24   24 4399 1045 FO
  24   24 4471 1134 FO
  24   24 4541  924 FO
gs 899 324 5357 3522 rc
gr

  24   24 4743  578 PO
  24   24 4807 1181 PO
  24   24 4869 1401 PO
  24   24 4930 1124 PO
  24   24 4743  578 FO
  24   24 4807 1181 FO
  24   24 4869 1401 FO
  24   24 4930 1124 FO
gs 899 324 5357 3522 rc
gr

  24   24 5165 1191 PO
  24   24 5221 1636 PO
  24   24 5276 1240 PO
  24   24 5165 1191 FO
  24   24 5221 1636 FO
  24   24 5276 1240 FO
gs 899 324 5357 3522 rc
gr

  24   24 5488  902 PO
  24   24 5539 1693 PO
  24   24 4550 1169 PO
  24   24 4622 1093 PO
  24   24 5488  902 FO
  24   24 5539 1693 FO
  24   24 4550 1169 FO
  24   24 4622 1093 FO
gs 899 324 5357 3522 rc
gr

  24   24 4827  733 PO
  24   24 4893 1502 PO
  24   24 4957 1507 PO
  24   24 5019 1177 PO
  24   24 4827  733 FO
  24   24 4893 1502 FO
  24   24 4957 1507 FO
  24   24 5019 1177 FO
gs 899 324 5357 3522 rc
gr

  24   24 5259 1386 PO
  24   24 5316 1766 PO
  24   24 5373 1576 PO
  24   24 5259 1386 FO
  24   24 5316 1766 FO
  24   24 5373 1576 FO
gs 899 324 5357 3522 rc
gr

  24   24 5590 1291 PO
  24   24 5641 1908 PO
  24   24 4698 1186 PO
  24   24 5590 1291 FO
  24   24 5641 1908 FO
  24   24 4698 1186 FO
gs 899 324 5357 3522 rc
gr

  24   24 4908  779 PO
  24   24 4975 1469 PO
  24   24 5040 1497 PO
  24   24 5104 1339 PO
  24   24 4908  779 FO
  24   24 4975 1469 FO
  24   24 5040 1497 FO
  24   24 5104 1339 FO
gs 899 324 5357 3522 rc
gr

  24   24 5289  425 PO
  24   24 5348 1507 PO
  24   24 5407 1838 PO
  24   24 5464 1574 PO
  24   24 5521  377 PO
  24   24 5289  425 FO
  24   24 5348 1507 FO
  24   24 5407 1838 FO
  24   24 5464 1574 FO
  24   24 5521  377 FO
gs 899 324 5357 3522 rc
gr

  24   24 5686 1319 PO
  24   24 5738 1935 PO
  24   24 5686 1319 FO
  24   24 5738 1935 FO
gs 899 324 5357 3522 rc
gr

  24   24 4987  582 PO
  24   24 5055 1077 PO
  24   24 5122 1183 PO
  24   24 5187 1147 PO
  24   24 4987  582 FO
  24   24 5055 1077 FO
  24   24 5122 1183 FO
  24   24 5187 1147 FO
gs 899 324 5357 3522 rc
gr

  24   24 5436 1405 PO
  24   24 5496 1538 PO
  24   24 5554 1305 PO
  24   24 5436 1405 FO
  24   24 5496 1538 FO
  24   24 5554 1305 FO
gs 899 324 5357 3522 rc
gr

  24   24 5780 1148 PO
  24   24 5834 1647 PO
  24   24 5780 1148 FO
  24   24 5834 1647 FO
gs 899 324 5357 3522 rc
gr

  24   24 5133  478 PO
  24   24 5201  650 PO
  24   24 5133  478 FO
  24   24 5201  650 FO
gs 899 324 5357 3522 rc
gr

  24   24 5521  522 PO
  24   24 5582  883 PO
  24   24 5642  629 PO
  24   24 5521  522 FO
  24   24 5582  883 FO
  24   24 5642  629 FO
gs 899 324 5357 3522 rc
gr

  24   24 5872  450 PO
  24   24 5927 1082 PO
  24   24 5872  450 FO
  24   24 5927 1082 FO
gs 899 324 5357 3522 rc
gr

  24   24 5279  512 PO
  24   24 5279  512 FO
gs 899 324 5357 3522 rc
gr

  24   24 5667  748 PO
  24   24 5728  459 PO
  24   24 5667  748 FO
  24   24 5728  459 FO
gs 899 324 5357 3522 rc
gr

  24   24 6018  774 PO
  24   24 5285  837 PO
  24   24 5355 1187 PO
  24   24 5424  828 PO
  24   24 6018  774 FO
  24   24 5285  837 FO
  24   24 5355 1187 FO
  24   24 5424  828 FO
gs 899 324 5357 3522 rc
gr

  24   24 5687  952 PO
  24   24 5750 1428 PO
  24   24 5812 1189 PO
  24   24 5687  952 FO
  24   24 5750 1428 FO
  24   24 5812 1189 FO
gs 899 324 5357 3522 rc
gr

  24   24 6050  706 PO
  24   24 6107 1455 PO
  24   24 5429 1723 PO
  24   24 5499 1342 PO
  24   24 6050  706 FO
  24   24 6107 1455 FO
  24   24 5429 1723 FO
  24   24 5499 1342 FO
gs 899 324 5357 3522 rc
gr

  24   24 5702  530 PO
  24   24 5767 1675 PO
  24   24 5830 1840 PO
  24   24 5894 1831 PO
  24   24 5955  513 PO
  24   24 5702  530 FO
  24   24 5767 1675 FO
  24   24 5830 1840 FO
  24   24 5894 1831 FO
  24   24 5955  513 FO
gs 899 324 5357 3522 rc
gr

  24   24 6136 1348 PO
  24   24 6193 1948 PO
  24   24 5572 1579 PO
  24   24 5642  525 PO
  24   24 6136 1348 FO
  24   24 6193 1948 FO
  24   24 5572 1579 FO
  24   24 5642  525 FO
gs 899 324 5357 3522 rc
gr

  24   24 5778  599 PO
  24   24 5844 1710 PO
  24   24 5909 1932 PO
  24   24 5973 1821 PO
  24   24 6036  676 PO
  24   24 5778  599 FO
  24   24 5844 1710 FO
  24   24 5909 1932 FO
  24   24 5973 1821 FO
  24   24 6036  676 FO
gs 899 324 5357 3522 rc
gr

  24   24 6219 1559 PO
  24   24 6219 1559 FO
gs 899 324 5357 3522 rc
gr

gs 899 324 5357 3522 rc
gr

  24   24 5921 1361 PO
  24   24 5986 1644 PO
  24   24 6051 1554 PO
  24   24 5921 1361 FO
  24   24 5986 1644 FO
  24   24 6051 1554 FO
gs 899 324 5357 3522 rc
gr

gs 899 324 5357 3522 rc
gr

  24   24 6063  516 PO
  24   24 6129  422 PO
  24   24 6063  516 FO
  24   24 6129  422 FO
gs 899 324 5357 3522 rc
gr

  24   24 6142  328 PO
  24   24 6211  884 PO
  24   24 6142  328 FO
  24   24 6211  884 FO
gs 899 324 5357 3522 rc
0 sg
0 503 1032 2288 2 MP stroke
113 0 976 2288 2 MP stroke
113 0 976 2791 2 MP stroke
1193 2150 PD
112 0 1137 2150 2 MP stroke
112 0 1137 2150 2 MP stroke
0 159 1354 1785 2 MP stroke
112 0 1298 1785 2 MP stroke
112 0 1298 1944 2 MP stroke
0 147 1514 1648 2 MP stroke
113 0 1458 1648 2 MP stroke
113 0 1458 1795 2 MP stroke
0 84 1675 1568 2 MP stroke
112 0 1619 1568 2 MP stroke
112 0 1619 1652 2 MP stroke
0 62 1836 1483 2 MP stroke
112 0 1780 1483 2 MP stroke
112 0 1780 1545 2 MP stroke
0 135 1996 1373 2 MP stroke
113 0 1940 1373 2 MP stroke
113 0 1940 1508 2 MP stroke
0 66 2157 1349 2 MP stroke
112 0 2101 1349 2 MP stroke
112 0 2101 1415 2 MP stroke
0 115 2318 1255 2 MP stroke
112 0 2262 1255 2 MP stroke
112 0 2262 1370 2 MP stroke
0 90 2479 1213 2 MP stroke
113 0 2422 1213 2 MP stroke
113 0 2422 1303 2 MP stroke
0 55 2639 1195 2 MP stroke
112 0 2583 1195 2 MP stroke
112 0 2583 1250 2 MP stroke
0 162 2800 1072 2 MP stroke
112 0 2744 1072 2 MP stroke
112 0 2744 1234 2 MP stroke
0 228 2961 1042 2 MP stroke
113 0 2904 1042 2 MP stroke
113 0 2904 1270 2 MP stroke
0 259 3121 966 2 MP stroke
112 0 3065 966 2 MP stroke
112 0 3065 1225 2 MP stroke
0 364 3282 804 2 MP stroke
112 0 3226 804 2 MP stroke
112 0 3226 1168 2 MP stroke
0 293 3443 812 2 MP stroke
113 0 3386 812 2 MP stroke
113 0 3386 1105 2 MP stroke
0 553 3603 682 2 MP stroke
113 0 3547 682 2 MP stroke
113 0 3547 1235 2 MP stroke
0 621 3764 577 2 MP stroke
112 0 3708 577 2 MP stroke
112 0 3708 1198 2 MP stroke
0 852 3925 354 2 MP stroke
113 0 3868 354 2 MP stroke
113 0 3868 1206 2 MP stroke
0 884 4085 324 2 MP stroke
113 0 4029 1208 2 MP stroke
0 872 4246 336 2 MP stroke
112 0 4190 336 2 MP stroke
112 0 4190 1208 2 MP stroke
0 991 4407 324 2 MP stroke
113 0 4350 1315 2 MP stroke
0 1046 4567 324 2 MP stroke
113 0 4511 1370 2 MP stroke
0 1015 4728 324 2 MP stroke
112 0 4672 1339 2 MP stroke
0 1480 4889 324 2 MP stroke
113 0 4832 1804 2 MP stroke
0 1195 5049 324 2 MP stroke
113 0 4993 1519 2 MP stroke
0 1265 5210 324 2 MP stroke
112 0 5154 1589 2 MP stroke
0 1620 5371 324 2 MP stroke
112 0 5315 1944 2 MP stroke
0 1568 5531 324 2 MP stroke
113 0 5475 1892 2 MP stroke
0 1381 5692 324 2 MP stroke
112 0 5636 1705 2 MP stroke
0 2043 5853 323 2 MP stroke
112 0 5797 2366 2 MP stroke
0 1601 6013 324 2 MP stroke
113 0 5957 1925 2 MP stroke
0 1342 6174 324 2 MP stroke
112 0 6118 1666 2 MP stroke
gr

0 sg
  36   36 1032 2540 PO
  36   36 1193 2150 PO
  36   36 1354 1864 PO
  36   36 1514 1721 PO
  36   36 1675 1610 PO
  36   36 1836 1514 PO
  36   36 1996 1440 PO
  36   36 2157 1382 PO
  36   36 2318 1312 PO
  36   36 2479 1258 PO
  36   36 2639 1223 PO
  36   36 2800 1153 PO
  36   36 2961 1156 PO
  36   36 3121 1096 PO
  36   36 3282  986 PO
  36   36 3443  958 PO
  36   36 3603  959 PO
  36   36 3764  888 PO
  36   36 3925  780 PO
  36   36 4085  677 PO
  36   36 4246  772 PO
  36   36 4407  748 PO
  36   36 4567  367 PO
  36   36 1032 2540 FO
  36   36 1193 2150 FO
  36   36 1354 1864 FO
  36   36 1514 1721 FO
  36   36 1675 1610 FO
  36   36 1836 1514 FO
  36   36 1996 1440 FO
  36   36 2157 1382 FO
  36   36 2318 1312 FO
  36   36 2479 1258 FO
  36   36 2639 1223 FO
  36   36 2800 1153 FO
  36   36 2961 1156 FO
  36   36 3121 1096 FO
  36   36 3282  986 FO
  36   36 3443  958 FO
  36   36 3603  959 FO
  36   36 3764  888 FO
  36   36 3925  780 FO
  36   36 4085  677 FO
  36   36 4246  772 FO
  36   36 4407  748 FO
  36   36 4567  367 FO
gs 899 324 5357 3522 rc
gr

  36   36 4889  334 PO
  36   36 5049  423 PO
  36   36 4889  334 FO
  36   36 5049  423 FO
gs 899 324 5357 3522 rc
gr

3012 4133 mt 
(Geometric mean rate) s
 616 2378 mt  -90 rotate
(Correlation) s
90 rotate

end %%Color Dict

eplot
%%EndObject

epage
end

showpage

%%Trailer
%%EOF
