%!PS-Adobe-3.0 EPSF-3.0
%%Creator: MATLAB, The MathWorks, Inc. Version 7.14.0.739 (R2012a). Operating System: Linux 2.6.33.7.2-rt30-rt #1 SMP PREEMPT RT Tue Apr 17 15:22:21 CEST 2012 x86_64.
%%Title: ./LIF_correlations_instantaneous_decay.eps
%%CreationDate: 03/10/2014  12:59:33
%%DocumentNeededFonts: Helvetica
%%DocumentProcessColors: Cyan Magenta Yellow Black
%%LanguageLevel: 2
%%Pages: 1
%%BoundingBox:    40    11   528   344
%%EndComments

%%BeginProlog
% MathWorks dictionary
/MathWorks 160 dict begin
% definition operators
/bdef {bind def} bind def
/ldef {load def} bind def
/xdef {exch def} bdef
/xstore {exch store} bdef
% operator abbreviations
/c  /clip ldef
/cc /concat ldef
/cp /closepath ldef
/gr /grestore ldef
/gs /gsave ldef
/mt /moveto ldef
/np /newpath ldef
/cm /currentmatrix ldef
/sm /setmatrix ldef
/rm /rmoveto ldef
/rl /rlineto ldef
/s {show newpath} bdef
/sc {setcmykcolor} bdef
/sr /setrgbcolor ldef
/sg /setgray ldef
/w /setlinewidth ldef
/j /setlinejoin ldef
/cap /setlinecap ldef
/rc {rectclip} bdef
/rf {rectfill} bdef
% page state control
/pgsv () def
/bpage {/pgsv save def} bdef
/epage {pgsv restore} bdef
/bplot /gsave ldef
/eplot {stroke grestore} bdef
% orientation switch
/portraitMode 0 def /landscapeMode 1 def /rotateMode 2 def
% coordinate system mappings
/dpi2point 0 def
% font control
/FontSize 0 def
/FMS {/FontSize xstore findfont [FontSize 0 0 FontSize neg 0 0]
  makefont setfont} bdef
/reencode {exch dup where {pop load} {pop StandardEncoding} ifelse
  exch dup 3 1 roll findfont dup length dict begin
  { 1 index /FID ne {def}{pop pop} ifelse } forall
  /Encoding exch def currentdict end definefont pop} bdef
/isroman {findfont /CharStrings get /Agrave known} bdef
/FMSR {3 1 roll 1 index dup isroman {reencode} {pop pop} ifelse
  exch FMS} bdef
/csm {1 dpi2point div -1 dpi2point div scale neg translate
 dup landscapeMode eq {pop -90 rotate}
  {rotateMode eq {90 rotate} if} ifelse} bdef
% line types: solid, dotted, dashed, dotdash
/SO { [] 0 setdash } bdef
/DO { [.5 dpi2point mul 4 dpi2point mul] 0 setdash } bdef
/DA { [6 dpi2point mul] 0 setdash } bdef
/DD { [.5 dpi2point mul 4 dpi2point mul 6 dpi2point mul 4
  dpi2point mul] 0 setdash } bdef
% macros for lines and objects
/L {lineto stroke} bdef
/MP {3 1 roll moveto 1 sub {rlineto} repeat} bdef
/AP {{rlineto} repeat} bdef
/PDlw -1 def
/W {/PDlw currentlinewidth def setlinewidth} def
/PP {closepath eofill} bdef
/DP {closepath stroke} bdef
/MR {4 -2 roll moveto dup  0 exch rlineto exch 0 rlineto
  neg 0 exch rlineto closepath} bdef
/FR {MR stroke} bdef
/PR {MR fill} bdef
/L1i {{currentfile picstr readhexstring pop} image} bdef
/tMatrix matrix def
/MakeOval {newpath tMatrix currentmatrix pop translate scale
0 0 1 0 360 arc tMatrix setmatrix} bdef
/FO {MakeOval stroke} bdef
/PO {MakeOval fill} bdef
/PD {currentlinewidth 2 div 0 360 arc fill
   PDlw -1 eq not {PDlw w /PDlw -1 def} if} def
/FA {newpath tMatrix currentmatrix pop translate scale
  0 0 1 5 -2 roll arc tMatrix setmatrix stroke} bdef
/PA {newpath tMatrix currentmatrix pop	translate 0 0 moveto scale
  0 0 1 5 -2 roll arc closepath tMatrix setmatrix fill} bdef
/FAn {newpath tMatrix currentmatrix pop translate scale
  0 0 1 5 -2 roll arcn tMatrix setmatrix stroke} bdef
/PAn {newpath tMatrix currentmatrix pop translate 0 0 moveto scale
  0 0 1 5 -2 roll arcn closepath tMatrix setmatrix fill} bdef
/vradius 0 def /hradius 0 def /lry 0 def
/lrx 0 def /uly 0 def /ulx 0 def /rad 0 def
/MRR {/vradius xdef /hradius xdef /lry xdef /lrx xdef /uly xdef
  /ulx xdef newpath tMatrix currentmatrix pop ulx hradius add uly
  vradius add translate hradius vradius scale 0 0 1 180 270 arc 
  tMatrix setmatrix lrx hradius sub uly vradius add translate
  hradius vradius scale 0 0 1 270 360 arc tMatrix setmatrix
  lrx hradius sub lry vradius sub translate hradius vradius scale
  0 0 1 0 90 arc tMatrix setmatrix ulx hradius add lry vradius sub
  translate hradius vradius scale 0 0 1 90 180 arc tMatrix setmatrix
  closepath} bdef
/FRR {MRR stroke } bdef
/PRR {MRR fill } bdef
/MlrRR {/lry xdef /lrx xdef /uly xdef /ulx xdef /rad lry uly sub 2 div def
  newpath tMatrix currentmatrix pop ulx rad add uly rad add translate
  rad rad scale 0 0 1 90 270 arc tMatrix setmatrix lrx rad sub lry rad
  sub translate rad rad scale 0 0 1 270 90 arc tMatrix setmatrix
  closepath} bdef
/FlrRR {MlrRR stroke } bdef
/PlrRR {MlrRR fill } bdef
/MtbRR {/lry xdef /lrx xdef /uly xdef /ulx xdef /rad lrx ulx sub 2 div def
  newpath tMatrix currentmatrix pop ulx rad add uly rad add translate
  rad rad scale 0 0 1 180 360 arc tMatrix setmatrix lrx rad sub lry rad
  sub translate rad rad scale 0 0 1 0 180 arc tMatrix setmatrix
  closepath} bdef
/FtbRR {MtbRR stroke } bdef
/PtbRR {MtbRR fill } bdef
/stri 6 array def /dtri 6 array def
/smat 6 array def /dmat 6 array def
/tmat1 6 array def /tmat2 6 array def /dif 3 array def
/asub {/ind2 exch def /ind1 exch def dup dup
  ind1 get exch ind2 get sub exch } bdef
/tri_to_matrix {
  2 0 asub 3 1 asub 4 0 asub 5 1 asub
  dup 0 get exch 1 get 7 -1 roll astore } bdef
/compute_transform {
  dmat dtri tri_to_matrix tmat1 invertmatrix 
  smat stri tri_to_matrix tmat2 concatmatrix } bdef
/ds {stri astore pop} bdef
/dt {dtri astore pop} bdef
/db {2 copy /cols xdef /rows xdef mul dup 3 mul string
  currentfile 
  3 index 0 eq {/ASCIIHexDecode filter}
  {/ASCII85Decode filter 3 index 2 eq {/RunLengthDecode filter} if }
  ifelse exch readstring pop
  dup 0 3 index getinterval /rbmap xdef
  dup 2 index dup getinterval /gbmap xdef
  1 index dup 2 mul exch getinterval /bbmap xdef pop pop}bdef
/it {gs np dtri aload pop moveto lineto lineto cp c
  cols rows 8 compute_transform 
  rbmap gbmap bbmap true 3 colorimage gr}bdef
/il {newpath moveto lineto stroke}bdef
currentdict end def
%%EndProlog

%%BeginSetup
MathWorks begin

0 cap

end
%%EndSetup

%%Page: 1 1
%%BeginPageSetup
%%PageBoundingBox:    40    11   528   344
MathWorks begin
bpage
%%EndPageSetup

%%BeginObject: obj1
bplot

/dpi2point 12 def
portraitMode 0000 4320 csm

  480   182  5865  4003 rc
86 dict begin %Colortable dictionary
/c0 { 0.000000 0.000000 0.000000 sr} bdef
/c1 { 1.000000 1.000000 1.000000 sr} bdef
/c2 { 0.900000 0.000000 0.000000 sr} bdef
/c3 { 0.000000 0.820000 0.000000 sr} bdef
/c4 { 0.000000 0.000000 0.800000 sr} bdef
/c5 { 0.910000 0.820000 0.320000 sr} bdef
/c6 { 1.000000 0.260000 0.820000 sr} bdef
/c7 { 0.000000 0.820000 0.820000 sr} bdef
c0
1 j
1 sg
   0    0 6913 4321 rf
6 w
0 3521 5356 0 0 -3521 899 3845 4 MP
PP
-5356 0 0 3521 5356 0 0 -3521 899 3845 5 MP stroke
4 w
DO
SO
6 w
0 sg
 899 3845 mt 6255 3845 L
 899 3845 mt  899  324 L
 899 3845 mt  899 3791 L
%%IncludeResource: font Helvetica
/Helvetica /ISOLatin1Encoding 120 FMSR

 866 3990 mt 
(0) s
1970 3845 mt 1970 3791 L
1937 3990 mt 
(5) s
3041 3845 mt 3041 3791 L
2975 3990 mt 
(10) s
4112 3845 mt 4112 3791 L
4046 3990 mt 
(15) s
5183 3845 mt 5183 3791 L
5117 3990 mt 
(20) s
 899 3845 mt  952 3845 L
 798 3889 mt 
(0) s
 899 3140 mt  952 3140 L
 698 3184 mt 
(0.1) s
 899 2436 mt  952 2436 L
 698 2480 mt 
(0.2) s
 899 1732 mt  952 1732 L
 698 1776 mt 
(0.3) s
 899 1028 mt  952 1028 L
 698 1072 mt 
(0.4) s
 899  324 mt  952  324 L
 698  368 mt 
(0.5) s
gs 899 324 5357 3522 rc
gr

  36   36  946  612 FO
  36   36  939  648 FO
  36   36  937  463 FO
  36   36  955  493 FO
  36   36  952  585 FO
  36   36  976  853 FO
  36   36  981  543 FO
  36   36  944  461 FO
  36   36  965 1008 FO
  36   36  996 1251 FO
  36   36 1027 1090 FO
  36   36 1035 1088 FO
  36   36 1099 1060 FO
  36   36 1103 1008 FO
  36   36 1137  918 FO
  36   36 1115 1152 FO
  36   36 1126 1020 FO
  36   36 1164 1190 FO
  36   36 1140 1264 FO
  36   36 1169 1407 FO
  36   36 1144 1194 FO
  36   36 1186 1534 FO
  36   36 1299 1267 FO
  36   36 1313 1606 FO
  36   36 1325 1597 FO
  36   36 1262 1561 FO
  36   36 1424 1678 FO
  36   36 1439 1686 FO
  36   36 1505 1890 FO
  36   36 1542 2012 FO
  36   36 1612 2265 FO
  36   36 1459 1789 FO
  36   36 1527 1874 FO
  36   36 1566 1998 FO
  36   36 1638 2135 FO
  36   36 1657 2382 FO
  36   36 1545 1930 FO
  36   36 1585 2069 FO
  36   36 1659 2066 FO
  36   36 1679 2605 FO
  36   36 1668 2500 FO
  36   36 1751 2202 FO
  36   36 1774 2465 FO
  36   36 1854 2454 FO
  36   36 1880 2628 FO
  36   36 1804 2267 FO
  36   36 1828 2566 FO
  36   36 1914 2474 FO
  36   36 1941 2600 FO
  36   36 1928 2558 FO
  36   36 2023 2637 FO
  36   36 2053 2664 FO
  36   36 2200 2753 FO
  36   36 2300 2741 FO
  36   36 2053 2930 FO
  36   36 2083 2797 FO
  36   36 2235 2872 FO
  36   36 2337 3046 FO
  36   36 2384 3190 FO
  36   36 2192 2707 FO
  36   36 2358 2825 FO
  36   36 2470 3003 FO
  36   36 2536 3015 FO
  36   36 2520 3178 FO
  36   36 2628 3276 FO
  36   36 2396 2968 FO
  36   36 2511 3055 FO
  36   36 2579 3051 FO
  36   36 2563 3107 FO
  36   36 2674 3362 FO
  36   36 2717 2856 FO
  36   36 2794 3213 FO
  36   36 2776 3185 FO
  36   36 2900 3226 FO
  36   36 3063 3207 FO
  36   36 3190 3287 FO
  36   36 2939 3266 FO
  36   36 2920 3248 FO
  36   36 3054 3230 FO
  36   36 3230 3190 FO
  36   36 3366 3334 FO
  36   36 3484 3369 FO
  36   36 3628 3469 FO
  36   36 3005 3276 FO
  36   36 3145 3251 FO
  36   36 3327 3337 FO
  36   36 3469 3414 FO
  36   36 3593 3448 FO
  36   36 3742 3536 FO
  36   36 3124 3418 FO
  36   36 3305 3469 FO
  36   36 3445 3429 FO
  36   36 3568 3472 FO
  36   36 3716 3460 FO
  36   36 3464 3421 FO
  36   36 3614 3432 FO
  36   36 3744 3472 FO
  36   36 3902 3596 FO
  36   36 3835 3424 FO
  36   36 3976 3425 FO
  36   36 4147 3516 FO
  36   36 4156 3452 FO
  36   36 4337 3466 FO
  36   36 4501 3545 FO
gs 899 324 5357 3522 rc
gr

/c8 { 1.000000 0.000000 0.000000 sr} bdef
c8
  36   36  923  343 FO
  36   36  925  346 FO
gs 899 324 5357 3522 rc
gr

  36   36  946  467 FO
  36   36  939  494 FO
  36   36  937  379 FO
  36   36  955  458 FO
  36   36  952  454 FO
  36   36  976  554 FO
  36   36  981  485 FO
  36   36  944  395 FO
  36   36  965  593 FO
  36   36  996  706 FO
  36   36 1027  661 FO
  36   36 1035  683 FO
  36   36 1099  696 FO
  36   36 1103  680 FO
  36   36 1137  597 FO
  36   36 1115  782 FO
  36   36 1126  717 FO
  36   36 1164  784 FO
  36   36 1140  774 FO
  36   36 1169  813 FO
  36   36 1144  777 FO
  36   36 1186  870 FO
  36   36 1299  678 FO
  36   36 1313  944 FO
  36   36 1325  831 FO
  36   36 1262  953 FO
  36   36 1424  936 FO
  36   36 1439  951 FO
  36   36 1505 1078 FO
  36   36 1542 1085 FO
  36   36 1612 1198 FO
  36   36 1459 1028 FO
  36   36 1527 1053 FO
  36   36 1566 1083 FO
  36   36 1638 1185 FO
  36   36 1657 1320 FO
  36   36 1545 1049 FO
  36   36 1585 1078 FO
  36   36 1659 1070 FO
  36   36 1679 1428 FO
  36   36 1668 1307 FO
  36   36 1751 1222 FO
  36   36 1774 1352 FO
  36   36 1854 1253 FO
  36   36 1880 1300 FO
  36   36 1804 1154 FO
  36   36 1828 1329 FO
  36   36 1914 1216 FO
  36   36 1941 1315 FO
  36   36 1928 1421 FO
  36   36 2023 1317 FO
  36   36 2053 1352 FO
  36   36 2200 1410 FO
  36   36 2300 1249 FO
  36   36 2053 1566 FO
  36   36 2083 1469 FO
  36   36 2235 1523 FO
  36   36 2337 1559 FO
  36   36 2384 1613 FO
  36   36 2192 1279 FO
  36   36 2358 1469 FO
  36   36 2470 1523 FO
  36   36 2536 1459 FO
  36   36 2520 1518 FO
  36   36 2628 1745 FO
  36   36 2396 1493 FO
  36   36 2511 1503 FO
  36   36 2579 1529 FO
  36   36 2563 1517 FO
  36   36 2674 1846 FO
  36   36 2717 1250 FO
  36   36 2794 1688 FO
  36   36 2776 1551 FO
  36   36 2900 1644 FO
  36   36 3063 1500 FO
  36   36 3190 1497 FO
  36   36 2939 1707 FO
  36   36 2920 1573 FO
  36   36 3054 1625 FO
  36   36 3230 1476 FO
  36   36 3366 1542 FO
  36   36 3484 1447 FO
  36   36 3628 1661 FO
  36   36 3005 1642 FO
  36   36 3145 1639 FO
  36   36 3327 1672 FO
  36   36 3469 1678 FO
  36   36 3593 1780 FO
  36   36 3742 1747 FO
  36   36 3124 1746 FO
  36   36 3305 1760 FO
  36   36 3445 1678 FO
  36   36 3568 1720 FO
  36   36 3716 1632 FO
  36   36 3464 1724 FO
  36   36 3614 1739 FO
  36   36 3744 1715 FO
  36   36 3902 1993 FO
  36   36 3835 1654 FO
  36   36 3976 1619 FO
  36   36 4147 1723 FO
  36   36 4156 1665 FO
  36   36 4337 1728 FO
  36   36 4501 1749 FO
gs 899 324 5357 3522 rc
gr

0 j
0 -58 -58 0 0 58 58 0 889 2158 5 MP
/c9 { 1.000000 0.500000 0.000000 sr} bdef
c9
DP
gs 899 324 5357 3522 rc
gr

0 -58 -58 0 0 58 58 0 896 3607 5 MP
DP
gs 899 324 5357 3522 rc
gr

0 -58 -58 0 0 58 58 0 917 3442 5 MP
DP
gs 899 324 5357 3522 rc
gr

0 -58 -58 0 0 58 58 0 908 3172 5 MP
DP
0 -58 -58 0 0 58 58 0 926 3467 5 MP
DP
0 -58 -58 0 0 58 58 0 923 3123 5 MP
DP
gs 899 324 5357 3522 rc
gr

0 -58 -58 0 0 58 58 0 952 2695 5 MP
DP
0 -58 -58 0 0 58 58 0 915 2679 5 MP
DP
0 -58 -58 0 0 58 58 0 936 2494 5 MP
DP
0 -58 -58 0 0 58 58 0 967 3240 5 MP
DP
0 -58 -58 0 0 58 58 0 998 2936 5 MP
DP
0 -58 -58 0 0 58 58 0 1006 2148 5 MP
DP
0 -58 -58 0 0 58 58 0 1070 2324 5 MP
DP
0 -58 -58 0 0 58 58 0 1074 2881 5 MP
DP
0 -58 -58 0 0 58 58 0 1108 1309 5 MP
DP
0 -58 -58 0 0 58 58 0 1086 3214 5 MP
DP
0 -58 -58 0 0 58 58 0 1097 3121 5 MP
DP
0 -58 -58 0 0 58 58 0 1135 2537 5 MP
DP
0 -58 -58 0 0 58 58 0 1111 3219 5 MP
DP
0 -58 -58 0 0 58 58 0 1140 2384 5 MP
DP
0 -58 -58 0 0 58 58 0 1115 2673 5 MP
DP
0 -58 -58 0 0 58 58 0 1157 2926 5 MP
DP
0 -58 -58 0 0 58 58 0 1270 529 5 MP
DP
0 -58 -58 0 0 58 58 0 1284 2192 5 MP
DP
0 -58 -58 0 0 58 58 0 1296 1351 5 MP
DP
0 -58 -58 0 0 58 58 0 1233 2650 5 MP
DP
0 -58 -58 0 0 58 58 0 1395 1782 5 MP
DP
gs 899 324 5357 3522 rc
gr

0 -58 -58 0 0 58 58 0 1476 1812 5 MP
DP
0 -58 -58 0 0 58 58 0 1513 1200 5 MP
DP
0 -58 -58 0 0 58 58 0 1583 1019 5 MP
DP
0 -58 -58 0 0 58 58 0 1430 1770 5 MP
DP
0 -58 -58 0 0 58 58 0 1498 2434 5 MP
DP
0 -58 -58 0 0 58 58 0 1537 2181 5 MP
DP
0 -58 -58 0 0 58 58 0 1609 2318 5 MP
DP
0 -58 -58 0 0 58 58 0 1628 3280 5 MP
DP
0 -58 -58 0 0 58 58 0 1516 1070 5 MP
DP
0 -58 -58 0 0 58 58 0 1556 1430 5 MP
DP
0 -58 -58 0 0 58 58 0 1630 1214 5 MP
DP
0 -58 -58 0 0 58 58 0 1650 2573 5 MP
DP
0 -58 -58 0 0 58 58 0 1639 2331 5 MP
DP
0 -58 -58 0 0 58 58 0 1722 1277 5 MP
DP
0 -58 -58 0 0 58 58 0 1745 2664 5 MP
DP
0 -58 -58 0 0 58 58 0 1825 1861 5 MP
DP
0 -58 -58 0 0 58 58 0 1851 1745 5 MP
DP
0 -58 -58 0 0 58 58 0 1775 1475 5 MP
DP
0 -58 -58 0 0 58 58 0 1799 2477 5 MP
DP
0 -58 -58 0 0 58 58 0 1885 1289 5 MP
DP
0 -58 -58 0 0 58 58 0 1912 2494 5 MP
DP
0 -58 -58 0 0 58 58 0 1899 2580 5 MP
DP
0 -58 -58 0 0 58 58 0 1994 1319 5 MP
DP
0 -58 -58 0 0 58 58 0 2024 2171 5 MP
DP
0 -58 -58 0 0 58 58 0 2171 1117 5 MP
DP
0 -58 -58 0 0 58 58 0 2271 603 5 MP
DP
0 -58 -58 0 0 58 58 0 2024 2234 5 MP
DP
0 -58 -58 0 0 58 58 0 2054 3210 5 MP
DP
0 -58 -58 0 0 58 58 0 2206 2373 5 MP
DP
0 -58 -58 0 0 58 58 0 2308 2343 5 MP
DP
0 -58 -58 0 0 58 58 0 2355 3515 5 MP
DP
0 -58 -58 0 0 58 58 0 2163 2006 5 MP
DP
0 -58 -58 0 0 58 58 0 2329 1251 5 MP
DP
0 -58 -58 0 0 58 58 0 2441 1608 5 MP
DP
0 -58 -58 0 0 58 58 0 2507 1301 5 MP
DP
0 -58 -58 0 0 58 58 0 2491 2207 5 MP
DP
0 -58 -58 0 0 58 58 0 2599 1520 5 MP
DP
0 -58 -58 0 0 58 58 0 2367 1540 5 MP
DP
0 -58 -58 0 0 58 58 0 2482 1487 5 MP
DP
0 -58 -58 0 0 58 58 0 2550 2901 5 MP
DP
0 -58 -58 0 0 58 58 0 2534 1376 5 MP
DP
0 -58 -58 0 0 58 58 0 2645 2593 5 MP
DP
gs 899 324 5357 3522 rc
gr

0 -58 -58 0 0 58 58 0 2765 1710 5 MP
DP
0 -58 -58 0 0 58 58 0 2747 1187 5 MP
DP
0 -58 -58 0 0 58 58 0 2871 787 5 MP
DP
gs 899 324 5357 3522 rc
gr

0 -58 -58 0 0 58 58 0 2910 2250 5 MP
DP
0 -58 -58 0 0 58 58 0 2891 1071 5 MP
DP
0 -58 -58 0 0 58 58 0 3025 1099 5 MP
DP
gs 899 324 5357 3522 rc
gr

0 -58 -58 0 0 58 58 0 3337 593 5 MP
DP
gs 899 324 5357 3522 rc
gr

0 -58 -58 0 0 58 58 0 3599 1117 5 MP
DP
0 -58 -58 0 0 58 58 0 2976 3069 5 MP
DP
0 -58 -58 0 0 58 58 0 3116 547 5 MP
DP
0 -58 -58 0 0 58 58 0 3298 1240 5 MP
DP
0 -58 -58 0 0 58 58 0 3440 563 5 MP
DP
0 -58 -58 0 0 58 58 0 3564 1088 5 MP
DP
0 -58 -58 0 0 58 58 0 3713 1892 5 MP
DP
0 -58 -58 0 0 58 58 0 3095 2792 5 MP
DP
0 -58 -58 0 0 58 58 0 3276 1470 5 MP
DP
0 -58 -58 0 0 58 58 0 3416 1496 5 MP
DP
0 -58 -58 0 0 58 58 0 3539 1745 5 MP
DP
0 -58 -58 0 0 58 58 0 3687 383 5 MP
DP
0 -58 -58 0 0 58 58 0 3435 610 5 MP
DP
0 -58 -58 0 0 58 58 0 3585 594 5 MP
DP
gs 899 324 5357 3522 rc
gr

0 -58 -58 0 0 58 58 0 3873 2471 5 MP
DP
gs 899 324 5357 3522 rc
gr

0 -58 -58 0 0 58 58 0 4118 587 5 MP
DP
gs 899 324 5357 3522 rc
gr

0 -58 -58 0 0 58 58 0 4308 877 5 MP
DP
0 -58 -58 0 0 58 58 0 4472 931 5 MP
DP
gs 899 324 5357 3522 rc
gr

0 sg
2882 4133 mt 
(Geometric mean rate \(Hz\)) s
 616 2378 mt  -90 rotate
(Correlation) s
90 rotate
 882 3888 mt 
( ) s
6239  366 mt 
( ) s
5398 3304 mt 
(V) s
%%IncludeResource: font Helvetica
/Helvetica /ISOLatin1Encoding 96 FMSR

5478 3364 mt 
(m) s
%%IncludeResource: font Helvetica
/Helvetica /ISOLatin1Encoding 120 FMSR

5557 3304 mt 
( correlation) s
gs 4944 3188 1252 599 rc
gs 5115 3237 147 147 rc
  36   36 5188 3310 FO
gr

gr

5398 3542 mt 
(I correlation) s
gs 4944 3188 1252 599 rc
gs 5115 3426 147 147 rc
c8
  36   36 5188 3499 FO
gr

c8
gr

c8
0 sg
%%IncludeResource: font Symbol
/Symbol /ISOLatin1Encoding 120 FMSR

5398 3665 mt 
(r) s
%%IncludeResource: font Helvetica
/Helvetica /ISOLatin1Encoding 96 FMSR

5463 3725 mt 
(ij) s
gs 4944 3188 1252 599 rc
gs 5115 3602 147 147 rc
0 -58 -58 0 0 58 58 0 5159 3646 5 MP
c9
DP
gr

c9
gr

c9

end %%Color Dict

eplot
%%EndObject

epage
end

showpage

%%Trailer
%%EOF
