%!PS-Adobe-3.0 EPSF-3.0
%%Creator: MATLAB, The MathWorks, Inc. Version 7.14.0.739 (R2012a). Operating System: Linux 2.6.33.7.2-rt30-rt #1 SMP PREEMPT RT Tue Apr 17 15:22:21 CEST 2012 x86_64.
%%Title: ./LIF_correlations_cc_delta_20140418011514.eps
%%CreationDate: 04/18/2014  18:42:48
%%DocumentNeededFonts: Helvetica
%%DocumentProcessColors: Cyan Magenta Yellow Black
%%LanguageLevel: 2
%%Pages: 1
%%BoundingBox:    70   215   551   589
%%EndComments

%%BeginProlog
% MathWorks dictionary
/MathWorks 160 dict begin
% definition operators
/bdef {bind def} bind def
/ldef {load def} bind def
/xdef {exch def} bdef
/xstore {exch store} bdef
% operator abbreviations
/c  /clip ldef
/cc /concat ldef
/cp /closepath ldef
/gr /grestore ldef
/gs /gsave ldef
/mt /moveto ldef
/np /newpath ldef
/cm /currentmatrix ldef
/sm /setmatrix ldef
/rm /rmoveto ldef
/rl /rlineto ldef
/s {show newpath} bdef
/sc {setcmykcolor} bdef
/sr /setrgbcolor ldef
/sg /setgray ldef
/w /setlinewidth ldef
/j /setlinejoin ldef
/cap /setlinecap ldef
/rc {rectclip} bdef
/rf {rectfill} bdef
% page state control
/pgsv () def
/bpage {/pgsv save def} bdef
/epage {pgsv restore} bdef
/bplot /gsave ldef
/eplot {stroke grestore} bdef
% orientation switch
/portraitMode 0 def /landscapeMode 1 def /rotateMode 2 def
% coordinate system mappings
/dpi2point 0 def
% font control
/FontSize 0 def
/FMS {/FontSize xstore findfont [FontSize 0 0 FontSize neg 0 0]
  makefont setfont} bdef
/reencode {exch dup where {pop load} {pop StandardEncoding} ifelse
  exch dup 3 1 roll findfont dup length dict begin
  { 1 index /FID ne {def}{pop pop} ifelse } forall
  /Encoding exch def currentdict end definefont pop} bdef
/isroman {findfont /CharStrings get /Agrave known} bdef
/FMSR {3 1 roll 1 index dup isroman {reencode} {pop pop} ifelse
  exch FMS} bdef
/csm {1 dpi2point div -1 dpi2point div scale neg translate
 dup landscapeMode eq {pop -90 rotate}
  {rotateMode eq {90 rotate} if} ifelse} bdef
% line types: solid, dotted, dashed, dotdash
/SO { [] 0 setdash } bdef
/DO { [.5 dpi2point mul 4 dpi2point mul] 0 setdash } bdef
/DA { [6 dpi2point mul] 0 setdash } bdef
/DD { [.5 dpi2point mul 4 dpi2point mul 6 dpi2point mul 4
  dpi2point mul] 0 setdash } bdef
% macros for lines and objects
/L {lineto stroke} bdef
/MP {3 1 roll moveto 1 sub {rlineto} repeat} bdef
/AP {{rlineto} repeat} bdef
/PDlw -1 def
/W {/PDlw currentlinewidth def setlinewidth} def
/PP {closepath eofill} bdef
/DP {closepath stroke} bdef
/MR {4 -2 roll moveto dup  0 exch rlineto exch 0 rlineto
  neg 0 exch rlineto closepath} bdef
/FR {MR stroke} bdef
/PR {MR fill} bdef
/L1i {{currentfile picstr readhexstring pop} image} bdef
/tMatrix matrix def
/MakeOval {newpath tMatrix currentmatrix pop translate scale
0 0 1 0 360 arc tMatrix setmatrix} bdef
/FO {MakeOval stroke} bdef
/PO {MakeOval fill} bdef
/PD {currentlinewidth 2 div 0 360 arc fill
   PDlw -1 eq not {PDlw w /PDlw -1 def} if} def
/FA {newpath tMatrix currentmatrix pop translate scale
  0 0 1 5 -2 roll arc tMatrix setmatrix stroke} bdef
/PA {newpath tMatrix currentmatrix pop	translate 0 0 moveto scale
  0 0 1 5 -2 roll arc closepath tMatrix setmatrix fill} bdef
/FAn {newpath tMatrix currentmatrix pop translate scale
  0 0 1 5 -2 roll arcn tMatrix setmatrix stroke} bdef
/PAn {newpath tMatrix currentmatrix pop translate 0 0 moveto scale
  0 0 1 5 -2 roll arcn closepath tMatrix setmatrix fill} bdef
/vradius 0 def /hradius 0 def /lry 0 def
/lrx 0 def /uly 0 def /ulx 0 def /rad 0 def
/MRR {/vradius xdef /hradius xdef /lry xdef /lrx xdef /uly xdef
  /ulx xdef newpath tMatrix currentmatrix pop ulx hradius add uly
  vradius add translate hradius vradius scale 0 0 1 180 270 arc 
  tMatrix setmatrix lrx hradius sub uly vradius add translate
  hradius vradius scale 0 0 1 270 360 arc tMatrix setmatrix
  lrx hradius sub lry vradius sub translate hradius vradius scale
  0 0 1 0 90 arc tMatrix setmatrix ulx hradius add lry vradius sub
  translate hradius vradius scale 0 0 1 90 180 arc tMatrix setmatrix
  closepath} bdef
/FRR {MRR stroke } bdef
/PRR {MRR fill } bdef
/MlrRR {/lry xdef /lrx xdef /uly xdef /ulx xdef /rad lry uly sub 2 div def
  newpath tMatrix currentmatrix pop ulx rad add uly rad add translate
  rad rad scale 0 0 1 90 270 arc tMatrix setmatrix lrx rad sub lry rad
  sub translate rad rad scale 0 0 1 270 90 arc tMatrix setmatrix
  closepath} bdef
/FlrRR {MlrRR stroke } bdef
/PlrRR {MlrRR fill } bdef
/MtbRR {/lry xdef /lrx xdef /uly xdef /ulx xdef /rad lrx ulx sub 2 div def
  newpath tMatrix currentmatrix pop ulx rad add uly rad add translate
  rad rad scale 0 0 1 180 360 arc tMatrix setmatrix lrx rad sub lry rad
  sub translate rad rad scale 0 0 1 0 180 arc tMatrix setmatrix
  closepath} bdef
/FtbRR {MtbRR stroke } bdef
/PtbRR {MtbRR fill } bdef
/stri 6 array def /dtri 6 array def
/smat 6 array def /dmat 6 array def
/tmat1 6 array def /tmat2 6 array def /dif 3 array def
/asub {/ind2 exch def /ind1 exch def dup dup
  ind1 get exch ind2 get sub exch } bdef
/tri_to_matrix {
  2 0 asub 3 1 asub 4 0 asub 5 1 asub
  dup 0 get exch 1 get 7 -1 roll astore } bdef
/compute_transform {
  dmat dtri tri_to_matrix tmat1 invertmatrix 
  smat stri tri_to_matrix tmat2 concatmatrix } bdef
/ds {stri astore pop} bdef
/dt {dtri astore pop} bdef
/db {2 copy /cols xdef /rows xdef mul dup 3 mul string
  currentfile 
  3 index 0 eq {/ASCIIHexDecode filter}
  {/ASCII85Decode filter 3 index 2 eq {/RunLengthDecode filter} if }
  ifelse exch readstring pop
  dup 0 3 index getinterval /rbmap xdef
  dup 2 index dup getinterval /gbmap xdef
  1 index dup 2 mul exch getinterval /bbmap xdef pop pop}bdef
/it {gs np dtri aload pop moveto lineto lineto cp c
  cols rows 8 compute_transform 
  rbmap gbmap bbmap true 3 colorimage gr}bdef
/il {newpath moveto lineto stroke}bdef
currentdict end def
%%EndProlog

%%BeginSetup
MathWorks begin

0 cap

end
%%EndSetup

%%Page: 1 1
%%BeginPageSetup
%%PageBoundingBox:    70   215   551   589
MathWorks begin
bpage
%%EndPageSetup

%%BeginObject: obj1
bplot

/dpi2point 12 def
portraitMode 0216 7344 csm

  631   273  5773  4488 rc
76 dict begin %Colortable dictionary
/c0 { 0.000000 0.000000 0.000000 sr} bdef
/c1 { 1.000000 1.000000 1.000000 sr} bdef
/c2 { 0.900000 0.000000 0.000000 sr} bdef
/c3 { 0.000000 0.820000 0.000000 sr} bdef
/c4 { 0.000000 0.000000 0.800000 sr} bdef
/c5 { 0.910000 0.820000 0.320000 sr} bdef
/c6 { 1.000000 0.260000 0.820000 sr} bdef
/c7 { 0.000000 0.820000 0.820000 sr} bdef
c0
1 j
1 sg
   0    0 6913 5186 rf
6 w
0 4226 5356 0 0 -4226 899 4614 4 MP
PP
-5356 0 0 4226 5356 0 0 -4226 899 4614 5 MP stroke
4 w
DO
SO
6 w
0 sg
 899 4614 mt 6255 4614 L
 899  388 mt 6255  388 L
 899 4614 mt  899  388 L
6255 4614 mt 6255  388 L
 899 4614 mt 6255 4614 L
 899 4614 mt  899  388 L
 899 4614 mt  899 4561 L
 899  388 mt  899  442 L
%%IncludeResource: font Helvetica
/Helvetica /ISOLatin1Encoding 120 FMSR

 866 4760 mt 
(0) s
1791 4614 mt 1791 4561 L
1791  388 mt 1791  442 L
1725 4760 mt 
(20) s
2684 4614 mt 2684 4561 L
2684  388 mt 2684  442 L
2618 4760 mt 
(40) s
3577 4614 mt 3577 4561 L
3577  388 mt 3577  442 L
3511 4760 mt 
(60) s
4469 4614 mt 4469 4561 L
4469  388 mt 4469  442 L
4403 4760 mt 
(80) s
5362 4614 mt 5362 4561 L
5362  388 mt 5362  442 L
5262 4760 mt 
(100) s
6255 4614 mt 6255 4561 L
6255  388 mt 6255  442 L
6155 4760 mt 
(120) s
 899 4614 mt  952 4614 L
6255 4614 mt 6201 4614 L
 631 4658 mt 
(0.24) s
 899 4145 mt  952 4145 L
6255 4145 mt 6201 4145 L
 631 4189 mt 
(0.26) s
 899 3675 mt  952 3675 L
6255 3675 mt 6201 3675 L
 631 3719 mt 
(0.28) s
 899 3206 mt  952 3206 L
6255 3206 mt 6201 3206 L
 698 3250 mt 
(0.3) s
 899 2736 mt  952 2736 L
6255 2736 mt 6201 2736 L
 631 2780 mt 
(0.32) s
 899 2267 mt  952 2267 L
6255 2267 mt 6201 2267 L
 631 2311 mt 
(0.34) s
 899 1797 mt  952 1797 L
6255 1797 mt 6201 1797 L
 631 1841 mt 
(0.36) s
 899 1328 mt  952 1328 L
6255 1328 mt 6201 1328 L
 631 1372 mt 
(0.38) s
 899  858 mt  952  858 L
6255  858 mt 6201  858 L
 698  902 mt 
(0.4) s
 899  388 mt  952  388 L
6255  388 mt 6201  388 L
 631  432 mt 
(0.42) s
 899 4614 mt 6255 4614 L
 899  388 mt 6255  388 L
 899 4614 mt  899  388 L
6255 4614 mt 6255  388 L
gs 899 388 5357 4227 rc
gs 1146 484 4529 3998 rc
  36   36 1219 4408 FO
  36   36 1453 3543 FO
  36   36 1741 2745 FO
  36   36 1868 2721 FO
  36   36 2061 2376 FO
  36   36 2194 2243 FO
  36   36 2312 2296 FO
  36   36 2388 2099 FO
  36   36 2524 1961 FO
  36   36 2644 1989 FO
  36   36 2753 1987 FO
  36   36 2711 1855 FO
  36   36 2845 1854 FO
  36   36 2966 1834 FO
  36   36 3076 1773 FO
  36   36 3177 1742 FO
  36   36 3022 1683 FO
  36   36 3155 1662 FO
  36   36 3274 1358 FO
  36   36 3385 1598 FO
  36   36 3487 1323 FO
  36   36 3582 1254 FO
  36   36 3672 1224 FO
  36   36 3321 1559 FO
  36   36 3450 1590 FO
  36   36 3568 1399 FO
  36   36 3679 1284 FO
  36   36 3781 1449 FO
  36   36 3877 1255 FO
  36   36 3967 1291 FO
  36   36 4053 1583 FO
  36   36 3610 1577 FO
  36   36 3736 1296 FO
  36   36 3853  722 FO
  36   36 3961 1560 FO
  36   36 4063  998 FO
  36   36 4160 1312 FO
  36   36 4250  952 FO
  36   36 4337 1496 FO
  36   36 4419  923 FO
  36   36 3887 1056 FO
  36   36 4010 1409 FO
  36   36 4124 1198 FO
  36   36 4231 1173 FO
  36   36 4333 1331 FO
  36   36 4428 1320 FO
  36   36 4520 1265 FO
  36   36 4607  811 FO
  36   36 4154 1322 FO
  36   36 4274  830 FO
  36   36 4386 1096 FO
  36   36 4492 1025 FO
  36   36 4592  694 FO
  36   36 4688  906 FO
  36   36 4779 1123 FO
  36   36 4413 1121 FO
  36   36 4530 1016 FO
  36   36 4641  928 FO
  36   36 4745  908 FO
  36   36 4844 1206 FO
  36   36 4939  745 FO
  36   36 4663  768 FO
  36   36 4778 1324 FO
  36   36 4886 1580 FO
  36   36 4989 1514 FO
  36   36 5087 1373 FO
  36   36 4907  761 FO
  36   36 5019  754 FO
  36   36 5125 1156 FO
  36   36 5226  768 FO
  36   36 5144  786 FO
  36   36 5254 1309 FO
  36   36 5358 1080 FO
  36   36 5375 1258 FO
  36   36 5482  557 FO
  36   36 5601  852 FO
gr

gr


end %%Color Dict

eplot
%%EndObject

epage
end

showpage

%%Trailer
%%EOF
