%!PS-Adobe-3.0 EPSF-3.0
%%Creator: MATLAB, The MathWorks, Inc. Version 7.14.0.739 (R2012a). Operating System: Linux 2.6.33.7.2-rt30-rt #1 SMP PREEMPT RT Tue Apr 17 15:22:21 CEST 2012 x86_64.
%%Title: ./LIF_simple_correlations_cc_20140527235521.eps
%%CreationDate: 05/27/2014  23:55:31
%%DocumentNeededFonts: Helvetica
%%DocumentProcessColors: Cyan Magenta Yellow Black
%%LanguageLevel: 2
%%Pages: 1
%%BoundingBox:    40    11   533   342
%%EndComments

%%BeginProlog
% MathWorks dictionary
/MathWorks 160 dict begin
% definition operators
/bdef {bind def} bind def
/ldef {load def} bind def
/xdef {exch def} bdef
/xstore {exch store} bdef
% operator abbreviations
/c  /clip ldef
/cc /concat ldef
/cp /closepath ldef
/gr /grestore ldef
/gs /gsave ldef
/mt /moveto ldef
/np /newpath ldef
/cm /currentmatrix ldef
/sm /setmatrix ldef
/rm /rmoveto ldef
/rl /rlineto ldef
/s {show newpath} bdef
/sc {setcmykcolor} bdef
/sr /setrgbcolor ldef
/sg /setgray ldef
/w /setlinewidth ldef
/j /setlinejoin ldef
/cap /setlinecap ldef
/rc {rectclip} bdef
/rf {rectfill} bdef
% page state control
/pgsv () def
/bpage {/pgsv save def} bdef
/epage {pgsv restore} bdef
/bplot /gsave ldef
/eplot {stroke grestore} bdef
% orientation switch
/portraitMode 0 def /landscapeMode 1 def /rotateMode 2 def
% coordinate system mappings
/dpi2point 0 def
% font control
/FontSize 0 def
/FMS {/FontSize xstore findfont [FontSize 0 0 FontSize neg 0 0]
  makefont setfont} bdef
/reencode {exch dup where {pop load} {pop StandardEncoding} ifelse
  exch dup 3 1 roll findfont dup length dict begin
  { 1 index /FID ne {def}{pop pop} ifelse } forall
  /Encoding exch def currentdict end definefont pop} bdef
/isroman {findfont /CharStrings get /Agrave known} bdef
/FMSR {3 1 roll 1 index dup isroman {reencode} {pop pop} ifelse
  exch FMS} bdef
/csm {1 dpi2point div -1 dpi2point div scale neg translate
 dup landscapeMode eq {pop -90 rotate}
  {rotateMode eq {90 rotate} if} ifelse} bdef
% line types: solid, dotted, dashed, dotdash
/SO { [] 0 setdash } bdef
/DO { [.5 dpi2point mul 4 dpi2point mul] 0 setdash } bdef
/DA { [6 dpi2point mul] 0 setdash } bdef
/DD { [.5 dpi2point mul 4 dpi2point mul 6 dpi2point mul 4
  dpi2point mul] 0 setdash } bdef
% macros for lines and objects
/L {lineto stroke} bdef
/MP {3 1 roll moveto 1 sub {rlineto} repeat} bdef
/AP {{rlineto} repeat} bdef
/PDlw -1 def
/W {/PDlw currentlinewidth def setlinewidth} def
/PP {closepath eofill} bdef
/DP {closepath stroke} bdef
/MR {4 -2 roll moveto dup  0 exch rlineto exch 0 rlineto
  neg 0 exch rlineto closepath} bdef
/FR {MR stroke} bdef
/PR {MR fill} bdef
/L1i {{currentfile picstr readhexstring pop} image} bdef
/tMatrix matrix def
/MakeOval {newpath tMatrix currentmatrix pop translate scale
0 0 1 0 360 arc tMatrix setmatrix} bdef
/FO {MakeOval stroke} bdef
/PO {MakeOval fill} bdef
/PD {currentlinewidth 2 div 0 360 arc fill
   PDlw -1 eq not {PDlw w /PDlw -1 def} if} def
/FA {newpath tMatrix currentmatrix pop translate scale
  0 0 1 5 -2 roll arc tMatrix setmatrix stroke} bdef
/PA {newpath tMatrix currentmatrix pop	translate 0 0 moveto scale
  0 0 1 5 -2 roll arc closepath tMatrix setmatrix fill} bdef
/FAn {newpath tMatrix currentmatrix pop translate scale
  0 0 1 5 -2 roll arcn tMatrix setmatrix stroke} bdef
/PAn {newpath tMatrix currentmatrix pop translate 0 0 moveto scale
  0 0 1 5 -2 roll arcn closepath tMatrix setmatrix fill} bdef
/vradius 0 def /hradius 0 def /lry 0 def
/lrx 0 def /uly 0 def /ulx 0 def /rad 0 def
/MRR {/vradius xdef /hradius xdef /lry xdef /lrx xdef /uly xdef
  /ulx xdef newpath tMatrix currentmatrix pop ulx hradius add uly
  vradius add translate hradius vradius scale 0 0 1 180 270 arc 
  tMatrix setmatrix lrx hradius sub uly vradius add translate
  hradius vradius scale 0 0 1 270 360 arc tMatrix setmatrix
  lrx hradius sub lry vradius sub translate hradius vradius scale
  0 0 1 0 90 arc tMatrix setmatrix ulx hradius add lry vradius sub
  translate hradius vradius scale 0 0 1 90 180 arc tMatrix setmatrix
  closepath} bdef
/FRR {MRR stroke } bdef
/PRR {MRR fill } bdef
/MlrRR {/lry xdef /lrx xdef /uly xdef /ulx xdef /rad lry uly sub 2 div def
  newpath tMatrix currentmatrix pop ulx rad add uly rad add translate
  rad rad scale 0 0 1 90 270 arc tMatrix setmatrix lrx rad sub lry rad
  sub translate rad rad scale 0 0 1 270 90 arc tMatrix setmatrix
  closepath} bdef
/FlrRR {MlrRR stroke } bdef
/PlrRR {MlrRR fill } bdef
/MtbRR {/lry xdef /lrx xdef /uly xdef /ulx xdef /rad lrx ulx sub 2 div def
  newpath tMatrix currentmatrix pop ulx rad add uly rad add translate
  rad rad scale 0 0 1 180 360 arc tMatrix setmatrix lrx rad sub lry rad
  sub translate rad rad scale 0 0 1 0 180 arc tMatrix setmatrix
  closepath} bdef
/FtbRR {MtbRR stroke } bdef
/PtbRR {MtbRR fill } bdef
/stri 6 array def /dtri 6 array def
/smat 6 array def /dmat 6 array def
/tmat1 6 array def /tmat2 6 array def /dif 3 array def
/asub {/ind2 exch def /ind1 exch def dup dup
  ind1 get exch ind2 get sub exch } bdef
/tri_to_matrix {
  2 0 asub 3 1 asub 4 0 asub 5 1 asub
  dup 0 get exch 1 get 7 -1 roll astore } bdef
/compute_transform {
  dmat dtri tri_to_matrix tmat1 invertmatrix 
  smat stri tri_to_matrix tmat2 concatmatrix } bdef
/ds {stri astore pop} bdef
/dt {dtri astore pop} bdef
/db {2 copy /cols xdef /rows xdef mul dup 3 mul string
  currentfile 
  3 index 0 eq {/ASCIIHexDecode filter}
  {/ASCII85Decode filter 3 index 2 eq {/RunLengthDecode filter} if }
  ifelse exch readstring pop
  dup 0 3 index getinterval /rbmap xdef
  dup 2 index dup getinterval /gbmap xdef
  1 index dup 2 mul exch getinterval /bbmap xdef pop pop}bdef
/it {gs np dtri aload pop moveto lineto lineto cp c
  cols rows 8 compute_transform 
  rbmap gbmap bbmap true 3 colorimage gr}bdef
/il {newpath moveto lineto stroke}bdef
currentdict end def
%%EndProlog

%%BeginSetup
MathWorks begin

0 cap

end
%%EndSetup

%%Page: 1 1
%%BeginPageSetup
%%PageBoundingBox:    40    11   533   342
MathWorks begin
bpage
%%EndPageSetup

%%BeginObject: obj1
bplot

/dpi2point 12 def
portraitMode 0000 4320 csm

  480   209  5924  3976 rc
76 dict begin %Colortable dictionary
/c0 { 0.000000 0.000000 0.000000 sr} bdef
/c1 { 1.000000 1.000000 1.000000 sr} bdef
/c2 { 0.900000 0.000000 0.000000 sr} bdef
/c3 { 0.000000 0.820000 0.000000 sr} bdef
/c4 { 0.000000 0.000000 0.800000 sr} bdef
/c5 { 0.910000 0.820000 0.320000 sr} bdef
/c6 { 1.000000 0.260000 0.820000 sr} bdef
/c7 { 0.000000 0.820000 0.820000 sr} bdef
c0
1 j
1 sg
   0    0 6913 4321 rf
6 w
0 3521 5356 0 0 -3521 899 3845 4 MP
PP
-5356 0 0 3521 5356 0 0 -3521 899 3845 5 MP stroke
4 w
DO
SO
6 w
0 sg
 899 3845 mt 6255 3845 L
 899 3845 mt  899  324 L
 899 3845 mt  899 3791 L
%%IncludeResource: font Helvetica
/Helvetica /ISOLatin1Encoding 120 FMSR

 866 3990 mt 
(0) s
1970 3845 mt 1970 3791 L
1904 3990 mt 
(20) s
3041 3845 mt 3041 3791 L
2975 3990 mt 
(40) s
4112 3845 mt 4112 3791 L
4046 3990 mt 
(60) s
5183 3845 mt 5183 3791 L
5117 3990 mt 
(80) s
6255 3845 mt 6255 3791 L
6155 3990 mt 
(100) s
 899 3845 mt  952 3845 L
 798 3889 mt 
(0) s
 899 3140 mt  952 3140 L
 698 3184 mt 
(0.1) s
 899 2436 mt  952 2436 L
 698 2480 mt 
(0.2) s
 899 1732 mt  952 1732 L
 698 1776 mt 
(0.3) s
 899 1028 mt  952 1028 L
 698 1072 mt 
(0.4) s
 899  324 mt  952  324 L
 698  368 mt 
(0.5) s
gs 899 324 5357 3522 rc
gr

gs 892 474 5381 2426 rc
0.6 sg
  24   24  941 2850 PO
  24   24  947 2814 PO
  24   24  955 2737 PO
  24   24  962 2725 PO
  24   24  970 2647 PO
  24   24  979 2599 PO
  24   24  990 2589 PO
  24   24 1001 2527 PO
  24   24 1012 2452 PO
  24   24 1014 2490 PO
  24   24 1026 2436 PO
  24   24 1041 2383 PO
  24   24 1043 2341 PO
  24   24 1059 2298 PO
  24   24 1075 2241 PO
  24   24 1076 2182 PO
  24   24 1094 2170 PO
  24   24 1114 2151 PO
  24   24 1116 2157 PO
  24   24 1137 2097 PO
  24   24 1159 2077 PO
  24   24 1162 2027 PO
  24   24 1185 1946 PO
  24   24 1208 1979 PO
  24   24 1234 1941 PO
  24   24 1214 1953 PO
  24   24 1239 1865 PO
  24   24 1267 1837 PO
  24   24 1295 1818 PO
  24   24 1270 1843 PO
  24   24 1300 1773 PO
  24   24 1330 1795 PO
  24   24 1358 1758 PO
  24   24 1333 1737 PO
  24   24 1365 1734 PO
  24   24 1395 1696 PO
  24   24 1428 1680 PO
  24   24 1461 1625 PO
  24   24 1404 1664 PO
  24   24 1436 1679 PO
  24   24 1471 1615 PO
  24   24 1507 1565 PO
  24   24 1543 1612 PO
  24   24 1477 1589 PO
  24   24 1514 1544 PO
  24   24 1553 1547 PO
  24   24 1592 1553 PO
  24   24 1628 1485 PO
  24   24 1666 1442 PO
  24   24 1554 1556 PO
  24   24 1595 1482 PO
  24   24 1636 1475 PO
  24   24 1675 1451 PO
  24   24 1715 1433 PO
  24   24 1754 1463 PO
  24   24 1641 1454 PO
  24   24 1684 1426 PO
  24   24 1726 1404 PO
  24   24 1768 1349 PO
  24   24 1810 1381 PO
  24   24 1851 1367 PO
  24   24 1734 1375 PO
  24   24 1778 1329 PO
  24   24 1824 1292 PO
  24   24 1868 1352 PO
  24   24 1911 1274 PO
  24   24 1954 1292 PO
  24   24 1996 1258 PO
  24   24 1830 1322 PO
  24   24 1878 1290 PO
  24   24 1925 1288 PO
  24   24 1971 1306 PO
  24   24 2016 1274 PO
  24   24 2060 1279 PO
  24   24 2105 1240 PO
  24   24 2146 1233 PO
  24   24 1929 1218 PO
  24   24 1979 1258 PO
  24   24 2027 1219 PO
  24   24 2075 1204 PO
  24   24 2121 1185 PO
  24   24 2168 1192 PO
  24   24 2212 1150 PO
  24   24 2258 1162 PO
  24   24 2034 1192 PO
  24   24 2085 1194 PO
  24   24 2136 1120 PO
  24   24 2185 1121 PO
  24   24 2234 1134 PO
  24   24 2280 1119 PO
  24   24 2328 1125 PO
  24   24 2375 1099 PO
  24   24 2418 1094 PO
  24   24 2142 1172 PO
  24   24 2195 1156 PO
  24   24 2246 1115 PO
  24   24 2297 1093 PO
  24   24 2345 1130 PO
  24   24 2396 1114 PO
  24   24 2446 1075 PO
  24   24 2491 1129 PO
  24   24 2536 1068 PO
  24   24 2253 1135 PO
  24   24 2306 1091 PO
  24   24 2360 1081 PO
  24   24 2410 1089 PO
  24   24 2464 1083 PO
  24   24 2515 1039 PO
  24   24 2562 1056 PO
  24   24 2610 1035 PO
  24   24 2660 1011 PO
  24   24 2704 1017 PO
  24   24 2366 1070 PO
  24   24 2422 1066 PO
  24   24 2475 1037 PO
  24   24 2530 1047 PO
  24   24 2584  975 PO
  24   24 2633 1013 PO
  24   24 2683  992 PO
  24   24 2735 1020 PO
  24   24 2780  947 PO
  24   24 2827  999 PO
  24   24 2874  947 PO
  24   24 2482 1030 PO
  24   24 2537 1027 PO
  24   24 2594 1030 PO
  24   24 2650  953 PO
  24   24 2701 1018 PO
  24   24 2753 1001 PO
  24   24 2807  975 PO
  24   24 2855  937 PO
  24   24 2903  951 PO
  24   24 2952  934 PO
  24   24 2999  969 PO
  24   24 3046  924 PO
  24   24 2599  972 PO
  24   24 2659  959 PO
  24   24 2717  953 PO
  24   24 2770  955 PO
  24   24 2824  930 PO
  24   24 2880  937 PO
  24   24 2929  900 PO
  24   24 2980  921 PO
  24   24 3030  920 PO
  24   24 3080  915 PO
  24   24 3128  879 PO
  24   24 3177  921 PO
  24   24 3223  922 PO
  24   24 2720  980 PO
  24   24 2780  935 PO
  24   24 2834  926 PO
  24   24 2890  942 PO
  24   24 2948  927 PO
  24   24 2999  928 PO
  24   24 3051  904 PO
  24   24 3104  852 PO
  24   24 3155  924 PO
  24   24 3205  851 PO
  24   24 3255  894 PO
  24   24 3302  859 PO
  24   24 3349  898 PO
  24   24 2846  917 PO
  24   24 2902  915 PO
  24   24 2960  930 PO
  24   24 3020  917 PO
  24   24 3073  912 PO
  24   24 3127  904 PO
  24   24 3181  892 PO
  24   24 3234  905 PO
  24   24 3286  875 PO
  24   24 3338  864 PO
  24   24 3387  890 PO
  24   24 3436  833 PO
  24   24 3484  832 PO
  24   24 3532  834 PO
  24   24 2968  881 PO
  24   24 3028  833 PO
  24   24 3090  868 PO
  24   24 3145  851 PO
  24   24 3200  898 PO
  24   24 3256  815 PO
  24   24 3311  827 PO
  24   24 3365  855 PO
  24   24 3418  811 PO
  24   24 3469  800 PO
  24   24 3519  785 PO
  24   24 3569  797 PO
  24   24 3619  754 PO
  24   24 3667  803 PO
  24   24 3714  821 PO
  24   24 3090  919 PO
  24   24 3154  867 PO
  24   24 3210  851 PO
  24   24 3267  887 PO
  24   24 3325  805 PO
  24   24 3381  831 PO
  24   24 3436  822 PO
  24   24 3491  825 PO
  24   24 3543  847 PO
  24   24 3595  833 PO
  24   24 3647  817 PO
  24   24 3697  818 PO
  24   24 3747  778 PO
  24   24 3796  821 PO
  24   24 3844  798 PO
  24   24 3892  837 PO
  24   24 3219  861 PO
  24   24 3276  827 PO
  24   24 3335  821 PO
  24   24 3395  830 PO
  24   24 3453  811 PO
  24   24 3509  813 PO
  24   24 3566  826 PO
  24   24 3620  786 PO
  24   24 3673  807 PO
  24   24 3726  726 PO
  24   24 3778  768 PO
  24   24 3830  766 PO
  24   24 3880  787 PO
  24   24 3929  760 PO
  24   24 3978  753 PO
  24   24 4025  767 PO
  24   24 4072  752 PO
  24   24 3346  758 PO
  24   24 3406  783 PO
  24   24 3467  803 PO
  24   24 3527  830 PO
  24   24 3586  772 PO
  24   24 3644  806 PO
  24   24 3699  763 PO
  24   24 3754  758 PO
  24   24 3809  727 PO
  24   24 3862  714 PO
  24   24 3915  755 PO
  24   24 3967  760 PO
  24   24 4017  745 PO
  24   24 4068  714 PO
  24   24 4116  715 PO
  24   24 4165  736 PO
  24   24 4213  732 PO
  24   24 4260  729 PO
  24   24 3469  786 PO
  24   24 3531  753 PO
  24   24 3592  789 PO
  24   24 3652  771 PO
  24   24 3712  783 PO
  24   24 3769  730 PO
  24   24 3825  753 PO
  24   24 3881  730 PO
  24   24 3936  703 PO
  24   24 3990  704 PO
  24   24 4043  728 PO
  24   24 4095  713 PO
  24   24 4146  735 PO
  24   24 4196  727 PO
  24   24 4246  677 PO
  24   24 4296  683 PO
  24   24 4344  719 PO
  24   24 4390  689 PO
  24   24 4439  673 PO
  24   24 3597  802 PO
  24   24 3659  772 PO
  24   24 3721  747 PO
  24   24 3782  790 PO
  24   24 3840  769 PO
  24   24 3897  829 PO
  24   24 3955  719 PO
  24   24 4011  716 PO
  24   24 4067  743 PO
  24   24 4121  750 PO
  24   24 4174  762 PO
  24   24 4227  776 PO
  24   24 4278  691 PO
  24   24 4329  679 PO
  24   24 4380  721 PO
  24   24 4429  703 PO
  24   24 4476  752 PO
  24   24 4526  724 PO
  24   24 4573  704 PO
  24   24 4620  712 PO
  24   24 3726  734 PO
  24   24 3789  742 PO
  24   24 3852  753 PO
  24   24 3911  743 PO
  24   24 3970  714 PO
  24   24 4029  708 PO
  24   24 4087  690 PO
  24   24 4144  657 PO
  24   24 4199  717 PO
  24   24 4254  671 PO
  24   24 4308  730 PO
  24   24 4360  683 PO
  24   24 4412  623 PO
  24   24 4465  665 PO
  24   24 4515  675 PO
  24   24 4563  708 PO
  24   24 4615  663 PO
  24   24 4662  687 PO
  24   24 4710  677 PO
  24   24 4759  717 PO
  24   24 3856  816 PO
  24   24 3920  752 PO
  24   24 3981  762 PO
  24   24 4041  712 PO
  24   24 4102  763 PO
  24   24 4161  706 PO
  24   24 4219  716 PO
  24   24 4276  704 PO
  24   24 4331  743 PO
  24   24 4387  705 PO
  24   24 4440  735 PO
  24   24 4494  717 PO
  24   24 4547  743 PO
  24   24 4599  672 PO
  24   24 4648  693 PO
  24   24 4701  682 PO
  24   24 4750  730 PO
  24   24 4799  689 PO
  24   24 4848  672 PO
  24   24 3988  706 PO
  24   24 4050  724 PO
  24   24 4111  726 PO
  24   24 4173  716 PO
  24   24 4233  681 PO
  24   24 4293  672 PO
  24   24 4351  706 PO
  24   24 4408  703 PO
  24   24 4465  751 PO
  24   24 4519  683 PO
  24   24 4574  686 PO
  24   24 4629  689 PO
  24   24 4682  673 PO
  24   24 4732  664 PO
  24   24 4786  649 PO
  24   24 4836  689 PO
  24   24 4886  693 PO
  24   24 4936  674 PO
  24   24 4118  704 PO
  24   24 4181  737 PO
  24   24 4244  692 PO
  24   24 4306  707 PO
  24   24 4367  693 PO
  24   24 4426  695 PO
  24   24 4484  715 PO
  24   24 4542  696 PO
  24   24 4598  657 PO
  24   24 4654  636 PO
  24   24 4710  651 PO
  24   24 4764  703 PO
  24   24 4815  621 PO
  24   24 4870  646 PO
  24   24 4921  671 PO
  24   24 4972  673 PO
  24   24 5024  662 PO
  24   24 4247  729 PO
  24   24 4312  688 PO
  24   24 4374  685 PO
  24   24 4436  699 PO
  24   24 4497  699 PO
  24   24 4556  676 PO
  24   24 4615  646 PO
  24   24 4672  644 PO
  24   24 4729  635 PO
  24   24 4786  608 PO
  24   24 4841  638 PO
  24   24 4894  680 PO
  24   24 4950  623 PO
  24   24 5002  641 PO
  24   24 5054  670 PO
  24   24 5107  642 PO
  24   24 4378  666 PO
  24   24 4442  654 PO
  24   24 4505  700 PO
  24   24 4567  720 PO
  24   24 4628  655 PO
  24   24 4688  696 PO
  24   24 4746  655 PO
  24   24 4804  658 PO
  24   24 4862  674 PO
  24   24 4918  625 PO
  24   24 4972  639 PO
  24   24 5029  626 PO
  24   24 5082  675 PO
  24   24 5135  615 PO
  24   24 5189  645 PO
  24   24 4510  654 PO
  24   24 4575  658 PO
  24   24 4638  635 PO
  24   24 4699  678 PO
  24   24 4761  652 PO
  24   24 4820  632 PO
  24   24 4879  628 PO
  24   24 4938  610 PO
  24   24 4996  657 PO
  24   24 5050  675 PO
  24   24 5108  600 PO
  24   24 5162  615 PO
  24   24 5217  564 PO
  24   24 5271  581 PO
  24   24 4642  652 PO
  24   24 4706  644 PO
  24   24 4769  648 PO
  24   24 4832  604 PO
  24   24 4892  635 PO
  24   24 4952  605 PO
  24   24 5013  626 PO
  24   24 5071  638 PO
  24   24 5126  614 PO
  24   24 5186  600 PO
  24   24 5241  572 PO
  24   24 5296  614 PO
  24   24 5352  568 PO
  24   24 4774  647 PO
  24   24 4838  681 PO
  24   24 4902  647 PO
  24   24 4963  626 PO
  24   24 5025  636 PO
  24   24 5086  604 PO
  24   24 5145  618 PO
  24   24 5202  617 PO
  24   24 5262  629 PO
  24   24 5318  633 PO
  24   24 5375  605 PO
  24   24 5431  624 PO
  24   24 4906  618 PO
  24   24 4970  674 PO
  24   24 5033  620 PO
  24   24 5095  600 PO
  24   24 5158  574 PO
  24   24 5218  614 PO
  24   24 5275  661 PO
  24   24 5337  579 PO
  24   24 5394  615 PO
  24   24 5451  614 PO
  24   24 5509  593 PO
  24   24 5038  636 PO
  24   24 5101  584 PO
  24   24 5164  600 PO
  24   24 5228  607 PO
  24   24 5289  607 PO
  24   24 5348  557 PO
  24   24 5410  602 PO
  24   24 5468  630 PO
  24   24 5526  626 PO
  24   24 5585  620 PO
  24   24 5169  579 PO
  24   24 5233  556 PO
  24   24 5298  594 PO
  24   24 5360  609 PO
  24   24 5420  601 PO
  24   24 5483  612 PO
  24   24 5542  597 PO
  24   24 5601  583 PO
  24   24 5661  590 PO
  24   24 5300  568 PO
  24   24 5365  613 PO
  24   24 5429  589 PO
  24   24 5489  616 PO
  24   24 5553  567 PO
  24   24 5613  612 PO
  24   24 5673  583 PO
  24   24 5733  552 PO
  24   24 5433  608 PO
  24   24 5497  561 PO
  24   24 5558  558 PO
  24   24 5623  561 PO
  24   24 5684  574 PO
  24   24 5745  586 PO
  24   24 5806  578 PO
  24   24 5565  581 PO
  24   24 5628  593 PO
  24   24 5694  595 PO
  24   24 5755  567 PO
  24   24 5817  573 PO
  24   24 5879  585 PO
  24   24 5695  546 PO
  24   24 5762  596 PO
  24   24 5824  565 PO
  24   24 5887  593 PO
  24   24 5950  589 PO
  24   24 5826  616 PO
  24   24 5890  594 PO
  24   24 5954  546 PO
  24   24 6017  554 PO
  24   24 5960  537 PO
  24   24 6024  557 PO
  24   24 6089  589 PO
  24   24 6090  523 PO
  24   24 6156  622 PO
  24   24 6223  558 PO
  24   24  941 2850 FO
  24   24  947 2814 FO
  24   24  955 2737 FO
  24   24  962 2725 FO
  24   24  970 2647 FO
  24   24  979 2599 FO
  24   24  990 2589 FO
  24   24 1001 2527 FO
  24   24 1012 2452 FO
  24   24 1014 2490 FO
  24   24 1026 2436 FO
  24   24 1041 2383 FO
  24   24 1043 2341 FO
  24   24 1059 2298 FO
  24   24 1075 2241 FO
  24   24 1076 2182 FO
  24   24 1094 2170 FO
  24   24 1114 2151 FO
  24   24 1116 2157 FO
  24   24 1137 2097 FO
  24   24 1159 2077 FO
  24   24 1162 2027 FO
  24   24 1185 1946 FO
  24   24 1208 1979 FO
  24   24 1234 1941 FO
  24   24 1214 1953 FO
  24   24 1239 1865 FO
  24   24 1267 1837 FO
  24   24 1295 1818 FO
  24   24 1270 1843 FO
  24   24 1300 1773 FO
  24   24 1330 1795 FO
  24   24 1358 1758 FO
  24   24 1333 1737 FO
  24   24 1365 1734 FO
  24   24 1395 1696 FO
  24   24 1428 1680 FO
  24   24 1461 1625 FO
  24   24 1404 1664 FO
  24   24 1436 1679 FO
  24   24 1471 1615 FO
  24   24 1507 1565 FO
  24   24 1543 1612 FO
  24   24 1477 1589 FO
  24   24 1514 1544 FO
  24   24 1553 1547 FO
  24   24 1592 1553 FO
  24   24 1628 1485 FO
  24   24 1666 1442 FO
  24   24 1554 1556 FO
  24   24 1595 1482 FO
  24   24 1636 1475 FO
  24   24 1675 1451 FO
  24   24 1715 1433 FO
  24   24 1754 1463 FO
  24   24 1641 1454 FO
  24   24 1684 1426 FO
  24   24 1726 1404 FO
  24   24 1768 1349 FO
  24   24 1810 1381 FO
  24   24 1851 1367 FO
  24   24 1734 1375 FO
  24   24 1778 1329 FO
  24   24 1824 1292 FO
  24   24 1868 1352 FO
  24   24 1911 1274 FO
  24   24 1954 1292 FO
  24   24 1996 1258 FO
  24   24 1830 1322 FO
  24   24 1878 1290 FO
  24   24 1925 1288 FO
  24   24 1971 1306 FO
  24   24 2016 1274 FO
  24   24 2060 1279 FO
  24   24 2105 1240 FO
  24   24 2146 1233 FO
  24   24 1929 1218 FO
  24   24 1979 1258 FO
  24   24 2027 1219 FO
  24   24 2075 1204 FO
  24   24 2121 1185 FO
  24   24 2168 1192 FO
  24   24 2212 1150 FO
  24   24 2258 1162 FO
  24   24 2034 1192 FO
  24   24 2085 1194 FO
  24   24 2136 1120 FO
  24   24 2185 1121 FO
  24   24 2234 1134 FO
  24   24 2280 1119 FO
  24   24 2328 1125 FO
  24   24 2375 1099 FO
  24   24 2418 1094 FO
  24   24 2142 1172 FO
  24   24 2195 1156 FO
  24   24 2246 1115 FO
  24   24 2297 1093 FO
  24   24 2345 1130 FO
  24   24 2396 1114 FO
  24   24 2446 1075 FO
  24   24 2491 1129 FO
  24   24 2536 1068 FO
  24   24 2253 1135 FO
  24   24 2306 1091 FO
  24   24 2360 1081 FO
  24   24 2410 1089 FO
  24   24 2464 1083 FO
  24   24 2515 1039 FO
  24   24 2562 1056 FO
  24   24 2610 1035 FO
  24   24 2660 1011 FO
  24   24 2704 1017 FO
  24   24 2366 1070 FO
  24   24 2422 1066 FO
  24   24 2475 1037 FO
  24   24 2530 1047 FO
  24   24 2584  975 FO
  24   24 2633 1013 FO
  24   24 2683  992 FO
  24   24 2735 1020 FO
  24   24 2780  947 FO
  24   24 2827  999 FO
  24   24 2874  947 FO
  24   24 2482 1030 FO
  24   24 2537 1027 FO
  24   24 2594 1030 FO
  24   24 2650  953 FO
  24   24 2701 1018 FO
  24   24 2753 1001 FO
  24   24 2807  975 FO
  24   24 2855  937 FO
  24   24 2903  951 FO
  24   24 2952  934 FO
  24   24 2999  969 FO
  24   24 3046  924 FO
  24   24 2599  972 FO
  24   24 2659  959 FO
  24   24 2717  953 FO
  24   24 2770  955 FO
  24   24 2824  930 FO
  24   24 2880  937 FO
  24   24 2929  900 FO
  24   24 2980  921 FO
  24   24 3030  920 FO
  24   24 3080  915 FO
  24   24 3128  879 FO
  24   24 3177  921 FO
  24   24 3223  922 FO
  24   24 2720  980 FO
  24   24 2780  935 FO
  24   24 2834  926 FO
  24   24 2890  942 FO
  24   24 2948  927 FO
  24   24 2999  928 FO
  24   24 3051  904 FO
  24   24 3104  852 FO
  24   24 3155  924 FO
  24   24 3205  851 FO
  24   24 3255  894 FO
  24   24 3302  859 FO
  24   24 3349  898 FO
  24   24 2846  917 FO
  24   24 2902  915 FO
  24   24 2960  930 FO
  24   24 3020  917 FO
  24   24 3073  912 FO
  24   24 3127  904 FO
  24   24 3181  892 FO
  24   24 3234  905 FO
  24   24 3286  875 FO
  24   24 3338  864 FO
  24   24 3387  890 FO
  24   24 3436  833 FO
  24   24 3484  832 FO
  24   24 3532  834 FO
  24   24 2968  881 FO
  24   24 3028  833 FO
  24   24 3090  868 FO
  24   24 3145  851 FO
  24   24 3200  898 FO
  24   24 3256  815 FO
  24   24 3311  827 FO
  24   24 3365  855 FO
  24   24 3418  811 FO
  24   24 3469  800 FO
  24   24 3519  785 FO
  24   24 3569  797 FO
  24   24 3619  754 FO
  24   24 3667  803 FO
  24   24 3714  821 FO
  24   24 3090  919 FO
  24   24 3154  867 FO
  24   24 3210  851 FO
  24   24 3267  887 FO
  24   24 3325  805 FO
  24   24 3381  831 FO
  24   24 3436  822 FO
  24   24 3491  825 FO
  24   24 3543  847 FO
  24   24 3595  833 FO
  24   24 3647  817 FO
  24   24 3697  818 FO
  24   24 3747  778 FO
  24   24 3796  821 FO
  24   24 3844  798 FO
  24   24 3892  837 FO
  24   24 3219  861 FO
  24   24 3276  827 FO
  24   24 3335  821 FO
  24   24 3395  830 FO
  24   24 3453  811 FO
  24   24 3509  813 FO
  24   24 3566  826 FO
  24   24 3620  786 FO
  24   24 3673  807 FO
  24   24 3726  726 FO
  24   24 3778  768 FO
  24   24 3830  766 FO
  24   24 3880  787 FO
  24   24 3929  760 FO
  24   24 3978  753 FO
  24   24 4025  767 FO
  24   24 4072  752 FO
  24   24 3346  758 FO
  24   24 3406  783 FO
  24   24 3467  803 FO
  24   24 3527  830 FO
  24   24 3586  772 FO
  24   24 3644  806 FO
  24   24 3699  763 FO
  24   24 3754  758 FO
  24   24 3809  727 FO
  24   24 3862  714 FO
  24   24 3915  755 FO
  24   24 3967  760 FO
  24   24 4017  745 FO
  24   24 4068  714 FO
  24   24 4116  715 FO
  24   24 4165  736 FO
  24   24 4213  732 FO
  24   24 4260  729 FO
  24   24 3469  786 FO
  24   24 3531  753 FO
  24   24 3592  789 FO
  24   24 3652  771 FO
  24   24 3712  783 FO
  24   24 3769  730 FO
  24   24 3825  753 FO
  24   24 3881  730 FO
  24   24 3936  703 FO
  24   24 3990  704 FO
  24   24 4043  728 FO
  24   24 4095  713 FO
  24   24 4146  735 FO
  24   24 4196  727 FO
  24   24 4246  677 FO
  24   24 4296  683 FO
  24   24 4344  719 FO
  24   24 4390  689 FO
  24   24 4439  673 FO
  24   24 3597  802 FO
  24   24 3659  772 FO
  24   24 3721  747 FO
  24   24 3782  790 FO
  24   24 3840  769 FO
  24   24 3897  829 FO
  24   24 3955  719 FO
  24   24 4011  716 FO
  24   24 4067  743 FO
  24   24 4121  750 FO
  24   24 4174  762 FO
  24   24 4227  776 FO
  24   24 4278  691 FO
  24   24 4329  679 FO
  24   24 4380  721 FO
  24   24 4429  703 FO
  24   24 4476  752 FO
  24   24 4526  724 FO
  24   24 4573  704 FO
  24   24 4620  712 FO
  24   24 3726  734 FO
  24   24 3789  742 FO
  24   24 3852  753 FO
  24   24 3911  743 FO
  24   24 3970  714 FO
  24   24 4029  708 FO
  24   24 4087  690 FO
  24   24 4144  657 FO
  24   24 4199  717 FO
  24   24 4254  671 FO
  24   24 4308  730 FO
  24   24 4360  683 FO
  24   24 4412  623 FO
  24   24 4465  665 FO
  24   24 4515  675 FO
  24   24 4563  708 FO
  24   24 4615  663 FO
  24   24 4662  687 FO
  24   24 4710  677 FO
  24   24 4759  717 FO
  24   24 3856  816 FO
  24   24 3920  752 FO
  24   24 3981  762 FO
  24   24 4041  712 FO
  24   24 4102  763 FO
  24   24 4161  706 FO
  24   24 4219  716 FO
  24   24 4276  704 FO
  24   24 4331  743 FO
  24   24 4387  705 FO
  24   24 4440  735 FO
  24   24 4494  717 FO
  24   24 4547  743 FO
  24   24 4599  672 FO
  24   24 4648  693 FO
  24   24 4701  682 FO
  24   24 4750  730 FO
  24   24 4799  689 FO
  24   24 4848  672 FO
  24   24 3988  706 FO
  24   24 4050  724 FO
  24   24 4111  726 FO
  24   24 4173  716 FO
  24   24 4233  681 FO
  24   24 4293  672 FO
  24   24 4351  706 FO
  24   24 4408  703 FO
  24   24 4465  751 FO
  24   24 4519  683 FO
  24   24 4574  686 FO
  24   24 4629  689 FO
  24   24 4682  673 FO
  24   24 4732  664 FO
  24   24 4786  649 FO
  24   24 4836  689 FO
  24   24 4886  693 FO
  24   24 4936  674 FO
  24   24 4118  704 FO
  24   24 4181  737 FO
  24   24 4244  692 FO
  24   24 4306  707 FO
  24   24 4367  693 FO
  24   24 4426  695 FO
  24   24 4484  715 FO
  24   24 4542  696 FO
  24   24 4598  657 FO
  24   24 4654  636 FO
  24   24 4710  651 FO
  24   24 4764  703 FO
  24   24 4815  621 FO
  24   24 4870  646 FO
  24   24 4921  671 FO
  24   24 4972  673 FO
  24   24 5024  662 FO
  24   24 4247  729 FO
  24   24 4312  688 FO
  24   24 4374  685 FO
  24   24 4436  699 FO
  24   24 4497  699 FO
  24   24 4556  676 FO
  24   24 4615  646 FO
  24   24 4672  644 FO
  24   24 4729  635 FO
  24   24 4786  608 FO
  24   24 4841  638 FO
  24   24 4894  680 FO
  24   24 4950  623 FO
  24   24 5002  641 FO
  24   24 5054  670 FO
  24   24 5107  642 FO
  24   24 4378  666 FO
  24   24 4442  654 FO
  24   24 4505  700 FO
  24   24 4567  720 FO
  24   24 4628  655 FO
  24   24 4688  696 FO
  24   24 4746  655 FO
  24   24 4804  658 FO
  24   24 4862  674 FO
  24   24 4918  625 FO
  24   24 4972  639 FO
  24   24 5029  626 FO
  24   24 5082  675 FO
  24   24 5135  615 FO
  24   24 5189  645 FO
  24   24 4510  654 FO
  24   24 4575  658 FO
  24   24 4638  635 FO
  24   24 4699  678 FO
  24   24 4761  652 FO
  24   24 4820  632 FO
  24   24 4879  628 FO
  24   24 4938  610 FO
  24   24 4996  657 FO
  24   24 5050  675 FO
  24   24 5108  600 FO
  24   24 5162  615 FO
  24   24 5217  564 FO
  24   24 5271  581 FO
  24   24 4642  652 FO
  24   24 4706  644 FO
  24   24 4769  648 FO
  24   24 4832  604 FO
  24   24 4892  635 FO
  24   24 4952  605 FO
  24   24 5013  626 FO
  24   24 5071  638 FO
  24   24 5126  614 FO
  24   24 5186  600 FO
  24   24 5241  572 FO
  24   24 5296  614 FO
  24   24 5352  568 FO
  24   24 4774  647 FO
  24   24 4838  681 FO
  24   24 4902  647 FO
  24   24 4963  626 FO
  24   24 5025  636 FO
  24   24 5086  604 FO
  24   24 5145  618 FO
  24   24 5202  617 FO
  24   24 5262  629 FO
  24   24 5318  633 FO
  24   24 5375  605 FO
  24   24 5431  624 FO
  24   24 4906  618 FO
  24   24 4970  674 FO
  24   24 5033  620 FO
  24   24 5095  600 FO
  24   24 5158  574 FO
  24   24 5218  614 FO
  24   24 5275  661 FO
  24   24 5337  579 FO
  24   24 5394  615 FO
  24   24 5451  614 FO
  24   24 5509  593 FO
  24   24 5038  636 FO
  24   24 5101  584 FO
  24   24 5164  600 FO
  24   24 5228  607 FO
  24   24 5289  607 FO
  24   24 5348  557 FO
  24   24 5410  602 FO
  24   24 5468  630 FO
  24   24 5526  626 FO
  24   24 5585  620 FO
  24   24 5169  579 FO
  24   24 5233  556 FO
  24   24 5298  594 FO
  24   24 5360  609 FO
  24   24 5420  601 FO
  24   24 5483  612 FO
  24   24 5542  597 FO
  24   24 5601  583 FO
  24   24 5661  590 FO
  24   24 5300  568 FO
  24   24 5365  613 FO
  24   24 5429  589 FO
  24   24 5489  616 FO
  24   24 5553  567 FO
  24   24 5613  612 FO
  24   24 5673  583 FO
  24   24 5733  552 FO
  24   24 5433  608 FO
  24   24 5497  561 FO
  24   24 5558  558 FO
  24   24 5623  561 FO
  24   24 5684  574 FO
  24   24 5745  586 FO
  24   24 5806  578 FO
  24   24 5565  581 FO
  24   24 5628  593 FO
  24   24 5694  595 FO
  24   24 5755  567 FO
  24   24 5817  573 FO
  24   24 5879  585 FO
  24   24 5695  546 FO
  24   24 5762  596 FO
  24   24 5824  565 FO
  24   24 5887  593 FO
  24   24 5950  589 FO
  24   24 5826  616 FO
  24   24 5890  594 FO
  24   24 5954  546 FO
  24   24 6017  554 FO
  24   24 5960  537 FO
  24   24 6024  557 FO
  24   24 6089  589 FO
  24   24 6090  523 FO
  24   24 6156  622 FO
  24   24 6223  558 FO
gr

0.6 sg
gs 899 324 5357 3522 rc
0 sg
0 371 1032 2269 2 MP stroke
113 0 976 2269 2 MP stroke
113 0 976 2640 2 MP stroke
0 226 1193 1876 2 MP stroke
112 0 1137 1876 2 MP stroke
112 0 1137 2102 2 MP stroke
0 104 1354 1687 2 MP stroke
112 0 1298 1687 2 MP stroke
112 0 1298 1791 2 MP stroke
0 87 1514 1545 2 MP stroke
113 0 1458 1545 2 MP stroke
113 0 1458 1632 2 MP stroke
0 67 1675 1411 2 MP stroke
112 0 1619 1411 2 MP stroke
112 0 1619 1478 2 MP stroke
0 74 1836 1291 2 MP stroke
112 0 1780 1291 2 MP stroke
112 0 1780 1365 2 MP stroke
0 78 1996 1214 2 MP stroke
113 0 1940 1214 2 MP stroke
113 0 1940 1292 2 MP stroke
0 82 2157 1132 2 MP stroke
112 0 2101 1132 2 MP stroke
112 0 2101 1214 2 MP stroke
0 52 2318 1085 2 MP stroke
112 0 2262 1085 2 MP stroke
112 0 2262 1137 2 MP stroke
0 61 2479 1035 2 MP stroke
113 0 2422 1035 2 MP stroke
113 0 2422 1096 2 MP stroke
0 67 2639 965 2 MP stroke
112 0 2583 965 2 MP stroke
112 0 2583 1032 2 MP stroke
0 63 2800 926 2 MP stroke
112 0 2744 926 2 MP stroke
112 0 2744 989 2 MP stroke
0 66 2961 886 2 MP stroke
113 0 2904 886 2 MP stroke
113 0 2904 952 2 MP stroke
0 51 3121 870 2 MP stroke
112 0 3065 870 2 MP stroke
112 0 3065 921 2 MP stroke
0 84 3282 812 2 MP stroke
112 0 3226 812 2 MP stroke
112 0 3226 896 2 MP stroke
0 55 3443 792 2 MP stroke
113 0 3386 792 2 MP stroke
113 0 3386 847 2 MP stroke
0 56 3603 772 2 MP stroke
113 0 3547 772 2 MP stroke
113 0 3547 828 2 MP stroke
0 62 3764 737 2 MP stroke
112 0 3708 737 2 MP stroke
112 0 3708 799 2 MP stroke
0 81 3925 712 2 MP stroke
113 0 3868 712 2 MP stroke
113 0 3868 793 2 MP stroke
0 52 4085 698 2 MP stroke
113 0 4029 698 2 MP stroke
113 0 4029 750 2 MP stroke
0 58 4246 682 2 MP stroke
112 0 4190 682 2 MP stroke
112 0 4190 740 2 MP stroke
0 63 4407 667 2 MP stroke
113 0 4350 667 2 MP stroke
113 0 4350 730 2 MP stroke
0 57 4567 656 2 MP stroke
113 0 4511 656 2 MP stroke
113 0 4511 713 2 MP stroke
0 57 4728 639 2 MP stroke
112 0 4672 639 2 MP stroke
112 0 4672 696 2 MP stroke
0 58 4889 616 2 MP stroke
113 0 4832 616 2 MP stroke
113 0 4832 674 2 MP stroke
0 55 5049 610 2 MP stroke
113 0 4993 610 2 MP stroke
113 0 4993 665 2 MP stroke
0 56 5210 575 2 MP stroke
112 0 5154 575 2 MP stroke
112 0 5154 631 2 MP stroke
0 43 5371 578 2 MP stroke
112 0 5315 578 2 MP stroke
112 0 5315 621 2 MP stroke
0 51 5531 570 2 MP stroke
113 0 5475 570 2 MP stroke
113 0 5475 621 2 MP stroke
0 39 5692 560 2 MP stroke
112 0 5636 560 2 MP stroke
112 0 5636 599 2 MP stroke
0 34 5853 569 2 MP stroke
112 0 5797 569 2 MP stroke
112 0 5797 603 2 MP stroke
0 51 6013 531 2 MP stroke
113 0 5957 531 2 MP stroke
113 0 5957 582 2 MP stroke
0 91 6174 544 2 MP stroke
112 0 6118 544 2 MP stroke
112 0 6118 635 2 MP stroke
gs 959 484 5289 2044 rc
  36   36 1032 2454 PO
  36   36 1193 1989 PO
  36   36 1354 1739 PO
  36   36 1514 1589 PO
  36   36 1675 1445 PO
  36   36 1836 1328 PO
  36   36 1996 1253 PO
  36   36 2157 1173 PO
  36   36 2318 1111 PO
  36   36 2479 1065 PO
  36   36 2639  999 PO
  36   36 2800  958 PO
  36   36 2961  919 PO
  36   36 3121  895 PO
  36   36 3282  854 PO
  36   36 3443  819 PO
  36   36 3603  800 PO
  36   36 3764  768 PO
  36   36 3925  752 PO
  36   36 4085  724 PO
  36   36 4246  711 PO
  36   36 4407  698 PO
  36   36 4567  684 PO
  36   36 4728  667 PO
  36   36 4889  645 PO
  36   36 5049  638 PO
  36   36 5210  603 PO
  36   36 5371  600 PO
  36   36 5531  595 PO
  36   36 5692  580 PO
  36   36 5853  586 PO
  36   36 6013  557 PO
  36   36 6174  590 PO
  36   36 1032 2454 FO
  36   36 1193 1989 FO
  36   36 1354 1739 FO
  36   36 1514 1589 FO
  36   36 1675 1445 FO
  36   36 1836 1328 FO
  36   36 1996 1253 FO
  36   36 2157 1173 FO
  36   36 2318 1111 FO
  36   36 2479 1065 FO
  36   36 2639  999 FO
  36   36 2800  958 FO
  36   36 2961  919 FO
  36   36 3121  895 FO
  36   36 3282  854 FO
  36   36 3443  819 FO
  36   36 3603  800 FO
  36   36 3764  768 FO
  36   36 3925  752 FO
  36   36 4085  724 FO
  36   36 4246  711 FO
  36   36 4407  698 FO
  36   36 4567  684 FO
  36   36 4728  667 FO
  36   36 4889  645 FO
  36   36 5049  638 FO
  36   36 5210  603 FO
  36   36 5371  600 FO
  36   36 5531  595 FO
  36   36 5692  580 FO
  36   36 5853  586 FO
  36   36 6013  557 FO
  36   36 6174  590 FO
gr

gr

0 sg
3012 4133 mt 
(Geometric mean rate) s
 616 2378 mt  -90 rotate
(Correlation) s
90 rotate

end %%Color Dict

eplot
%%EndObject

epage
end

showpage

%%Trailer
%%EOF
