%!PS-Adobe-3.0 EPSF-3.0
%%Creator: MATLAB, The MathWorks, Inc. Version 7.14.0.739 (R2012a). Operating System: Linux 2.6.33.7.2-rt30-rt #1 SMP PREEMPT RT Tue Apr 17 15:22:21 CEST 2012 x86_64.
%%Title: ./LIF_simple_correlations_cc_20140523141156.eps
%%CreationDate: 05/27/2014  11:34:14
%%DocumentNeededFonts: Helvetica
%%DocumentProcessColors: Cyan Magenta Yellow Black
%%LanguageLevel: 2
%%Pages: 1
%%BoundingBox:    40    11   533   342
%%EndComments

%%BeginProlog
% MathWorks dictionary
/MathWorks 160 dict begin
% definition operators
/bdef {bind def} bind def
/ldef {load def} bind def
/xdef {exch def} bdef
/xstore {exch store} bdef
% operator abbreviations
/c  /clip ldef
/cc /concat ldef
/cp /closepath ldef
/gr /grestore ldef
/gs /gsave ldef
/mt /moveto ldef
/np /newpath ldef
/cm /currentmatrix ldef
/sm /setmatrix ldef
/rm /rmoveto ldef
/rl /rlineto ldef
/s {show newpath} bdef
/sc {setcmykcolor} bdef
/sr /setrgbcolor ldef
/sg /setgray ldef
/w /setlinewidth ldef
/j /setlinejoin ldef
/cap /setlinecap ldef
/rc {rectclip} bdef
/rf {rectfill} bdef
% page state control
/pgsv () def
/bpage {/pgsv save def} bdef
/epage {pgsv restore} bdef
/bplot /gsave ldef
/eplot {stroke grestore} bdef
% orientation switch
/portraitMode 0 def /landscapeMode 1 def /rotateMode 2 def
% coordinate system mappings
/dpi2point 0 def
% font control
/FontSize 0 def
/FMS {/FontSize xstore findfont [FontSize 0 0 FontSize neg 0 0]
  makefont setfont} bdef
/reencode {exch dup where {pop load} {pop StandardEncoding} ifelse
  exch dup 3 1 roll findfont dup length dict begin
  { 1 index /FID ne {def}{pop pop} ifelse } forall
  /Encoding exch def currentdict end definefont pop} bdef
/isroman {findfont /CharStrings get /Agrave known} bdef
/FMSR {3 1 roll 1 index dup isroman {reencode} {pop pop} ifelse
  exch FMS} bdef
/csm {1 dpi2point div -1 dpi2point div scale neg translate
 dup landscapeMode eq {pop -90 rotate}
  {rotateMode eq {90 rotate} if} ifelse} bdef
% line types: solid, dotted, dashed, dotdash
/SO { [] 0 setdash } bdef
/DO { [.5 dpi2point mul 4 dpi2point mul] 0 setdash } bdef
/DA { [6 dpi2point mul] 0 setdash } bdef
/DD { [.5 dpi2point mul 4 dpi2point mul 6 dpi2point mul 4
  dpi2point mul] 0 setdash } bdef
% macros for lines and objects
/L {lineto stroke} bdef
/MP {3 1 roll moveto 1 sub {rlineto} repeat} bdef
/AP {{rlineto} repeat} bdef
/PDlw -1 def
/W {/PDlw currentlinewidth def setlinewidth} def
/PP {closepath eofill} bdef
/DP {closepath stroke} bdef
/MR {4 -2 roll moveto dup  0 exch rlineto exch 0 rlineto
  neg 0 exch rlineto closepath} bdef
/FR {MR stroke} bdef
/PR {MR fill} bdef
/L1i {{currentfile picstr readhexstring pop} image} bdef
/tMatrix matrix def
/MakeOval {newpath tMatrix currentmatrix pop translate scale
0 0 1 0 360 arc tMatrix setmatrix} bdef
/FO {MakeOval stroke} bdef
/PO {MakeOval fill} bdef
/PD {currentlinewidth 2 div 0 360 arc fill
   PDlw -1 eq not {PDlw w /PDlw -1 def} if} def
/FA {newpath tMatrix currentmatrix pop translate scale
  0 0 1 5 -2 roll arc tMatrix setmatrix stroke} bdef
/PA {newpath tMatrix currentmatrix pop	translate 0 0 moveto scale
  0 0 1 5 -2 roll arc closepath tMatrix setmatrix fill} bdef
/FAn {newpath tMatrix currentmatrix pop translate scale
  0 0 1 5 -2 roll arcn tMatrix setmatrix stroke} bdef
/PAn {newpath tMatrix currentmatrix pop translate 0 0 moveto scale
  0 0 1 5 -2 roll arcn closepath tMatrix setmatrix fill} bdef
/vradius 0 def /hradius 0 def /lry 0 def
/lrx 0 def /uly 0 def /ulx 0 def /rad 0 def
/MRR {/vradius xdef /hradius xdef /lry xdef /lrx xdef /uly xdef
  /ulx xdef newpath tMatrix currentmatrix pop ulx hradius add uly
  vradius add translate hradius vradius scale 0 0 1 180 270 arc 
  tMatrix setmatrix lrx hradius sub uly vradius add translate
  hradius vradius scale 0 0 1 270 360 arc tMatrix setmatrix
  lrx hradius sub lry vradius sub translate hradius vradius scale
  0 0 1 0 90 arc tMatrix setmatrix ulx hradius add lry vradius sub
  translate hradius vradius scale 0 0 1 90 180 arc tMatrix setmatrix
  closepath} bdef
/FRR {MRR stroke } bdef
/PRR {MRR fill } bdef
/MlrRR {/lry xdef /lrx xdef /uly xdef /ulx xdef /rad lry uly sub 2 div def
  newpath tMatrix currentmatrix pop ulx rad add uly rad add translate
  rad rad scale 0 0 1 90 270 arc tMatrix setmatrix lrx rad sub lry rad
  sub translate rad rad scale 0 0 1 270 90 arc tMatrix setmatrix
  closepath} bdef
/FlrRR {MlrRR stroke } bdef
/PlrRR {MlrRR fill } bdef
/MtbRR {/lry xdef /lrx xdef /uly xdef /ulx xdef /rad lrx ulx sub 2 div def
  newpath tMatrix currentmatrix pop ulx rad add uly rad add translate
  rad rad scale 0 0 1 180 360 arc tMatrix setmatrix lrx rad sub lry rad
  sub translate rad rad scale 0 0 1 0 180 arc tMatrix setmatrix
  closepath} bdef
/FtbRR {MtbRR stroke } bdef
/PtbRR {MtbRR fill } bdef
/stri 6 array def /dtri 6 array def
/smat 6 array def /dmat 6 array def
/tmat1 6 array def /tmat2 6 array def /dif 3 array def
/asub {/ind2 exch def /ind1 exch def dup dup
  ind1 get exch ind2 get sub exch } bdef
/tri_to_matrix {
  2 0 asub 3 1 asub 4 0 asub 5 1 asub
  dup 0 get exch 1 get 7 -1 roll astore } bdef
/compute_transform {
  dmat dtri tri_to_matrix tmat1 invertmatrix 
  smat stri tri_to_matrix tmat2 concatmatrix } bdef
/ds {stri astore pop} bdef
/dt {dtri astore pop} bdef
/db {2 copy /cols xdef /rows xdef mul dup 3 mul string
  currentfile 
  3 index 0 eq {/ASCIIHexDecode filter}
  {/ASCII85Decode filter 3 index 2 eq {/RunLengthDecode filter} if }
  ifelse exch readstring pop
  dup 0 3 index getinterval /rbmap xdef
  dup 2 index dup getinterval /gbmap xdef
  1 index dup 2 mul exch getinterval /bbmap xdef pop pop}bdef
/it {gs np dtri aload pop moveto lineto lineto cp c
  cols rows 8 compute_transform 
  rbmap gbmap bbmap true 3 colorimage gr}bdef
/il {newpath moveto lineto stroke}bdef
currentdict end def
%%EndProlog

%%BeginSetup
MathWorks begin

0 cap

end
%%EndSetup

%%Page: 1 1
%%BeginPageSetup
%%PageBoundingBox:    40    11   533   342
MathWorks begin
bpage
%%EndPageSetup

%%BeginObject: obj1
bplot

/dpi2point 12 def
portraitMode 0000 4320 csm

  480   209  5924  3976 rc
86 dict begin %Colortable dictionary
/c0 { 0.000000 0.000000 0.000000 sr} bdef
/c1 { 1.000000 1.000000 1.000000 sr} bdef
/c2 { 0.900000 0.000000 0.000000 sr} bdef
/c3 { 0.000000 0.820000 0.000000 sr} bdef
/c4 { 0.000000 0.000000 0.800000 sr} bdef
/c5 { 0.910000 0.820000 0.320000 sr} bdef
/c6 { 1.000000 0.260000 0.820000 sr} bdef
/c7 { 0.000000 0.820000 0.820000 sr} bdef
c0
1 j
1 sg
   0    0 6913 4321 rf
6 w
0 3521 5356 0 0 -3521 899 3845 4 MP
PP
-5356 0 0 3521 5356 0 0 -3521 899 3845 5 MP stroke
4 w
DO
SO
6 w
0 sg
 899 3845 mt 6255 3845 L
 899 3845 mt  899  324 L
 899 3845 mt  899 3791 L
%%IncludeResource: font Helvetica
/Helvetica /ISOLatin1Encoding 120 FMSR

 866 3990 mt 
(0) s
1970 3845 mt 1970 3791 L
1904 3990 mt 
(20) s
3041 3845 mt 3041 3791 L
2975 3990 mt 
(40) s
4112 3845 mt 4112 3791 L
4046 3990 mt 
(60) s
5183 3845 mt 5183 3791 L
5117 3990 mt 
(80) s
6255 3845 mt 6255 3791 L
6155 3990 mt 
(100) s
 899 3845 mt  952 3845 L
 798 3889 mt 
(0) s
 899 3140 mt  952 3140 L
 698 3184 mt 
(0.1) s
 899 2436 mt  952 2436 L
 698 2480 mt 
(0.2) s
 899 1732 mt  952 1732 L
 698 1776 mt 
(0.3) s
 899 1028 mt  952 1028 L
 698 1072 mt 
(0.4) s
 899  324 mt  952  324 L
 698  368 mt 
(0.5) s
gs 899 324 5357 3522 rc
gr

0.6 sg
  24   24 1006 2503 PO
  24   24 1077 2286 PO
  24   24 1161 2042 PO
  24   24 1197 2026 PO
  24   24 1252 1854 PO
  24   24 1291 1818 PO
  24   24 1328 1785 PO
  24   24 1344 1744 PO
  24   24 1387 1668 PO
  24   24 1424 1611 PO
  24   24 1458 1621 PO
  24   24 1440 1619 PO
  24   24 1481 1574 PO
  24   24 1519 1551 PO
  24   24 1556 1550 PO
  24   24 1590 1498 PO
  24   24 1537 1470 PO
  24   24 1578 1496 PO
  24   24 1618 1432 PO
  24   24 1656 1400 PO
  24   24 1690 1416 PO
  24   24 1721 1376 PO
  24   24 1631 1430 PO
  24   24 1674 1381 PO
  24   24 1714 1341 PO
  24   24 1751 1328 PO
  24   24 1784 1314 PO
  24   24 1818 1283 PO
  24   24 1850 1284 PO
  24   24 1724 1380 PO
  24   24 1767 1334 PO
  24   24 1806 1318 PO
  24   24 1841 1274 PO
  24   24 1877 1265 PO
  24   24 1911 1213 PO
  24   24 1945 1185 PO
  24   24 1975 1185 PO
  24   24 1818 1249 PO
  24   24 1860 1294 PO
  24   24 1897 1212 PO
  24   24 1935 1206 PO
  24   24 1971 1168 PO
  24   24 2006 1193 PO
  24   24 2038 1169 PO
  24   24 2070 1142 PO
  24   24 2100 1146 PO
  24   24 2129 1152 PO
  24   24 1910 1215 PO
  24   24 1949 1201 PO
  24   24 1989 1219 PO
  24   24 2027 1134 PO
  24   24 2064 1123 PO
  24   24 2098 1125 PO
  24   24 2131 1086 PO
  24   24 2162 1126 PO
  24   24 2193 1094 PO
  24   24 2223 1045 PO
  24   24 2252 1074 PO
  24   24 1997 1203 PO
  24   24 2039 1170 PO
  24   24 2078 1139 PO
  24   24 2117 1118 PO
  24   24 2152 1111 PO
  24   24 2187 1042 PO
  24   24 2220 1068 PO
  24   24 2252 1097 PO
  24   24 2284 1074 PO
  24   24 2313 1025 PO
  24   24 2343 1053 PO
  24   24 2369 1030 PO
  24   24 2083 1148 PO
  24   24 2124 1082 PO
  24   24 2164 1056 PO
  24   24 2200 1091 PO
  24   24 2237 1036 PO
  24   24 2271 1077 PO
  24   24 2304 1041 PO
  24   24 2337 1038 PO
  24   24 2368 1035 PO
  24   24 2398  979 PO
  24   24 2426 1012 PO
  24   24 2457  973 PO
  24   24 2487  970 PO
  24   24 2510  992 PO
  24   24 2170 1064 PO
  24   24 2212 1052 PO
  24   24 2250 1044 PO
  24   24 2287  995 PO
  24   24 2323 1020 PO
  24   24 2358 1023 PO
  24   24 2392 1000 PO
  24   24 2423  973 PO
  24   24 2455 1008 PO
  24   24 2484  992 PO
  24   24 2516  984 PO
  24   24 2547  960 PO
  24   24 2571  942 PO
  24   24 2599  974 PO
  24   24 2630  911 PO
  24   24 2258 1010 PO
  24   24 2297  999 PO
  24   24 2336  998 PO
  24   24 2373 1027 PO
  24   24 2409  962 PO
  24   24 2444  960 PO
  24   24 2477  947 PO
  24   24 2510  938 PO
  24   24 2539  936 PO
  24   24 2572  930 PO
  24   24 2605  907 PO
  24   24 2630  942 PO
  24   24 2658  901 PO
  24   24 2691  933 PO
  24   24 2713  871 PO
  24   24 2738  902 PO
  24   24 2343 1008 PO
  24   24 2383  987 PO
  24   24 2421 1003 PO
  24   24 2458  976 PO
  24   24 2494  947 PO
  24   24 2528  955 PO
  24   24 2562  925 PO
  24   24 2593  915 PO
  24   24 2627  924 PO
  24   24 2661  907 PO
  24   24 2686  912 PO
  24   24 2716  910 PO
  24   24 2750  904 PO
  24   24 2772  893 PO
  24   24 2798  894 PO
  24   24 2825  870 PO
  24   24 2851  888 PO
  24   24 2878  867 PO
  24   24 2426  951 PO
  24   24 2465  953 PO
  24   24 2503  932 PO
  24   24 2540  943 PO
  24   24 2575  911 PO
  24   24 2610  903 PO
  24   24 2642  898 PO
  24   24 2677  916 PO
  24   24 2712  875 PO
  24   24 2738  859 PO
  24   24 2768  869 PO
  24   24 2803  862 PO
  24   24 2826  873 PO
  24   24 2853  887 PO
  24   24 2881  864 PO
  24   24 2908  849 PO
  24   24 2935  845 PO
  24   24 2962  846 PO
  24   24 2987  872 PO
  24   24 2508  918 PO
  24   24 2548  928 PO
  24   24 2586  882 PO
  24   24 2622  861 PO
  24   24 2658  891 PO
  24   24 2690  874 PO
  24   24 2726  875 PO
  24   24 2762  850 PO
  24   24 2789  835 PO
  24   24 2820  834 PO
  24   24 2856  844 PO
  24   24 2880  829 PO
  24   24 2907  831 PO
  24   24 2936  811 PO
  24   24 2964  824 PO
  24   24 2992  839 PO
  24   24 3020  827 PO
  24   24 3045  806 PO
  24   24 3068  803 PO
  24   24 3095  803 PO
  24   24 3118  812 PO
  24   24 2590  934 PO
  24   24 2629  923 PO
  24   24 2666  899 PO
  24   24 2703  845 PO
  24   24 2736  900 PO
  24   24 2773  872 PO
  24   24 2810  866 PO
  24   24 2837  872 PO
  24   24 2869  854 PO
  24   24 2906  833 PO
  24   24 2930  858 PO
  24   24 2958  866 PO
  24   24 2988  829 PO
  24   24 3016  855 PO
  24   24 3045  831 PO
  24   24 3074  860 PO
  24   24 3100  861 PO
  24   24 3123  847 PO
  24   24 3151  819 PO
  24   24 3175  796 PO
  24   24 3201  827 PO
  24   24 3226  828 PO
  24   24 2672  902 PO
  24   24 2709  873 PO
  24   24 2747  891 PO
  24   24 2781  891 PO
  24   24 2819  862 PO
  24   24 2857  875 PO
  24   24 2885  855 PO
  24   24 2918  846 PO
  24   24 2955  809 PO
  24   24 2980  807 PO
  24   24 3009  844 PO
  24   24 3039  798 PO
  24   24 3068  847 PO
  24   24 3098  820 PO
  24   24 3127  836 PO
  24   24 3154  812 PO
  24   24 3178  831 PO
  24   24 3206  772 PO
  24   24 3231  816 PO
  24   24 3258  801 PO
  24   24 3283  819 PO
  24   24 3305  780 PO
  24   24 3329  784 PO
  24   24 2751  878 PO
  24   24 2790  867 PO
  24   24 2825  848 PO
  24   24 2863  850 PO
  24   24 2902  808 PO
  24   24 2931  818 PO
  24   24 2964  841 PO
  24   24 3003  813 PO
  24   24 3028  810 PO
  24   24 3057  822 PO
  24   24 3089  789 PO
  24   24 3118  803 PO
  24   24 3149  788 PO
  24   24 3179  783 PO
  24   24 3206  807 PO
  24   24 3231  806 PO
  24   24 3260  779 PO
  24   24 3285  775 PO
  24   24 3312  787 PO
  24   24 3338  794 PO
  24   24 3361  787 PO
  24   24 3385  815 PO
  24   24 3407  791 PO
  24   24 3430  785 PO
  24   24 3454  791 PO
  24   24 2830  847 PO
  24   24 2866  853 PO
  24   24 2905  835 PO
  24   24 2944  796 PO
  24   24 2974  820 PO
  24   24 3008  819 PO
  24   24 3047  815 PO
  24   24 3074  786 PO
  24   24 3103  802 PO
  24   24 3135  774 PO
  24   24 3166  798 PO
  24   24 3197  770 PO
  24   24 3227  785 PO
  24   24 3255  803 PO
  24   24 3280  770 PO
  24   24 3310  775 PO
  24   24 3336  773 PO
  24   24 3364  760 PO
  24   24 3390  794 PO
  24   24 3414  770 PO
  24   24 3438  781 PO
  24   24 3461  783 PO
  24   24 3484  759 PO
  24   24 3508  755 PO
  24   24 3530  731 PO
  24   24 3550  774 PO
  24   24 3574  772 PO
  24   24 2907  818 PO
  24   24 2947  793 PO
  24   24 2987  820 PO
  24   24 3017  799 PO
  24   24 3052  819 PO
  24   24 3092  784 PO
  24   24 3119  791 PO
  24   24 3150  791 PO
  24   24 3182  792 PO
  24   24 3213  787 PO
  24   24 3245  767 PO
  24   24 3276  770 PO
  24   24 3304  795 PO
  24   24 3330  786 PO
  24   24 3360  761 PO
  24   24 3386  739 PO
  24   24 3415  778 PO
  24   24 3442  785 PO
  24   24 3466  757 PO
  24   24 3491  752 PO
  24   24 3514  786 PO
  24   24 3538  765 PO
  24   24 3563  748 PO
  24   24 3585  748 PO
  24   24 3605  766 PO
  24   24 3630  758 PO
  24   24 3649  721 PO
  24   24 3669  761 PO
  24   24 2985  825 PO
  24   24 3026  812 PO
  24   24 3057  785 PO
  24   24 3092  815 PO
  24   24 3133  796 PO
  24   24 3160  766 PO
  24   24 3191  820 PO
  24   24 3224  762 PO
  24   24 3256  789 PO
  24   24 3288  761 PO
  24   24 3320  796 PO
  24   24 3349  752 PO
  24   24 3375  785 PO
  24   24 3406  764 PO
  24   24 3433  756 PO
  24   24 3462  766 PO
  24   24 3489  783 PO
  24   24 3514  771 PO
  24   24 3539  764 PO
  24   24 3563  731 PO
  24   24 3587  749 PO
  24   24 3612  753 PO
  24   24 3635  741 PO
  24   24 3655  773 PO
  24   24 3680  721 PO
  24   24 3700  743 PO
  24   24 3721  742 PO
  24   24 3764  775 PO
  24   24 3069  769 PO
  24   24 3100  790 PO
  24   24 3136  815 PO
  24   24 3178  784 PO
  24   24 3206  777 PO
  24   24 3237  775 PO
  24   24 3271  792 PO
  24   24 3303  782 PO
  24   24 3336  779 PO
  24   24 3368  755 PO
  24   24 3398  779 PO
  24   24 3425  735 PO
  24   24 3456  755 PO
  24   24 3483  750 PO
  24   24 3513  771 PO
  24   24 3541  778 PO
  24   24 3566  757 PO
  24   24 3592  770 PO
  24   24 3616  768 PO
  24   24 3641  726 PO
  24   24 3666  727 PO
  24   24 3690  747 PO
  24   24 3711  741 PO
  24   24 3736  744 PO
  24   24 3756  730 PO
  24   24 3777  744 PO
  24   24 3821  733 PO
  24   24 3861  765 PO
  24   24 3898  748 PO
  24   24 3143  769 PO
  24   24 3180  733 PO
  24   24 3222  756 PO
  24   24 3251  734 PO
  24   24 3283  778 PO
  24   24 3317  741 PO
  24   24 3350  748 PO
  24   24 3383  752 PO
  24   24 3417  726 PO
  24   24 3447  753 PO
  24   24 3474  730 PO
  24   24 3506  739 PO
  24   24 3534  702 PO
  24   24 3564  728 PO
  24   24 3592  757 PO
  24   24 3618  727 PO
  24   24 3645  737 PO
  24   24 3669  737 PO
  24   24 3694  687 PO
  24   24 3720  694 PO
  24   24 3744  703 PO
  24   24 3766  743 PO
  24   24 3792  709 PO
  24   24 3812  710 PO
  24   24 3833  694 PO
  24   24 3878  727 PO
  24   24 3919  719 PO
  24   24 3957  716 PO
  24   24 3995  746 PO
  24   24 3213  801 PO
  24   24 3256  779 PO
  24   24 3285  765 PO
  24   24 3317  778 PO
  24   24 3352  733 PO
  24   24 3385  731 PO
  24   24 3419  775 PO
  24   24 3453  773 PO
  24   24 3483  756 PO
  24   24 3511  771 PO
  24   24 3544  732 PO
  24   24 3572  729 PO
  24   24 3603  760 PO
  24   24 3631  758 PO
  24   24 3657  736 PO
  24   24 3684  753 PO
  24   24 3709  733 PO
  24   24 3735  727 PO
  24   24 3761  725 PO
  24   24 3785  733 PO
  24   24 3807  762 PO
  24   24 3833  741 PO
  24   24 3854  716 PO
  24   24 3876  715 PO
  24   24 3921  729 PO
  24   24 3962  774 PO
  24   24 4001  743 PO
  24   24 4039  770 PO
  24   24 4075  716 PO
  24   24 4109  722 PO
  24   24 3295  767 PO
  24   24 3324  765 PO
  24   24 3357  765 PO
  24   24 3393  773 PO
  24   24 3427  740 PO
  24   24 3461  731 PO
  24   24 3495  751 PO
  24   24 3526  748 PO
  24   24 3555  743 PO
  24   24 3587  712 PO
  24   24 3616  705 PO
  24   24 3648  722 PO
  24   24 3676  761 PO
  24   24 3703  736 PO
  24   24 3731  723 PO
  24   24 3755  712 PO
  24   24 3782  722 PO
  24   24 3809  706 PO
  24   24 3833  719 PO
  24   24 3855  731 PO
  24   24 3882  709 PO
  24   24 3903  726 PO
  24   24 3925  706 PO
  24   24 3971  755 PO
  24   24 4013  730 PO
  24   24 4052  731 PO
  24   24 4091  721 PO
  24   24 4128  737 PO
  24   24 4162  761 PO
  24   24 4195  760 PO
  24   24 3369  725 PO
  24   24 3403  714 PO
  24   24 3439  733 PO
  24   24 3474  717 PO
  24   24 3508  715 PO
  24   24 3543  744 PO
  24   24 3575  715 PO
  24   24 3604  681 PO
  24   24 3637  708 PO
  24   24 3666  694 PO
  24   24 3699  716 PO
  24   24 3728  727 PO
  24   24 3755  717 PO
  24   24 3783  696 PO
  24   24 3808  713 PO
  24   24 3835  712 PO
  24   24 3862  707 PO
  24   24 3888  702 PO
  24   24 3910  729 PO
  24   24 3937  696 PO
  24   24 3959  707 PO
  24   24 3981  693 PO
  24   24 4028  726 PO
  24   24 4071  695 PO
  24   24 4111  696 PO
  24   24 4150  703 PO
  24   24 4188  729 PO
  24   24 4222  724 PO
  24   24 4256  760 PO
  24   24 4291  743 PO
  24   24 4320  740 PO
  24   24 3433  718 PO
  24   24 3470  707 PO
  24   24 3505  721 PO
  24   24 3540  713 PO
  24   24 3576  736 PO
  24   24 3608  692 PO
  24   24 3637  705 PO
  24   24 3671  688 PO
  24   24 3700  684 PO
  24   24 3733  708 PO
  24   24 3763  692 PO
  24   24 3790  687 PO
  24   24 3818  695 PO
  24   24 3844  681 PO
  24   24 3871  682 PO
  24   24 3899  686 PO
  24   24 3924  689 PO
  24   24 3947  722 PO
  24   24 3974  708 PO
  24   24 3996  700 PO
  24   24 4019  687 PO
  24   24 4067  727 PO
  24   24 4110  707 PO
  24   24 4150  696 PO
  24   24 4190  715 PO
  24   24 4228  689 PO
  24   24 4263  710 PO
  24   24 4297  738 PO
  24   24 4333  707 PO
  24   24 4361  719 PO
  24   24 4393  709 PO
  24   24 4418  744 PO
  24   24 3505  737 PO
  24   24 3541  729 PO
  24   24 3577  729 PO
  24   24 3612  744 PO
  24   24 3645  726 PO
  24   24 3674  748 PO
  24   24 3709  719 PO
  24   24 3739  717 PO
  24   24 3772  706 PO
  24   24 3802  745 PO
  24   24 3829  709 PO
  24   24 3858  744 PO
  24   24 3884  705 PO
  24   24 3912  691 PO
  24   24 3940  711 PO
  24   24 3966  723 PO
  24   24 3988  739 PO
  24   24 4016  735 PO
  24   24 4038  707 PO
  24   24 4061  701 PO
  24   24 4110  733 PO
  24   24 4154  715 PO
  24   24 4194  718 PO
  24   24 4235  742 PO
  24   24 4274  751 PO
  24   24 4309  754 PO
  24   24 4344  741 PO
  24   24 4380  730 PO
  24   24 4409  755 PO
  24   24 4441  741 PO
  24   24 4467  762 PO
  24   24 4499  752 PO
  24   24 4524  720 PO
  24   24 3579  713 PO
  24   24 3615  704 PO
  24   24 3651  715 PO
  24   24 3684  721 PO
  24   24 3714  686 PO
  24   24 3749  697 PO
  24   24 3780  690 PO
  24   24 3813  686 PO
  24   24 3844  707 PO
  24   24 3872  685 PO
  24   24 3901  697 PO
  24   24 3927  680 PO
  24   24 3955  663 PO
  24   24 3984  691 PO
  24   24 4010  703 PO
  24   24 4033  727 PO
  24   24 4061  699 PO
  24   24 4084  676 PO
  24   24 4107  690 PO
  24   24 4156  733 PO
  24   24 4201  697 PO
  24   24 4242  698 PO
  24   24 4283  719 PO
  24   24 4322  679 PO
  24   24 4358  707 PO
  24   24 4394  700 PO
  24   24 4430  722 PO
  24   24 4459  732 PO
  24   24 4492  722 PO
  24   24 4518  753 PO
  24   24 4551  705 PO
  24   24 4576  704 PO
  24   24 4606  740 PO
  24   24 4630  735 PO
  24   24 3652  715 PO
  24   24 3689  731 PO
  24   24 3722  728 PO
  24   24 3753  693 PO
  24   24 3788  696 PO
  24   24 3819  692 PO
  24   24 3853  712 PO
  24   24 3884  706 PO
  24   24 3912  698 PO
  24   24 3942  693 PO
  24   24 3969  697 PO
  24   24 3997  700 PO
  24   24 4026  719 PO
  24   24 4052  695 PO
  24   24 4076  713 PO
  24   24 4104  712 PO
  24   24 4127  691 PO
  24   24 4151  703 PO
  24   24 4201  691 PO
  24   24 4246  702 PO
  24   24 4287  701 PO
  24   24 4329  734 PO
  24   24 4369  676 PO
  24   24 4405  688 PO
  24   24 4441  726 PO
  24   24 4478  727 PO
  24   24 4508  732 PO
  24   24 4541  722 PO
  24   24 4567  722 PO
  24   24 4601  706 PO
  24   24 4626  741 PO
  24   24 4657  723 PO
  24   24 4681  750 PO
  24   24 4712  742 PO
  24   24 4728  729 PO
  24   24 3727  712 PO
  24   24 3761  704 PO
  24   24 3791  699 PO
  24   24 3827  663 PO
  24   24 3858  669 PO
  24   24 3893  674 PO
  24   24 3924  701 PO
  24   24 3953  686 PO
  24   24 3983  700 PO
  24   24 4010  683 PO
  24   24 4039  700 PO
  24   24 4068  698 PO
  24   24 4095  695 PO
  24   24 4119  690 PO
  24   24 4148  674 PO
  24   24 4171  700 PO
  24   24 4195  691 PO
  24   24 4245  710 PO
  24   24 4291  710 PO
  24   24 4333  693 PO
  24   24 4376  711 PO
  24   24 4416  687 PO
  24   24 4453  720 PO
  24   24 4489  722 PO
  24   24 4527  715 PO
  24   24 4557  725 PO
  24   24 4590  737 PO
  24   24 4617  720 PO
  24   24 4651  707 PO
  24   24 4677  731 PO
  24   24 4708  708 PO
  24   24 4732  747 PO
  24   24 4764  740 PO
  24   24 4780  749 PO
  24   24 4806  766 PO
  24   24 4829  761 PO
  24   24 3799  710 PO
  24   24 3830  726 PO
  24   24 3866  716 PO
  24   24 3898  718 PO
  24   24 3933  718 PO
  24   24 3965  750 PO
  24   24 3994  711 PO
  24   24 4024  711 PO
  24   24 4052  713 PO
  24   24 4081  688 PO
  24   24 4110  698 PO
  24   24 4138  698 PO
  24   24 4162  699 PO
  24   24 4191  674 PO
  24   24 4214  671 PO
  24   24 4239  701 PO
  24   24 4290  725 PO
  24   24 4336  695 PO
  24   24 4379  706 PO
  24   24 4422  724 PO
  24   24 4463  709 PO
  24   24 4500  695 PO
  24   24 4537  693 PO
  24   24 4575  699 PO
  24   24 4606  732 PO
  24   24 4639  743 PO
  24   24 4667  741 PO
  24   24 4701  725 PO
  24   24 4727  739 PO
  24   24 4759  748 PO
  24   24 4784  734 PO
  24   24 4816  731 PO
  24   24 4832  728 PO
  24   24 4858  770 PO
  24   24 4881  753 PO
  24   24 4903  746 PO
  24   24 3865  705 PO
  24   24 3902  677 PO
  24   24 3934  698 PO
  24   24 3969  724 PO
  24   24 4001  688 PO
  24   24 4031  692 PO
  24   24 4062  695 PO
  24   24 4089  710 PO
  24   24 4119  682 PO
  24   24 4149  662 PO
  24   24 4176  682 PO
  24   24 4201  695 PO
  24   24 4231  696 PO
  24   24 4254  659 PO
  24   24 4279  701 PO
  24   24 4331  669 PO
  24   24 4377  702 PO
  24   24 4421  688 PO
  24   24 4465  707 PO
  24   24 4506  699 PO
  24   24 4543  685 PO
  24   24 4581  723 PO
  24   24 4619  707 PO
  24   24 4650  758 PO
  24   24 4684  748 PO
  24   24 4712  729 PO
  24   24 4747  711 PO
  24   24 4773  717 PO
  24   24 4805  749 PO
  24   24 4830  718 PO
  24   24 4862  750 PO
  24   24 4879  741 PO
  24   24 4905  753 PO
  24   24 4929  752 PO
  24   24 4951  741 PO
  24   24 3934  685 PO
  24   24 3966  686 PO
  24   24 4002  711 PO
  24   24 4035  721 PO
  24   24 4065  687 PO
  24   24 4096  700 PO
  24   24 4124  686 PO
  24   24 4153  683 PO
  24   24 4184  701 PO
  24   24 4212  672 PO
  24   24 4236  693 PO
  24   24 4267  691 PO
  24   24 4290  685 PO
  24   24 4315  697 PO
  24   24 4368  688 PO
  24   24 4415  700 PO
  24   24 4459  691 PO
  24   24 4503  710 PO
  24   24 4545  698 PO
  24   24 4583  709 PO
  24   24 4620  726 PO
  24   24 4659  726 PO
  24   24 4690  738 PO
  24   24 4725  743 PO
  24   24 4753  737 PO
  24   24 4788  736 PO
  24   24 4815  718 PO
  24   24 4847  739 PO
  24   24 4872  714 PO
  24   24 4905  731 PO
  24   24 4922  756 PO
  24   24 4948  777 PO
  24   24 4973  739 PO
  24   24 4995  747 PO
  24   24 4004  657 PO
  24   24 4041  684 PO
  24   24 4073  649 PO
  24   24 4104  680 PO
  24   24 4135  671 PO
  24   24 4164  663 PO
  24   24 4194  673 PO
  24   24 4224  691 PO
  24   24 4253  671 PO
  24   24 4278  712 PO
  24   24 4308  660 PO
  24   24 4332  668 PO
  24   24 4357  657 PO
  24   24 4411  668 PO
  24   24 4458  678 PO
  24   24 4503  652 PO
  24   24 4548  675 PO
  24   24 4590  646 PO
  24   24 4628  691 PO
  24   24 4666  687 PO
  24   24 4706  670 PO
  24   24 4737  695 PO
  24   24 4772  706 PO
  24   24 4801  708 PO
  24   24 4837  692 PO
  24   24 4863  703 PO
  24   24 4896  696 PO
  24   24 4922  725 PO
  24   24 4955  719 PO
  24   24 4972  701 PO
  24   24 4998  721 PO
  24   24 5023  718 PO
  24   24 5046  735 PO
  24   24 4074  663 PO
  24   24 4107  712 PO
  24   24 4138  684 PO
  24   24 4170  658 PO
  24   24 4199  682 PO
  24   24 4229  661 PO
  24   24 4260  688 PO
  24   24 4288  656 PO
  24   24 4314  679 PO
  24   24 4345  673 PO
  24   24 4369  653 PO
  24   24 4394  663 PO
  24   24 4448  664 PO
  24   24 4496  662 PO
  24   24 4541  676 PO
  24   24 4586  679 PO
  24   24 4629  667 PO
  24   24 4668  649 PO
  24   24 4707  684 PO
  24   24 4746  684 PO
  24   24 4778  691 PO
  24   24 4813  682 PO
  24   24 4842  685 PO
  24   24 4878  688 PO
  24   24 4906  696 PO
  24   24 4938  690 PO
  24   24 4964  696 PO
  24   24 4998  704 PO
  24   24 5015  702 PO
  24   24 5042  720 PO
  24   24 5067  714 PO
  24   24 5090  697 PO
  24   24 4145  692 PO
  24   24 4176  693 PO
  24   24 4208  675 PO
  24   24 4237  668 PO
  24   24 4267  673 PO
  24   24 4299  686 PO
  24   24 4328  698 PO
  24   24 4353  696 PO
  24   24 4385  688 PO
  24   24 4409  682 PO
  24   24 4435  692 PO
  24   24 4489  673 PO
  24   24 4538  672 PO
  24   24 4584  688 PO
  24   24 4629  681 PO
  24   24 4672  699 PO
  24   24 4712  685 PO
  24   24 4751  717 PO
  24   24 4791  685 PO
  24   24 4823  705 PO
  24   24 4859  704 PO
  24   24 4888  733 PO
  24   24 4925  695 PO
  24   24 4952  713 PO
  24   24 4985  737 PO
  24   24 5012  718 PO
  24   24 5046  731 PO
  24   24 5063  718 PO
  24   24 5090  753 PO
  24   24 5115  743 PO
  24   24 5139  746 PO
  24   24 4210  696 PO
  24   24 4243  704 PO
  24   24 4272  684 PO
  24   24 4303  685 PO
  24   24 4335  667 PO
  24   24 4364  686 PO
  24   24 4389  743 PO
  24   24 4421  675 PO
  24   24 4446  687 PO
  24   24 4472  694 PO
  24   24 4527  714 PO
  24   24 4576  687 PO
  24   24 4622  691 PO
  24   24 4668  705 PO
  24   24 4712  703 PO
  24   24 4752  717 PO
  24   24 4791  718 PO
  24   24 4832  703 PO
  24   24 4864  711 PO
  24   24 4901  715 PO
  24   24 4930  720 PO
  24   24 4967  737 PO
  24   24 4995  725 PO
  24   24 5028  752 PO
  24   24 5055  738 PO
  24   24 5089  718 PO
  24   24 5107  716 PO
  24   24 5134  732 PO
  24   24 5160  734 PO
  24   24 5183  731 PO
  24   24 4275  668 PO
  24   24 4304  650 PO
  24   24 4335  668 PO
  24   24 4367  676 PO
  24   24 4397  651 PO
  24   24 4423  681 PO
  24   24 4455  667 PO
  24   24 4480  663 PO
  24   24 4506  651 PO
  24   24 4562  663 PO
  24   24 4611  698 PO
  24   24 4658  704 PO
  24   24 4705  706 PO
  24   24 4748  664 PO
  24   24 4788  720 PO
  24   24 4828  673 PO
  24   24 4870  724 PO
  24   24 4902  675 PO
  24   24 4939  684 PO
  24   24 4968  705 PO
  24   24 5006  709 PO
  24   24 5034  686 PO
  24   24 5068  710 PO
  24   24 5095  733 PO
  24   24 5129  696 PO
  24   24 5147  715 PO
  24   24 5175  748 PO
  24   24 5200  717 PO
  24   24 5224  712 PO
  24   24 4338  633 PO
  24   24 4369  658 PO
  24   24 4401  662 PO
  24   24 4431  656 PO
  24   24 4457  694 PO
  24   24 4490  682 PO
  24   24 4515  645 PO
  24   24 4542  672 PO
  24   24 4597  660 PO
  24   24 4648  700 PO
  24   24 4695  668 PO
  24   24 4742  684 PO
  24   24 4786  701 PO
  24   24 4827  688 PO
  24   24 4867  704 PO
  24   24 4909  698 PO
  24   24 4942  726 PO
  24   24 4978  686 PO
  24   24 5008  701 PO
  24   24 5046  702 PO
  24   24 5075  717 PO
  24   24 5109  704 PO
  24   24 5136  732 PO
  24   24 5171  718 PO
  24   24 5189  698 PO
  24   24 5217  742 PO
  24   24 5243  732 PO
  24   24 5266  714 PO
  24   24 4400  657 PO
  24   24 4432  678 PO
  24   24 4462  650 PO
  24   24 4489  713 PO
  24   24 4521  693 PO
  24   24 4547  655 PO
  24   24 4574  659 PO
  24   24 4630  685 PO
  24   24 4681  664 PO
  24   24 4728  689 PO
  24   24 4776  704 PO
  24   24 4820  662 PO
  24   24 4861  672 PO
  24   24 4902  669 PO
  24   24 4944  666 PO
  24   24 4977  697 PO
  24   24 5014  686 PO
  24   24 5045  694 PO
  24   24 5083  679 PO
  24   24 5111  686 PO
  24   24 5146  679 PO
  24   24 5173  686 PO
  24   24 5208  721 PO
  24   24 5226  700 PO
  24   24 5254  751 PO
  24   24 5281  726 PO
  24   24 5305  703 PO
  24   24 4465  662 PO
  24   24 4495  663 PO
  24   24 4522  658 PO
  24   24 4555  674 PO
  24   24 4580  650 PO
  24   24 4607  655 PO
  24   24 4664  670 PO
  24   24 4715  656 PO
  24   24 4763  642 PO
  24   24 4811  694 PO
  24   24 4856  675 PO
  24   24 4897  666 PO
  24   24 4939  679 PO
  24   24 4981  673 PO
  24   24 5015  651 PO
  24   24 5052  675 PO
  24   24 5082  717 PO
  24   24 5121  681 PO
  24   24 5150  698 PO
  24   24 5184  678 PO
  24   24 5212  681 PO
  24   24 5248  699 PO
  24   24 5266  708 PO
  24   24 5294  744 PO
  24   24 5321  709 PO
  24   24 5345  727 PO
  24   24 4529  650 PO
  24   24 4555  697 PO
  24   24 4589  678 PO
  24   24 4615  677 PO
  24   24 4642  656 PO
  24   24 4699  677 PO
  24   24 4751  679 PO
  24   24 4799  666 PO
  24   24 4848  673 PO
  24   24 4893  675 PO
  24   24 4935  684 PO
  24   24 4976  699 PO
  24   24 5019  653 PO
  24   24 5053  717 PO
  24   24 5091  718 PO
  24   24 5122  673 PO
  24   24 5160  752 PO
  24   24 5189  697 PO
  24   24 5224  708 PO
  24   24 5252  711 PO
  24   24 5288  715 PO
  24   24 5307  693 PO
  24   24 5335  729 PO
  24   24 5362  731 PO
  24   24 5387  754 PO
  24   24 4587  660 PO
  24   24 4620  667 PO
  24   24 4646  662 PO
  24   24 4674  658 PO
  24   24 4732  666 PO
  24   24 4784  646 PO
  24   24 4832  680 PO
  24   24 4881  675 PO
  24   24 4927  663 PO
  24   24 4969  657 PO
  24   24 5011  713 PO
  24   24 5054  671 PO
  24   24 5088  706 PO
  24   24 5126  674 PO
  24   24 5157  678 PO
  24   24 5197  699 PO
  24   24 5226  702 PO
  24   24 5261  713 PO
  24   24 5289  690 PO
  24   24 5326  707 PO
  24   24 5344  707 PO
  24   24 5373  732 PO
  24   24 5400  684 PO
  24   24 5425  714 PO
  24   24 4648  682 PO
  24   24 4674  673 PO
  24   24 4702  655 PO
  24   24 4760  689 PO
  24   24 4813  688 PO
  24   24 4862  692 PO
  24   24 4911  699 PO
  24   24 4957  691 PO
  24   24 4999  707 PO
  24   24 5041  687 PO
  24   24 5085  691 PO
  24   24 5119  700 PO
  24   24 5158  701 PO
  24   24 5189  735 PO
  24   24 5228  712 PO
  24   24 5258  738 PO
  24   24 5294  722 PO
  24   24 5322  697 PO
  24   24 5358  745 PO
  24   24 5377  701 PO
  24   24 5406  746 PO
  24   24 5433  711 PO
  24   24 5458  738 PO
  24   24 4708  644 PO
  24   24 4736  671 PO
  24   24 4795  671 PO
  24   24 4848  664 PO
  24   24 4898  661 PO
  24   24 4947  690 PO
  24   24 4994  674 PO
  24   24 5037  680 PO
  24   24 5079  695 PO
  24   24 5123  672 PO
  24   24 5158  688 PO
  24   24 5196  704 PO
  24   24 5228  719 PO
  24   24 5268  684 PO
  24   24 5298  688 PO
  24   24 5334  725 PO
  24   24 5362  717 PO
  24   24 5399  710 PO
  24   24 5418  676 PO
  24   24 5447  754 PO
  24   24 5475  710 PO
  24   24 5500  730 PO
  24   24 4763  654 PO
  24   24 4823  668 PO
  24   24 4876  637 PO
  24   24 4926  672 PO
  24   24 4976  669 PO
  24   24 5023  686 PO
  24   24 5066  661 PO
  24   24 5109  684 PO
  24   24 5153  674 PO
  24   24 5188  690 PO
  24   24 5227  687 PO
  24   24 5259  697 PO
  24   24 5299  680 PO
  24   24 5329  707 PO
  24   24 5365  695 PO
  24   24 5394  700 PO
  24   24 5431  689 PO
  24   24 5450  676 PO
  24   24 5479  709 PO
  24   24 5507  707 PO
  24   24 5532  676 PO
  24   24 4851  657 PO
  24   24 4905  684 PO
  24   24 4955  663 PO
  24   24 5006  689 PO
  24   24 5053  675 PO
  24   24 5096  654 PO
  24   24 5139  689 PO
  24   24 5184  651 PO
  24   24 5219  675 PO
  24   24 5258  683 PO
  24   24 5290  675 PO
  24   24 5331  706 PO
  24   24 5361  673 PO
  24   24 5397  692 PO
  24   24 5426  689 PO
  24   24 5464  679 PO
  24   24 5483  691 PO
  24   24 5513  710 PO
  24   24 5541  701 PO
  24   24 5566  712 PO
  24   24 4967  660 PO
  24   24 5018  668 PO
  24   24 5069  690 PO
  24   24 5117  655 PO
  24   24 5161  688 PO
  24   24 5204  665 PO
  24   24 5249  679 PO
  24   24 5285  739 PO
  24   24 5325  719 PO
  24   24 5358  709 PO
  24   24 5399  710 PO
  24   24 5430  706 PO
  24   24 5466  688 PO
  24   24 5496  694 PO
  24   24 5534  714 PO
  24   24 5553  694 PO
  24   24 5584  713 PO
  24   24 5612  744 PO
  24   24 5638  712 PO
  24   24 5074  680 PO
  24   24 5125  674 PO
  24   24 5174  672 PO
  24   24 5219  685 PO
  24   24 5263  678 PO
  24   24 5309  675 PO
  24   24 5345  692 PO
  24   24 5386  712 PO
  24   24 5419  685 PO
  24   24 5460  696 PO
  24   24 5491  709 PO
  24   24 5529  696 PO
  24   24 5559  699 PO
  24   24 5597  693 PO
  24   24 5617  709 PO
  24   24 5647  711 PO
  24   24 5676  678 PO
  24   24 5702  705 PO
  24   24 5178  670 PO
  24   24 5228  675 PO
  24   24 5273  679 PO
  24   24 5318  702 PO
  24   24 5364  689 PO
  24   24 5401  700 PO
  24   24 5442  710 PO
  24   24 5475  716 PO
  24   24 5517  725 PO
  24   24 5549  708 PO
  24   24 5587  691 PO
  24   24 5617  703 PO
  24   24 5656  710 PO
  24   24 5676  691 PO
  24   24 5707  731 PO
  24   24 5736  704 PO
  24   24 5762  702 PO
  24   24 5281  665 PO
  24   24 5327  719 PO
  24   24 5373  709 PO
  24   24 5419  703 PO
  24   24 5457  704 PO
  24   24 5498  717 PO
  24   24 5532  746 PO
  24   24 5575  699 PO
  24   24 5606  716 PO
  24   24 5645  734 PO
  24   24 5676  717 PO
  24   24 5715  723 PO
  24   24 5735  693 PO
  24   24 5767  762 PO
  24   24 5796  724 PO
  24   24 5823  744 PO
  24   24 5378  653 PO
  24   24 5424  681 PO
  24   24 5471  703 PO
  24   24 5509  687 PO
  24   24 5551  678 PO
  24   24 5585  678 PO
  24   24 5628  695 PO
  24   24 5661  676 PO
  24   24 5699  700 PO
  24   24 5730  713 PO
  24   24 5770  699 PO
  24   24 5791  700 PO
  24   24 5823  724 PO
  24   24 5852  701 PO
  24   24 5879  727 PO
  24   24 5471  704 PO
  24   24 5519  701 PO
  24   24 5557  678 PO
  24   24 5600  703 PO
  24   24 5634  713 PO
  24   24 5678  731 PO
  24   24 5710  695 PO
  24   24 5749  716 PO
  24   24 5781  696 PO
  24   24 5821  706 PO
  24   24 5842  709 PO
  24   24 5874  712 PO
  24   24 5904  708 PO
  24   24 5931  715 PO
  24   24 5566  688 PO
  24   24 5605  719 PO
  24   24 5648  718 PO
  24   24 5683  716 PO
  24   24 5727  705 PO
  24   24 5760  703 PO
  24   24 5799  702 PO
  24   24 5831  757 PO
  24   24 5872  724 PO
  24   24 5892  707 PO
  24   24 5925  758 PO
  24   24 5955  728 PO
  24   24 5983  719 PO
  24   24 5654  699 PO
  24   24 5698  720 PO
  24   24 5733  719 PO
  24   24 5777  697 PO
  24   24 5811  712 PO
  24   24 5851  695 PO
  24   24 5883  720 PO
  24   24 5924  721 PO
  24   24 5945  701 PO
  24   24 5978  753 PO
  24   24 6008  684 PO
  24   24 6036  691 PO
  24   24 5737  712 PO
  24   24 5773  721 PO
  24   24 5818  731 PO
  24   24 5851  730 PO
  24   24 5892  718 PO
  24   24 5924  728 PO
  24   24 5965  719 PO
  24   24 5986  714 PO
  24   24 6020  744 PO
  24   24 6050  760 PO
  24   24 6079  717 PO
  24   24 5817  685 PO
  24   24 5862  707 PO
  24   24 5896  723 PO
  24   24 5937  739 PO
  24   24 5970  711 PO
  24   24 6011  731 PO
  24   24 6033  726 PO
  24   24 6066  744 PO
  24   24 6097  745 PO
  24   24 6126  711 PO
  24   24 5899  734 PO
  24   24 5933  729 PO
  24   24 5974  730 PO
  24   24 6007  728 PO
  24   24 6049  717 PO
  24   24 6070  725 PO
  24   24 6104  727 PO
  24   24 6135  718 PO
  24   24 6164  741 PO
  24   24 5979  703 PO
  24   24 6021  712 PO
  24   24 6054  708 PO
  24   24 6096  724 PO
  24   24 6118  727 PO
  24   24 6152  727 PO
  24   24 6184  736 PO
  24   24 6213  706 PO
  24   24 6056  730 PO
  24   24 6089  738 PO
  24   24 6132  745 PO
  24   24 6154  707 PO
  24   24 6188  735 PO
  24   24 6220  737 PO
  24   24 6249  714 PO
  24   24 6131  719 PO
  24   24 6174  713 PO
  24   24 6196  744 PO
  24   24 6231  761 PO
  24   24 1006 2503 FO
  24   24 1077 2286 FO
  24   24 1161 2042 FO
  24   24 1197 2026 FO
  24   24 1252 1854 FO
  24   24 1291 1818 FO
  24   24 1328 1785 FO
  24   24 1344 1744 FO
  24   24 1387 1668 FO
  24   24 1424 1611 FO
  24   24 1458 1621 FO
  24   24 1440 1619 FO
  24   24 1481 1574 FO
  24   24 1519 1551 FO
  24   24 1556 1550 FO
  24   24 1590 1498 FO
  24   24 1537 1470 FO
  24   24 1578 1496 FO
  24   24 1618 1432 FO
  24   24 1656 1400 FO
  24   24 1690 1416 FO
  24   24 1721 1376 FO
  24   24 1631 1430 FO
  24   24 1674 1381 FO
  24   24 1714 1341 FO
  24   24 1751 1328 FO
  24   24 1784 1314 FO
  24   24 1818 1283 FO
  24   24 1850 1284 FO
  24   24 1724 1380 FO
  24   24 1767 1334 FO
  24   24 1806 1318 FO
  24   24 1841 1274 FO
  24   24 1877 1265 FO
  24   24 1911 1213 FO
  24   24 1945 1185 FO
  24   24 1975 1185 FO
  24   24 1818 1249 FO
  24   24 1860 1294 FO
  24   24 1897 1212 FO
  24   24 1935 1206 FO
  24   24 1971 1168 FO
  24   24 2006 1193 FO
  24   24 2038 1169 FO
  24   24 2070 1142 FO
  24   24 2100 1146 FO
  24   24 2129 1152 FO
  24   24 1910 1215 FO
  24   24 1949 1201 FO
  24   24 1989 1219 FO
  24   24 2027 1134 FO
  24   24 2064 1123 FO
  24   24 2098 1125 FO
  24   24 2131 1086 FO
  24   24 2162 1126 FO
  24   24 2193 1094 FO
  24   24 2223 1045 FO
  24   24 2252 1074 FO
  24   24 1997 1203 FO
  24   24 2039 1170 FO
  24   24 2078 1139 FO
  24   24 2117 1118 FO
  24   24 2152 1111 FO
  24   24 2187 1042 FO
  24   24 2220 1068 FO
  24   24 2252 1097 FO
  24   24 2284 1074 FO
  24   24 2313 1025 FO
  24   24 2343 1053 FO
  24   24 2369 1030 FO
  24   24 2083 1148 FO
  24   24 2124 1082 FO
  24   24 2164 1056 FO
  24   24 2200 1091 FO
  24   24 2237 1036 FO
  24   24 2271 1077 FO
  24   24 2304 1041 FO
  24   24 2337 1038 FO
  24   24 2368 1035 FO
  24   24 2398  979 FO
  24   24 2426 1012 FO
  24   24 2457  973 FO
  24   24 2487  970 FO
  24   24 2510  992 FO
  24   24 2170 1064 FO
  24   24 2212 1052 FO
  24   24 2250 1044 FO
  24   24 2287  995 FO
  24   24 2323 1020 FO
  24   24 2358 1023 FO
  24   24 2392 1000 FO
  24   24 2423  973 FO
  24   24 2455 1008 FO
  24   24 2484  992 FO
  24   24 2516  984 FO
  24   24 2547  960 FO
  24   24 2571  942 FO
  24   24 2599  974 FO
  24   24 2630  911 FO
  24   24 2258 1010 FO
  24   24 2297  999 FO
  24   24 2336  998 FO
  24   24 2373 1027 FO
  24   24 2409  962 FO
  24   24 2444  960 FO
  24   24 2477  947 FO
  24   24 2510  938 FO
  24   24 2539  936 FO
  24   24 2572  930 FO
  24   24 2605  907 FO
  24   24 2630  942 FO
  24   24 2658  901 FO
  24   24 2691  933 FO
  24   24 2713  871 FO
  24   24 2738  902 FO
  24   24 2343 1008 FO
  24   24 2383  987 FO
  24   24 2421 1003 FO
  24   24 2458  976 FO
  24   24 2494  947 FO
  24   24 2528  955 FO
  24   24 2562  925 FO
  24   24 2593  915 FO
  24   24 2627  924 FO
  24   24 2661  907 FO
  24   24 2686  912 FO
  24   24 2716  910 FO
  24   24 2750  904 FO
  24   24 2772  893 FO
  24   24 2798  894 FO
  24   24 2825  870 FO
  24   24 2851  888 FO
  24   24 2878  867 FO
  24   24 2426  951 FO
  24   24 2465  953 FO
  24   24 2503  932 FO
  24   24 2540  943 FO
  24   24 2575  911 FO
  24   24 2610  903 FO
  24   24 2642  898 FO
  24   24 2677  916 FO
  24   24 2712  875 FO
  24   24 2738  859 FO
  24   24 2768  869 FO
  24   24 2803  862 FO
  24   24 2826  873 FO
  24   24 2853  887 FO
  24   24 2881  864 FO
  24   24 2908  849 FO
  24   24 2935  845 FO
  24   24 2962  846 FO
  24   24 2987  872 FO
  24   24 2508  918 FO
  24   24 2548  928 FO
  24   24 2586  882 FO
  24   24 2622  861 FO
  24   24 2658  891 FO
  24   24 2690  874 FO
  24   24 2726  875 FO
  24   24 2762  850 FO
  24   24 2789  835 FO
  24   24 2820  834 FO
  24   24 2856  844 FO
  24   24 2880  829 FO
  24   24 2907  831 FO
  24   24 2936  811 FO
  24   24 2964  824 FO
  24   24 2992  839 FO
  24   24 3020  827 FO
  24   24 3045  806 FO
  24   24 3068  803 FO
  24   24 3095  803 FO
  24   24 3118  812 FO
  24   24 2590  934 FO
  24   24 2629  923 FO
  24   24 2666  899 FO
  24   24 2703  845 FO
  24   24 2736  900 FO
  24   24 2773  872 FO
  24   24 2810  866 FO
  24   24 2837  872 FO
  24   24 2869  854 FO
  24   24 2906  833 FO
  24   24 2930  858 FO
  24   24 2958  866 FO
  24   24 2988  829 FO
  24   24 3016  855 FO
  24   24 3045  831 FO
  24   24 3074  860 FO
  24   24 3100  861 FO
  24   24 3123  847 FO
  24   24 3151  819 FO
  24   24 3175  796 FO
  24   24 3201  827 FO
  24   24 3226  828 FO
  24   24 2672  902 FO
  24   24 2709  873 FO
  24   24 2747  891 FO
  24   24 2781  891 FO
  24   24 2819  862 FO
  24   24 2857  875 FO
  24   24 2885  855 FO
  24   24 2918  846 FO
  24   24 2955  809 FO
  24   24 2980  807 FO
  24   24 3009  844 FO
  24   24 3039  798 FO
  24   24 3068  847 FO
  24   24 3098  820 FO
  24   24 3127  836 FO
  24   24 3154  812 FO
  24   24 3178  831 FO
  24   24 3206  772 FO
  24   24 3231  816 FO
  24   24 3258  801 FO
  24   24 3283  819 FO
  24   24 3305  780 FO
  24   24 3329  784 FO
  24   24 2751  878 FO
  24   24 2790  867 FO
  24   24 2825  848 FO
  24   24 2863  850 FO
  24   24 2902  808 FO
  24   24 2931  818 FO
  24   24 2964  841 FO
  24   24 3003  813 FO
  24   24 3028  810 FO
  24   24 3057  822 FO
  24   24 3089  789 FO
  24   24 3118  803 FO
  24   24 3149  788 FO
  24   24 3179  783 FO
  24   24 3206  807 FO
  24   24 3231  806 FO
  24   24 3260  779 FO
  24   24 3285  775 FO
  24   24 3312  787 FO
  24   24 3338  794 FO
  24   24 3361  787 FO
  24   24 3385  815 FO
  24   24 3407  791 FO
  24   24 3430  785 FO
  24   24 3454  791 FO
  24   24 2830  847 FO
  24   24 2866  853 FO
  24   24 2905  835 FO
  24   24 2944  796 FO
  24   24 2974  820 FO
  24   24 3008  819 FO
  24   24 3047  815 FO
  24   24 3074  786 FO
  24   24 3103  802 FO
  24   24 3135  774 FO
  24   24 3166  798 FO
  24   24 3197  770 FO
  24   24 3227  785 FO
  24   24 3255  803 FO
  24   24 3280  770 FO
  24   24 3310  775 FO
  24   24 3336  773 FO
  24   24 3364  760 FO
  24   24 3390  794 FO
  24   24 3414  770 FO
  24   24 3438  781 FO
  24   24 3461  783 FO
  24   24 3484  759 FO
  24   24 3508  755 FO
  24   24 3530  731 FO
  24   24 3550  774 FO
  24   24 3574  772 FO
  24   24 2907  818 FO
  24   24 2947  793 FO
  24   24 2987  820 FO
  24   24 3017  799 FO
  24   24 3052  819 FO
  24   24 3092  784 FO
  24   24 3119  791 FO
  24   24 3150  791 FO
  24   24 3182  792 FO
  24   24 3213  787 FO
  24   24 3245  767 FO
  24   24 3276  770 FO
  24   24 3304  795 FO
  24   24 3330  786 FO
  24   24 3360  761 FO
  24   24 3386  739 FO
  24   24 3415  778 FO
  24   24 3442  785 FO
  24   24 3466  757 FO
  24   24 3491  752 FO
  24   24 3514  786 FO
  24   24 3538  765 FO
  24   24 3563  748 FO
  24   24 3585  748 FO
  24   24 3605  766 FO
  24   24 3630  758 FO
  24   24 3649  721 FO
  24   24 3669  761 FO
  24   24 2985  825 FO
  24   24 3026  812 FO
  24   24 3057  785 FO
  24   24 3092  815 FO
  24   24 3133  796 FO
  24   24 3160  766 FO
  24   24 3191  820 FO
  24   24 3224  762 FO
  24   24 3256  789 FO
  24   24 3288  761 FO
  24   24 3320  796 FO
  24   24 3349  752 FO
  24   24 3375  785 FO
  24   24 3406  764 FO
  24   24 3433  756 FO
  24   24 3462  766 FO
  24   24 3489  783 FO
  24   24 3514  771 FO
  24   24 3539  764 FO
  24   24 3563  731 FO
  24   24 3587  749 FO
  24   24 3612  753 FO
  24   24 3635  741 FO
  24   24 3655  773 FO
  24   24 3680  721 FO
  24   24 3700  743 FO
  24   24 3721  742 FO
  24   24 3764  775 FO
  24   24 3069  769 FO
  24   24 3100  790 FO
  24   24 3136  815 FO
  24   24 3178  784 FO
  24   24 3206  777 FO
  24   24 3237  775 FO
  24   24 3271  792 FO
  24   24 3303  782 FO
  24   24 3336  779 FO
  24   24 3368  755 FO
  24   24 3398  779 FO
  24   24 3425  735 FO
  24   24 3456  755 FO
  24   24 3483  750 FO
  24   24 3513  771 FO
  24   24 3541  778 FO
  24   24 3566  757 FO
  24   24 3592  770 FO
  24   24 3616  768 FO
  24   24 3641  726 FO
  24   24 3666  727 FO
  24   24 3690  747 FO
  24   24 3711  741 FO
  24   24 3736  744 FO
  24   24 3756  730 FO
  24   24 3777  744 FO
  24   24 3821  733 FO
  24   24 3861  765 FO
  24   24 3898  748 FO
  24   24 3143  769 FO
  24   24 3180  733 FO
  24   24 3222  756 FO
  24   24 3251  734 FO
  24   24 3283  778 FO
  24   24 3317  741 FO
  24   24 3350  748 FO
  24   24 3383  752 FO
  24   24 3417  726 FO
  24   24 3447  753 FO
  24   24 3474  730 FO
  24   24 3506  739 FO
  24   24 3534  702 FO
  24   24 3564  728 FO
  24   24 3592  757 FO
  24   24 3618  727 FO
  24   24 3645  737 FO
  24   24 3669  737 FO
  24   24 3694  687 FO
  24   24 3720  694 FO
  24   24 3744  703 FO
  24   24 3766  743 FO
  24   24 3792  709 FO
  24   24 3812  710 FO
  24   24 3833  694 FO
  24   24 3878  727 FO
  24   24 3919  719 FO
  24   24 3957  716 FO
  24   24 3995  746 FO
  24   24 3213  801 FO
  24   24 3256  779 FO
  24   24 3285  765 FO
  24   24 3317  778 FO
  24   24 3352  733 FO
  24   24 3385  731 FO
  24   24 3419  775 FO
  24   24 3453  773 FO
  24   24 3483  756 FO
  24   24 3511  771 FO
  24   24 3544  732 FO
  24   24 3572  729 FO
  24   24 3603  760 FO
  24   24 3631  758 FO
  24   24 3657  736 FO
  24   24 3684  753 FO
  24   24 3709  733 FO
  24   24 3735  727 FO
  24   24 3761  725 FO
  24   24 3785  733 FO
  24   24 3807  762 FO
  24   24 3833  741 FO
  24   24 3854  716 FO
  24   24 3876  715 FO
  24   24 3921  729 FO
  24   24 3962  774 FO
  24   24 4001  743 FO
  24   24 4039  770 FO
  24   24 4075  716 FO
  24   24 4109  722 FO
  24   24 3295  767 FO
  24   24 3324  765 FO
  24   24 3357  765 FO
  24   24 3393  773 FO
  24   24 3427  740 FO
  24   24 3461  731 FO
  24   24 3495  751 FO
  24   24 3526  748 FO
  24   24 3555  743 FO
  24   24 3587  712 FO
  24   24 3616  705 FO
  24   24 3648  722 FO
  24   24 3676  761 FO
  24   24 3703  736 FO
  24   24 3731  723 FO
  24   24 3755  712 FO
  24   24 3782  722 FO
  24   24 3809  706 FO
  24   24 3833  719 FO
  24   24 3855  731 FO
  24   24 3882  709 FO
  24   24 3903  726 FO
  24   24 3925  706 FO
  24   24 3971  755 FO
  24   24 4013  730 FO
  24   24 4052  731 FO
  24   24 4091  721 FO
  24   24 4128  737 FO
  24   24 4162  761 FO
  24   24 4195  760 FO
  24   24 3369  725 FO
  24   24 3403  714 FO
  24   24 3439  733 FO
  24   24 3474  717 FO
  24   24 3508  715 FO
  24   24 3543  744 FO
  24   24 3575  715 FO
  24   24 3604  681 FO
  24   24 3637  708 FO
  24   24 3666  694 FO
  24   24 3699  716 FO
  24   24 3728  727 FO
  24   24 3755  717 FO
  24   24 3783  696 FO
  24   24 3808  713 FO
  24   24 3835  712 FO
  24   24 3862  707 FO
  24   24 3888  702 FO
  24   24 3910  729 FO
  24   24 3937  696 FO
  24   24 3959  707 FO
  24   24 3981  693 FO
  24   24 4028  726 FO
  24   24 4071  695 FO
  24   24 4111  696 FO
  24   24 4150  703 FO
  24   24 4188  729 FO
  24   24 4222  724 FO
  24   24 4256  760 FO
  24   24 4291  743 FO
  24   24 4320  740 FO
  24   24 3433  718 FO
  24   24 3470  707 FO
  24   24 3505  721 FO
  24   24 3540  713 FO
  24   24 3576  736 FO
  24   24 3608  692 FO
  24   24 3637  705 FO
  24   24 3671  688 FO
  24   24 3700  684 FO
  24   24 3733  708 FO
  24   24 3763  692 FO
  24   24 3790  687 FO
  24   24 3818  695 FO
  24   24 3844  681 FO
  24   24 3871  682 FO
  24   24 3899  686 FO
  24   24 3924  689 FO
  24   24 3947  722 FO
  24   24 3974  708 FO
  24   24 3996  700 FO
  24   24 4019  687 FO
  24   24 4067  727 FO
  24   24 4110  707 FO
  24   24 4150  696 FO
  24   24 4190  715 FO
  24   24 4228  689 FO
  24   24 4263  710 FO
  24   24 4297  738 FO
  24   24 4333  707 FO
  24   24 4361  719 FO
  24   24 4393  709 FO
  24   24 4418  744 FO
  24   24 3505  737 FO
  24   24 3541  729 FO
  24   24 3577  729 FO
  24   24 3612  744 FO
  24   24 3645  726 FO
  24   24 3674  748 FO
  24   24 3709  719 FO
  24   24 3739  717 FO
  24   24 3772  706 FO
  24   24 3802  745 FO
  24   24 3829  709 FO
  24   24 3858  744 FO
  24   24 3884  705 FO
  24   24 3912  691 FO
  24   24 3940  711 FO
  24   24 3966  723 FO
  24   24 3988  739 FO
  24   24 4016  735 FO
  24   24 4038  707 FO
  24   24 4061  701 FO
  24   24 4110  733 FO
  24   24 4154  715 FO
  24   24 4194  718 FO
  24   24 4235  742 FO
  24   24 4274  751 FO
  24   24 4309  754 FO
  24   24 4344  741 FO
  24   24 4380  730 FO
  24   24 4409  755 FO
  24   24 4441  741 FO
  24   24 4467  762 FO
  24   24 4499  752 FO
  24   24 4524  720 FO
  24   24 3579  713 FO
  24   24 3615  704 FO
  24   24 3651  715 FO
  24   24 3684  721 FO
  24   24 3714  686 FO
  24   24 3749  697 FO
  24   24 3780  690 FO
  24   24 3813  686 FO
  24   24 3844  707 FO
  24   24 3872  685 FO
  24   24 3901  697 FO
  24   24 3927  680 FO
  24   24 3955  663 FO
  24   24 3984  691 FO
  24   24 4010  703 FO
  24   24 4033  727 FO
  24   24 4061  699 FO
  24   24 4084  676 FO
  24   24 4107  690 FO
  24   24 4156  733 FO
  24   24 4201  697 FO
  24   24 4242  698 FO
  24   24 4283  719 FO
  24   24 4322  679 FO
  24   24 4358  707 FO
  24   24 4394  700 FO
  24   24 4430  722 FO
  24   24 4459  732 FO
  24   24 4492  722 FO
  24   24 4518  753 FO
  24   24 4551  705 FO
  24   24 4576  704 FO
  24   24 4606  740 FO
  24   24 4630  735 FO
  24   24 3652  715 FO
  24   24 3689  731 FO
  24   24 3722  728 FO
  24   24 3753  693 FO
  24   24 3788  696 FO
  24   24 3819  692 FO
  24   24 3853  712 FO
  24   24 3884  706 FO
  24   24 3912  698 FO
  24   24 3942  693 FO
  24   24 3969  697 FO
  24   24 3997  700 FO
  24   24 4026  719 FO
  24   24 4052  695 FO
  24   24 4076  713 FO
  24   24 4104  712 FO
  24   24 4127  691 FO
  24   24 4151  703 FO
  24   24 4201  691 FO
  24   24 4246  702 FO
  24   24 4287  701 FO
  24   24 4329  734 FO
  24   24 4369  676 FO
  24   24 4405  688 FO
  24   24 4441  726 FO
  24   24 4478  727 FO
  24   24 4508  732 FO
  24   24 4541  722 FO
  24   24 4567  722 FO
  24   24 4601  706 FO
  24   24 4626  741 FO
  24   24 4657  723 FO
  24   24 4681  750 FO
  24   24 4712  742 FO
  24   24 4728  729 FO
  24   24 3727  712 FO
  24   24 3761  704 FO
  24   24 3791  699 FO
  24   24 3827  663 FO
  24   24 3858  669 FO
  24   24 3893  674 FO
  24   24 3924  701 FO
  24   24 3953  686 FO
  24   24 3983  700 FO
  24   24 4010  683 FO
  24   24 4039  700 FO
  24   24 4068  698 FO
  24   24 4095  695 FO
  24   24 4119  690 FO
  24   24 4148  674 FO
  24   24 4171  700 FO
  24   24 4195  691 FO
  24   24 4245  710 FO
  24   24 4291  710 FO
  24   24 4333  693 FO
  24   24 4376  711 FO
  24   24 4416  687 FO
  24   24 4453  720 FO
  24   24 4489  722 FO
  24   24 4527  715 FO
  24   24 4557  725 FO
  24   24 4590  737 FO
  24   24 4617  720 FO
  24   24 4651  707 FO
  24   24 4677  731 FO
  24   24 4708  708 FO
  24   24 4732  747 FO
  24   24 4764  740 FO
  24   24 4780  749 FO
  24   24 4806  766 FO
  24   24 4829  761 FO
  24   24 3799  710 FO
  24   24 3830  726 FO
  24   24 3866  716 FO
  24   24 3898  718 FO
  24   24 3933  718 FO
  24   24 3965  750 FO
  24   24 3994  711 FO
  24   24 4024  711 FO
  24   24 4052  713 FO
  24   24 4081  688 FO
  24   24 4110  698 FO
  24   24 4138  698 FO
  24   24 4162  699 FO
  24   24 4191  674 FO
  24   24 4214  671 FO
  24   24 4239  701 FO
  24   24 4290  725 FO
  24   24 4336  695 FO
  24   24 4379  706 FO
  24   24 4422  724 FO
  24   24 4463  709 FO
  24   24 4500  695 FO
  24   24 4537  693 FO
  24   24 4575  699 FO
  24   24 4606  732 FO
  24   24 4639  743 FO
  24   24 4667  741 FO
  24   24 4701  725 FO
  24   24 4727  739 FO
  24   24 4759  748 FO
  24   24 4784  734 FO
  24   24 4816  731 FO
  24   24 4832  728 FO
  24   24 4858  770 FO
  24   24 4881  753 FO
  24   24 4903  746 FO
  24   24 3865  705 FO
  24   24 3902  677 FO
  24   24 3934  698 FO
  24   24 3969  724 FO
  24   24 4001  688 FO
  24   24 4031  692 FO
  24   24 4062  695 FO
  24   24 4089  710 FO
  24   24 4119  682 FO
  24   24 4149  662 FO
  24   24 4176  682 FO
  24   24 4201  695 FO
  24   24 4231  696 FO
  24   24 4254  659 FO
  24   24 4279  701 FO
  24   24 4331  669 FO
  24   24 4377  702 FO
  24   24 4421  688 FO
  24   24 4465  707 FO
  24   24 4506  699 FO
  24   24 4543  685 FO
  24   24 4581  723 FO
  24   24 4619  707 FO
  24   24 4650  758 FO
  24   24 4684  748 FO
  24   24 4712  729 FO
  24   24 4747  711 FO
  24   24 4773  717 FO
  24   24 4805  749 FO
  24   24 4830  718 FO
  24   24 4862  750 FO
  24   24 4879  741 FO
  24   24 4905  753 FO
  24   24 4929  752 FO
  24   24 4951  741 FO
  24   24 3934  685 FO
  24   24 3966  686 FO
  24   24 4002  711 FO
  24   24 4035  721 FO
  24   24 4065  687 FO
  24   24 4096  700 FO
  24   24 4124  686 FO
  24   24 4153  683 FO
  24   24 4184  701 FO
  24   24 4212  672 FO
  24   24 4236  693 FO
  24   24 4267  691 FO
  24   24 4290  685 FO
  24   24 4315  697 FO
  24   24 4368  688 FO
  24   24 4415  700 FO
  24   24 4459  691 FO
  24   24 4503  710 FO
  24   24 4545  698 FO
  24   24 4583  709 FO
  24   24 4620  726 FO
  24   24 4659  726 FO
  24   24 4690  738 FO
  24   24 4725  743 FO
  24   24 4753  737 FO
  24   24 4788  736 FO
  24   24 4815  718 FO
  24   24 4847  739 FO
  24   24 4872  714 FO
  24   24 4905  731 FO
  24   24 4922  756 FO
  24   24 4948  777 FO
  24   24 4973  739 FO
  24   24 4995  747 FO
  24   24 4004  657 FO
  24   24 4041  684 FO
  24   24 4073  649 FO
  24   24 4104  680 FO
  24   24 4135  671 FO
  24   24 4164  663 FO
  24   24 4194  673 FO
  24   24 4224  691 FO
  24   24 4253  671 FO
  24   24 4278  712 FO
  24   24 4308  660 FO
  24   24 4332  668 FO
  24   24 4357  657 FO
  24   24 4411  668 FO
  24   24 4458  678 FO
  24   24 4503  652 FO
  24   24 4548  675 FO
  24   24 4590  646 FO
  24   24 4628  691 FO
  24   24 4666  687 FO
  24   24 4706  670 FO
  24   24 4737  695 FO
  24   24 4772  706 FO
  24   24 4801  708 FO
  24   24 4837  692 FO
  24   24 4863  703 FO
  24   24 4896  696 FO
  24   24 4922  725 FO
  24   24 4955  719 FO
  24   24 4972  701 FO
  24   24 4998  721 FO
  24   24 5023  718 FO
  24   24 5046  735 FO
  24   24 4074  663 FO
  24   24 4107  712 FO
  24   24 4138  684 FO
  24   24 4170  658 FO
  24   24 4199  682 FO
  24   24 4229  661 FO
  24   24 4260  688 FO
  24   24 4288  656 FO
  24   24 4314  679 FO
  24   24 4345  673 FO
  24   24 4369  653 FO
  24   24 4394  663 FO
  24   24 4448  664 FO
  24   24 4496  662 FO
  24   24 4541  676 FO
  24   24 4586  679 FO
  24   24 4629  667 FO
  24   24 4668  649 FO
  24   24 4707  684 FO
  24   24 4746  684 FO
  24   24 4778  691 FO
  24   24 4813  682 FO
  24   24 4842  685 FO
  24   24 4878  688 FO
  24   24 4906  696 FO
  24   24 4938  690 FO
  24   24 4964  696 FO
  24   24 4998  704 FO
  24   24 5015  702 FO
  24   24 5042  720 FO
  24   24 5067  714 FO
  24   24 5090  697 FO
  24   24 4145  692 FO
  24   24 4176  693 FO
  24   24 4208  675 FO
  24   24 4237  668 FO
  24   24 4267  673 FO
  24   24 4299  686 FO
  24   24 4328  698 FO
  24   24 4353  696 FO
  24   24 4385  688 FO
  24   24 4409  682 FO
  24   24 4435  692 FO
  24   24 4489  673 FO
  24   24 4538  672 FO
  24   24 4584  688 FO
  24   24 4629  681 FO
  24   24 4672  699 FO
  24   24 4712  685 FO
  24   24 4751  717 FO
  24   24 4791  685 FO
  24   24 4823  705 FO
  24   24 4859  704 FO
  24   24 4888  733 FO
  24   24 4925  695 FO
  24   24 4952  713 FO
  24   24 4985  737 FO
  24   24 5012  718 FO
  24   24 5046  731 FO
  24   24 5063  718 FO
  24   24 5090  753 FO
  24   24 5115  743 FO
  24   24 5139  746 FO
  24   24 4210  696 FO
  24   24 4243  704 FO
  24   24 4272  684 FO
  24   24 4303  685 FO
  24   24 4335  667 FO
  24   24 4364  686 FO
  24   24 4389  743 FO
  24   24 4421  675 FO
  24   24 4446  687 FO
  24   24 4472  694 FO
  24   24 4527  714 FO
  24   24 4576  687 FO
  24   24 4622  691 FO
  24   24 4668  705 FO
  24   24 4712  703 FO
  24   24 4752  717 FO
  24   24 4791  718 FO
  24   24 4832  703 FO
  24   24 4864  711 FO
  24   24 4901  715 FO
  24   24 4930  720 FO
  24   24 4967  737 FO
  24   24 4995  725 FO
  24   24 5028  752 FO
  24   24 5055  738 FO
  24   24 5089  718 FO
  24   24 5107  716 FO
  24   24 5134  732 FO
  24   24 5160  734 FO
  24   24 5183  731 FO
  24   24 4275  668 FO
  24   24 4304  650 FO
  24   24 4335  668 FO
  24   24 4367  676 FO
  24   24 4397  651 FO
  24   24 4423  681 FO
  24   24 4455  667 FO
  24   24 4480  663 FO
  24   24 4506  651 FO
  24   24 4562  663 FO
  24   24 4611  698 FO
  24   24 4658  704 FO
  24   24 4705  706 FO
  24   24 4748  664 FO
  24   24 4788  720 FO
  24   24 4828  673 FO
  24   24 4870  724 FO
  24   24 4902  675 FO
  24   24 4939  684 FO
  24   24 4968  705 FO
  24   24 5006  709 FO
  24   24 5034  686 FO
  24   24 5068  710 FO
  24   24 5095  733 FO
  24   24 5129  696 FO
  24   24 5147  715 FO
  24   24 5175  748 FO
  24   24 5200  717 FO
  24   24 5224  712 FO
  24   24 4338  633 FO
  24   24 4369  658 FO
  24   24 4401  662 FO
  24   24 4431  656 FO
  24   24 4457  694 FO
  24   24 4490  682 FO
  24   24 4515  645 FO
  24   24 4542  672 FO
  24   24 4597  660 FO
  24   24 4648  700 FO
  24   24 4695  668 FO
  24   24 4742  684 FO
  24   24 4786  701 FO
  24   24 4827  688 FO
  24   24 4867  704 FO
  24   24 4909  698 FO
  24   24 4942  726 FO
  24   24 4978  686 FO
  24   24 5008  701 FO
  24   24 5046  702 FO
  24   24 5075  717 FO
  24   24 5109  704 FO
  24   24 5136  732 FO
  24   24 5171  718 FO
  24   24 5189  698 FO
  24   24 5217  742 FO
  24   24 5243  732 FO
  24   24 5266  714 FO
  24   24 4400  657 FO
  24   24 4432  678 FO
  24   24 4462  650 FO
  24   24 4489  713 FO
  24   24 4521  693 FO
  24   24 4547  655 FO
  24   24 4574  659 FO
  24   24 4630  685 FO
  24   24 4681  664 FO
  24   24 4728  689 FO
  24   24 4776  704 FO
  24   24 4820  662 FO
  24   24 4861  672 FO
  24   24 4902  669 FO
  24   24 4944  666 FO
  24   24 4977  697 FO
  24   24 5014  686 FO
  24   24 5045  694 FO
  24   24 5083  679 FO
  24   24 5111  686 FO
  24   24 5146  679 FO
  24   24 5173  686 FO
  24   24 5208  721 FO
  24   24 5226  700 FO
  24   24 5254  751 FO
  24   24 5281  726 FO
  24   24 5305  703 FO
  24   24 4465  662 FO
  24   24 4495  663 FO
  24   24 4522  658 FO
  24   24 4555  674 FO
  24   24 4580  650 FO
  24   24 4607  655 FO
  24   24 4664  670 FO
  24   24 4715  656 FO
  24   24 4763  642 FO
  24   24 4811  694 FO
  24   24 4856  675 FO
  24   24 4897  666 FO
  24   24 4939  679 FO
  24   24 4981  673 FO
  24   24 5015  651 FO
  24   24 5052  675 FO
  24   24 5082  717 FO
  24   24 5121  681 FO
  24   24 5150  698 FO
  24   24 5184  678 FO
  24   24 5212  681 FO
  24   24 5248  699 FO
  24   24 5266  708 FO
  24   24 5294  744 FO
  24   24 5321  709 FO
  24   24 5345  727 FO
  24   24 4529  650 FO
  24   24 4555  697 FO
  24   24 4589  678 FO
  24   24 4615  677 FO
  24   24 4642  656 FO
  24   24 4699  677 FO
  24   24 4751  679 FO
  24   24 4799  666 FO
  24   24 4848  673 FO
  24   24 4893  675 FO
  24   24 4935  684 FO
  24   24 4976  699 FO
  24   24 5019  653 FO
  24   24 5053  717 FO
  24   24 5091  718 FO
  24   24 5122  673 FO
  24   24 5160  752 FO
  24   24 5189  697 FO
  24   24 5224  708 FO
  24   24 5252  711 FO
  24   24 5288  715 FO
  24   24 5307  693 FO
  24   24 5335  729 FO
  24   24 5362  731 FO
  24   24 5387  754 FO
  24   24 4587  660 FO
  24   24 4620  667 FO
  24   24 4646  662 FO
  24   24 4674  658 FO
  24   24 4732  666 FO
  24   24 4784  646 FO
  24   24 4832  680 FO
  24   24 4881  675 FO
  24   24 4927  663 FO
  24   24 4969  657 FO
  24   24 5011  713 FO
  24   24 5054  671 FO
  24   24 5088  706 FO
  24   24 5126  674 FO
  24   24 5157  678 FO
  24   24 5197  699 FO
  24   24 5226  702 FO
  24   24 5261  713 FO
  24   24 5289  690 FO
  24   24 5326  707 FO
  24   24 5344  707 FO
  24   24 5373  732 FO
  24   24 5400  684 FO
  24   24 5425  714 FO
  24   24 4648  682 FO
  24   24 4674  673 FO
  24   24 4702  655 FO
  24   24 4760  689 FO
  24   24 4813  688 FO
  24   24 4862  692 FO
  24   24 4911  699 FO
  24   24 4957  691 FO
  24   24 4999  707 FO
  24   24 5041  687 FO
  24   24 5085  691 FO
  24   24 5119  700 FO
  24   24 5158  701 FO
  24   24 5189  735 FO
  24   24 5228  712 FO
  24   24 5258  738 FO
  24   24 5294  722 FO
  24   24 5322  697 FO
  24   24 5358  745 FO
  24   24 5377  701 FO
  24   24 5406  746 FO
  24   24 5433  711 FO
  24   24 5458  738 FO
  24   24 4708  644 FO
  24   24 4736  671 FO
  24   24 4795  671 FO
  24   24 4848  664 FO
  24   24 4898  661 FO
  24   24 4947  690 FO
  24   24 4994  674 FO
  24   24 5037  680 FO
  24   24 5079  695 FO
  24   24 5123  672 FO
  24   24 5158  688 FO
  24   24 5196  704 FO
  24   24 5228  719 FO
  24   24 5268  684 FO
  24   24 5298  688 FO
  24   24 5334  725 FO
  24   24 5362  717 FO
  24   24 5399  710 FO
  24   24 5418  676 FO
  24   24 5447  754 FO
  24   24 5475  710 FO
  24   24 5500  730 FO
  24   24 4763  654 FO
  24   24 4823  668 FO
  24   24 4876  637 FO
  24   24 4926  672 FO
  24   24 4976  669 FO
  24   24 5023  686 FO
  24   24 5066  661 FO
  24   24 5109  684 FO
  24   24 5153  674 FO
  24   24 5188  690 FO
  24   24 5227  687 FO
  24   24 5259  697 FO
  24   24 5299  680 FO
  24   24 5329  707 FO
  24   24 5365  695 FO
  24   24 5394  700 FO
  24   24 5431  689 FO
  24   24 5450  676 FO
  24   24 5479  709 FO
  24   24 5507  707 FO
  24   24 5532  676 FO
  24   24 4851  657 FO
  24   24 4905  684 FO
  24   24 4955  663 FO
  24   24 5006  689 FO
  24   24 5053  675 FO
  24   24 5096  654 FO
  24   24 5139  689 FO
  24   24 5184  651 FO
  24   24 5219  675 FO
  24   24 5258  683 FO
  24   24 5290  675 FO
  24   24 5331  706 FO
  24   24 5361  673 FO
  24   24 5397  692 FO
  24   24 5426  689 FO
  24   24 5464  679 FO
  24   24 5483  691 FO
  24   24 5513  710 FO
  24   24 5541  701 FO
  24   24 5566  712 FO
  24   24 4967  660 FO
  24   24 5018  668 FO
  24   24 5069  690 FO
  24   24 5117  655 FO
  24   24 5161  688 FO
  24   24 5204  665 FO
  24   24 5249  679 FO
  24   24 5285  739 FO
  24   24 5325  719 FO
  24   24 5358  709 FO
  24   24 5399  710 FO
  24   24 5430  706 FO
  24   24 5466  688 FO
  24   24 5496  694 FO
  24   24 5534  714 FO
  24   24 5553  694 FO
  24   24 5584  713 FO
  24   24 5612  744 FO
  24   24 5638  712 FO
  24   24 5074  680 FO
  24   24 5125  674 FO
  24   24 5174  672 FO
  24   24 5219  685 FO
  24   24 5263  678 FO
  24   24 5309  675 FO
  24   24 5345  692 FO
  24   24 5386  712 FO
  24   24 5419  685 FO
  24   24 5460  696 FO
  24   24 5491  709 FO
  24   24 5529  696 FO
  24   24 5559  699 FO
  24   24 5597  693 FO
  24   24 5617  709 FO
  24   24 5647  711 FO
  24   24 5676  678 FO
  24   24 5702  705 FO
  24   24 5178  670 FO
  24   24 5228  675 FO
  24   24 5273  679 FO
  24   24 5318  702 FO
  24   24 5364  689 FO
  24   24 5401  700 FO
  24   24 5442  710 FO
  24   24 5475  716 FO
  24   24 5517  725 FO
  24   24 5549  708 FO
  24   24 5587  691 FO
  24   24 5617  703 FO
  24   24 5656  710 FO
  24   24 5676  691 FO
  24   24 5707  731 FO
  24   24 5736  704 FO
  24   24 5762  702 FO
  24   24 5281  665 FO
  24   24 5327  719 FO
  24   24 5373  709 FO
  24   24 5419  703 FO
  24   24 5457  704 FO
  24   24 5498  717 FO
  24   24 5532  746 FO
  24   24 5575  699 FO
  24   24 5606  716 FO
  24   24 5645  734 FO
  24   24 5676  717 FO
  24   24 5715  723 FO
  24   24 5735  693 FO
  24   24 5767  762 FO
  24   24 5796  724 FO
  24   24 5823  744 FO
  24   24 5378  653 FO
  24   24 5424  681 FO
  24   24 5471  703 FO
  24   24 5509  687 FO
  24   24 5551  678 FO
  24   24 5585  678 FO
  24   24 5628  695 FO
  24   24 5661  676 FO
  24   24 5699  700 FO
  24   24 5730  713 FO
  24   24 5770  699 FO
  24   24 5791  700 FO
  24   24 5823  724 FO
  24   24 5852  701 FO
  24   24 5879  727 FO
  24   24 5471  704 FO
  24   24 5519  701 FO
  24   24 5557  678 FO
  24   24 5600  703 FO
  24   24 5634  713 FO
  24   24 5678  731 FO
  24   24 5710  695 FO
  24   24 5749  716 FO
  24   24 5781  696 FO
  24   24 5821  706 FO
  24   24 5842  709 FO
  24   24 5874  712 FO
  24   24 5904  708 FO
  24   24 5931  715 FO
  24   24 5566  688 FO
  24   24 5605  719 FO
  24   24 5648  718 FO
  24   24 5683  716 FO
  24   24 5727  705 FO
  24   24 5760  703 FO
  24   24 5799  702 FO
  24   24 5831  757 FO
  24   24 5872  724 FO
  24   24 5892  707 FO
  24   24 5925  758 FO
  24   24 5955  728 FO
  24   24 5983  719 FO
  24   24 5654  699 FO
  24   24 5698  720 FO
  24   24 5733  719 FO
  24   24 5777  697 FO
  24   24 5811  712 FO
  24   24 5851  695 FO
  24   24 5883  720 FO
  24   24 5924  721 FO
  24   24 5945  701 FO
  24   24 5978  753 FO
  24   24 6008  684 FO
  24   24 6036  691 FO
  24   24 5737  712 FO
  24   24 5773  721 FO
  24   24 5818  731 FO
  24   24 5851  730 FO
  24   24 5892  718 FO
  24   24 5924  728 FO
  24   24 5965  719 FO
  24   24 5986  714 FO
  24   24 6020  744 FO
  24   24 6050  760 FO
  24   24 6079  717 FO
  24   24 5817  685 FO
  24   24 5862  707 FO
  24   24 5896  723 FO
  24   24 5937  739 FO
  24   24 5970  711 FO
  24   24 6011  731 FO
  24   24 6033  726 FO
  24   24 6066  744 FO
  24   24 6097  745 FO
  24   24 6126  711 FO
  24   24 5899  734 FO
  24   24 5933  729 FO
  24   24 5974  730 FO
  24   24 6007  728 FO
  24   24 6049  717 FO
  24   24 6070  725 FO
  24   24 6104  727 FO
  24   24 6135  718 FO
  24   24 6164  741 FO
  24   24 5979  703 FO
  24   24 6021  712 FO
  24   24 6054  708 FO
  24   24 6096  724 FO
  24   24 6118  727 FO
  24   24 6152  727 FO
  24   24 6184  736 FO
  24   24 6213  706 FO
  24   24 6056  730 FO
  24   24 6089  738 FO
  24   24 6132  745 FO
  24   24 6154  707 FO
  24   24 6188  735 FO
  24   24 6220  737 FO
  24   24 6249  714 FO
  24   24 6131  719 FO
  24   24 6174  713 FO
  24   24 6196  744 FO
  24   24 6231  761 FO
gs 899 324 5357 3522 rc
gr

  24   24 6208  740 PO
  24   24 6231  716 PO
  24   24 6208  740 FO
  24   24 6231  716 FO
gs 899 324 5357 3522 rc
0 sg
0 307 1032 2241 2 MP stroke
113 0 976 2241 2 MP stroke
113 0 976 2548 2 MP stroke
0 208 1193 1870 2 MP stroke
112 0 1137 1870 2 MP stroke
112 0 1137 2078 2 MP stroke
0 170 1354 1640 2 MP stroke
112 0 1298 1640 2 MP stroke
112 0 1298 1810 2 MP stroke
0 113 1514 1491 2 MP stroke
113 0 1458 1491 2 MP stroke
113 0 1458 1604 2 MP stroke
0 73 1675 1351 2 MP stroke
112 0 1619 1351 2 MP stroke
112 0 1619 1424 2 MP stroke
0 84 1836 1229 2 MP stroke
112 0 1780 1229 2 MP stroke
112 0 1780 1313 2 MP stroke
0 59 1996 1147 2 MP stroke
113 0 1940 1147 2 MP stroke
113 0 1940 1206 2 MP stroke
0 78 2157 1055 2 MP stroke
112 0 2101 1055 2 MP stroke
112 0 2101 1133 2 MP stroke
0 61 2318 1001 2 MP stroke
112 0 2262 1001 2 MP stroke
112 0 2262 1062 2 MP stroke
0 51 2479 938 2 MP stroke
113 0 2422 938 2 MP stroke
113 0 2422 989 2 MP stroke
0 55 2639 879 2 MP stroke
112 0 2583 879 2 MP stroke
112 0 2583 934 2 MP stroke
0 41 2800 848 2 MP stroke
112 0 2744 848 2 MP stroke
112 0 2744 889 2 MP stroke
0 42 2961 808 2 MP stroke
113 0 2904 808 2 MP stroke
113 0 2904 850 2 MP stroke
0 53 3121 777 2 MP stroke
112 0 3065 777 2 MP stroke
112 0 3065 830 2 MP stroke
0 41 3282 758 2 MP stroke
112 0 3226 758 2 MP stroke
112 0 3226 799 2 MP stroke
0 49 3443 732 2 MP stroke
113 0 3386 732 2 MP stroke
113 0 3386 781 2 MP stroke
0 49 3603 711 2 MP stroke
113 0 3547 711 2 MP stroke
113 0 3547 760 2 MP stroke
0 44 3764 694 2 MP stroke
112 0 3708 694 2 MP stroke
112 0 3708 738 2 MP stroke
0 48 3925 685 2 MP stroke
113 0 3868 685 2 MP stroke
113 0 3868 733 2 MP stroke
0 45 4085 680 2 MP stroke
113 0 4029 680 2 MP stroke
113 0 4029 725 2 MP stroke
0 54 4246 670 2 MP stroke
112 0 4190 670 2 MP stroke
112 0 4190 724 2 MP stroke
0 57 4407 664 2 MP stroke
113 0 4350 664 2 MP stroke
113 0 4350 721 2 MP stroke
0 59 4567 663 2 MP stroke
113 0 4511 663 2 MP stroke
113 0 4511 722 2 MP stroke
0 65 4728 670 2 MP stroke
112 0 4672 670 2 MP stroke
112 0 4672 735 2 MP stroke
0 62 4889 671 2 MP stroke
113 0 4832 671 2 MP stroke
113 0 4832 733 2 MP stroke
0 51 5049 673 2 MP stroke
113 0 4993 673 2 MP stroke
113 0 4993 724 2 MP stroke
0 49 5210 678 2 MP stroke
112 0 5154 678 2 MP stroke
112 0 5154 727 2 MP stroke
0 43 5371 684 2 MP stroke
112 0 5315 684 2 MP stroke
112 0 5315 727 2 MP stroke
0 32 5531 687 2 MP stroke
113 0 5475 687 2 MP stroke
113 0 5475 719 2 MP stroke
0 35 5692 693 2 MP stroke
112 0 5636 693 2 MP stroke
112 0 5636 728 2 MP stroke
0 34 5853 701 2 MP stroke
112 0 5797 701 2 MP stroke
112 0 5797 735 2 MP stroke
0 36 6013 705 2 MP stroke
113 0 5957 705 2 MP stroke
113 0 5957 741 2 MP stroke
0 30 6174 713 2 MP stroke
112 0 6118 713 2 MP stroke
112 0 6118 743 2 MP stroke
gr

0 sg
  36   36 1032 2395 PO
  36   36 1193 1974 PO
  36   36 1354 1725 PO
  36   36 1514 1548 PO
  36   36 1675 1387 PO
  36   36 1836 1271 PO
  36   36 1996 1177 PO
  36   36 2157 1094 PO
  36   36 2318 1031 PO
  36   36 2479  964 PO
  36   36 2639  906 PO
  36   36 2800  868 PO
  36   36 2961  829 PO
  36   36 3121  804 PO
  36   36 3282  779 PO
  36   36 3443  757 PO
  36   36 3603  735 PO
  36   36 3764  716 PO
  36   36 3925  709 PO
  36   36 4085  702 PO
  36   36 4246  697 PO
  36   36 4407  693 PO
  36   36 4567  692 PO
  36   36 4728  703 PO
  36   36 4889  702 PO
  36   36 5049  699 PO
  36   36 5210  702 PO
  36   36 5371  706 PO
  36   36 5531  703 PO
  36   36 5692  711 PO
  36   36 5853  718 PO
  36   36 6013  723 PO
  36   36 6174  728 PO
  36   36 1032 2395 FO
  36   36 1193 1974 FO
  36   36 1354 1725 FO
  36   36 1514 1548 FO
  36   36 1675 1387 FO
  36   36 1836 1271 FO
  36   36 1996 1177 FO
  36   36 2157 1094 FO
  36   36 2318 1031 FO
  36   36 2479  964 FO
  36   36 2639  906 FO
  36   36 2800  868 FO
  36   36 2961  829 FO
  36   36 3121  804 FO
  36   36 3282  779 FO
  36   36 3443  757 FO
  36   36 3603  735 FO
  36   36 3764  716 FO
  36   36 3925  709 FO
  36   36 4085  702 FO
  36   36 4246  697 FO
  36   36 4407  693 FO
  36   36 4567  692 FO
  36   36 4728  703 FO
  36   36 4889  702 FO
  36   36 5049  699 FO
  36   36 5210  702 FO
  36   36 5371  706 FO
  36   36 5531  703 FO
  36   36 5692  711 FO
  36   36 5853  718 FO
  36   36 6013  723 FO
  36   36 6174  728 FO
gs 899 324 5357 3522 rc
gr

3012 4133 mt 
(Geometric mean rate) s
 616 2378 mt  -90 rotate
(Correlation) s
90 rotate

end %%Color Dict

eplot
%%EndObject

epage
end

showpage

%%Trailer
%%EOF
