%!PS-Adobe-3.0 EPSF-3.0
%%Creator: MATLAB, The MathWorks, Inc. Version 7.14.0.739 (R2012a). Operating System: Linux 2.6.33.7.2-rt30-rt #1 SMP PREEMPT RT Tue Apr 17 15:22:21 CEST 2012 x86_64.
%%Title: ./LIF_correlations_linear_decay.eps
%%CreationDate: 03/10/2014  13:00:05
%%DocumentNeededFonts: Helvetica
%%DocumentProcessColors: Cyan Magenta Yellow Black
%%LanguageLevel: 2
%%Pages: 1
%%BoundingBox:    40    11   528   344
%%EndComments

%%BeginProlog
% MathWorks dictionary
/MathWorks 160 dict begin
% definition operators
/bdef {bind def} bind def
/ldef {load def} bind def
/xdef {exch def} bdef
/xstore {exch store} bdef
% operator abbreviations
/c  /clip ldef
/cc /concat ldef
/cp /closepath ldef
/gr /grestore ldef
/gs /gsave ldef
/mt /moveto ldef
/np /newpath ldef
/cm /currentmatrix ldef
/sm /setmatrix ldef
/rm /rmoveto ldef
/rl /rlineto ldef
/s {show newpath} bdef
/sc {setcmykcolor} bdef
/sr /setrgbcolor ldef
/sg /setgray ldef
/w /setlinewidth ldef
/j /setlinejoin ldef
/cap /setlinecap ldef
/rc {rectclip} bdef
/rf {rectfill} bdef
% page state control
/pgsv () def
/bpage {/pgsv save def} bdef
/epage {pgsv restore} bdef
/bplot /gsave ldef
/eplot {stroke grestore} bdef
% orientation switch
/portraitMode 0 def /landscapeMode 1 def /rotateMode 2 def
% coordinate system mappings
/dpi2point 0 def
% font control
/FontSize 0 def
/FMS {/FontSize xstore findfont [FontSize 0 0 FontSize neg 0 0]
  makefont setfont} bdef
/reencode {exch dup where {pop load} {pop StandardEncoding} ifelse
  exch dup 3 1 roll findfont dup length dict begin
  { 1 index /FID ne {def}{pop pop} ifelse } forall
  /Encoding exch def currentdict end definefont pop} bdef
/isroman {findfont /CharStrings get /Agrave known} bdef
/FMSR {3 1 roll 1 index dup isroman {reencode} {pop pop} ifelse
  exch FMS} bdef
/csm {1 dpi2point div -1 dpi2point div scale neg translate
 dup landscapeMode eq {pop -90 rotate}
  {rotateMode eq {90 rotate} if} ifelse} bdef
% line types: solid, dotted, dashed, dotdash
/SO { [] 0 setdash } bdef
/DO { [.5 dpi2point mul 4 dpi2point mul] 0 setdash } bdef
/DA { [6 dpi2point mul] 0 setdash } bdef
/DD { [.5 dpi2point mul 4 dpi2point mul 6 dpi2point mul 4
  dpi2point mul] 0 setdash } bdef
% macros for lines and objects
/L {lineto stroke} bdef
/MP {3 1 roll moveto 1 sub {rlineto} repeat} bdef
/AP {{rlineto} repeat} bdef
/PDlw -1 def
/W {/PDlw currentlinewidth def setlinewidth} def
/PP {closepath eofill} bdef
/DP {closepath stroke} bdef
/MR {4 -2 roll moveto dup  0 exch rlineto exch 0 rlineto
  neg 0 exch rlineto closepath} bdef
/FR {MR stroke} bdef
/PR {MR fill} bdef
/L1i {{currentfile picstr readhexstring pop} image} bdef
/tMatrix matrix def
/MakeOval {newpath tMatrix currentmatrix pop translate scale
0 0 1 0 360 arc tMatrix setmatrix} bdef
/FO {MakeOval stroke} bdef
/PO {MakeOval fill} bdef
/PD {currentlinewidth 2 div 0 360 arc fill
   PDlw -1 eq not {PDlw w /PDlw -1 def} if} def
/FA {newpath tMatrix currentmatrix pop translate scale
  0 0 1 5 -2 roll arc tMatrix setmatrix stroke} bdef
/PA {newpath tMatrix currentmatrix pop	translate 0 0 moveto scale
  0 0 1 5 -2 roll arc closepath tMatrix setmatrix fill} bdef
/FAn {newpath tMatrix currentmatrix pop translate scale
  0 0 1 5 -2 roll arcn tMatrix setmatrix stroke} bdef
/PAn {newpath tMatrix currentmatrix pop translate 0 0 moveto scale
  0 0 1 5 -2 roll arcn closepath tMatrix setmatrix fill} bdef
/vradius 0 def /hradius 0 def /lry 0 def
/lrx 0 def /uly 0 def /ulx 0 def /rad 0 def
/MRR {/vradius xdef /hradius xdef /lry xdef /lrx xdef /uly xdef
  /ulx xdef newpath tMatrix currentmatrix pop ulx hradius add uly
  vradius add translate hradius vradius scale 0 0 1 180 270 arc 
  tMatrix setmatrix lrx hradius sub uly vradius add translate
  hradius vradius scale 0 0 1 270 360 arc tMatrix setmatrix
  lrx hradius sub lry vradius sub translate hradius vradius scale
  0 0 1 0 90 arc tMatrix setmatrix ulx hradius add lry vradius sub
  translate hradius vradius scale 0 0 1 90 180 arc tMatrix setmatrix
  closepath} bdef
/FRR {MRR stroke } bdef
/PRR {MRR fill } bdef
/MlrRR {/lry xdef /lrx xdef /uly xdef /ulx xdef /rad lry uly sub 2 div def
  newpath tMatrix currentmatrix pop ulx rad add uly rad add translate
  rad rad scale 0 0 1 90 270 arc tMatrix setmatrix lrx rad sub lry rad
  sub translate rad rad scale 0 0 1 270 90 arc tMatrix setmatrix
  closepath} bdef
/FlrRR {MlrRR stroke } bdef
/PlrRR {MlrRR fill } bdef
/MtbRR {/lry xdef /lrx xdef /uly xdef /ulx xdef /rad lrx ulx sub 2 div def
  newpath tMatrix currentmatrix pop ulx rad add uly rad add translate
  rad rad scale 0 0 1 180 360 arc tMatrix setmatrix lrx rad sub lry rad
  sub translate rad rad scale 0 0 1 0 180 arc tMatrix setmatrix
  closepath} bdef
/FtbRR {MtbRR stroke } bdef
/PtbRR {MtbRR fill } bdef
/stri 6 array def /dtri 6 array def
/smat 6 array def /dmat 6 array def
/tmat1 6 array def /tmat2 6 array def /dif 3 array def
/asub {/ind2 exch def /ind1 exch def dup dup
  ind1 get exch ind2 get sub exch } bdef
/tri_to_matrix {
  2 0 asub 3 1 asub 4 0 asub 5 1 asub
  dup 0 get exch 1 get 7 -1 roll astore } bdef
/compute_transform {
  dmat dtri tri_to_matrix tmat1 invertmatrix 
  smat stri tri_to_matrix tmat2 concatmatrix } bdef
/ds {stri astore pop} bdef
/dt {dtri astore pop} bdef
/db {2 copy /cols xdef /rows xdef mul dup 3 mul string
  currentfile 
  3 index 0 eq {/ASCIIHexDecode filter}
  {/ASCII85Decode filter 3 index 2 eq {/RunLengthDecode filter} if }
  ifelse exch readstring pop
  dup 0 3 index getinterval /rbmap xdef
  dup 2 index dup getinterval /gbmap xdef
  1 index dup 2 mul exch getinterval /bbmap xdef pop pop}bdef
/it {gs np dtri aload pop moveto lineto lineto cp c
  cols rows 8 compute_transform 
  rbmap gbmap bbmap true 3 colorimage gr}bdef
/il {newpath moveto lineto stroke}bdef
currentdict end def
%%EndProlog

%%BeginSetup
MathWorks begin

0 cap

end
%%EndSetup

%%Page: 1 1
%%BeginPageSetup
%%PageBoundingBox:    40    11   528   344
MathWorks begin
bpage
%%EndPageSetup

%%BeginObject: obj1
bplot

/dpi2point 12 def
portraitMode 0000 4320 csm

  480   182  5865  4003 rc
86 dict begin %Colortable dictionary
/c0 { 0.000000 0.000000 0.000000 sr} bdef
/c1 { 1.000000 1.000000 1.000000 sr} bdef
/c2 { 0.900000 0.000000 0.000000 sr} bdef
/c3 { 0.000000 0.820000 0.000000 sr} bdef
/c4 { 0.000000 0.000000 0.800000 sr} bdef
/c5 { 0.910000 0.820000 0.320000 sr} bdef
/c6 { 1.000000 0.260000 0.820000 sr} bdef
/c7 { 0.000000 0.820000 0.820000 sr} bdef
c0
1 j
1 sg
   0    0 6913 4321 rf
6 w
0 3521 5356 0 0 -3521 899 3845 4 MP
PP
-5356 0 0 3521 5356 0 0 -3521 899 3845 5 MP stroke
4 w
DO
SO
6 w
0 sg
 899 3845 mt 6255 3845 L
 899 3845 mt  899  324 L
 899 3845 mt  899 3791 L
%%IncludeResource: font Helvetica
/Helvetica /ISOLatin1Encoding 120 FMSR

 866 3990 mt 
(0) s
1970 3845 mt 1970 3791 L
1937 3990 mt 
(5) s
3041 3845 mt 3041 3791 L
2975 3990 mt 
(10) s
4112 3845 mt 4112 3791 L
4046 3990 mt 
(15) s
5183 3845 mt 5183 3791 L
5117 3990 mt 
(20) s
 899 3845 mt  952 3845 L
 798 3889 mt 
(0) s
 899 3140 mt  952 3140 L
 698 3184 mt 
(0.1) s
 899 2436 mt  952 2436 L
 698 2480 mt 
(0.2) s
 899 1732 mt  952 1732 L
 698 1776 mt 
(0.3) s
 899 1028 mt  952 1028 L
 698 1072 mt 
(0.4) s
 899  324 mt  952  324 L
 698  368 mt 
(0.5) s
gs 899 324 5357 3522 rc
gr

  36   36  930  329 FO
  36   36  933  514 FO
  36   36  943  585 FO
  36   36  928  527 FO
  36   36  936  732 FO
  36   36  939  692 FO
  36   36  972  951 FO
  36   36 1007 1190 FO
  36   36 1028 1169 FO
  36   36 1009 1075 FO
  36   36 1045 1227 FO
  36   36 1022 1199 FO
  36   36 1004 1107 FO
  36   36 1038 1285 FO
  36   36 1024 1308 FO
  36   36 1064 1153 FO
  36   36 1085 1449 FO
  36   36 1040 2287 FO
  36   36 1109 1486 FO
  36   36 1136 1702 FO
  36   36 1166 1809 FO
  36   36 1199 1956 FO
  36   36 1217 1888 FO
  36   36 1229 2082 FO
  36   36 1237 2025 FO
  36   36 1257 2102 FO
  36   36 1271 2336 FO
  36   36 1301 2210 FO
  36   36 1316 1990 FO
  36   36 1393 2284 FO
  36   36 1432 2417 FO
  36   36 1413 2488 FO
  36   36 1341 2233 FO
  36   36 1422 2286 FO
  36   36 1463 2363 FO
  36   36 1444 2448 FO
  36   36 1442 2419 FO
  36   36 1484 2474 FO
  36   36 1464 2438 FO
  36   36 1592 2551 FO
  36   36 1567 2471 FO
  36   36 1679 2601 FO
  36   36 1782 2758 FO
  36   36 1793 2717 FO
  36   36 1620 2676 FO
  36   36 1741 2735 FO
  36   36 1852 2797 FO
  36   36 1863 2829 FO
  36   36 1925 2706 FO
  36   36 1933 2823 FO
  36   36 1711 2639 FO
  36   36 1819 2781 FO
  36   36 1829 2803 FO
  36   36 1972 2800 FO
  36   36 1985 2910 FO
  36   36 2054 2992 FO
  36   36 2063 2898 FO
  36   36 2208 2934 FO
  36   36 2201 3038 FO
  36   36 2129 2935 FO
  36   36 2207 2958 FO
  36   36 2217 2949 FO
  36   36 2381 3002 FO
  36   36 2374 3033 FO
  36   36 2589 3018 FO
  36   36 2222 2899 FO
  36   36 2232 2935 FO
  36   36 2399 3053 FO
  36   36 2391 3098 FO
  36   36 2609 3129 FO
  36   36 2318 2965 FO
  36   36 2495 2977 FO
  36   36 2487 3119 FO
  36   36 2718 3136 FO
  36   36 2816 3197 FO
  36   36 2507 3050 FO
  36   36 2499 3090 FO
  36   36 2732 3163 FO
  36   36 2831 3188 FO
  36   36 2698 3145 FO
  36   36 2961 3277 FO
  36   36 3071 3262 FO
  36   36 3179 3315 FO
  36   36 3289 3245 FO
  36   36 3430 3386 FO
  36   36 2950 3183 FO
  36   36 3060 3304 FO
  36   36 3167 3295 FO
  36   36 3277 3318 FO
  36   36 3417 3353 FO
  36   36 3376 3314 FO
  36   36 3498 3276 FO
  36   36 3624 3366 FO
  36   36 3784 3292 FO
  36   36 3858 3349 FO
  36   36 3638 3294 FO
  36   36 3770 3337 FO
  36   36 3939 3406 FO
  36   36 4016 3360 FO
  36   36 3912 3379 FO
  36   36 4089 3400 FO
  36   36 4170 3415 FO
  36   36 4244 3434 FO
  36   36 4329 3460 FO
  36   36 4531 3412 FO
gs 899 324 5357 3522 rc
gr

/c8 { 1.000000 0.000000 0.000000 sr} bdef
c8
  36   36  930  375 FO
  36   36  933  427 FO
  36   36  943  461 FO
  36   36  928  445 FO
  36   36  936  522 FO
  36   36  939  531 FO
  36   36  972  675 FO
  36   36 1007  860 FO
  36   36 1028  902 FO
  36   36 1009  823 FO
  36   36 1045  963 FO
  36   36 1022  872 FO
  36   36 1004  830 FO
  36   36 1038  914 FO
  36   36 1024  938 FO
  36   36 1064  954 FO
  36   36 1085 1097 FO
  36   36 1040 2210 FO
  36   36 1109 1132 FO
  36   36 1136 1240 FO
  36   36 1166 1361 FO
  36   36 1199 1485 FO
  36   36 1217 1480 FO
  36   36 1229 1595 FO
  36   36 1237 1499 FO
  36   36 1257 1615 FO
  36   36 1271 1686 FO
  36   36 1301 1695 FO
  36   36 1316 1623 FO
  36   36 1393 1830 FO
  36   36 1432 1969 FO
  36   36 1413 1937 FO
  36   36 1341 1733 FO
  36   36 1422 1874 FO
  36   36 1463 1930 FO
  36   36 1444 1973 FO
  36   36 1442 1936 FO
  36   36 1484 1988 FO
  36   36 1464 1932 FO
  36   36 1592 2091 FO
  36   36 1567 2054 FO
  36   36 1679 2192 FO
  36   36 1782 2391 FO
  36   36 1793 2326 FO
  36   36 1620 2211 FO
  36   36 1741 2321 FO
  36   36 1852 2418 FO
  36   36 1863 2418 FO
  36   36 1925 2347 FO
  36   36 1933 2467 FO
  36   36 1711 2224 FO
  36   36 1819 2378 FO
  36   36 1829 2372 FO
  36   36 1972 2456 FO
  36   36 1985 2498 FO
  36   36 2054 2588 FO
  36   36 2063 2557 FO
  36   36 2208 2609 FO
  36   36 2201 2669 FO
  36   36 2129 2602 FO
  36   36 2207 2609 FO
  36   36 2217 2640 FO
  36   36 2381 2690 FO
  36   36 2374 2711 FO
  36   36 2589 2789 FO
  36   36 2222 2571 FO
  36   36 2232 2581 FO
  36   36 2399 2742 FO
  36   36 2391 2754 FO
  36   36 2609 2872 FO
  36   36 2318 2649 FO
  36   36 2495 2664 FO
  36   36 2487 2792 FO
  36   36 2718 2880 FO
  36   36 2816 2929 FO
  36   36 2507 2744 FO
  36   36 2499 2785 FO
  36   36 2732 2897 FO
  36   36 2831 2957 FO
  36   36 2698 2860 FO
  36   36 2961 3030 FO
  36   36 3071 3024 FO
  36   36 3179 3112 FO
  36   36 3289 3036 FO
  36   36 3430 3188 FO
  36   36 2950 2938 FO
  36   36 3060 3043 FO
  36   36 3167 3072 FO
  36   36 3277 3099 FO
  36   36 3417 3143 FO
  36   36 3376 3115 FO
  36   36 3498 3106 FO
  36   36 3624 3184 FO
  36   36 3784 3125 FO
  36   36 3858 3180 FO
  36   36 3638 3110 FO
  36   36 3770 3167 FO
  36   36 3939 3248 FO
  36   36 4016 3191 FO
  36   36 3912 3209 FO
  36   36 4089 3258 FO
  36   36 4170 3267 FO
  36   36 4244 3273 FO
  36   36 4329 3323 FO
  36   36 4531 3282 FO
gs 899 324 5357 3522 rc
gr

0 j
0 -58 -58 0 0 58 58 0 901 2582 5 MP
/c9 { 1.000000 0.500000 0.000000 sr} bdef
c9
DP
0 -58 -58 0 0 58 58 0 904 2844 5 MP
DP
0 -58 -58 0 0 58 58 0 914 2595 5 MP
DP
0 -58 -58 0 0 58 58 0 899 2865 5 MP
DP
0 -58 -58 0 0 58 58 0 907 2447 5 MP
DP
0 -58 -58 0 0 58 58 0 910 3595 5 MP
DP
0 -58 -58 0 0 58 58 0 943 3142 5 MP
DP
0 -58 -58 0 0 58 58 0 978 3038 5 MP
DP
0 -58 -58 0 0 58 58 0 999 1721 5 MP
DP
0 -58 -58 0 0 58 58 0 980 2639 5 MP
DP
0 -58 -58 0 0 58 58 0 1016 2895 5 MP
DP
0 -58 -58 0 0 58 58 0 993 3077 5 MP
DP
0 -58 -58 0 0 58 58 0 975 2808 5 MP
DP
0 -58 -58 0 0 58 58 0 1009 3491 5 MP
DP
0 -58 -58 0 0 58 58 0 995 1692 5 MP
DP
0 -58 -58 0 0 58 58 0 1035 2238 5 MP
DP
0 -58 -58 0 0 58 58 0 1056 1575 5 MP
DP
0 -58 -58 0 0 58 58 0 1011 2482 5 MP
DP
0 -58 -58 0 0 58 58 0 1080 1867 5 MP
DP
0 -58 -58 0 0 58 58 0 1107 2385 5 MP
DP
0 -58 -58 0 0 58 58 0 1137 2569 5 MP
DP
0 -58 -58 0 0 58 58 0 1170 2523 5 MP
DP
0 -58 -58 0 0 58 58 0 1188 2168 5 MP
DP
0 -58 -58 0 0 58 58 0 1200 3121 5 MP
DP
0 -58 -58 0 0 58 58 0 1208 2608 5 MP
DP
0 -58 -58 0 0 58 58 0 1228 2787 5 MP
DP
0 -58 -58 0 0 58 58 0 1242 2895 5 MP
DP
0 -58 -58 0 0 58 58 0 1272 2312 5 MP
DP
0 -58 -58 0 0 58 58 0 1287 2004 5 MP
DP
0 -58 -58 0 0 58 58 0 1364 1455 5 MP
DP
0 -58 -58 0 0 58 58 0 1403 2790 5 MP
DP
0 -58 -58 0 0 58 58 0 1384 2752 5 MP
DP
0 -58 -58 0 0 58 58 0 1312 1891 5 MP
DP
0 -58 -58 0 0 58 58 0 1393 1744 5 MP
DP
0 -58 -58 0 0 58 58 0 1434 1371 5 MP
DP
0 -58 -58 0 0 58 58 0 1415 2687 5 MP
DP
0 -58 -58 0 0 58 58 0 1413 1750 5 MP
DP
0 -58 -58 0 0 58 58 0 1455 2396 5 MP
DP
0 -58 -58 0 0 58 58 0 1435 1891 5 MP
DP
0 -58 -58 0 0 58 58 0 1563 538 5 MP
DP
0 -58 -58 0 0 58 58 0 1538 2273 5 MP
DP
0 -58 -58 0 0 58 58 0 1650 2031 5 MP
DP
0 -58 -58 0 0 58 58 0 1753 1253 5 MP
DP
gs 899 324 5357 3522 rc
gr

0 -58 -58 0 0 58 58 0 1591 2368 5 MP
DP
0 -58 -58 0 0 58 58 0 1712 2609 5 MP
DP
0 -58 -58 0 0 58 58 0 1823 1488 5 MP
DP
gs 899 324 5357 3522 rc
gr

0 -58 -58 0 0 58 58 0 1896 359 5 MP
DP
0 -58 -58 0 0 58 58 0 1904 930 5 MP
DP
0 -58 -58 0 0 58 58 0 1682 1461 5 MP
DP
0 -58 -58 0 0 58 58 0 1790 1498 5 MP
DP
0 -58 -58 0 0 58 58 0 1800 1895 5 MP
DP
0 -58 -58 0 0 58 58 0 1943 382 5 MP
DP
0 -58 -58 0 0 58 58 0 1956 1181 5 MP
DP
0 -58 -58 0 0 58 58 0 2025 1727 5 MP
DP
0 -58 -58 0 0 58 58 0 2034 1095 5 MP
DP
0 -58 -58 0 0 58 58 0 2179 890 5 MP
DP
0 -58 -58 0 0 58 58 0 2172 1373 5 MP
DP
0 -58 -58 0 0 58 58 0 2100 809 5 MP
DP
0 -58 -58 0 0 58 58 0 2178 466 5 MP
DP
0 -58 -58 0 0 58 58 0 2188 563 5 MP
DP
0 -58 -58 0 0 58 58 0 2352 673 5 MP
DP
0 -58 -58 0 0 58 58 0 2345 1162 5 MP
DP
gs 899 324 5357 3522 rc
gr

0 -58 -58 0 0 58 58 0 2370 687 5 MP
DP
gs 899 324 5357 3522 rc
gr

0 -58 -58 0 0 58 58 0 2289 708 5 MP
DP
gs 899 324 5357 3522 rc
gr

0 -58 -58 0 0 58 58 0 2787 881 5 MP
DP
0 -58 -58 0 0 58 58 0 2478 977 5 MP
DP
0 -58 -58 0 0 58 58 0 2470 355 5 MP
DP
0 -58 -58 0 0 58 58 0 2703 372 5 MP
DP
gs 899 324 5357 3522 rc
gr

0 -58 -58 0 0 58 58 0 2669 560 5 MP
DP
gs 899 324 5357 3522 rc
gr

0 -58 -58 0 0 58 58 0 3150 1020 5 MP
DP
0 -58 -58 0 0 58 58 0 3260 455 5 MP
DP
0 -58 -58 0 0 58 58 0 3401 1862 5 MP
DP
gs 899 324 5357 3522 rc
gr

0 -58 -58 0 0 58 58 0 3138 534 5 MP
DP
0 -58 -58 0 0 58 58 0 3248 727 5 MP
DP
0 -58 -58 0 0 58 58 0 3388 653 5 MP
DP
gs 899 324 5357 3522 rc
gr

0 -58 -58 0 0 58 58 0 3469 575 5 MP
DP
gs 899 324 5357 3522 rc
gr

0 -58 -58 0 0 58 58 0 3755 629 5 MP
DP
0 -58 -58 0 0 58 58 0 3829 492 5 MP
DP
gs 899 324 5357 3522 rc
gr

0 -58 -58 0 0 58 58 0 3910 980 5 MP
DP
gs 899 324 5357 3522 rc
gr

0 -58 -58 0 0 58 58 0 4060 1379 5 MP
DP
0 -58 -58 0 0 58 58 0 4141 1337 5 MP
DP
0 -58 -58 0 0 58 58 0 4215 1375 5 MP
DP
0 -58 -58 0 0 58 58 0 4300 1431 5 MP
DP
0 -58 -58 0 0 58 58 0 4502 635 5 MP
DP
gs 899 324 5357 3522 rc
gr

0 sg
2882 4133 mt 
(Geometric mean rate \(Hz\)) s
 616 2378 mt  -90 rotate
(Correlation) s
90 rotate
 882 3888 mt 
( ) s
6239  366 mt 
( ) s
5398 3304 mt 
(V) s
%%IncludeResource: font Helvetica
/Helvetica /ISOLatin1Encoding 96 FMSR

5478 3364 mt 
(m) s
%%IncludeResource: font Helvetica
/Helvetica /ISOLatin1Encoding 120 FMSR

5557 3304 mt 
( correlation) s
gs 4944 3188 1252 599 rc
gs 5115 3237 147 147 rc
  36   36 5188 3310 FO
gr

gr

5398 3542 mt 
(I correlation) s
gs 4944 3188 1252 599 rc
gs 5115 3426 147 147 rc
c8
  36   36 5188 3499 FO
gr

c8
gr

c8
0 sg
%%IncludeResource: font Symbol
/Symbol /ISOLatin1Encoding 120 FMSR

5398 3665 mt 
(r) s
%%IncludeResource: font Helvetica
/Helvetica /ISOLatin1Encoding 96 FMSR

5463 3725 mt 
(ij) s
gs 4944 3188 1252 599 rc
gs 5115 3602 147 147 rc
0 -58 -58 0 0 58 58 0 5159 3646 5 MP
c9
DP
gr

c9
gr

c9

end %%Color Dict

eplot
%%EndObject

epage
end

showpage

%%Trailer
%%EOF
