%!PS-Adobe-3.0 EPSF-3.0
%%Creator: MATLAB, The MathWorks, Inc. Version 7.14.0.739 (R2012a). Operating System: Linux 2.6.33.7.2-rt30-rt #1 SMP PREEMPT RT Tue Apr 17 15:22:21 CEST 2012 x86_64.
%%Title: ./LIF_simple_correlations_cc_20140527232903.eps
%%CreationDate: 05/27/2014  23:29:14
%%DocumentNeededFonts: Helvetica
%%DocumentProcessColors: Cyan Magenta Yellow Black
%%LanguageLevel: 2
%%Pages: 1
%%BoundingBox:    40    11   533   342
%%EndComments

%%BeginProlog
% MathWorks dictionary
/MathWorks 160 dict begin
% definition operators
/bdef {bind def} bind def
/ldef {load def} bind def
/xdef {exch def} bdef
/xstore {exch store} bdef
% operator abbreviations
/c  /clip ldef
/cc /concat ldef
/cp /closepath ldef
/gr /grestore ldef
/gs /gsave ldef
/mt /moveto ldef
/np /newpath ldef
/cm /currentmatrix ldef
/sm /setmatrix ldef
/rm /rmoveto ldef
/rl /rlineto ldef
/s {show newpath} bdef
/sc {setcmykcolor} bdef
/sr /setrgbcolor ldef
/sg /setgray ldef
/w /setlinewidth ldef
/j /setlinejoin ldef
/cap /setlinecap ldef
/rc {rectclip} bdef
/rf {rectfill} bdef
% page state control
/pgsv () def
/bpage {/pgsv save def} bdef
/epage {pgsv restore} bdef
/bplot /gsave ldef
/eplot {stroke grestore} bdef
% orientation switch
/portraitMode 0 def /landscapeMode 1 def /rotateMode 2 def
% coordinate system mappings
/dpi2point 0 def
% font control
/FontSize 0 def
/FMS {/FontSize xstore findfont [FontSize 0 0 FontSize neg 0 0]
  makefont setfont} bdef
/reencode {exch dup where {pop load} {pop StandardEncoding} ifelse
  exch dup 3 1 roll findfont dup length dict begin
  { 1 index /FID ne {def}{pop pop} ifelse } forall
  /Encoding exch def currentdict end definefont pop} bdef
/isroman {findfont /CharStrings get /Agrave known} bdef
/FMSR {3 1 roll 1 index dup isroman {reencode} {pop pop} ifelse
  exch FMS} bdef
/csm {1 dpi2point div -1 dpi2point div scale neg translate
 dup landscapeMode eq {pop -90 rotate}
  {rotateMode eq {90 rotate} if} ifelse} bdef
% line types: solid, dotted, dashed, dotdash
/SO { [] 0 setdash } bdef
/DO { [.5 dpi2point mul 4 dpi2point mul] 0 setdash } bdef
/DA { [6 dpi2point mul] 0 setdash } bdef
/DD { [.5 dpi2point mul 4 dpi2point mul 6 dpi2point mul 4
  dpi2point mul] 0 setdash } bdef
% macros for lines and objects
/L {lineto stroke} bdef
/MP {3 1 roll moveto 1 sub {rlineto} repeat} bdef
/AP {{rlineto} repeat} bdef
/PDlw -1 def
/W {/PDlw currentlinewidth def setlinewidth} def
/PP {closepath eofill} bdef
/DP {closepath stroke} bdef
/MR {4 -2 roll moveto dup  0 exch rlineto exch 0 rlineto
  neg 0 exch rlineto closepath} bdef
/FR {MR stroke} bdef
/PR {MR fill} bdef
/L1i {{currentfile picstr readhexstring pop} image} bdef
/tMatrix matrix def
/MakeOval {newpath tMatrix currentmatrix pop translate scale
0 0 1 0 360 arc tMatrix setmatrix} bdef
/FO {MakeOval stroke} bdef
/PO {MakeOval fill} bdef
/PD {currentlinewidth 2 div 0 360 arc fill
   PDlw -1 eq not {PDlw w /PDlw -1 def} if} def
/FA {newpath tMatrix currentmatrix pop translate scale
  0 0 1 5 -2 roll arc tMatrix setmatrix stroke} bdef
/PA {newpath tMatrix currentmatrix pop	translate 0 0 moveto scale
  0 0 1 5 -2 roll arc closepath tMatrix setmatrix fill} bdef
/FAn {newpath tMatrix currentmatrix pop translate scale
  0 0 1 5 -2 roll arcn tMatrix setmatrix stroke} bdef
/PAn {newpath tMatrix currentmatrix pop translate 0 0 moveto scale
  0 0 1 5 -2 roll arcn closepath tMatrix setmatrix fill} bdef
/vradius 0 def /hradius 0 def /lry 0 def
/lrx 0 def /uly 0 def /ulx 0 def /rad 0 def
/MRR {/vradius xdef /hradius xdef /lry xdef /lrx xdef /uly xdef
  /ulx xdef newpath tMatrix currentmatrix pop ulx hradius add uly
  vradius add translate hradius vradius scale 0 0 1 180 270 arc 
  tMatrix setmatrix lrx hradius sub uly vradius add translate
  hradius vradius scale 0 0 1 270 360 arc tMatrix setmatrix
  lrx hradius sub lry vradius sub translate hradius vradius scale
  0 0 1 0 90 arc tMatrix setmatrix ulx hradius add lry vradius sub
  translate hradius vradius scale 0 0 1 90 180 arc tMatrix setmatrix
  closepath} bdef
/FRR {MRR stroke } bdef
/PRR {MRR fill } bdef
/MlrRR {/lry xdef /lrx xdef /uly xdef /ulx xdef /rad lry uly sub 2 div def
  newpath tMatrix currentmatrix pop ulx rad add uly rad add translate
  rad rad scale 0 0 1 90 270 arc tMatrix setmatrix lrx rad sub lry rad
  sub translate rad rad scale 0 0 1 270 90 arc tMatrix setmatrix
  closepath} bdef
/FlrRR {MlrRR stroke } bdef
/PlrRR {MlrRR fill } bdef
/MtbRR {/lry xdef /lrx xdef /uly xdef /ulx xdef /rad lrx ulx sub 2 div def
  newpath tMatrix currentmatrix pop ulx rad add uly rad add translate
  rad rad scale 0 0 1 180 360 arc tMatrix setmatrix lrx rad sub lry rad
  sub translate rad rad scale 0 0 1 0 180 arc tMatrix setmatrix
  closepath} bdef
/FtbRR {MtbRR stroke } bdef
/PtbRR {MtbRR fill } bdef
/stri 6 array def /dtri 6 array def
/smat 6 array def /dmat 6 array def
/tmat1 6 array def /tmat2 6 array def /dif 3 array def
/asub {/ind2 exch def /ind1 exch def dup dup
  ind1 get exch ind2 get sub exch } bdef
/tri_to_matrix {
  2 0 asub 3 1 asub 4 0 asub 5 1 asub
  dup 0 get exch 1 get 7 -1 roll astore } bdef
/compute_transform {
  dmat dtri tri_to_matrix tmat1 invertmatrix 
  smat stri tri_to_matrix tmat2 concatmatrix } bdef
/ds {stri astore pop} bdef
/dt {dtri astore pop} bdef
/db {2 copy /cols xdef /rows xdef mul dup 3 mul string
  currentfile 
  3 index 0 eq {/ASCIIHexDecode filter}
  {/ASCII85Decode filter 3 index 2 eq {/RunLengthDecode filter} if }
  ifelse exch readstring pop
  dup 0 3 index getinterval /rbmap xdef
  dup 2 index dup getinterval /gbmap xdef
  1 index dup 2 mul exch getinterval /bbmap xdef pop pop}bdef
/it {gs np dtri aload pop moveto lineto lineto cp c
  cols rows 8 compute_transform 
  rbmap gbmap bbmap true 3 colorimage gr}bdef
/il {newpath moveto lineto stroke}bdef
currentdict end def
%%EndProlog

%%BeginSetup
MathWorks begin

0 cap

end
%%EndSetup

%%Page: 1 1
%%BeginPageSetup
%%PageBoundingBox:    40    11   533   342
MathWorks begin
bpage
%%EndPageSetup

%%BeginObject: obj1
bplot

/dpi2point 12 def
portraitMode 0000 4320 csm

  480   209  5924  3976 rc
76 dict begin %Colortable dictionary
/c0 { 0.000000 0.000000 0.000000 sr} bdef
/c1 { 1.000000 1.000000 1.000000 sr} bdef
/c2 { 0.900000 0.000000 0.000000 sr} bdef
/c3 { 0.000000 0.820000 0.000000 sr} bdef
/c4 { 0.000000 0.000000 0.800000 sr} bdef
/c5 { 0.910000 0.820000 0.320000 sr} bdef
/c6 { 1.000000 0.260000 0.820000 sr} bdef
/c7 { 0.000000 0.820000 0.820000 sr} bdef
c0
1 j
1 sg
   0    0 6913 4321 rf
6 w
0 3521 5356 0 0 -3521 899 3845 4 MP
PP
-5356 0 0 3521 5356 0 0 -3521 899 3845 5 MP stroke
4 w
DO
SO
6 w
0 sg
 899 3845 mt 6255 3845 L
 899 3845 mt  899  324 L
 899 3845 mt  899 3791 L
%%IncludeResource: font Helvetica
/Helvetica /ISOLatin1Encoding 120 FMSR

 866 3990 mt 
(0) s
1970 3845 mt 1970 3791 L
1904 3990 mt 
(20) s
3041 3845 mt 3041 3791 L
2975 3990 mt 
(40) s
4112 3845 mt 4112 3791 L
4046 3990 mt 
(60) s
5183 3845 mt 5183 3791 L
5117 3990 mt 
(80) s
6255 3845 mt 6255 3791 L
6155 3990 mt 
(100) s
 899 3845 mt  952 3845 L
 798 3889 mt 
(0) s
 899 3140 mt  952 3140 L
 698 3184 mt 
(0.1) s
 899 2436 mt  952 2436 L
 698 2480 mt 
(0.2) s
 899 1732 mt  952 1732 L
 698 1776 mt 
(0.3) s
 899 1028 mt  952 1028 L
 698 1072 mt 
(0.4) s
 899  324 mt  952  324 L
 698  368 mt 
(0.5) s
gs 899 324 5357 3522 rc
gr

gs 871 465 5435 2715 rc
0.6 sg
  24   24  920 3130 PO
  24   24  931 2975 PO
  24   24  946 2798 PO
  24   24  966 2709 PO
  24   24  978 2644 PO
  24   24  993 2598 PO
  24   24 1008 2508 PO
  24   24 1028 2402 PO
  24   24 1048 2359 PO
  24   24 1072 2232 PO
  24   24 1096 2193 PO
  24   24 1127 2164 PO
  24   24 1156 2076 PO
  24   24 1192 1969 PO
  24   24 1226 1937 PO
  24   24 1259 1957 PO
  24   24 1268 1880 PO
  24   24 1306 1804 PO
  24   24 1345 1804 PO
  24   24 1352 1779 PO
  24   24 1396 1707 PO
  24   24 1439 1741 PO
  24   24 1480 1673 PO
  24   24 1447 1660 PO
  24   24 1495 1646 PO
  24   24 1540 1585 PO
  24   24 1586 1602 PO
  24   24 1552 1601 PO
  24   24 1601 1563 PO
  24   24 1651 1547 PO
  24   24 1701 1498 PO
  24   24 1662 1516 PO
  24   24 1717 1483 PO
  24   24 1771 1450 PO
  24   24 1823 1454 PO
  24   24 1873 1402 PO
  24   24 1779 1454 PO
  24   24 1836 1389 PO
  24   24 1892 1374 PO
  24   24 1947 1363 PO
  24   24 1998 1328 PO
  24   24 2049 1366 PO
  24   24 1904 1337 PO
  24   24 1964 1338 PO
  24   24 2022 1320 PO
  24   24 2077 1240 PO
  24   24 2132 1305 PO
  24   24 2185 1282 PO
  24   24 2034 1253 PO
  24   24 2096 1256 PO
  24   24 2155 1226 PO
  24   24 2213 1240 PO
  24   24 2269 1205 PO
  24   24 2324 1207 PO
  24   24 2376 1192 PO
  24   24 2167 1256 PO
  24   24 2230 1201 PO
  24   24 2292 1186 PO
  24   24 2351 1163 PO
  24   24 2409 1163 PO
  24   24 2464 1145 PO
  24   24 2518 1159 PO
  24   24 2570 1118 PO
  24   24 2303 1145 PO
  24   24 2368 1179 PO
  24   24 2430 1129 PO
  24   24 2491 1140 PO
  24   24 2549 1152 PO
  24   24 2607 1074 PO
  24   24 2661 1070 PO
  24   24 2715 1084 PO
  24   24 2768 1044 PO
  24   24 2440 1097 PO
  24   24 2506 1121 PO
  24   24 2570 1093 PO
  24   24 2631 1054 PO
  24   24 2691 1079 PO
  24   24 2748 1053 PO
  24   24 2804 1055 PO
  24   24 2860 1022 PO
  24   24 2912 1007 PO
  24   24 2963 1014 PO
  24   24 2580 1085 PO
  24   24 2647 1078 PO
  24   24 2711 1057 PO
  24   24 2774 1007 PO
  24   24 2834 1027 PO
  24   24 2893 1060 PO
  24   24 2951 1047 PO
  24   24 3005 1036 PO
  24   24 3059 1020 PO
  24   24 3113  967 PO
  24   24 3162  961 PO
  24   24 2722 1045 PO
  24   24 2788 1020 PO
  24   24 2854 1003 PO
  24   24 2916  984 PO
  24   24 2978  994 PO
  24   24 3038 1025 PO
  24   24 3095  996 PO
  24   24 3151  978 PO
  24   24 3207  923 PO
  24   24 3259  950 PO
  24   24 3310  936 PO
  24   24 3360  954 PO
  24   24 2863 1036 PO
  24   24 2932 1047 PO
  24   24 2997 1009 PO
  24   24 3060  980 PO
  24   24 3123  963 PO
  24   24 3182  963 PO
  24   24 3240  999 PO
  24   24 3299  956 PO
  24   24 3353  904 PO
  24   24 3406  937 PO
  24   24 3458  910 PO
  24   24 3510  907 PO
  24   24 3561  902 PO
  24   24 3006  970 PO
  24   24 3073  980 PO
  24   24 3139  944 PO
  24   24 3204  925 PO
  24   24 3265  966 PO
  24   24 3326  942 PO
  24   24 3386  933 PO
  24   24 3442  880 PO
  24   24 3497  866 PO
  24   24 3551  865 PO
  24   24 3606  937 PO
  24   24 3658  832 PO
  24   24 3709  857 PO
  24   24 3759  931 PO
  24   24 3149  930 PO
  24   24 3217  903 PO
  24   24 3284  880 PO
  24   24 3347  930 PO
  24   24 3410  930 PO
  24   24 3472  874 PO
  24   24 3530  869 PO
  24   24 3588  827 PO
  24   24 3644  872 PO
  24   24 3700  871 PO
  24   24 3754  849 PO
  24   24 3807  824 PO
  24   24 3859  866 PO
  24   24 3909  885 PO
  24   24 3959  820 PO
  24   24 3291  888 PO
  24   24 3361  881 PO
  24   24 3426  865 PO
  24   24 3490  911 PO
  24   24 3555  875 PO
  24   24 3614  844 PO
  24   24 3674  819 PO
  24   24 3731  806 PO
  24   24 3789  831 PO
  24   24 3846  799 PO
  24   24 3900  824 PO
  24   24 3954  794 PO
  24   24 4005  836 PO
  24   24 4057  761 PO
  24   24 4108  814 PO
  24   24 4158  805 PO
  24   24 3436  862 PO
  24   24 3502  856 PO
  24   24 3569  921 PO
  24   24 3635  809 PO
  24   24 3697  801 PO
  24   24 3758  783 PO
  24   24 3817  850 PO
  24   24 3877  844 PO
  24   24 3935  788 PO
  24   24 3991  760 PO
  24   24 4046  809 PO
  24   24 4100  770 PO
  24   24 4153  805 PO
  24   24 4205  741 PO
  24   24 4257  780 PO
  24   24 4307  804 PO
  24   24 4356  772 PO
  24   24 3578  858 PO
  24   24 3647  853 PO
  24   24 3715  881 PO
  24   24 3778  836 PO
  24   24 3841  808 PO
  24   24 3903  803 PO
  24   24 3964  811 PO
  24   24 4024  791 PO
  24   24 4081  740 PO
  24   24 4138  821 PO
  24   24 4193  807 PO
  24   24 4248  757 PO
  24   24 4302  658 PO
  24   24 4355  765 PO
  24   24 4407  816 PO
  24   24 4457  735 PO
  24   24 4507  714 PO
  24   24 4557  745 PO
  24   24 3719  895 PO
  24   24 3789  765 PO
  24   24 3854  762 PO
  24   24 3919  796 PO
  24   24 3982  795 PO
  24   24 4045  756 PO
  24   24 4106  803 PO
  24   24 4165  746 PO
  24   24 4223  814 PO
  24   24 4280  810 PO
  24   24 4336  793 PO
  24   24 4391  719 PO
  24   24 4446  840 PO
  24   24 4499  779 PO
  24   24 4551  752 PO
  24   24 4602  742 PO
  24   24 4653  728 PO
  24   24 4703  683 PO
  24   24 4752  643 PO
  24   24 3863  839 PO
  24   24 3930  795 PO
  24   24 3996  775 PO
  24   24 4060  794 PO
  24   24 4125  777 PO
  24   24 4188  731 PO
  24   24 4248  729 PO
  24   24 4308  779 PO
  24   24 4366  784 PO
  24   24 4424  712 PO
  24   24 4480  714 PO
  24   24 4536  722 PO
  24   24 4591  809 PO
  24   24 4644  756 PO
  24   24 4697  748 PO
  24   24 4749  756 PO
  24   24 4800  674 PO
  24   24 4850  680 PO
  24   24 4900  746 PO
  24   24 4005  706 PO
  24   24 4073  763 PO
  24   24 4139  721 PO
  24   24 4205  739 PO
  24   24 4270  724 PO
  24   24 4332  753 PO
  24   24 4393  727 PO
  24   24 4452  703 PO
  24   24 4512  687 PO
  24   24 4570  699 PO
  24   24 4627  662 PO
  24   24 4683  743 PO
  24   24 4737  680 PO
  24   24 4791  668 PO
  24   24 4845  681 PO
  24   24 4897  661 PO
  24   24 4949  688 PO
  24   24 4999  667 PO
  24   24 4145  688 PO
  24   24 4212  750 PO
  24   24 4280  742 PO
  24   24 4346  706 PO
  24   24 4409  721 PO
  24   24 4472  682 PO
  24   24 4532  718 PO
  24   24 4593  678 PO
  24   24 4652  628 PO
  24   24 4710  701 PO
  24   24 4768  700 PO
  24   24 4824  675 PO
  24   24 4879  671 PO
  24   24 4933  629 PO
  24   24 4987  688 PO
  24   24 5040  654 PO
  24   24 5091  667 PO
  24   24 4284  742 PO
  24   24 4354  707 PO
  24   24 4421  681 PO
  24   24 4486  741 PO
  24   24 4550  694 PO
  24   24 4612  728 PO
  24   24 4674  644 PO
  24   24 4734  667 PO
  24   24 4794  712 PO
  24   24 4853  681 PO
  24   24 4909  649 PO
  24   24 4966  644 PO
  24   24 5022  621 PO
  24   24 5076  663 PO
  24   24 5130  638 PO
  24   24 5183  661 PO
  24   24 4425  720 PO
  24   24 4494  720 PO
  24   24 4560  693 PO
  24   24 4626  797 PO
  24   24 4689  689 PO
  24   24 4752  692 PO
  24   24 4814  632 PO
  24   24 4875  680 PO
  24   24 4935  709 PO
  24   24 4993  699 PO
  24   24 5051  636 PO
  24   24 5107  586 PO
  24   24 5163  632 PO
  24   24 5218  639 PO
  24   24 5272  712 PO
  24   24 4568  728 PO
  24   24 4635  724 PO
  24   24 4702  733 PO
  24   24 4766  718 PO
  24   24 4831  686 PO
  24   24 4894  647 PO
  24   24 4956  712 PO
  24   24 5017  652 PO
  24   24 5076  685 PO
  24   24 5135  640 PO
  24   24 5193  716 PO
  24   24 5250  656 PO
  24   24 5306  658 PO
  24   24 5361  640 PO
  24   24 4708  618 PO
  24   24 4776  643 PO
  24   24 4842  630 PO
  24   24 4908  640 PO
  24   24 4972  557 PO
  24   24 5035  609 PO
  24   24 5098  624 PO
  24   24 5158  621 PO
  24   24 5218  631 PO
  24   24 5277  602 PO
  24   24 5335  695 PO
  24   24 5392  587 PO
  24   24 5448  613 PO
  24   24 4847  641 PO
  24   24 4914  673 PO
  24   24 4981  588 PO
  24   24 5046  643 PO
  24   24 5111  690 PO
  24   24 5175  699 PO
  24   24 5236  696 PO
  24   24 5297  629 PO
  24   24 5357  651 PO
  24   24 5416  575 PO
  24   24 5475  613 PO
  24   24 5532  669 PO
  24   24 4986  698 PO
  24   24 5054  623 PO
  24   24 5121  661 PO
  24   24 5187  665 PO
  24   24 5251  628 PO
  24   24 5314  670 PO
  24   24 5376  633 PO
  24   24 5437  636 PO
  24   24 5497  646 PO
  24   24 5557  704 PO
  24   24 5615  623 PO
  24   24 5125  672 PO
  24   24 5192  625 PO
  24   24 5259  630 PO
  24   24 5325  678 PO
  24   24 5389  678 PO
  24   24 5452  518 PO
  24   24 5514  573 PO
  24   24 5575  642 PO
  24   24 5636  632 PO
  24   24 5695  604 PO
  24   24 5264  590 PO
  24   24 5332  630 PO
  24   24 5399  638 PO
  24   24 5463  544 PO
  24   24 5528  627 PO
  24   24 5591  628 PO
  24   24 5653  627 PO
  24   24 5715  619 PO
  24   24 5775  574 PO
  24   24 5403  577 PO
  24   24 5471  643 PO
  24   24 5537  550 PO
  24   24 5602  550 PO
  24   24 5666  635 PO
  24   24 5729  607 PO
  24   24 5792  636 PO
  24   24 5853  604 PO
  24   24 5542  616 PO
  24   24 5609  637 PO
  24   24 5675  578 PO
  24   24 5740  641 PO
  24   24 5804  680 PO
  24   24 5868  611 PO
  24   24 5930  648 PO
  24   24 5680  591 PO
  24   24 5747  596 PO
  24   24 5814  619 PO
  24   24 5878  589 PO
  24   24 5943  558 PO
  24   24 6006  630 PO
  24   24 5817  617 PO
  24   24 5884  557 PO
  24   24 5950  608 PO
  24   24 6016  580 PO
  24   24 6079  599 PO
  24   24 5954  541 PO
  24   24 6021  514 PO
  24   24 6088  525 PO
  24   24 6152  575 PO
  24   24 6091  515 PO
  24   24 6159  523 PO
  24   24 6224  535 PO
  24   24 6228  577 PO
  24   24  920 3130 FO
  24   24  931 2975 FO
  24   24  946 2798 FO
  24   24  966 2709 FO
  24   24  978 2644 FO
  24   24  993 2598 FO
  24   24 1008 2508 FO
  24   24 1028 2402 FO
  24   24 1048 2359 FO
  24   24 1072 2232 FO
  24   24 1096 2193 FO
  24   24 1127 2164 FO
  24   24 1156 2076 FO
  24   24 1192 1969 FO
  24   24 1226 1937 FO
  24   24 1259 1957 FO
  24   24 1268 1880 FO
  24   24 1306 1804 FO
  24   24 1345 1804 FO
  24   24 1352 1779 FO
  24   24 1396 1707 FO
  24   24 1439 1741 FO
  24   24 1480 1673 FO
  24   24 1447 1660 FO
  24   24 1495 1646 FO
  24   24 1540 1585 FO
  24   24 1586 1602 FO
  24   24 1552 1601 FO
  24   24 1601 1563 FO
  24   24 1651 1547 FO
  24   24 1701 1498 FO
  24   24 1662 1516 FO
  24   24 1717 1483 FO
  24   24 1771 1450 FO
  24   24 1823 1454 FO
  24   24 1873 1402 FO
  24   24 1779 1454 FO
  24   24 1836 1389 FO
  24   24 1892 1374 FO
  24   24 1947 1363 FO
  24   24 1998 1328 FO
  24   24 2049 1366 FO
  24   24 1904 1337 FO
  24   24 1964 1338 FO
  24   24 2022 1320 FO
  24   24 2077 1240 FO
  24   24 2132 1305 FO
  24   24 2185 1282 FO
  24   24 2034 1253 FO
  24   24 2096 1256 FO
  24   24 2155 1226 FO
  24   24 2213 1240 FO
  24   24 2269 1205 FO
  24   24 2324 1207 FO
  24   24 2376 1192 FO
  24   24 2167 1256 FO
  24   24 2230 1201 FO
  24   24 2292 1186 FO
  24   24 2351 1163 FO
  24   24 2409 1163 FO
  24   24 2464 1145 FO
  24   24 2518 1159 FO
  24   24 2570 1118 FO
  24   24 2303 1145 FO
  24   24 2368 1179 FO
  24   24 2430 1129 FO
  24   24 2491 1140 FO
  24   24 2549 1152 FO
  24   24 2607 1074 FO
  24   24 2661 1070 FO
  24   24 2715 1084 FO
  24   24 2768 1044 FO
  24   24 2440 1097 FO
  24   24 2506 1121 FO
  24   24 2570 1093 FO
  24   24 2631 1054 FO
  24   24 2691 1079 FO
  24   24 2748 1053 FO
  24   24 2804 1055 FO
  24   24 2860 1022 FO
  24   24 2912 1007 FO
  24   24 2963 1014 FO
  24   24 2580 1085 FO
  24   24 2647 1078 FO
  24   24 2711 1057 FO
  24   24 2774 1007 FO
  24   24 2834 1027 FO
  24   24 2893 1060 FO
  24   24 2951 1047 FO
  24   24 3005 1036 FO
  24   24 3059 1020 FO
  24   24 3113  967 FO
  24   24 3162  961 FO
  24   24 2722 1045 FO
  24   24 2788 1020 FO
  24   24 2854 1003 FO
  24   24 2916  984 FO
  24   24 2978  994 FO
  24   24 3038 1025 FO
  24   24 3095  996 FO
  24   24 3151  978 FO
  24   24 3207  923 FO
  24   24 3259  950 FO
  24   24 3310  936 FO
  24   24 3360  954 FO
  24   24 2863 1036 FO
  24   24 2932 1047 FO
  24   24 2997 1009 FO
  24   24 3060  980 FO
  24   24 3123  963 FO
  24   24 3182  963 FO
  24   24 3240  999 FO
  24   24 3299  956 FO
  24   24 3353  904 FO
  24   24 3406  937 FO
  24   24 3458  910 FO
  24   24 3510  907 FO
  24   24 3561  902 FO
  24   24 3006  970 FO
  24   24 3073  980 FO
  24   24 3139  944 FO
  24   24 3204  925 FO
  24   24 3265  966 FO
  24   24 3326  942 FO
  24   24 3386  933 FO
  24   24 3442  880 FO
  24   24 3497  866 FO
  24   24 3551  865 FO
  24   24 3606  937 FO
  24   24 3658  832 FO
  24   24 3709  857 FO
  24   24 3759  931 FO
  24   24 3149  930 FO
  24   24 3217  903 FO
  24   24 3284  880 FO
  24   24 3347  930 FO
  24   24 3410  930 FO
  24   24 3472  874 FO
  24   24 3530  869 FO
  24   24 3588  827 FO
  24   24 3644  872 FO
  24   24 3700  871 FO
  24   24 3754  849 FO
  24   24 3807  824 FO
  24   24 3859  866 FO
  24   24 3909  885 FO
  24   24 3959  820 FO
  24   24 3291  888 FO
  24   24 3361  881 FO
  24   24 3426  865 FO
  24   24 3490  911 FO
  24   24 3555  875 FO
  24   24 3614  844 FO
  24   24 3674  819 FO
  24   24 3731  806 FO
  24   24 3789  831 FO
  24   24 3846  799 FO
  24   24 3900  824 FO
  24   24 3954  794 FO
  24   24 4005  836 FO
  24   24 4057  761 FO
  24   24 4108  814 FO
  24   24 4158  805 FO
  24   24 3436  862 FO
  24   24 3502  856 FO
  24   24 3569  921 FO
  24   24 3635  809 FO
  24   24 3697  801 FO
  24   24 3758  783 FO
  24   24 3817  850 FO
  24   24 3877  844 FO
  24   24 3935  788 FO
  24   24 3991  760 FO
  24   24 4046  809 FO
  24   24 4100  770 FO
  24   24 4153  805 FO
  24   24 4205  741 FO
  24   24 4257  780 FO
  24   24 4307  804 FO
  24   24 4356  772 FO
  24   24 3578  858 FO
  24   24 3647  853 FO
  24   24 3715  881 FO
  24   24 3778  836 FO
  24   24 3841  808 FO
  24   24 3903  803 FO
  24   24 3964  811 FO
  24   24 4024  791 FO
  24   24 4081  740 FO
  24   24 4138  821 FO
  24   24 4193  807 FO
  24   24 4248  757 FO
  24   24 4302  658 FO
  24   24 4355  765 FO
  24   24 4407  816 FO
  24   24 4457  735 FO
  24   24 4507  714 FO
  24   24 4557  745 FO
  24   24 3719  895 FO
  24   24 3789  765 FO
  24   24 3854  762 FO
  24   24 3919  796 FO
  24   24 3982  795 FO
  24   24 4045  756 FO
  24   24 4106  803 FO
  24   24 4165  746 FO
  24   24 4223  814 FO
  24   24 4280  810 FO
  24   24 4336  793 FO
  24   24 4391  719 FO
  24   24 4446  840 FO
  24   24 4499  779 FO
  24   24 4551  752 FO
  24   24 4602  742 FO
  24   24 4653  728 FO
  24   24 4703  683 FO
  24   24 4752  643 FO
  24   24 3863  839 FO
  24   24 3930  795 FO
  24   24 3996  775 FO
  24   24 4060  794 FO
  24   24 4125  777 FO
  24   24 4188  731 FO
  24   24 4248  729 FO
  24   24 4308  779 FO
  24   24 4366  784 FO
  24   24 4424  712 FO
  24   24 4480  714 FO
  24   24 4536  722 FO
  24   24 4591  809 FO
  24   24 4644  756 FO
  24   24 4697  748 FO
  24   24 4749  756 FO
  24   24 4800  674 FO
  24   24 4850  680 FO
  24   24 4900  746 FO
  24   24 4005  706 FO
  24   24 4073  763 FO
  24   24 4139  721 FO
  24   24 4205  739 FO
  24   24 4270  724 FO
  24   24 4332  753 FO
  24   24 4393  727 FO
  24   24 4452  703 FO
  24   24 4512  687 FO
  24   24 4570  699 FO
  24   24 4627  662 FO
  24   24 4683  743 FO
  24   24 4737  680 FO
  24   24 4791  668 FO
  24   24 4845  681 FO
  24   24 4897  661 FO
  24   24 4949  688 FO
  24   24 4999  667 FO
  24   24 4145  688 FO
  24   24 4212  750 FO
  24   24 4280  742 FO
  24   24 4346  706 FO
  24   24 4409  721 FO
  24   24 4472  682 FO
  24   24 4532  718 FO
  24   24 4593  678 FO
  24   24 4652  628 FO
  24   24 4710  701 FO
  24   24 4768  700 FO
  24   24 4824  675 FO
  24   24 4879  671 FO
  24   24 4933  629 FO
  24   24 4987  688 FO
  24   24 5040  654 FO
  24   24 5091  667 FO
  24   24 4284  742 FO
  24   24 4354  707 FO
  24   24 4421  681 FO
  24   24 4486  741 FO
  24   24 4550  694 FO
  24   24 4612  728 FO
  24   24 4674  644 FO
  24   24 4734  667 FO
  24   24 4794  712 FO
  24   24 4853  681 FO
  24   24 4909  649 FO
  24   24 4966  644 FO
  24   24 5022  621 FO
  24   24 5076  663 FO
  24   24 5130  638 FO
  24   24 5183  661 FO
  24   24 4425  720 FO
  24   24 4494  720 FO
  24   24 4560  693 FO
  24   24 4626  797 FO
  24   24 4689  689 FO
  24   24 4752  692 FO
  24   24 4814  632 FO
  24   24 4875  680 FO
  24   24 4935  709 FO
  24   24 4993  699 FO
  24   24 5051  636 FO
  24   24 5107  586 FO
  24   24 5163  632 FO
  24   24 5218  639 FO
  24   24 5272  712 FO
  24   24 4568  728 FO
  24   24 4635  724 FO
  24   24 4702  733 FO
  24   24 4766  718 FO
  24   24 4831  686 FO
  24   24 4894  647 FO
  24   24 4956  712 FO
  24   24 5017  652 FO
  24   24 5076  685 FO
  24   24 5135  640 FO
  24   24 5193  716 FO
  24   24 5250  656 FO
  24   24 5306  658 FO
  24   24 5361  640 FO
  24   24 4708  618 FO
  24   24 4776  643 FO
  24   24 4842  630 FO
  24   24 4908  640 FO
  24   24 4972  557 FO
  24   24 5035  609 FO
  24   24 5098  624 FO
  24   24 5158  621 FO
  24   24 5218  631 FO
  24   24 5277  602 FO
  24   24 5335  695 FO
  24   24 5392  587 FO
  24   24 5448  613 FO
  24   24 4847  641 FO
  24   24 4914  673 FO
  24   24 4981  588 FO
  24   24 5046  643 FO
  24   24 5111  690 FO
  24   24 5175  699 FO
  24   24 5236  696 FO
  24   24 5297  629 FO
  24   24 5357  651 FO
  24   24 5416  575 FO
  24   24 5475  613 FO
  24   24 5532  669 FO
  24   24 4986  698 FO
  24   24 5054  623 FO
  24   24 5121  661 FO
  24   24 5187  665 FO
  24   24 5251  628 FO
  24   24 5314  670 FO
  24   24 5376  633 FO
  24   24 5437  636 FO
  24   24 5497  646 FO
  24   24 5557  704 FO
  24   24 5615  623 FO
  24   24 5125  672 FO
  24   24 5192  625 FO
  24   24 5259  630 FO
  24   24 5325  678 FO
  24   24 5389  678 FO
  24   24 5452  518 FO
  24   24 5514  573 FO
  24   24 5575  642 FO
  24   24 5636  632 FO
  24   24 5695  604 FO
  24   24 5264  590 FO
  24   24 5332  630 FO
  24   24 5399  638 FO
  24   24 5463  544 FO
  24   24 5528  627 FO
  24   24 5591  628 FO
  24   24 5653  627 FO
  24   24 5715  619 FO
  24   24 5775  574 FO
  24   24 5403  577 FO
  24   24 5471  643 FO
  24   24 5537  550 FO
  24   24 5602  550 FO
  24   24 5666  635 FO
  24   24 5729  607 FO
  24   24 5792  636 FO
  24   24 5853  604 FO
  24   24 5542  616 FO
  24   24 5609  637 FO
  24   24 5675  578 FO
  24   24 5740  641 FO
  24   24 5804  680 FO
  24   24 5868  611 FO
  24   24 5930  648 FO
  24   24 5680  591 FO
  24   24 5747  596 FO
  24   24 5814  619 FO
  24   24 5878  589 FO
  24   24 5943  558 FO
  24   24 6006  630 FO
  24   24 5817  617 FO
  24   24 5884  557 FO
  24   24 5950  608 FO
  24   24 6016  580 FO
  24   24 6079  599 FO
  24   24 5954  541 FO
  24   24 6021  514 FO
  24   24 6088  525 FO
  24   24 6152  575 FO
  24   24 6091  515 FO
  24   24 6159  523 FO
  24   24 6224  535 FO
  24   24 6228  577 FO
gr

0.6 sg
gs 899 324 5357 3522 rc
0 sg
0 381 1032 2265 2 MP stroke
113 0 976 2265 2 MP stroke
113 0 976 2646 2 MP stroke
0 207 1193 1894 2 MP stroke
112 0 1137 1894 2 MP stroke
112 0 1137 2101 2 MP stroke
0 93 1354 1727 2 MP stroke
112 0 1298 1727 2 MP stroke
112 0 1298 1820 2 MP stroke
0 108 1514 1590 2 MP stroke
113 0 1458 1590 2 MP stroke
113 0 1458 1698 2 MP stroke
0 66 1675 1489 2 MP stroke
112 0 1619 1489 2 MP stroke
112 0 1619 1555 2 MP stroke
0 91 1836 1363 2 MP stroke
112 0 1780 1363 2 MP stroke
112 0 1780 1454 2 MP stroke
0 82 1996 1287 2 MP stroke
113 0 1940 1287 2 MP stroke
113 0 1940 1369 2 MP stroke
0 65 2157 1218 2 MP stroke
112 0 2101 1218 2 MP stroke
112 0 2101 1283 2 MP stroke
0 45 2318 1160 2 MP stroke
112 0 2262 1160 2 MP stroke
112 0 2262 1205 2 MP stroke
0 43 2479 1117 2 MP stroke
113 0 2422 1117 2 MP stroke
113 0 2422 1160 2 MP stroke
0 36 2639 1061 2 MP stroke
112 0 2583 1061 2 MP stroke
112 0 2583 1097 2 MP stroke
0 37 2800 1013 2 MP stroke
112 0 2744 1013 2 MP stroke
112 0 2744 1050 2 MP stroke
0 57 2961 989 2 MP stroke
113 0 2904 989 2 MP stroke
113 0 2904 1046 2 MP stroke
0 48 3121 947 2 MP stroke
112 0 3065 947 2 MP stroke
112 0 3065 995 2 MP stroke
0 68 3282 895 2 MP stroke
112 0 3226 895 2 MP stroke
112 0 3226 963 2 MP stroke
0 61 3443 864 2 MP stroke
113 0 3386 864 2 MP stroke
113 0 3386 925 2 MP stroke
0 75 3603 826 2 MP stroke
113 0 3547 826 2 MP stroke
113 0 3547 901 2 MP stroke
0 88 3764 795 2 MP stroke
112 0 3708 795 2 MP stroke
112 0 3708 883 2 MP stroke
0 68 3925 775 2 MP stroke
113 0 3868 775 2 MP stroke
113 0 3868 843 2 MP stroke
0 81 4085 733 2 MP stroke
113 0 4029 733 2 MP stroke
113 0 4029 814 2 MP stroke
0 82 4246 716 2 MP stroke
112 0 4190 716 2 MP stroke
112 0 4190 798 2 MP stroke
0 87 4407 696 2 MP stroke
113 0 4350 696 2 MP stroke
113 0 4350 783 2 MP stroke
0 77 4567 689 2 MP stroke
113 0 4511 689 2 MP stroke
113 0 4511 766 2 MP stroke
0 80 4728 649 2 MP stroke
112 0 4672 649 2 MP stroke
112 0 4672 729 2 MP stroke
0 60 4889 639 2 MP stroke
113 0 4832 639 2 MP stroke
113 0 4832 699 2 MP stroke
0 79 5049 607 2 MP stroke
113 0 4993 607 2 MP stroke
113 0 4993 686 2 MP stroke
0 72 5210 613 2 MP stroke
112 0 5154 613 2 MP stroke
112 0 5154 685 2 MP stroke
0 71 5371 601 2 MP stroke
112 0 5315 601 2 MP stroke
112 0 5315 672 2 MP stroke
0 105 5531 558 2 MP stroke
113 0 5475 558 2 MP stroke
113 0 5475 663 2 MP stroke
0 40 5692 594 2 MP stroke
112 0 5636 594 2 MP stroke
112 0 5636 634 2 MP stroke
0 71 5853 578 2 MP stroke
112 0 5797 578 2 MP stroke
112 0 5797 649 2 MP stroke
0 86 6013 520 2 MP stroke
113 0 5957 520 2 MP stroke
113 0 5957 606 2 MP stroke
0 55 6174 525 2 MP stroke
112 0 6118 525 2 MP stroke
112 0 6118 580 2 MP stroke
gr

0 sg
gs 959 479 5371 2051 rc
  36   36 1032 2456 PO
  36   36 1193 1997 PO
  36   36 1354 1774 PO
  36   36 1514 1644 PO
  36   36 1675 1522 PO
  36   36 1836 1409 PO
  36   36 1996 1328 PO
  36   36 2157 1251 PO
  36   36 2318 1182 PO
  36   36 2479 1138 PO
  36   36 2639 1079 PO
  36   36 2800 1031 PO
  36   36 2961 1018 PO
  36   36 3121  971 PO
  36   36 3282  929 PO
  36   36 3443  894 PO
  36   36 3603  863 PO
  36   36 3764  839 PO
  36   36 3925  809 PO
  36   36 4085  774 PO
  36   36 4246  757 PO
  36   36 4407  739 PO
  36   36 4567  727 PO
  36   36 4728  689 PO
  36   36 4889  669 PO
  36   36 5049  647 PO
  36   36 5210  649 PO
  36   36 5371  637 PO
  36   36 5531  611 PO
  36   36 5692  614 PO
  36   36 5853  613 PO
  36   36 6013  563 PO
  36   36 6174  552 PO
  36   36 1032 2456 FO
  36   36 1193 1997 FO
  36   36 1354 1774 FO
  36   36 1514 1644 FO
  36   36 1675 1522 FO
  36   36 1836 1409 FO
  36   36 1996 1328 FO
  36   36 2157 1251 FO
  36   36 2318 1182 FO
  36   36 2479 1138 FO
  36   36 2639 1079 FO
  36   36 2800 1031 FO
  36   36 2961 1018 FO
  36   36 3121  971 FO
  36   36 3282  929 FO
  36   36 3443  894 FO
  36   36 3603  863 FO
  36   36 3764  839 FO
  36   36 3925  809 FO
  36   36 4085  774 FO
  36   36 4246  757 FO
  36   36 4407  739 FO
  36   36 4567  727 FO
  36   36 4728  689 FO
  36   36 4889  669 FO
  36   36 5049  647 FO
  36   36 5210  649 FO
  36   36 5371  637 FO
  36   36 5531  611 FO
  36   36 5692  614 FO
  36   36 5853  613 FO
  36   36 6013  563 FO
  36   36 6174  552 FO
gr

gs 899 324 5357 3522 rc
gr

3012 4133 mt 
(Geometric mean rate) s
 616 2378 mt  -90 rotate
(Correlation) s
90 rotate

end %%Color Dict

eplot
%%EndObject

epage
end

showpage

%%Trailer
%%EOF
